﻿<?xml version="1.0" encoding="utf-8"?>
<!DOCTYPE svg PUBLIC "-//W3C//DTD SVG 1.0//EN" "http://www.w3.org/TR/2001/REC-SVG-20010904/DTD/svg10.dtd"[
	<!ENTITY ns_flows "http://ns.adobe.com/Flows/1.0/">
	<!ENTITY ns_svg "http://www.w3.org/2000/svg">
	<!ENTITY ns_xlink "http://www.w3.org/1999/xlink">
	<!ENTITY st0 "font-size:7px;font-family:'MS-PGothic';adobe-font-script:japanese;">
	<!ENTITY st1 "font-size:6px;font-family:'ArialMT';">
	<!-- White fill  -->
	<!ENTITY st2 "fill:#FFFFFF;stroke:#000000; stroke-width:1.41;stroke-linecap:round;stroke-linejoin:round;">
	<!-- Yellow fill  -->
	<!ENTITY st3 "fill:#FFFFCC;stroke:#FFFFCC; stroke-width:0.1;stroke-linecap:round;stroke-linejoin:round;">
	<!-- Gray fill  -->
	<!ENTITY st4 "fill:#CCCCCC;stroke:#CCCCCC; stroke-width:0.1;stroke-linecap:round;stroke-linejoin:round;">
	<!-- Light-blue fill -->
	<!ENTITY st5 "fill:#CCECF4;stroke:#000000; stroke-width:1.133;stroke-linecap:round;stroke-linejoin:round;">
	<!ENTITY st6 "fill:none;stroke-linecap:butt; stroke-linejoin:round;">
	<!ENTITY st7 "fill:none;stroke:#000000;stroke-linecap:round;stroke-linejoin:round;">
	<!ENTITY st8 "enable-background:new    ;">
	<!-- Black fill -->
	<!ENTITY st9 "fill:#000000;stroke:#000000; stroke-linecap:round;stroke-linejoin:round;">
	<!-- SRS note   -->
	<!ENTITY st10 "font-size:9px;font-family:'ArialMT';">
	<!ENTITY st11 "font-size:9px;font-family:'Svg Symbol';">
	<!ENTITY st12 "font-size:6px;font-family:'Svg Symbol';">
	<!ENTITY st13 "fill:none;stroke:#ff0000;stroke-linecap:round;stroke-linejoin:round;">
	<!-- Yellow fill  -->
	<!ENTITY st14 "fill:#FFFF00;stroke:#FFFF00; stroke-width:0.1;stroke-linecap:round;stroke-linejoin:round;">
	<!ENTITY st15 "font-size:6px;font-family:'MS-PGothic';adobe-font-script:japanese;">
	<!ENTITY st16 "1.00 0.00 0.00 1.00">
	<!ENTITY st17 "0.00 -1.00 1.00 0.00">
	<!ENTITY st18 "font-size:6px;font-family:'Arial';">
	<!ENTITY st19 "font-size:9px;font-family:'Arial';">
	<!ENTITY st20 "font-size:6px;font-family:'MS-PGothic','MS PGothic';adobe-font-script:japanese;">
	<!ENTITY st21 "font-size:7px;font-family:'MS-PGothic','MS PGothic';adobe-font-script:japanese;">
	<!ATTLIST svg
		xmlns:ewd CDATA #FIXED "http://shcl.co.jp/ewd"
		xmlns:a CDATA #FIXED "http://ns.adobe.com/AdobeSVGViewerExtensions/3.0/"
		ewd:ver CDATA #IMPLIED
	>
	<!ATTLIST a
		ewd:lineID CDATA #IMPLIED
		ewd:groupID CDATA #IMPLIED
		ewd:figtype CDATA #IMPLIED
		ewd:code CDATA #IMPLIED
		ewd:figID CDATA #IMPLIED
		ewd:pinNo CDATA #IMPLIED
		ewd:comment CDATA #IMPLIED >
	<!ATTLIST g
		ewd:lineID CDATA #IMPLIED
		ewd:groupID CDATA #IMPLIED
		ewd:figtype CDATA #IMPLIED
		ewd:code CDATA #IMPLIED
		ewd:figID CDATA #IMPLIED
		ewd:pinNo CDATA #IMPLIED
		ewd:comment CDATA #IMPLIED >
	<!ATTLIST text
		ewd:textID CDATA #IMPLIED >
	<!ATTLIST title
		ewd:textID CDATA #IMPLIED >
]>
<!-- Generator: Shintec Hozumi YS   -->
<svg onload="call_execInitLoadProc_svg('system')" style="overflow:visible;  enable-background:new 0 0 1997.691 710.000" viewBox="0 0 1997.691 710.000" height="710.000" width="1997.691" xml:space="preserve" ewd:ver="L2.1.2.5" xmlns="&ns_svg;" xmlns:a="http://ns.adobe.com/AdobeSVGViewerExtensions/3.0/" xmlns:ewd="http://shcl.co.jp/ewd" xmlns:xlink="&ns_xlink;">
<path d=" M  767.00,  256.74  L  762.75,  256.74 " style="stroke-width: 1.42 ;&st7; " /><path d=" M  926.35,  324.73  L  926.35,  350.23 " style="stroke-width: 0.85 ;&st7; " /><path d=" M  926.35,  538.61  L  932.01,  515.95 " style="stroke-width: 1.42 ;&st7; " /><path d=" M  930.59,  341.73  L  922.10,  341.73 " style="stroke-width: 0.85 ;&st7; " /><path d=" M  926.35,  545.69  L  926.35,  541.44 " style="stroke-width: 0.85 ;&st7; " /><path d=" M  926.35,  515.95  L  926.35,  511.70 " style="stroke-width: 0.85 ;&st7; " /><path d=" M  767.00,  248.24  L  762.75,  248.24 " style="stroke-width: 1.42 ;&st7; " /><path d=" M  580.03,  248.24  L  575.78,  248.24 " style="stroke-width: 1.42 ;&st7; " /><path d=" M  639.52,  256.74  L  635.27,  256.74 " style="stroke-width: 1.42 ;&st7; " /><path d=" M  639.52,  248.24  L  635.27,  248.24 " style="stroke-width: 1.42 ;&st7; " /><path d=" M  580.03,  256.74  L  575.78,  256.74 " style="stroke-width: 1.42 ;&st7; " /><path d=" M  841.36,  515.95  L  841.36,  511.70 " style="stroke-width: 0.85 ;&st7; " /><path d=" M  841.36,  545.69  L  841.36,  541.44 " style="stroke-width: 0.85 ;&st7; " /><path d=" M  841.36,  538.61  L  847.03,  515.95 " style="stroke-width: 1.42 ;&st7; " /><path d=" M  843.48,  248.24  L  839.23,  248.24 " style="stroke-width: 1.42 ;&st7; " /><path d=" M  843.48,  256.74  L  839.23,  256.74 " style="stroke-width: 1.42 ;&st7; " /><path d=" M  928.47,  256.74  L  924.22,  256.74 " style="stroke-width: 1.42 ;&st7; " /><path d=" M  928.47,  248.24  L  924.22,  248.24 " style="stroke-width: 1.42 ;&st7; " /><path d=" M  577.90,  419.63  L  583.57,  396.97 " style="stroke-width: 1.42 ;&st7; " /><path d=" M  577.90,  426.71  L  577.90,  422.46 " style="stroke-width: 0.85 ;&st7; " /><path d=" M  577.90,  396.97  L  577.90,  392.72 " style="stroke-width: 0.85 ;&st7; " /><path d=" M  637.39,  419.63  L  643.06,  396.97 " style="stroke-width: 1.42 ;&st7; " /><path d=" M  637.39,  426.71  L  637.39,  422.46 " style="stroke-width: 0.85 ;&st7; " /><path d=" M  637.39,  396.97  L  637.39,  392.72 " style="stroke-width: 0.85 ;&st7; " /><path d=" M  764.87,  538.61  L  770.54,  515.95 " style="stroke-width: 1.42 ;&st7; " /><path d=" M  764.87,  545.69  L  764.87,  541.44 " style="stroke-width: 0.85 ;&st7; " /><path d=" M  764.87,  515.95  L  764.87,  511.70 " style="stroke-width: 0.85 ;&st7; " /><path d=" M  849.86,  460.71  L  841.36,  460.71 " style="stroke-width: 1.42 ;&st7; " /><path d=" M  841.36,  324.73  L  841.36,  350.23 " style="stroke-width: 0.85 ;&st7; " /><path d=" M  845.61,  341.73  L  837.11,  341.73 " style="stroke-width: 0.85 ;&st7; " /><path d=" M  709.63,  341.73  L  701.13,  341.73 " style="stroke-width: 0.85 ;&st7; " /><path d=" M  705.38,  324.73  L  705.38,  350.23 " style="stroke-width: 0.85 ;&st7; " /><path d=" M  849.86,  409.72  L  841.36,  409.72 " style="stroke-width: 1.42 ;&st7; " /><path d=" M  773.37,  350.23  L  764.87,  350.23 " style="stroke-width: 1.42 ;&st7; " /><path d=" M  756.37,  392.72  L  764.87,  392.72 " style="stroke-width: 1.42 ;&st7; " /><path d=" M  773.37,  469.21  L  764.87,  469.21 " style="stroke-width: 1.42 ;&st7; " /><path d=" M  934.84,  409.72  L  926.35,  409.72 " style="stroke-width: 1.42 ;&st7; " /><path d=" M  769.12,  359.29  L  764.87,  355.04  L  760.62,  359.29 " style="stroke-width: 1.42 ;&st7; " /><path d=" M  769.12,  355.89  L  764.87,  351.64  L  760.62,  355.89 " style="stroke-width: 1.42 ;&st7; " /><path d=" M  926.34,  341.73  L  920.68,  333.23  L  932.01,  333.23  L  926.34,  341.73 " style="stroke-width: 0.28 ;&st9;" /><path d=" M  917.85,  350.23  L  934.84,  350.23  L  934.84,  324.73  L  917.85,  324.73  L  917.85,  350.23 " style="stroke-width: 1.42 ;&st7; " /><path d=" M  764.87,  243.35  L  762.04,  240.52  L  762.04,  244.77  L  764.87,  247.60  L  767.70,  244.77  L  767.70,  240.52  L  764.87,  243.35 " style="stroke-width: 0.28 ;&st9;" /><path d=" M  763.68,  230.24  L  763.41,  230.71  L  763.31,  231.25  L  763.41,  231.78  L  763.68,  232.25  L  764.09,  232.60  L  764.60,  232.78  L  765.14,  232.78  L  765.65,  232.60  L  766.06,  232.25  L  766.34,  231.78  L  766.43,  231.25  L  766.34,  230.71  L  766.06,  230.24  L  765.65,  229.90  L  765.14,  229.71  L  764.60,  229.71  L  764.09,  229.90  L  763.68,  230.24  L  764.07,  230.96  L  764.07,  231.54  L  764.45,  231.98  L  765.02,  232.08  L  765.52,  231.79  L  765.72,  231.25  L  765.52,  230.70  L  765.02,  230.41  L  764.45,  230.51  L  764.87,  231.25 " style="stroke-width: 0.85 ;&st7; " /><path d=" M  637.39,  214.25  L  637.39,  248.24 " style="stroke-width: 0.85 ;&st7; " /><path d=" M  577.90,  214.25  L  577.90,  248.24 " style="stroke-width: 0.85 ;&st7; " /><path d=" M  637.39,  243.35  L  634.56,  240.52  L  634.56,  244.77  L  637.39,  247.60  L  640.23,  244.77  L  640.23,  240.52  L  637.39,  243.35 " style="stroke-width: 0.28 ;&st9;" /><path d=" M  934.84,  545.69  L  934.84,  511.70  L  917.85,  511.70  L  917.85,  545.69  L  934.84,  545.69 " style="stroke-width: 1.42 ;&st7; " /><path d=" M  926.34,  545.69  L  926.34,  554.19 " style="stroke-width: 0.85 ;&st7; " /><path d=" M  635.98,  443.71  L  638.81,  443.71 " style="stroke-width: 0.85 ;&st7; " /><path d=" M  634.56,  440.88  L  640.23,  440.88 " style="stroke-width: 0.85 ;&st7; " /><path d=" M  633.14,  438.05  L  641.64,  438.05 " style="stroke-width: 0.85 ;&st7; " /><path d=" M  628.89,  435.21  L  645.89,  435.21 " style="stroke-width: 0.85 ;&st7; " /><path d=" M  637.39,  426.71  L  637.39,  435.21 " style="stroke-width: 0.85 ;&st7; " /><path d=" M  577.90,  243.35  L  575.07,  240.52  L  575.07,  244.77  L  577.90,  247.60  L  580.74,  244.77  L  580.74,  240.52  L  577.90,  243.35 " style="stroke-width: 0.28 ;&st9;" /><path d=" M  849.86,  545.69  L  849.86,  511.70  L  832.86,  511.70  L  832.86,  545.69  L  849.86,  545.69 " style="stroke-width: 1.42 ;&st7; " /><path d=" M  840.17,  230.24  L  839.89,  230.71  L  839.80,  231.25  L  839.89,  231.78  L  840.17,  232.25  L  840.58,  232.60  L  841.09,  232.78  L  841.63,  232.78  L  842.14,  232.60  L  842.55,  232.25  L  842.82,  231.78  L  842.92,  231.25  L  842.82,  230.71  L  842.55,  230.24  L  842.14,  229.90  L  841.63,  229.71  L  841.09,  229.71  L  840.58,  229.90  L  840.17,  230.24  L  840.56,  230.96  L  840.56,  231.54  L  840.93,  231.98  L  841.51,  232.08  L  842.01,  231.79  L  842.21,  231.25  L  842.01,  230.70  L  841.51,  230.41  L  840.93,  230.51  L  841.36,  231.25 " style="stroke-width: 0.85 ;&st7; " /><path d=" M  763.68,  230.24  L  763.41,  230.71  L  763.31,  231.25  L  763.41,  231.78  L  763.68,  232.25  L  764.09,  232.60  L  764.60,  232.78  L  765.14,  232.78  L  765.65,  232.60  L  766.06,  232.25  L  766.34,  231.78  L  766.43,  231.25  L  766.34,  230.71  L  766.06,  230.24  L  765.65,  229.90  L  765.14,  229.71  L  764.60,  229.71  L  764.09,  229.90  L  763.68,  230.24  L  764.07,  230.96  L  764.07,  231.54  L  764.45,  231.98  L  765.02,  232.08  L  765.52,  231.79  L  765.72,  231.25  L  765.52,  230.70  L  765.02,  230.41  L  764.45,  230.51  L  764.87,  231.25 " style="stroke-width: 0.85 ;&st7; " /><path d=" M  841.36,  243.35  L  838.53,  240.52  L  838.53,  244.77  L  841.36,  247.60  L  844.19,  244.77  L  844.19,  240.52  L  841.36,  243.35 " style="stroke-width: 0.28 ;&st9;" /><path d=" M  926.34,  243.35  L  923.51,  240.52  L  923.51,  244.77  L  926.34,  247.60  L  929.18,  244.77  L  929.18,  240.52  L  926.34,  243.35 " style="stroke-width: 0.28 ;&st9;" /><path d=" M  841.36,  231.25  L  841.36,  248.24 " style="stroke-width: 0.85 ;&st7; " /><path d=" M  764.87,  231.25  L  926.34,  231.25  L  926.34,  248.24 " style="stroke-width: 0.85 ;&st7; " /><path d=" M  645.89,  426.71  L  645.89,  392.72  L  628.89,  392.72  L  628.89,  426.71  L  645.89,  426.71 " style="stroke-width: 1.42 ;&st7; " /><path d=" M  586.40,  426.71  L  586.40,  392.72  L  569.40,  392.72  L  569.40,  426.71  L  586.40,  426.71 " style="stroke-width: 1.42 ;&st7; " /><path d=" M  577.90,  426.71  L  577.90,  435.21 " style="stroke-width: 0.85 ;&st7; " /><path d=" M  569.40,  435.21  L  586.40,  435.21 " style="stroke-width: 0.85 ;&st7; " /><path d=" M  573.65,  438.05  L  582.15,  438.05 " style="stroke-width: 0.85 ;&st7; " /><path d=" M  575.07,  440.88  L  580.74,  440.88 " style="stroke-width: 0.85 ;&st7; " /><path d=" M  576.49,  443.71  L  579.32,  443.71 " style="stroke-width: 0.85 ;&st7; " /><path d=" M  773.37,  545.69  L  773.37,  511.70  L  756.37,  511.70  L  756.37,  545.69  L  773.37,  545.69 " style="stroke-width: 1.42 ;&st7; " /><path d=" M  845.61,  469.77  L  841.36,  465.52  L  837.11,  469.77 " style="stroke-width: 1.42 ;&st7; " /><path d=" M  845.61,  466.37  L  841.36,  462.12  L  837.11,  466.37 " style="stroke-width: 1.42 ;&st7; " /><path d=" M  841.36,  341.73  L  835.69,  333.23  L  847.02,  333.23  L  841.36,  341.73 " style="stroke-width: 0.28 ;&st9;" /><path d=" M  832.86,  350.23  L  849.86,  350.23  L  849.86,  324.73  L  832.86,  324.73  L  832.86,  350.23 " style="stroke-width: 1.42 ;&st7; " /><path d=" M  764.87,  697.25  L  764.87,  701.50 " style="stroke-width: 0.85 ;&st7; " /><path d=" M  756.37,  701.50  L  773.37,  701.50 " style="stroke-width: 0.85 ;&st7; " /><path d=" M  760.62,  704.33  L  769.12,  704.33 " style="stroke-width: 0.85 ;&st7; " /><path d=" M  762.04,  707.17  L  767.70,  707.17 " style="stroke-width: 0.85 ;&st7; " /><path d=" M  763.46,  710.00  L  766.29,  710.00 " style="stroke-width: 0.85 ;&st7; " /><path d=" M  764.87,  214.25  L  764.87,  248.24 " style="stroke-width: 0.85 ;&st7; " /><path d=" M  764.87,  588.19  L  764.87,  605.18 " style="stroke-width: 0.85 ;&st7; " /><path d=" M  756.37,  588.19  L  773.37,  588.19  L  773.37,  605.18  L  756.37,  605.18  L  756.37,  588.19 " style="stroke-width: 1.42 ;&st7; " /><path d=" M  839.94,  562.69  L  842.78,  562.69 " style="stroke-width: 0.85 ;&st7; " /><path d=" M  838.53,  559.86  L  844.19,  559.86 " style="stroke-width: 0.85 ;&st7; " /><path d=" M  837.11,  557.03  L  845.61,  557.03 " style="stroke-width: 0.85 ;&st7; " /><path d=" M  832.86,  554.19  L  849.86,  554.19 " style="stroke-width: 0.85 ;&st7; " /><path d=" M  841.36,  545.69  L  841.36,  554.19 " style="stroke-width: 0.85 ;&st7; " /><path d=" M  924.93,  562.69  L  927.76,  562.69 " style="stroke-width: 0.85 ;&st7; " /><path d=" M  923.51,  559.86  L  929.18,  559.86 " style="stroke-width: 0.85 ;&st7; " /><path d=" M  922.10,  557.03  L  930.59,  557.03 " style="stroke-width: 0.85 ;&st7; " /><path d=" M  917.85,  554.19  L  934.84,  554.19 " style="stroke-width: 0.85 ;&st7; " /><path d=" M  696.88,  350.23  L  713.88,  350.23  L  713.88,  324.73  L  696.88,  324.73  L  696.88,  350.23 " style="stroke-width: 1.42 ;&st7; " /><path d=" M  705.38,  341.73  L  699.72,  333.23  L  711.05,  333.23  L  705.38,  341.73 " style="stroke-width: 0.28 ;&st9;" /><path d=" M  845.61,  415.38  L  841.36,  411.13  L  837.11,  415.38 " style="stroke-width: 1.42 ;&st7; " /><path d=" M  845.61,  418.78  L  841.36,  414.53  L  837.11,  418.78 " style="stroke-width: 1.42 ;&st7; " /><path d=" M  769.12,  387.05  L  764.87,  391.30  L  760.62,  387.05 " style="stroke-width: 1.42 ;&st7; " /><path d=" M  760.62,  383.65  L  764.87,  387.90  L  769.12,  383.65 " style="stroke-width: 1.42 ;&st7; " /><path d=" M  769.12,  474.87  L  764.87,  470.62  L  760.62,  474.87 " style="stroke-width: 1.42 ;&st7; " /><path d=" M  769.12,  478.27  L  764.87,  474.02  L  760.62,  478.27 " style="stroke-width: 1.42 ;&st7; " /><path d=" M  930.59,  415.38  L  926.34,  411.13  L  922.10,  415.38 " style="stroke-width: 1.42 ;&st7; " /><path d=" M  930.59,  418.78  L  926.34,  414.53  L  922.10,  418.78 " style="stroke-width: 1.42 ;&st7; " /><path d=" M  571.53,  252.49  C  571.53   254.84   573.43   256.74   575.78   256.74 " style="stroke-width: 1.42 ;&st7; " /><path d=" M  575.78,  248.24  C  573.43   248.24   571.53   250.15   571.53   252.49 " style="stroke-width: 1.42 ;&st7; " /><path d=" M  639.52,  256.74  C  641.86   256.74   643.77   254.84   643.77   252.49 " style="stroke-width: 1.42 ;&st7; " /><path d=" M  842.78,  517.37  C  842.78   516.58   842.14   515.95   841.36   515.95 " style="stroke-width: 0.85 ;&st7; " /><path d=" M  841.36,  515.95  C  840.58   515.95   839.94   516.58   839.94   517.37 " style="stroke-width: 0.85 ;&st7; " /><path d=" M  839.94,  517.37  C  839.94   518.15   840.58   518.78   841.36   518.78 " style="stroke-width: 0.85 ;&st7; " /><path d=" M  841.36,  518.78  C  842.14   518.78   842.78   518.15   842.78   517.37 " style="stroke-width: 0.85 ;&st7; " /><path d=" M  842.78,  540.03  C  842.78   539.25   842.14   538.61   841.36   538.61 " style="stroke-width: 0.85 ;&st7; " /><path d=" M  841.36,  538.61  C  840.58   538.61   839.94   539.25   839.94   540.03 " style="stroke-width: 0.85 ;&st7; " /><path d=" M  839.94,  540.03  C  839.94   540.81   840.58   541.44   841.36   541.44 " style="stroke-width: 0.85 ;&st7; " /><path d=" M  841.36,  541.44  C  842.14   541.44   842.78   540.81   842.78   540.03 " style="stroke-width: 0.85 ;&st7; " /><path d=" M  834.99,  252.49  C  834.99   254.84   836.89   256.74   839.23   256.74 " style="stroke-width: 1.42 ;&st7; " /><path d=" M  843.48,  256.74  C  845.83   256.74   847.73   254.84   847.73   252.49 " style="stroke-width: 1.42 ;&st7; " /><path d=" M  847.73,  252.49  C  847.73   250.15   845.83   248.24   843.48   248.24 " style="stroke-width: 1.42 ;&st7; " /><path d=" M  839.23,  248.24  C  836.89   248.24   834.99   250.15   834.99   252.49 " style="stroke-width: 1.42 ;&st7; " /><path d=" M  924.22,  248.24  C  921.87   248.24   919.97   250.15   919.97   252.49 " style="stroke-width: 1.42 ;&st7; " /><path d=" M  928.47,  256.74  C  930.82   256.74   932.72   254.84   932.72   252.49 " style="stroke-width: 1.42 ;&st7; " /><path d=" M  932.72,  252.49  C  932.72   250.15   930.82   248.24   928.47   248.24 " style="stroke-width: 1.42 ;&st7; " /><path d=" M  919.97,  252.49  C  919.97   254.84   921.87   256.74   924.22   256.74 " style="stroke-width: 1.42 ;&st7; " /><path d=" M  579.32,  421.05  C  579.32   420.27   578.69   419.63   577.90   419.63 " style="stroke-width: 0.85 ;&st7; " /><path d=" M  577.90,  419.63  C  577.12   419.63   576.49   420.27   576.49   421.05 " style="stroke-width: 0.85 ;&st7; " /><path d=" M  576.49,  421.05  C  576.49   421.83   577.12   422.46   577.90   422.46 " style="stroke-width: 0.85 ;&st7; " /><path d=" M  577.90,  422.46  C  578.69   422.46   579.32   421.83   579.32   421.05 " style="stroke-width: 0.85 ;&st7; " /><path d=" M  579.32,  398.39  C  579.32   397.60   578.69   396.97   577.90   396.97 " style="stroke-width: 0.85 ;&st7; " /><path d=" M  577.90,  396.97  C  577.12   396.97   576.49   397.60   576.49   398.39 " style="stroke-width: 0.85 ;&st7; " /><path d=" M  576.49,  398.39  C  576.49   399.17   577.12   399.80   577.90   399.80 " style="stroke-width: 0.85 ;&st7; " /><path d=" M  577.90,  399.80  C  578.69   399.80   579.32   399.17   579.32   398.39 " style="stroke-width: 0.85 ;&st7; " /><path d=" M  638.81,  421.05  C  638.81   420.27   638.18   419.63   637.39   419.63 " style="stroke-width: 0.85 ;&st7; " /><path d=" M  637.39,  419.63  C  636.61   419.63   635.98   420.27   635.98   421.05 " style="stroke-width: 0.85 ;&st7; " /><path d=" M  635.98,  421.05  C  635.98   421.83   636.61   422.46   637.39   422.46 " style="stroke-width: 0.85 ;&st7; " /><path d=" M  637.39,  422.46  C  638.18   422.46   638.81   421.83   638.81   421.05 " style="stroke-width: 0.85 ;&st7; " /><path d=" M  638.81,  398.39  C  638.81   397.60   638.18   396.97   637.39   396.97 " style="stroke-width: 0.85 ;&st7; " /><path d=" M  637.39,  396.97  C  636.61   396.97   635.98   397.60   635.98   398.39 " style="stroke-width: 0.85 ;&st7; " /><path d=" M  635.98,  398.39  C  635.98   399.17   636.61   399.80   637.39   399.80 " style="stroke-width: 0.85 ;&st7; " /><path d=" M  637.39,  399.80  C  638.18   399.80   638.81   399.17   638.81   398.39 " style="stroke-width: 0.85 ;&st7; " /><path d=" M  766.29,  540.03  C  766.29   539.25   765.65   538.61   764.87   538.61 " style="stroke-width: 0.85 ;&st7; " /><path d=" M  764.87,  538.61  C  764.09   538.61   763.46   539.25   763.46   540.03 " style="stroke-width: 0.85 ;&st7; " /><path d=" M  763.46,  540.03  C  763.46   540.81   764.09   541.44   764.87   541.44 " style="stroke-width: 0.85 ;&st7; " /><path d=" M  764.87,  541.44  C  765.65   541.44   766.29   540.81   766.29   540.03 " style="stroke-width: 0.85 ;&st7; " /><path d=" M  766.29,  517.37  C  766.29   516.58   765.65   515.95   764.87   515.95 " style="stroke-width: 0.85 ;&st7; " /><path d=" M  764.87,  515.95  C  764.09   515.95   763.46   516.58   763.46   517.37 " style="stroke-width: 0.85 ;&st7; " /><path d=" M  763.46,  517.37  C  763.46   518.15   764.09   518.78   764.87   518.78 " style="stroke-width: 0.85 ;&st7; " /><path d=" M  764.87,  518.78  C  765.65   518.78   766.29   518.15   766.29   517.37 " style="stroke-width: 0.85 ;&st7; " /><path d=" M  503.54,  350.23  C  505.89   350.23   507.79   348.32   507.79   345.98 " style="stroke-width: 1.42 ;&st7; " /><path d=" M  507.79,  345.98  C  507.79   343.63   505.89   341.73   503.54   341.73 " style="stroke-width: 1.42 ;&st7; " /><path d=" M  641.93,  388.19  C  641.93   385.68   639.90   383.65   637.39   383.65 " style="stroke-width: 1.42 ;&st7; " /><path d=" M  637.39,  383.65  C  634.89   383.65   632.86   385.68   632.86   388.19 " style="stroke-width: 1.42 ;&st7; " /><path d=" M  632.86,  388.19  C  632.86   390.69   634.89   392.72   637.39   392.72 " style="stroke-width: 1.42 ;&st7; " /><path d=" M  637.39,  392.72  C  639.90   392.72   641.93   390.69   641.93   388.19 " style="stroke-width: 1.42 ;&st7; " /><path d=" M  641.93,  379.12  C  641.93   376.62   639.90   374.59   637.39   374.59 " style="stroke-width: 1.42 ;&st7; " /><path d=" M  637.39,  374.59  C  634.89   374.59   632.86   376.62   632.86   379.12 " style="stroke-width: 1.42 ;&st7; " /><path d=" M  632.86,  379.12  C  632.86   381.63   634.89   383.65   637.39   383.65 " style="stroke-width: 1.42 ;&st7; " /><path d=" M  637.39,  383.65  C  639.90   383.65   641.93   381.63   641.93   379.12 " style="stroke-width: 1.42 ;&st7; " /><path d=" M  582.44,  388.19  C  582.44   385.68   580.41   383.65   577.90   383.65 " style="stroke-width: 1.42 ;&st7; " /><path d=" M  577.90,  383.65  C  575.40   383.65   573.37   385.68   573.37   388.19 " style="stroke-width: 1.42 ;&st7; " /><path d=" M  573.37,  388.19  C  573.37   390.69   575.40   392.72   577.90   392.72 " style="stroke-width: 1.42 ;&st7; " /><path d=" M  577.90,  392.72  C  580.41   392.72   582.44   390.69   582.44   388.19 " style="stroke-width: 1.42 ;&st7; " /><path d=" M  582.44,  379.12  C  582.44   376.62   580.41   374.59   577.90   374.59 " style="stroke-width: 1.42 ;&st7; " /><path d=" M  577.90,  374.59  C  575.40   374.59   573.37   376.62   573.37   379.12 " style="stroke-width: 1.42 ;&st7; " /><path d=" M  573.37,  379.12  C  573.37   381.63   575.40   383.65   577.90   383.65 " style="stroke-width: 1.42 ;&st7; " /><path d=" M  577.90,  383.65  C  580.41   383.65   582.44   381.63   582.44   379.12 " style="stroke-width: 1.42 ;&st7; " /><path d=" M  927.76,  540.03  C  927.76   539.25   927.13   538.61   926.35   538.61 " style="stroke-width: 0.85 ;&st7; " /><path d=" M  926.35,  538.61  C  925.56   538.61   924.93   539.25   924.93   540.03 " style="stroke-width: 0.85 ;&st7; " /><path d=" M  924.93,  540.03  C  924.93   540.81   925.56   541.44   926.35   541.44 " style="stroke-width: 0.85 ;&st7; " /><path d=" M  926.35,  541.44  C  927.13   541.44   927.76   540.81   927.76   540.03 " style="stroke-width: 0.85 ;&st7; " /><path d=" M  927.76,  517.37  C  927.76   516.58   927.13   515.95   926.35   515.95 " style="stroke-width: 0.85 ;&st7; " /><path d=" M  926.35,  515.95  C  925.56   515.95   924.93   516.58   924.93   517.37 " style="stroke-width: 0.85 ;&st7; " /><path d=" M  924.93,  517.37  C  924.93   518.15   925.56   518.78   926.35   518.78 " style="stroke-width: 0.85 ;&st7; " /><path d=" M  926.35,  518.78  C  927.13   518.78   927.76   518.15   927.76   517.37 " style="stroke-width: 0.85 ;&st7; " /><path d=" M  762.75,  248.24  C  760.40   248.24   758.50   250.15   758.50   252.49 " style="stroke-width: 1.42 ;&st7; " /><path d=" M  767.00,  256.74  C  769.34   256.74   771.25   254.84   771.25   252.49 " style="stroke-width: 1.42 ;&st7; " /><path d=" M  758.50,  252.49  C  758.50   254.84   760.40   256.74   762.75   256.74 " style="stroke-width: 1.42 ;&st7; " /><path d=" M  771.25,  252.49  C  771.25   250.15   769.34   248.24   767.00   248.24 " style="stroke-width: 1.42 ;&st7; " /><path d=" M  643.77,  252.49  C  643.77   250.15   641.86   248.24   639.52   248.24 " style="stroke-width: 1.42 ;&st7; " /><path d=" M  631.02,  252.49  C  631.02   254.84   632.92   256.74   635.27   256.74 " style="stroke-width: 1.42 ;&st7; " /><path d=" M  635.27,  248.24  C  632.92   248.24   631.02   250.15   631.02   252.49 " style="stroke-width: 1.42 ;&st7; " /><path d=" M  584.28,  252.49  C  584.28   250.15   582.37   248.24   580.03   248.24 " style="stroke-width: 1.42 ;&st7; " /><path d=" M  580.03,  256.74  C  582.37   256.74   584.28   254.84   584.28   252.49 " style="stroke-width: 1.42 ;&st7; " /><text ewd:textID="3" style="&st18;" transform="matrix(&st16;  600.87  54.75 )">* 3 :w/ Wireless Door Lock Control</text><text ewd:textID="1" style="&st18;" transform="matrix(&st16;  600.87  37.75 )">* 1 :w/ Power Window</text><text ewd:textID="2" style="&st18;" transform="matrix(&st16;  600.87  46.25 )">* 2 :w/o Power Window</text><text style="&st18;" transform="matrix(&st17;  761.18  374.23 )">G</text><text style="&st18;" transform="matrix(&st17;  761.18  431.45 )">LG</text><text style="&st18;" transform="matrix(&st17;  942.45  548.22 )">Y3</text><text style="&st18;" transform="matrix(&st16;  758.86  613.38 )">1</text><text style="&st18;" transform="matrix(&st16;  758.08  584.5 )">3</text><text style="&st18;" transform="matrix(&st17;  761.18  495.19 )">LG</text><text style="&st18;" transform="matrix(&st16;  758.86  508.01 )">1</text><text style="&st18;" transform="matrix(&st17;  857.47  352.75 )">T9</text><text style="&st18;" transform="matrix(&st17;  942.45  352.75 )">T6</text><text style="&st18;" transform="matrix(&st16;  834.57  358.42 )">2</text><text style="&st18;" transform="matrix(&st16;  919.56  358.42 )">2</text><text ewd:textID="19" style="&st18;" transform="matrix(&st17;  949.56  352.75 )">Diode <tspan dy="6" x="0">(Door Courtesy </tspan><tspan dy="6" x="0">No.4)</tspan></text><text ewd:textID="20" style="&st18;" transform="matrix(&st17;  864.58  352.75 )">Diode <tspan dy="6" x="0">(Door Courtesy </tspan><tspan dy="6" x="0">No.5)</tspan></text><text ewd:textID="25" style="&st18;" transform="matrix(&st17;  864.58  548.22 )">Door Courtesy SW <tspan dy="6" x="0">(Slide Door RH)</tspan></text><text ewd:textID="24" style="&st18;" transform="matrix(&st17;  949.56  548.22 )">Door Courtesy SW <tspan dy="6" x="0">(Slide Door LH)</tspan></text><text ewd:textID="17" style="&st18;" transform="matrix(&st17;  788.09  548.22 )">Back Door <tspan dy="6" x="0">Courtesy SW</tspan></text><text ewd:textID="32" style="&st18;" transform="matrix(&st17;  746.73  607.71 )">Junction <tspan dy="6" x="0">Connector</tspan></text><text style="&st18;" transform="matrix(&st17;  739.62  607.71 )">a1</text><text style="&st18;" transform="matrix(&st16;  753.85  160.95 )">H7(A)</text><text ewd:textID="31" style="&st18;" transform="matrix(&st16;  753.85  168.06 )">Integration Relay</text><text ewd:textID="4" style="&st18;" transform="matrix(&st16;  600.87  63.24 )">* 4 :6 Speaker</text><text ewd:textID="5" style="&st18;" transform="matrix(&st16;  600.87  71.74 )">* 5 :Except *4</text><text style="&st18;" transform="matrix(&st17;  674.18  352.75 )">T17</text><text style="&st18;" transform="matrix(&st16;  724.7  289.87 )">(*4)</text><text style="&st18;" transform="matrix(&st17;  738.51  339.41 )">(*4)</text><text style="&st18;" transform="matrix(&st17;  727.18  335.98 )">G</text><text style="&st18;" transform="matrix(&st16;  727.52  278.54 )">W</text><text style="&st18;" transform="matrix(&st16;  699.37  321.04 )">1</text><text style="&st18;" transform="matrix(&st16;  698.59  358.42 )">2</text><text ewd:textID="21" style="&st18;" transform="matrix(&st17;  681.29  352.75 )">Diode <tspan dy="6" x="0">(Door Courtesy </tspan><tspan dy="6" x="0">No.6)</tspan></text><text style="&st18;" transform="matrix(&st17;  772.51  296.92 )">(*5)</text><text style="&st18;" transform="matrix(&st16;  536.21  660.98 )">W-B</text><text style="&st18;" transform="matrix(&st16;  851.27  407.44 )">(*9)</text><text style="&st18;" transform="matrix(&st16;  851.27  398.94 )">(*8)</text><text style="&st18;" transform="matrix(&st16;  826.55  398.94 )">4</text><text style="&st18;" transform="matrix(&st16;  826.55  407.44 )">4</text><text style="&st18;" transform="matrix(&st16;  774.78  347.95 )">(*9)</text><text style="&st18;" transform="matrix(&st16;  774.78  339.45 )">(*8)</text><text style="&st18;" transform="matrix(&st16;  747.66  339.45 )">11</text><text style="&st18;" transform="matrix(&st16;  747.66  347.95 )">11</text><text ewd:textID="8" style="&st18;" transform="matrix(&st16;  600.87  80.24 )">* 8 :Standard Body Standard Roof</text><text ewd:textID="9" style="&st18;" transform="matrix(&st16;  600.87  88.74 )">* 9 :Except *8</text><text style="&st18;" transform="matrix(&st16;  600.87  114.24 )">*12 :A/T *19, A/T *17</text><text ewd:textID="10" style="&st18;" transform="matrix(&st16;  600.87  97.24 )">*10 :Before Aug. 2010 Production</text><text style="&st18;" transform="matrix(&st16;  796.34  37.75 )">*14 :A/T *16</text><text style="&st18;" transform="matrix(&st16;  600.87  122.73 )">*13 :M/T *19, M/T *17</text><text style="&st18;" transform="matrix(&st16;  796.34  54.75 )">*16 :*20 *10</text><text style="&st18;" transform="matrix(&st16;  796.34  46.25 )">*15 :M/T *16</text><text style="&st18;" transform="matrix(&st16;  796.34  71.74 )">*18 :*19, *17</text><text style="&st18;" transform="matrix(&st16;  796.34  63.24 )">*17 :*20 *11</text><text ewd:textID="12" style="&st18;" transform="matrix(&st16;  796.34  80.24 )">*19 :w/ Engine Immobiliser System</text><text ewd:textID="11" style="&st18;" transform="matrix(&st16;  600.87  105.74 )">*11 :From Aug. 2010 Production</text><text ewd:textID="13" style="&st18;" transform="matrix(&st16;  796.34  88.74 )">*20 :w/o Engine Immobiliser System</text><text ewd:textID="23" style="&st18;" transform="matrix(&st17;  619.25  429.24 )">Door Courtesy SW <tspan dy="6" x="0">(Front RH)</tspan></text><text style="&st18;" transform="matrix(&st17;  612.14  429.24 )">B26(A),B57(B)</text><text ewd:textID="22" style="&st18;" transform="matrix(&st17;  559.76  429.24 )">Door Courtesy SW <tspan dy="6" x="0">(Front LH)</tspan></text><text style="&st18;" transform="matrix(&st17;  552.65  429.24 )">B22(A),B56(B)</text><text style="&st18;" transform="matrix(&st16;  643.37  390.16 )">(*11)</text><text style="&st18;" transform="matrix(&st16;  635.06  390.16 )">B</text><text style="&st18;" transform="matrix(&st16;  627.29  390.16 )">1</text><text style="&st18;" transform="matrix(&st16;  643.37  381.09 )">(*10)</text><text style="&st18;" transform="matrix(&st16;  635.06  381.09 )">A</text><text style="&st18;" transform="matrix(&st16;  627.29  381.09 )">1</text><text style="&st18;" transform="matrix(&st16;  583.88  390.16 )">(*11)</text><text style="&st18;" transform="matrix(&st16;  575.57  390.16 )">B</text><text style="&st18;" transform="matrix(&st16;  567.8  390.16 )">1</text><text style="&st18;" transform="matrix(&st16;  583.88  381.09 )">(*10)</text><text style="&st18;" transform="matrix(&st16;  575.57  381.09 )">A</text><text style="&st18;" transform="matrix(&st16;  567.8  381.09 )">1</text><text style="&st18;" transform="matrix(&st16;  774.78  407.44 )">(*23)</text><text style="&st18;" transform="matrix(&st16;  774.78  398.94 )">(*22)</text><text style="&st18;" transform="matrix(&st16;  750.06  407.44 )">2</text><text style="&st18;" transform="matrix(&st16;  750.06  398.94 )">2</text><text style="&st18;" transform="matrix(&st16;  774.78  466.93 )">(*23)</text><text style="&st18;" transform="matrix(&st16;  774.78  458.43 )">(*21)</text><text style="&st18;" transform="matrix(&st16;  750.06  458.43 )">2</text><text style="&st18;" transform="matrix(&st16;  750.06  466.93 )">2</text><text style="&st18;" transform="matrix(&st16;  774.78  449.93 )">(*10)</text><text style="&st18;" transform="matrix(&st16;  750.06  449.93 )">2</text><text style="&st18;" transform="matrix(&st16;  936.26  407.44 )">(*23)</text><text style="&st18;" transform="matrix(&st16;  936.26  398.94 )">(*22)</text><text style="&st18;" transform="matrix(&st16;  911.53  398.94 )">4</text><text style="&st18;" transform="matrix(&st16;  911.53  407.44 )">6</text><text ewd:textID="14" style="&st18;" transform="matrix(&st16;  796.34  97.24 )">*21 :From Aug. 2010 Production <tspan dy="8.5" x="14.17">until Apr. 2012 Production</tspan></text><text ewd:textID="15" style="&st18;" transform="matrix(&st16;  796.34  114.24 )">*22 :Before Apr. 2012 Production</text><text ewd:textID="16" style="&st18;" transform="matrix(&st16;  796.34  122.73 )">*23 :From Apr. 2012 Production</text><text style="&st18;" transform="matrix(&st17;  922.65  302.59 )">W</text><text style="&st18;" transform="matrix(&st16;  835.35  321.04 )">1</text><text style="&st18;" transform="matrix(&st17;  922.65  378.19 )">R</text><text style="&st18;" transform="matrix(&st16;  760.56  254.46 )">5A</text><text style="&st18;" transform="matrix(&st16;  752.18  254.46 )">9</text><text style="&st18;" transform="matrix(&st17;  837.66  488.53 )">B</text><text style="&st18;" transform="matrix(&st17;  837.66  437.54 )">B</text><text style="&st18;" transform="matrix(&st17;  922.65  454.68 )">R</text><text style="&st18;" transform="matrix(&st16;  755.48  210.55 )">RCTY</text><text style="&st18;" transform="matrix(&st16;  628.14  210.55 )">PCTY</text><text style="&st18;" transform="matrix(&st16;  568.51  210.55 )">DCTY</text><text style="&st18;" transform="matrix(&st16;  633.08  254.46 )">5E</text><text style="&st18;" transform="matrix(&st16;  621.52  254.46 )">10</text><text style="&st18;" transform="matrix(&st17;  837.66  378.05 )">B</text><text style="&st18;" transform="matrix(&st17;  761.18  655.38 )">W-B</text><text style="&st18;" transform="matrix(&st16;  561.26  254.46 )">27</text><text style="&st18;" transform="matrix(&st16;  573.59  254.46 )">5E</text><text style="&st18;" transform="matrix(&st16;  920.33  321.04 )">1</text><text style="&st18;" transform="matrix(&st17;  857.47  548.22 )">X2</text><text style="&st18;" transform="matrix(&st17;  780.98  548.22 )">a2</text><text style="&st18;" transform="matrix(&st16;  835.35  508.01 )">1</text><text style="&st18;" transform="matrix(&st16;  567.16  222.44 )">26</text><text style="&st18;" transform="matrix(&st16;  626.65  222.44 )">20</text><text style="&st18;" transform="matrix(&st16;  754.13  222.44 )">22</text><text style="&st18;" transform="matrix(&st16;  837.05  254.46 )">5A</text><text style="&st18;" transform="matrix(&st16;  825.49  254.46 )">18</text><text style="&st18;" transform="matrix(&st16;  922.04  254.46 )">5A</text><text style="&st18;" transform="matrix(&st16;  909.7  254.46 )">30</text><text style="&st18;" transform="matrix(&st17;  837.66  294.09 )">W</text><text style="&st18;" transform="matrix(&st16;  920.33  508.01 )">1</text><text style="&st18;" transform="matrix(&st17;  761.18  569.27 )">B</text><text style="&st18;" transform="matrix(&st16;  758.08  553.89 )">2</text><text style="&st18;" transform="matrix(&st16;  826.55  458.43 )">3</text><text style="&st18;" transform="matrix(&st17;  633.7  314.2 )">R-L</text><text style="&st18;" transform="matrix(&st17;  574.21  314.97 )">R-G</text><text style="&st18;" transform="matrix(&st17;  761.18  293.49 )">G</text></svg>