﻿<?xml version="1.0" encoding="utf-8"?>
<!DOCTYPE svg PUBLIC "-//W3C//DTD SVG 1.0//EN" "http://www.w3.org/TR/2001/REC-SVG-20010904/DTD/svg10.dtd"[
	<!ENTITY ns_flows "http://ns.adobe.com/Flows/1.0/">
	<!ENTITY ns_svg "http://www.w3.org/2000/svg">
	<!ENTITY ns_xlink "http://www.w3.org/1999/xlink">
	<!ENTITY st0 "font-size:7px;font-family:'MS-PGothic';adobe-font-script:japanese;">
	<!ENTITY st1 "font-size:6px;font-family:'ArialMT';">
	<!-- White fill  -->
	<!ENTITY st2 "fill:#FFFFFF;stroke:#000000; stroke-width:1.41;stroke-linecap:round;stroke-linejoin:round;">
	<!-- Yellow fill  -->
	<!ENTITY st3 "fill:#FFFFCC;stroke:#FFFFCC; stroke-width:0.1;stroke-linecap:round;stroke-linejoin:round;">
	<!-- Gray fill  -->
	<!ENTITY st4 "fill:#CCCCCC;stroke:#CCCCCC; stroke-width:0.1;stroke-linecap:round;stroke-linejoin:round;">
	<!-- Light-blue fill -->
	<!ENTITY st5 "fill:#CCECF4;stroke:#000000; stroke-width:1.133;stroke-linecap:round;stroke-linejoin:round;">
	<!ENTITY st6 "fill:none;stroke-linecap:butt; stroke-linejoin:round;">
	<!ENTITY st7 "fill:none;stroke:#000000;stroke-linecap:round;stroke-linejoin:round;">
	<!ENTITY st8 "enable-background:new    ;">
	<!-- Black fill -->
	<!ENTITY st9 "fill:#000000;stroke:#000000; stroke-linecap:round;stroke-linejoin:round;">
	<!-- SRS note   -->
	<!ENTITY st10 "font-size:9px;font-family:'ArialMT';">
	<!ENTITY st11 "font-size:9px;font-family:'Svg Symbol';">
	<!ENTITY st12 "font-size:6px;font-family:'Svg Symbol';">
	<!ENTITY st13 "fill:none;stroke:#ff0000;stroke-linecap:round;stroke-linejoin:round;">
	<!-- Yellow fill  -->
	<!ENTITY st14 "fill:#FFFF00;stroke:#FFFF00; stroke-width:0.1;stroke-linecap:round;stroke-linejoin:round;">
	<!ENTITY st15 "font-size:6px;font-family:'MS-PGothic';adobe-font-script:japanese;">
	<!ENTITY st16 "1.00 0.00 0.00 1.00">
	<!ENTITY st17 "0.00 -1.00 1.00 0.00">
	<!ENTITY st18 "font-size:6px;font-family:'Arial';">
	<!ENTITY st19 "font-size:9px;font-family:'Arial';">
	<!ENTITY st20 "font-size:6px;font-family:'MS-PGothic','MS PGothic';adobe-font-script:japanese;">
	<!ENTITY st21 "font-size:7px;font-family:'MS-PGothic','MS PGothic';adobe-font-script:japanese;">
	<!ATTLIST svg
		xmlns:ewd CDATA #FIXED "http://shcl.co.jp/ewd"
		xmlns:a CDATA #FIXED "http://ns.adobe.com/AdobeSVGViewerExtensions/3.0/"
		ewd:ver CDATA #IMPLIED
	>
	<!ATTLIST a
		ewd:lineID CDATA #IMPLIED
		ewd:groupID CDATA #IMPLIED
		ewd:figtype CDATA #IMPLIED
		ewd:code CDATA #IMPLIED
		ewd:figID CDATA #IMPLIED
		ewd:pinNo CDATA #IMPLIED
		ewd:comment CDATA #IMPLIED >
	<!ATTLIST g
		ewd:lineID CDATA #IMPLIED
		ewd:groupID CDATA #IMPLIED
		ewd:figtype CDATA #IMPLIED
		ewd:code CDATA #IMPLIED
		ewd:figID CDATA #IMPLIED
		ewd:pinNo CDATA #IMPLIED
		ewd:comment CDATA #IMPLIED >
	<!ATTLIST text
		ewd:textID CDATA #IMPLIED >
	<!ATTLIST title
		ewd:textID CDATA #IMPLIED >
]>
<!-- Generator: Shintec Hozumi YS   -->
<svg onload="call_execInitLoadProc_svg('system')" style="overflow:visible;  enable-background:new 0 0 2584.093 710.000" viewBox="0 0 2584.093 710.000" height="710.000" width="2584.093" xml:space="preserve" ewd:ver="L2.1.2.5" xmlns="&ns_svg;" xmlns:a="http://ns.adobe.com/AdobeSVGViewerExtensions/3.0/" xmlns:ewd="http://shcl.co.jp/ewd" xmlns:xlink="&ns_xlink;">
<path d=" M 2553.82,  511.70  L 2545.32,  511.70 " style="stroke-width: 0.85 ;&st7; " /><path d=" M 2558.07,  146.26  L 2549.57,  146.26 " style="stroke-width: 1.42 ;&st7; " /><path d=" M 2541.08,  282.24  L 2549.57,  282.24 " style="stroke-width: 1.42 ;&st7; " /><path d=" M 2562.31,  502.04  L 2554.95,  506.29 " style="stroke-width: 0.85 ;&st7; " /><path d=" M 2556.95,  509.75  L 2564.31,  505.50 " style="stroke-width: 0.85 ;&st7; " /><path d=" M 2511.32,  502.04  L 2503.95,  506.29 " style="stroke-width: 0.85 ;&st7; " /><path d=" M 2505.96,  509.75  L 2513.32,  505.50 " style="stroke-width: 0.85 ;&st7; " /><path d=" M 2541.08,  622.18  L 2549.57,  622.18 " style="stroke-width: 1.42 ;&st7; " /><path d=" M 2549.57,  222.75  L 2549.57,  239.75 " style="stroke-width: 0.85 ;&st7; " /><path d=" M 2548.38,  230.24  L 2548.11,  230.71  L 2548.01,  231.25  L 2548.11,  231.78  L 2548.38,  232.25  L 2548.79,  232.60  L 2549.30,  232.78  L 2549.84,  232.78  L 2550.35,  232.60  L 2550.77,  232.25  L 2551.04,  231.78  L 2551.13,  231.25  L 2551.04,  230.71  L 2550.77,  230.24  L 2550.35,  229.90  L 2549.84,  229.71  L 2549.30,  229.71  L 2548.79,  229.90  L 2548.38,  230.24  L 2548.77,  230.96  L 2548.77,  231.54  L 2549.15,  231.98  L 2549.72,  232.08  L 2550.22,  231.79  L 2550.42,  231.25  L 2550.22,  230.70  L 2549.72,  230.41  L 2549.15,  230.51  L 2549.57,  231.25 " style="stroke-width: 0.85 ;&st7; " /><path d=" M 2548.38,  544.69  L 2548.11,  545.16  L 2548.01,  545.69  L 2548.11,  546.23  L 2548.38,  546.70  L 2548.79,  547.04  L 2549.30,  547.23  L 2549.84,  547.23  L 2550.35,  547.04  L 2550.77,  546.70  L 2551.04,  546.23  L 2551.13,  545.69  L 2551.04,  545.16  L 2550.77,  544.69  L 2550.35,  544.35  L 2549.84,  544.16  L 2549.30,  544.16  L 2548.79,  544.35  L 2548.38,  544.69  L 2548.77,  545.40  L 2548.77,  545.99  L 2549.15,  546.43  L 2549.72,  546.53  L 2550.22,  546.24  L 2550.42,  545.69  L 2550.22,  545.15  L 2549.72,  544.86  L 2549.15,  544.96  L 2549.57,  545.69 " style="stroke-width: 0.85 ;&st7; " /><path d=" M 2553.82,  155.33  L 2549.57,  151.08  L 2545.32,  155.33 " style="stroke-width: 1.42 ;&st7; " /><path d=" M 2553.82,  151.93  L 2549.57,  147.68  L 2545.32,  151.93 " style="stroke-width: 1.42 ;&st7; " /><path d=" M 2545.32,  273.17  L 2549.57,  277.42  L 2553.82,  273.17 " style="stroke-width: 1.42 ;&st7; " /><path d=" M 2553.82,  276.57  L 2549.57,  280.82  L 2545.32,  276.57 " style="stroke-width: 1.42 ;&st7; " /><path d=" M 2549.57,  511.70  L 2543.91,  503.20  L 2555.24,  503.20  L 2549.57,  511.70 " style="stroke-width: 0.28 ;&st9;" /><path d=" M 2562.31,  502.04  L 2559.97,  505.08  L 2558.50,  502.54  L 2562.31,  502.04  L 2561.02,  502.78  L 2560.04,  504.06  L 2559.42,  502.99  L 2561.02,  502.78  L 2560.38,  503.15  L 2560.07,  503.55  L 2559.88,  503.21  L 2560.38,  503.15 " style="stroke-width: 0.85 ;&st7; " /><path d=" M 2564.31,  505.50  L 2561.98,  508.55  L 2560.51,  506.01  L 2564.31,  505.50  L 2563.03,  506.25  L 2562.04,  507.53  L 2561.42,  506.46  L 2563.03,  506.25  L 2562.39,  506.61  L 2562.07,  507.02  L 2561.88,  506.68  L 2562.39,  506.61 " style="stroke-width: 0.85 ;&st7; " /><path d=" M 2511.32,  502.04  L 2508.98,  505.08  L 2507.51,  502.54  L 2511.32,  502.04  L 2510.03,  502.78  L 2509.05,  504.06  L 2508.43,  502.99  L 2510.03,  502.78  L 2509.39,  503.15  L 2509.08,  503.55  L 2508.88,  503.21  L 2509.39,  503.15 " style="stroke-width: 0.85 ;&st7; " /><path d=" M 2513.32,  505.50  L 2510.98,  508.55  L 2509.52,  506.01  L 2513.32,  505.50  L 2512.03,  506.25  L 2511.05,  507.53  L 2510.43,  506.46  L 2512.03,  506.25  L 2511.39,  506.61  L 2511.08,  507.02  L 2510.89,  506.68  L 2511.39,  506.61 " style="stroke-width: 0.85 ;&st7; " /><path d=" M 2549.57,  469.21  L 2549.57,  562.69 " style="stroke-width: 0.85 ;&st7; " /><path d=" M 2524.08,  222.75  L 2524.08,  231.25  L 2549.57,  231.25 " style="stroke-width: 0.85 ;&st7; " /><path d=" M 2548.16,  710.00  L 2550.99,  710.00 " style="stroke-width: 0.85 ;&st7; " /><path d=" M 2546.74,  707.17  L 2552.41,  707.17 " style="stroke-width: 0.85 ;&st7; " /><path d=" M 2545.32,  704.33  L 2553.82,  704.33 " style="stroke-width: 0.85 ;&st7; " /><path d=" M 2541.07,  701.50  L 2558.07,  701.50 " style="stroke-width: 0.85 ;&st7; " /><path d=" M 2549.57,  697.25  L 2549.57,  701.50 " style="stroke-width: 0.85 ;&st7; " /><path d=" M 2545.32,  613.12  L 2549.57,  617.37  L 2553.82,  613.12 " style="stroke-width: 1.42 ;&st7; " /><path d=" M 2553.82,  616.52  L 2549.57,  620.76  L 2545.32,  616.52 " style="stroke-width: 1.42 ;&st7; " /><text style="&st18;" transform="matrix(&st16;  2542.79  247.94 )">2</text><text style="&st18;" transform="matrix(&st16;  2538.83  91.58 )">LL</text><text style="&st18;" transform="matrix(&st16;  2542.79  103.46 )">8</text><text style="&st18;" transform="matrix(&st16;  2535.54  143.98 )">1</text><text style="&st18;" transform="matrix(&st17;  2545.88  263.46 )">R</text><text style="&st18;" transform="matrix(&st17;  2545.88  446.18 )">R</text><text style="&st18;" transform="matrix(&st17;  2545.88  123.24 )">R</text><text style="&st18;" transform="matrix(&st16;  2542.78  465.52 )">3</text><text style="&st18;" transform="matrix(&st16;  2517.28  219.06 )">3</text><text style="&st18;" transform="matrix(&st16;  2542.79  570.88 )">7</text><text style="&st18;" transform="matrix(&st17;  2565.68  242.27 )">B35</text><text style="&st18;" transform="matrix(&st16;  2543.56  219.06 )">1</text><text style="&st18;" transform="matrix(&st16;  2530.8  288.46 )">33</text><text style="&st18;" transform="matrix(&st17;  2541.63  509.43 )">L</text><text style="&st18;" transform="matrix(&st17;  2545.88  335.7 )">R</text><text style="&st18;" transform="matrix(&st17;  2545.88  203.97 )">R</text><text style="&st18;" transform="matrix(&st17;  2520.38  203.97 )">R</text><text style="&st18;" transform="matrix(&st16;  2535.54  628.4 )">1</text><text style="&st18;" transform="matrix(&st17;  2545.88  604.39 )">W-B</text><text style="&st18;" transform="matrix(&st17;  2545.88  655.38 )">W-B</text><text ewd:textID="19" style="&st18;" transform="matrix(&st17;  2572.79  242.27 )">Junction <tspan dy="6" x="0">Connector</tspan></text><text style="&st18;" transform="matrix(&st17;  2571.38  636.06 )">W-B(*9)</text><text style="&st18;" transform="matrix(&st17;  2557.21  653.86 )">(*8)</text><text style="&st18;" transform="matrix(&st17;  2557.21  602.87 )">(*8)</text><text style="&st18;" transform="matrix(&st16;  2501.42  477.4 )">2</text><text style="&st18;" transform="matrix(&st16;  2552.41  477.4 )">L</text><text style="&st18;" transform="matrix(&st16;  2552.41  559.0 )">E1</text></svg>