﻿<?xml version="1.0" encoding="utf-8"?>
<!DOCTYPE svg PUBLIC "-//W3C//DTD SVG 1.0//EN" "http://www.w3.org/TR/2001/REC-SVG-20010904/DTD/svg10.dtd"[
	<!ENTITY ns_flows "http://ns.adobe.com/Flows/1.0/">
	<!ENTITY ns_svg "http://www.w3.org/2000/svg">
	<!ENTITY ns_xlink "http://www.w3.org/1999/xlink">
	<!ENTITY st0 "font-size:7px;font-family:'MS-PGothic';adobe-font-script:japanese;">
	<!ENTITY st1 "font-size:6px;font-family:'ArialMT';">
	<!-- White fill  -->
	<!ENTITY st2 "fill:#FFFFFF;stroke:#000000; stroke-width:1.41;stroke-linecap:round;stroke-linejoin:round;">
	<!-- Yellow fill  -->
	<!ENTITY st3 "fill:#FFFFCC;stroke:#FFFFCC; stroke-width:0.1;stroke-linecap:round;stroke-linejoin:round;">
	<!-- Gray fill  -->
	<!ENTITY st4 "fill:#CCCCCC;stroke:#CCCCCC; stroke-width:0.1;stroke-linecap:round;stroke-linejoin:round;">
	<!-- Light-blue fill -->
	<!ENTITY st5 "fill:#CCECF4;stroke:#000000; stroke-width:1.133;stroke-linecap:round;stroke-linejoin:round;">
	<!ENTITY st6 "fill:none;stroke-linecap:butt; stroke-linejoin:round;">
	<!ENTITY st7 "fill:none;stroke:#000000;stroke-linecap:round;stroke-linejoin:round;">
	<!ENTITY st8 "enable-background:new    ;">
	<!-- Black fill -->
	<!ENTITY st9 "fill:#000000;stroke:#000000; stroke-linecap:round;stroke-linejoin:round;">
	<!-- SRS note   -->
	<!ENTITY st10 "font-size:9px;font-family:'ArialMT';">
	<!ENTITY st11 "font-size:9px;font-family:'Svg Symbol';">
	<!ENTITY st12 "font-size:6px;font-family:'Svg Symbol';">
	<!ENTITY st13 "fill:none;stroke:#ff0000;stroke-linecap:round;stroke-linejoin:round;">
	<!-- Yellow fill  -->
	<!ENTITY st14 "fill:#FFFF00;stroke:#FFFF00; stroke-width:0.1;stroke-linecap:round;stroke-linejoin:round;">
	<!ENTITY st15 "font-size:6px;font-family:'MS-PGothic';adobe-font-script:japanese;">
	<!ENTITY st16 "1.00 0.00 0.00 1.00">
	<!ENTITY st17 "0.00 -1.00 1.00 0.00">
	<!ENTITY st18 "font-size:6px;font-family:'Arial';">
	<!ENTITY st19 "font-size:9px;font-family:'Arial';">
	<!ENTITY st20 "font-size:6px;font-family:'MS-PGothic','MS PGothic';adobe-font-script:japanese;">
	<!ENTITY st21 "font-size:7px;font-family:'MS-PGothic','MS PGothic';adobe-font-script:japanese;">
	<!ATTLIST svg
		xmlns:ewd CDATA #FIXED "http://shcl.co.jp/ewd"
		xmlns:a CDATA #FIXED "http://ns.adobe.com/AdobeSVGViewerExtensions/3.0/"
		ewd:ver CDATA #IMPLIED
	>
	<!ATTLIST a
		ewd:lineID CDATA #IMPLIED
		ewd:groupID CDATA #IMPLIED
		ewd:figtype CDATA #IMPLIED
		ewd:code CDATA #IMPLIED
		ewd:figID CDATA #IMPLIED
		ewd:pinNo CDATA #IMPLIED
		ewd:comment CDATA #IMPLIED >
	<!ATTLIST g
		ewd:lineID CDATA #IMPLIED
		ewd:groupID CDATA #IMPLIED
		ewd:figtype CDATA #IMPLIED
		ewd:code CDATA #IMPLIED
		ewd:figID CDATA #IMPLIED
		ewd:pinNo CDATA #IMPLIED
		ewd:comment CDATA #IMPLIED >
	<!ATTLIST text
		ewd:textID CDATA #IMPLIED >
	<!ATTLIST title
		ewd:textID CDATA #IMPLIED >
]>
<!-- Generator: Shintec Hozumi YS   -->
<svg onload="call_execInitLoadProc_svg('system')" style="overflow:visible;  enable-background:new 0 0 4124.387 710.000" viewBox="0 0 4124.387 710.000" height="710.000" width="4124.387" xml:space="preserve" ewd:ver="L2.1.2.5" xmlns="&ns_svg;" xmlns:a="http://ns.adobe.com/AdobeSVGViewerExtensions/3.0/" xmlns:ewd="http://shcl.co.jp/ewd" xmlns:xlink="&ns_xlink;">
<path d=" M 1223.80,  562.69  L 1223.80,  358.73  L 1155.81,  358.73  L 1155.81,  384.22  L 1223.80,  384.22 " style="stroke:#000000;stroke-width: 0.85 ;&st7;stroke-dasharray:3, 1.5;" /><path d=" M 1351.27,  562.69  L 1351.27,  392.72 " style="stroke:#000000;stroke-width: 0.85 ;&st7;stroke-dasharray:3, 1.5;" /><path d=" M 1351.27,  375.72  L 1351.27,  358.73  L 1249.29,  358.73  L 1249.29,  384.22  L 1342.78,  384.22 " style="stroke:#000000;stroke-width: 0.85 ;&st7;stroke-dasharray:3, 1.5;" /><path d=" M 1385.27,  443.71  L 1385.27,  452.21 " style="stroke-width: 0.85 ;&st7; " /><path d=" M 1385.27,  418.22  L 1385.27,  426.71 " style="stroke-width: 0.85 ;&st7; " /><path d=" M 1164.31,  426.71  L 1164.31,  435.21 " style="stroke-width: 1.42 ;&st7; " /><path d=" M 1181.30,  426.71  L 1181.30,  435.21 " style="stroke-width: 1.42 ;&st7; " /><path d=" M 1164.31,  443.71  L 1164.31,  435.21 " style="stroke-width: 1.42 ;&st7; " /><path d=" M 1181.30,  443.71  L 1181.30,  435.21 " style="stroke-width: 1.42 ;&st7; " /><path d=" M 1172.80,  418.22  L 1172.80,  426.71 " style="stroke-width: 0.85 ;&st7; " /><path d=" M 1172.80,  443.71  L 1172.80,  452.21 " style="stroke-width: 0.85 ;&st7; " /><path d=" M 1011.33,  460.71  L 1002.83,  460.71 " style="stroke-width: 1.42 ;&st7; " /><path d=" M 1359.77,  380.69  L 1354.80,  375.72 " style="stroke-width: 1.42 ;&st7; " /><path d=" M 1342.78,  387.75  L 1347.74,  392.72 " style="stroke-width: 1.42 ;&st7; " /><path d=" M 1354.80,  392.72  L 1359.77,  387.75 " style="stroke-width: 1.42 ;&st7; " /><path d=" M 1347.74,  375.72  L 1342.78,  380.69 " style="stroke-width: 1.42 ;&st7; " /><path d=" M 1096.32,   49.25  L 1091.35,   44.28 " style="stroke-width: 1.42 ;&st7; " /><path d=" M 1079.32,   56.31  L 1084.29,   61.28 " style="stroke-width: 1.42 ;&st7; " /><path d=" M 1091.35,   61.28  L 1096.32,   56.31 " style="stroke-width: 1.42 ;&st7; " /><path d=" M 1084.29,   44.28  L 1079.32,   49.25 " style="stroke-width: 1.42 ;&st7; " /><path d=" M 1147.31,   32.25  L 1142.34,   27.28 " style="stroke-width: 1.42 ;&st7; " /><path d=" M 1130.31,   39.31  L 1135.28,   44.28 " style="stroke-width: 1.42 ;&st7; " /><path d=" M 1142.34,   44.28  L 1147.31,   39.31 " style="stroke-width: 1.42 ;&st7; " /><path d=" M 1135.28,   27.28  L 1130.31,   32.25 " style="stroke-width: 1.42 ;&st7; " /><path d=" M 1232.29,   49.25  L 1227.32,   44.28 " style="stroke-width: 1.42 ;&st7; " /><path d=" M 1215.30,   56.31  L 1220.27,   61.28 " style="stroke-width: 1.42 ;&st7; " /><path d=" M 1227.32,   61.28  L 1232.29,   56.31 " style="stroke-width: 1.42 ;&st7; " /><path d=" M 1220.27,   44.28  L 1215.30,   49.25 " style="stroke-width: 1.42 ;&st7; " /><path d=" M 1274.79,   32.25  L 1269.82,   27.28 " style="stroke-width: 1.42 ;&st7; " /><path d=" M 1257.79,   39.31  L 1262.76,   44.28 " style="stroke-width: 1.42 ;&st7; " /><path d=" M 1269.82,   44.28  L 1274.79,   39.31 " style="stroke-width: 1.42 ;&st7; " /><path d=" M 1262.76,   27.28  L 1257.79,   32.25 " style="stroke-width: 1.42 ;&st7; " /><path d=" M 1402.27,   32.25  L 1397.29,   27.28 " style="stroke-width: 1.42 ;&st7; " /><path d=" M 1385.27,   39.31  L 1390.24,   44.28 " style="stroke-width: 1.42 ;&st7; " /><path d=" M 1397.29,   44.28  L 1402.27,   39.31 " style="stroke-width: 1.42 ;&st7; " /><path d=" M 1390.24,   27.28  L 1385.27,   32.25 " style="stroke-width: 1.42 ;&st7; " /><path d=" M 1096.32,  184.50  L 1096.32,  201.50 " style="stroke-width: 0.85 ;&st7; " /><path d=" M 1079.32,  184.50  L 1079.32,  201.50 " style="stroke-width: 0.85 ;&st7; " /><path d=" M 1087.82,  184.50  L 1087.82,  171.76 " style="stroke-width: 0.85 ;&st7; " /><path d=" M 1084.99,  200.09  L 1087.82,  201.50 " style="stroke-width: 0.85 ;&st7; " /><path d=" M 1087.82,  184.50  L 1090.65,  185.92 " style="stroke-width: 0.85 ;&st7; " /><path d=" M 1090.65,  185.92  L 1084.99,  188.75 " style="stroke-width: 0.85 ;&st7; " /><path d=" M 1084.99,  188.75  L 1090.65,  191.59 " style="stroke-width: 0.85 ;&st7; " /><path d=" M 1090.65,  191.59  L 1084.99,  194.42 " style="stroke-width: 0.85 ;&st7; " /><path d=" M 1084.99,  194.42  L 1090.65,  197.25 " style="stroke-width: 0.85 ;&st7; " /><path d=" M 1090.65,  197.25  L 1084.99,  200.09 " style="stroke-width: 0.85 ;&st7; " /><path d=" M 1087.82,  214.25  L 1087.82,  201.50 " style="stroke-width: 0.85 ;&st7; " /><path d=" M 1096.32,  103.77  L 1087.82,  103.77 " style="stroke-width: 1.42 ;&st7; " /><path d=" M 1075.07,  214.25  L 1075.07,  171.76  L 1100.57,  171.76  L 1100.57,  214.25  L 1075.07,  214.25 " style="stroke-width: 1.42 ;&st7; " /><path d=" M 1092.07,  109.43  L 1087.82,  105.18  L 1083.57,  109.43 " style="stroke-width: 1.42 ;&st7; " /><path d=" M 1092.07,  112.83  L 1087.82,  108.58  L 1083.57,  112.83 " style="stroke-width: 1.42 ;&st7; " /><path d=" M 1223.80,  562.69  L 1223.80,  571.19 " style="stroke-width: 0.85 ;&st7; " /><path d=" M 1130.31,  571.19  L 1351.27,  571.19 " style="stroke-width: 0.85 ;&st7; " /><path d=" M 1351.27,  562.69  L 1351.27,  571.19 " style="stroke-width: 0.85 ;&st7; " /><path d=" M 1393.77,  452.21  L 1393.77,  418.22  L 1376.77,  418.22  L 1376.77,  452.21  L 1393.77,  452.21 " style="stroke-width: 1.42 ;&st7; " /><path d=" M 1130.31,  562.69  L 1130.31,  571.19 " style="stroke-width: 0.85 ;&st7; " /><path d=" M 1130.31,  171.76  L 1181.30,  171.76  L 1181.30,  205.75  L 1130.31,  205.75  L 1130.31,  171.76 " style="stroke-width: 1.42 ;&st7; " /><path d=" M 1215.30,  171.76  L 1215.30,  205.75  L 1283.29,  205.75  L 1283.29,  171.76  L 1215.30,  171.76 " style="stroke-width: 1.42 ;&st7; " /><path d=" M 1317.28,  171.76  L 1317.28,  205.75  L 1410.76,  205.75  L 1410.76,  171.76  L 1317.28,  171.76 " style="stroke-width: 1.42 ;&st7; " /><path d=" M 1461.76,  180.26  L 1478.75,  180.26  L 1478.75,  197.25  L 1461.76,  197.25  L 1461.76,  180.26 " style="stroke-width: 1.42 ;&st7; " /><path d=" M 1470.25,  180.26  L 1470.25,  197.25 " style="stroke-width: 0.85 ;&st7; " /><path d=" M 1266.29,  418.22  L 1266.29,  452.21  L 1317.28,  452.21  L 1317.28,  418.22  L 1266.29,  418.22 " style="stroke-width: 1.42 ;&st7; " /><path d=" M 1121.81,  562.69  L 1427.76,  562.69  L 1427.76,  579.69  L 1121.81,  579.69  L 1121.81,  562.69 " style="stroke-width: 1.42 ;&st7; " /><path d=" M 1222.60,  383.22  L 1222.33,  383.69  L 1222.24,  384.22  L 1222.33,  384.75  L 1222.60,  385.22  L 1223.02,  385.57  L 1223.52,  385.76  L 1224.07,  385.76  L 1224.57,  385.57  L 1224.99,  385.22  L 1225.26,  384.75  L 1225.35,  384.22  L 1225.26,  383.69  L 1224.99,  383.22  L 1224.57,  382.87  L 1224.07,  382.69  L 1223.52,  382.69  L 1223.02,  382.87  L 1222.60,  383.22  L 1223.00,  383.93  L 1223.00,  384.51  L 1223.37,  384.96  L 1223.94,  385.06  L 1224.45,  384.77  L 1224.64,  384.22  L 1224.45,  383.67  L 1223.94,  383.39  L 1223.37,  383.48  L 1223.80,  384.22 " style="stroke-width: 0.85 ;&st7; " /><path d=" M 1222.60,  570.19  L 1222.33,  570.66  L 1222.24,  571.19  L 1222.33,  571.72  L 1222.60,  572.19  L 1223.02,  572.54  L 1223.52,  572.73  L 1224.07,  572.73  L 1224.57,  572.54  L 1224.99,  572.19  L 1225.26,  571.72  L 1225.35,  571.19  L 1225.26,  570.66  L 1224.99,  570.19  L 1224.57,  569.84  L 1224.07,  569.65  L 1223.52,  569.65  L 1223.02,  569.84  L 1222.60,  570.19  L 1223.00,  570.90  L 1223.00,  571.48  L 1223.37,  571.93  L 1223.94,  572.03  L 1224.45,  571.74  L 1224.64,  571.19  L 1224.45,  570.64  L 1223.94,  570.35  L 1223.37,  570.45  L 1223.80,  571.19 " style="stroke-width: 0.85 ;&st7; " /><path d=" M 1230.88,  184.50  L 1223.80,  184.50  L 1223.80,  171.76 " style="stroke-width: 0.85 ;&st7; " /><path d=" M 1264.87,  184.50  L 1256.37,  184.50  L 1254.96,  187.34  L 1252.12,  181.67  L 1249.29,  187.34  L 1246.46,  181.67  L 1243.63,  187.34  L 1240.79,  181.67  L 1239.38,  184.50  L 1230.88,  184.50 " style="stroke-width: 0.85 ;&st7; " /><path d=" M 1266.29,  171.76  L 1266.29,  184.50  L 1264.87,  184.50 " style="stroke-width: 0.85 ;&st7; " /><path d=" M 1249.29,  187.34  L 1249.29,  193.00  L 1223.80,  193.00  L 1223.80,  205.75 " style="stroke-width: 0.85 ;&st7; " /><path d=" M 1249.29,  187.34  L 1247.82,  190.88  L 1250.76,  190.88  L 1249.29,  187.34  L 1249.29,  188.82  L 1248.67,  190.31  L 1249.91,  190.31  L 1249.29,  188.82  L 1249.29,  189.56  L 1249.10,  190.03  L 1249.49,  190.03  L 1249.29,  189.56 " style="stroke-width: 0.85 ;&st7; " /><path d=" M 1350.08,  570.19  L 1349.81,  570.66  L 1349.72,  571.19  L 1349.81,  571.72  L 1350.08,  572.19  L 1350.49,  572.54  L 1351.00,  572.73  L 1351.55,  572.73  L 1352.05,  572.54  L 1352.47,  572.19  L 1352.74,  571.72  L 1352.83,  571.19  L 1352.74,  570.66  L 1352.47,  570.19  L 1352.05,  569.84  L 1351.55,  569.65  L 1351.00,  569.65  L 1350.49,  569.84  L 1350.08,  570.19  L 1350.47,  570.90  L 1350.47,  571.48  L 1350.85,  571.93  L 1351.42,  572.03  L 1351.93,  571.74  L 1352.12,  571.19  L 1351.93,  570.64  L 1351.42,  570.35  L 1350.85,  570.45  L 1351.27,  571.19 " style="stroke-width: 0.85 ;&st7; " /><path d=" M 1419.26,  571.19  L 1351.27,  571.19 " style="stroke-width: 0.85 ;&st7; " /><path d=" M 1419.26,  697.25  L 1419.26,  701.50 " style="stroke-width: 0.85 ;&st7; " /><path d=" M 1410.76,  701.50  L 1427.76,  701.50 " style="stroke-width: 0.85 ;&st7; " /><path d=" M 1415.01,  704.33  L 1423.51,  704.33 " style="stroke-width: 0.85 ;&st7; " /><path d=" M 1416.43,  707.17  L 1422.10,  707.17 " style="stroke-width: 0.85 ;&st7; " /><path d=" M 1417.85,  710.00  L 1420.68,  710.00 " style="stroke-width: 0.85 ;&st7; " /><path d=" M 1418.07,  570.19  L 1417.80,  570.66  L 1417.70,  571.19  L 1417.80,  571.72  L 1418.07,  572.19  L 1418.48,  572.54  L 1418.99,  572.73  L 1419.53,  572.73  L 1420.04,  572.54  L 1420.45,  572.19  L 1420.73,  571.72  L 1420.82,  571.19  L 1420.73,  570.66  L 1420.45,  570.19  L 1420.04,  569.84  L 1419.53,  569.65  L 1418.99,  569.65  L 1418.48,  569.84  L 1418.07,  570.19  L 1418.46,  570.90  L 1418.46,  571.48  L 1418.84,  571.93  L 1419.41,  572.03  L 1419.91,  571.74  L 1420.11,  571.19  L 1419.91,  570.64  L 1419.41,  570.35  L 1418.84,  570.45  L 1419.26,  571.19 " style="stroke-width: 0.85 ;&st7; " /><path d=" M 1419.26,  562.69  L 1419.26,  579.69 " style="stroke-width: 0.85 ;&st7; " /><path d=" M 1177.34,  277.71  C 1177.34   275.20  1175.31   273.17  1172.80   273.17 " style="stroke-width: 1.42 ;&st7; " /><path d=" M 1172.80,  273.17  C 1170.30   273.17  1168.27   275.20  1168.27   277.71 " style="stroke-width: 1.42 ;&st7; " /><path d=" M 1168.27,  277.71  C 1168.27   280.21  1170.30   282.24  1172.80   282.24 " style="stroke-width: 1.42 ;&st7; " /><path d=" M 1172.80,  282.24  C 1175.31   282.24  1177.34   280.21  1177.34   277.71 " style="stroke-width: 1.42 ;&st7; " /><path d=" M 1385.27,  443.71  C 1387.22   443.71  1388.81   442.13  1388.81   440.17 " style="stroke-width: 0.85 ;&st7; " /><path d=" M 1388.81,  440.17  C 1388.81   438.21  1387.22   436.63  1385.27   436.63 " style="stroke-width: 0.85 ;&st7; " /><path d=" M 1385.27,  436.63  C 1384.28   436.63  1383.43   436.98  1382.74   437.69 " style="stroke-width: 0.85 ;&st7; " /><path d=" M 1382.74,  432.73  C 1384.11   434.13  1386.35   434.15  1387.75   432.78 " style="stroke-width: 0.85 ;&st7; " /><path d=" M 1387.75,  432.78  C 1389.14   431.42  1389.17   429.17  1387.80   427.78 " style="stroke-width: 0.85 ;&st7; " /><path d=" M 1387.80,  427.78  C 1387.10   427.07  1386.26   426.71  1385.27   426.71 " style="stroke-width: 0.85 ;&st7; " /><path d=" M 1382.74,  437.69  C 1384.11   439.09  1386.35   439.11  1387.75   437.74 " style="stroke-width: 0.85 ;&st7; " /><path d=" M 1387.75,  437.74  C 1389.14   436.37  1389.17   434.13  1387.80   432.73 " style="stroke-width: 0.85 ;&st7; " /><path d=" M 1387.80,  432.73  C 1386.43   431.34  1384.19   431.31  1382.79   432.68 " style="stroke-width: 0.85 ;&st7; " /><path d=" M 1382.79,  432.68  C 1382.77   432.70  1382.76   432.72  1382.74   432.73 " style="stroke-width: 0.85 ;&st7; " /><path d=" M 1181.30,  426.71  C 1181.30   422.02  1177.50   418.22  1172.80   418.22 " style="stroke-width: 1.42 ;&st7; " /><path d=" M 1172.80,  418.22  C 1168.11   418.22  1164.31   422.02  1164.31   426.71 " style="stroke-width: 1.42 ;&st7; " /><path d=" M 1164.31,  443.71  C 1164.31   448.40  1168.11   452.21  1172.80   452.21 " style="stroke-width: 1.42 ;&st7; " /><path d=" M 1172.80,  452.21  C 1177.50   452.21  1181.30   448.40  1181.30   443.71 " style="stroke-width: 1.42 ;&st7; " /><path d=" M 1170.27,  432.73  C 1171.64   434.13  1173.89   434.15  1175.28   432.78 " style="stroke-width: 0.85 ;&st7; " /><path d=" M 1175.28,  432.78  C 1176.68   431.42  1176.70   429.17  1175.33   427.78 " style="stroke-width: 0.85 ;&st7; " /><path d=" M 1175.33,  427.78  C 1174.64   427.07  1173.79   426.71  1172.80   426.71 " style="stroke-width: 0.85 ;&st7; " /><path d=" M 1170.27,  437.69  C 1171.64   439.09  1173.89   439.11  1175.28   437.74 " style="stroke-width: 0.85 ;&st7; " /><path d=" M 1175.28,  437.74  C 1176.68   436.37  1176.70   434.13  1175.33   432.73 " style="stroke-width: 0.85 ;&st7; " /><path d=" M 1175.33,  432.73  C 1173.96   431.34  1171.72   431.31  1170.33   432.68 " style="stroke-width: 0.85 ;&st7; " /><path d=" M 1170.33,  432.68  C 1170.31   432.70  1170.29   432.72  1170.27   432.73 " style="stroke-width: 0.85 ;&st7; " /><path d=" M 1172.80,  443.71  C 1174.76   443.71  1176.35   442.13  1176.35   440.17 " style="stroke-width: 0.85 ;&st7; " /><path d=" M 1176.35,  440.17  C 1176.35   438.21  1174.76   436.63  1172.80   436.63 " style="stroke-width: 0.85 ;&st7; " /><path d=" M 1172.80,  436.63  C 1171.81   436.63  1170.97   436.98  1170.27   437.69 " style="stroke-width: 0.85 ;&st7; " /><path d=" M 1143.34,  277.71  C 1143.34   275.20  1141.31   273.17  1138.81   273.17 " style="stroke-width: 1.42 ;&st7; " /><path d=" M 1138.81,  273.17  C 1136.31   273.17  1134.28   275.20  1134.28   277.71 " style="stroke-width: 1.42 ;&st7; " /><path d=" M 1134.28,  277.71  C 1134.28   280.21  1136.31   282.24  1138.81   282.24 " style="stroke-width: 1.42 ;&st7; " /><path d=" M 1138.81,  282.24  C 1141.31   282.24  1143.34   280.21  1143.34   277.71 " style="stroke-width: 1.42 ;&st7; " /><path d=" M 1228.33,  277.71  C 1228.33   275.20  1226.30   273.17  1223.80   273.17 " style="stroke-width: 1.42 ;&st7; " /><path d=" M 1223.80,  273.17  C 1221.29   273.17  1219.26   275.20  1219.26   277.71 " style="stroke-width: 1.42 ;&st7; " /><path d=" M 1219.26,  277.71  C 1219.26   280.21  1221.29   282.24  1223.80   282.24 " style="stroke-width: 1.42 ;&st7; " /><path d=" M 1223.80,  282.24  C 1226.30   282.24  1228.33   280.21  1228.33   277.71 " style="stroke-width: 1.42 ;&st7; " /><path d=" M 1338.81,  277.71  C 1338.81   275.20  1336.78   273.17  1334.28   273.17 " style="stroke-width: 1.42 ;&st7; " /><path d=" M 1334.28,  273.17  C 1331.77   273.17  1329.74   275.20  1329.74   277.71 " style="stroke-width: 1.42 ;&st7; " /><path d=" M 1329.74,  277.71  C 1329.74   280.21  1331.77   282.24  1334.28   282.24 " style="stroke-width: 1.42 ;&st7; " /><path d=" M 1334.28,  282.24  C 1336.78   282.24  1338.81   280.21  1338.81   277.71 " style="stroke-width: 1.42 ;&st7; " /><path d=" M 1474.79,  277.71  C 1474.79   275.20  1472.76   273.17  1470.25   273.17 " style="stroke-width: 1.42 ;&st7; " /><path d=" M 1470.25,  273.17  C 1467.75   273.17  1465.72   275.20  1465.72   277.71 " style="stroke-width: 1.42 ;&st7; " /><path d=" M 1465.72,  277.71  C 1465.72   280.21  1467.75   282.24  1470.25   282.24 " style="stroke-width: 1.42 ;&st7; " /><path d=" M 1470.25,  282.24  C 1472.76   282.24  1474.79   280.21  1474.79   277.71 " style="stroke-width: 1.42 ;&st7; " /><path d=" M 1134.84,  329.26  C 1134.84   326.76  1132.81   324.73  1130.31   324.73 " style="stroke-width: 1.42 ;&st7; " /><path d=" M 1130.31,  324.73  C 1127.81   324.73  1125.78   326.76  1125.78   329.26 " style="stroke-width: 1.42 ;&st7; " /><path d=" M 1125.78,  329.26  C 1125.78   331.77  1127.81   333.80  1130.31   333.80 " style="stroke-width: 1.42 ;&st7; " /><path d=" M 1130.31,  333.80  C 1132.81   333.80  1134.84   331.77  1134.84   329.26 " style="stroke-width: 1.42 ;&st7; " /><path d=" M 1177.34,  329.26  C 1177.34   326.76  1175.31   324.73  1172.80   324.73 " style="stroke-width: 1.42 ;&st7; " /><path d=" M 1172.80,  324.73  C 1170.30   324.73  1168.27   326.76  1168.27   329.26 " style="stroke-width: 1.42 ;&st7; " /><path d=" M 1168.27,  329.26  C 1168.27   331.77  1170.30   333.80  1172.80   333.80 " style="stroke-width: 1.42 ;&st7; " /><path d=" M 1172.80,  333.80  C 1175.31   333.80  1177.34   331.77  1177.34   329.26 " style="stroke-width: 1.42 ;&st7; " /><path d=" M 1211.33,  329.26  C 1211.33   326.76  1209.30   324.73  1206.80   324.73 " style="stroke-width: 1.42 ;&st7; " /><path d=" M 1206.80,  324.73  C 1204.30   324.73  1202.27   326.76  1202.27   329.26 " style="stroke-width: 1.42 ;&st7; " /><path d=" M 1202.27,  329.26  C 1202.27   331.77  1204.30   333.80  1206.80   333.80 " style="stroke-width: 1.42 ;&st7; " /><path d=" M 1206.80,  333.80  C 1209.30   333.80  1211.33   331.77  1211.33   329.26 " style="stroke-width: 1.42 ;&st7; " /><path d=" M 1279.32,  329.26  C 1279.32   326.76  1277.29   324.73  1274.79   324.73 " style="stroke-width: 1.42 ;&st7; " /><path d=" M 1274.79,  324.73  C 1272.28   324.73  1270.25   326.76  1270.25   329.26 " style="stroke-width: 1.42 ;&st7; " /><path d=" M 1270.25,  329.26  C 1270.25   331.77  1272.28   333.80  1274.79   333.80 " style="stroke-width: 1.42 ;&st7; " /><path d=" M 1274.79,  333.80  C 1277.29   333.80  1279.32   331.77  1279.32   329.26 " style="stroke-width: 1.42 ;&st7; " /><path d=" M 1313.31,  329.26  C 1313.31   326.76  1311.28   324.73  1308.78   324.73 " style="stroke-width: 1.42 ;&st7; " /><path d=" M 1308.78,  324.73  C 1306.28   324.73  1304.25   326.76  1304.25   329.26 " style="stroke-width: 1.42 ;&st7; " /><path d=" M 1304.25,  329.26  C 1304.25   331.77  1306.28   333.80  1308.78   333.80 " style="stroke-width: 1.42 ;&st7; " /><path d=" M 1308.78,  333.80  C 1311.28   333.80  1313.31   331.77  1313.31   329.26 " style="stroke-width: 1.42 ;&st7; " /><path d=" M 1389.80,  329.26  C 1389.80   326.76  1387.77   324.73  1385.27   324.73 " style="stroke-width: 1.42 ;&st7; " /><path d=" M 1385.27,  324.73  C 1382.77   324.73  1380.74   326.76  1380.74   329.26 " style="stroke-width: 1.42 ;&st7; " /><path d=" M 1380.74,  329.26  C 1380.74   331.77  1382.77   333.80  1385.27   333.80 " style="stroke-width: 1.42 ;&st7; " /><path d=" M 1385.27,  333.80  C 1387.77   333.80  1389.80   331.77  1389.80   329.26 " style="stroke-width: 1.42 ;&st7; " /><path d=" M 1432.29,  329.26  C 1432.29   326.76  1430.26   324.73  1427.76   324.73 " style="stroke-width: 1.42 ;&st7; " /><path d=" M 1427.76,  324.73  C 1425.26   324.73  1423.23   326.76  1423.23   329.26 " style="stroke-width: 1.42 ;&st7; " /><path d=" M 1423.23,  329.26  C 1423.23   331.77  1425.26   333.80  1427.76   333.80 " style="stroke-width: 1.42 ;&st7; " /><path d=" M 1427.76,  333.80  C 1430.26   333.80  1432.29   331.77  1432.29   329.26 " style="stroke-width: 1.42 ;&st7; " /><path d=" M 1007.37,  558.16  C 1007.37   555.66  1005.34   553.63  1002.83   553.63 " style="stroke-width: 1.42 ;&st7; " /><path d=" M 1002.83,  553.63  C 1000.33   553.63   998.30   555.66   998.30   558.16 " style="stroke-width: 1.42 ;&st7; " /><path d=" M 1002.83,  562.69  C 1005.34   562.69  1007.37   560.66  1007.37   558.16 " style="stroke-width: 1.42 ;&st7; " /><path d=" M 1440.79,  277.71  C 1440.79   275.20  1438.76   273.17  1436.26   273.17 " style="stroke-width: 1.42 ;&st7; " /><path d=" M 1436.26,  273.17  C 1433.76   273.17  1431.73   275.20  1431.73   277.71 " style="stroke-width: 1.42 ;&st7; " /><path d=" M 1431.73,  277.71  C 1431.73   280.21  1433.76   282.24  1436.26   282.24 " style="stroke-width: 1.42 ;&st7; " /><path d=" M 1436.26,  282.24  C 1438.76   282.24  1440.79   280.21  1440.79   277.71 " style="stroke-width: 1.42 ;&st7; " /><path d=" M 1372.80,  277.71  C 1372.80   275.20  1370.77   273.17  1368.27   273.17 " style="stroke-width: 1.42 ;&st7; " /><path d=" M 1368.27,  273.17  C 1365.77   273.17  1363.74   275.20  1363.74   277.71 " style="stroke-width: 1.42 ;&st7; " /><path d=" M 1363.74,  277.71  C 1363.74   280.21  1365.77   282.24  1368.27   282.24 " style="stroke-width: 1.42 ;&st7; " /><path d=" M 1368.27,  282.24  C 1370.77   282.24  1372.80   280.21  1372.80   277.71 " style="stroke-width: 1.42 ;&st7; " /><path d=" M 1398.30,  277.71  C 1398.30   275.20  1396.27   273.17  1393.77   273.17 " style="stroke-width: 1.42 ;&st7; " /><path d=" M 1393.77,  273.17  C 1391.26   273.17  1389.23   275.20  1389.23   277.71 " style="stroke-width: 1.42 ;&st7; " /><path d=" M 1389.23,  277.71  C 1389.23   280.21  1391.26   282.24  1393.77   282.24 " style="stroke-width: 1.42 ;&st7; " /><path d=" M 1393.77,  282.24  C 1396.27   282.24  1398.30   280.21  1398.30   277.71 " style="stroke-width: 1.42 ;&st7; " /><path d=" M 1092.35,  277.71  C 1092.35   275.20  1090.32   273.17  1087.82   273.17 " style="stroke-width: 1.42 ;&st7; " /><path d=" M 1087.82,  273.17  C 1085.32   273.17  1083.29   275.20  1083.29   277.71 " style="stroke-width: 1.42 ;&st7; " /><path d=" M 1083.29,  277.71  C 1083.29   280.21  1085.32   282.24  1087.82   282.24 " style="stroke-width: 1.42 ;&st7; " /><path d=" M 1087.82,  282.24  C 1090.32   282.24  1092.35   280.21  1092.35   277.71 " style="stroke-width: 1.42 ;&st7; " /><path d=" M 1079.32,  201.50  C 1079.32   206.20  1083.12   210.00  1087.82   210.00 " style="stroke-width: 0.85 ;&st7; " /><path d=" M 1087.82,  210.00  C 1092.51   210.00  1096.32   206.20  1096.32   201.50 " style="stroke-width: 0.85 ;&st7; " /><path d=" M 1096.32,  184.50  C 1096.32   179.81  1092.51   176.01  1087.82   176.01 " style="stroke-width: 0.85 ;&st7; " /><path d=" M 1087.82,  176.01  C 1083.12   176.01  1079.32   179.81  1079.32   184.50 " style="stroke-width: 0.85 ;&st7; " /><text style="&st18;" transform="matrix(&st17;  1108.18  216.77 )">B29</text><text style="&st18;" transform="matrix(&st16;  1081.81  168.07 )">1</text><text style="&st18;" transform="matrix(&st16;  1081.03  222.44 )">2</text><text style="&st18;" transform="matrix(&st16;  1005.01  32.08 )">L-B</text><text style="&st18;" transform="matrix(&st16;  1004.51  49.08 )">Y-R</text><text style="&st18;" transform="matrix(&st16;  1006.53  626.98 )">BR</text><text style="&st18;" transform="matrix(&st16;  1006.53  397.52 )">BR</text><text style="&st18;" transform="matrix(&st17;  1084.12  76.59 )">Y-R</text><text style="&st18;" transform="matrix(&st17;  1084.12  144.58 )">Y-R</text><text style="&st18;" transform="matrix(&st17;  1084.12  254.71 )">L-R</text><text style="&st18;" transform="matrix(&st16;  1361.48  213.94 )">3</text><text style="&st18;" transform="matrix(&st16;  1077.4  289.87 )">RTHW</text><text style="&st18;" transform="matrix(&st16;  1069.82  101.49 )">16</text><text style="&st18;" transform="matrix(&st16;  1076.94  279.67 )">2</text><text style="&st18;" transform="matrix(&st16;  1086.83  279.67 )">I</text><text style="&st18;" transform="matrix(&st16;  1004.51  15.09 )">B-R</text><text style="&st18;" transform="matrix(&st16;  1055.51  15.09 )">B-R</text><text style="&st18;" transform="matrix(&st16;  1158.75  279.67 )">16</text><text style="&st18;" transform="matrix(&st16;  1169.91  279.67 )">M</text><text style="&st18;" transform="matrix(&st17;  1169.11  256.37 )">G-W</text><text style="&st18;" transform="matrix(&st16;  1166.79  213.94 )">1</text><text style="&st18;" transform="matrix(&st16;  1164.26  289.87 )">EPIM</text><text style="&st18;" transform="matrix(&st16;  1170.47  202.05 )">E</text><text style="&st18;" transform="matrix(&st16;  1352.98  168.07 )">2</text><text style="&st18;" transform="matrix(&st16;  1387.76  213.94 )">1</text><text style="&st18;" transform="matrix(&st16;  1327.49  168.07 )">4</text><text style="&st18;" transform="matrix(&st16;  1433.79  279.67 )">N</text><text style="&st18;" transform="matrix(&st16;  1425.38  279.67 )">2</text><text style="&st18;" transform="matrix(&st16;  1357.39  279.67 )">8</text><text style="&st18;" transform="matrix(&st16;  1365.8  279.67 )">N</text><text style="&st18;" transform="matrix(&st16;  1379.71  279.67 )">13</text><text style="&st18;" transform="matrix(&st16;  1391.29  279.67 )">N</text><text style="&st18;" transform="matrix(&st16;  1327.49  213.94 )">5</text><text style="&st18;" transform="matrix(&st17;  1432.56  255.48 )">G-R</text><text style="&st18;" transform="matrix(&st17;  1364.58  251.0 )">G</text><text style="&st18;" transform="matrix(&st17;  1390.07  255.34 )">G-B</text><text style="&st18;" transform="matrix(&st16;  1427.01  289.87 )">PCR2</text><text style="&st18;" transform="matrix(&st16;  1361.63  289.87 )">E2S</text><text style="&st18;" transform="matrix(&st16;  1386.63  289.87 )">VCS</text><text style="&st18;" transform="matrix(&st16;  1352.99  179.39 )">PR2</text><text style="&st18;" transform="matrix(&st16;  1361.63  202.05 )">E2S</text><text style="&st18;" transform="matrix(&st16;  1386.63  202.05 )">VCS</text><text style="&st18;" transform="matrix(&st16;  1456.95  550.5 )">BR</text><text style="&st18;" transform="matrix(&st16;  1412.47  559.0 )">7</text><text style="&st18;" transform="matrix(&st16;  1379.26  414.53 )">1</text><text style="&st18;" transform="matrix(&st16;  1378.48  460.4 )">2</text><text style="&st18;" transform="matrix(&st16;  1463.47  205.45 )">9</text><text style="&st18;" transform="matrix(&st16;  1461.06  176.57 )">11</text><text style="&st18;" transform="matrix(&st16;  1166.02  460.4 )">2</text><text style="&st18;" transform="matrix(&st16;  1166.79  414.53 )">1</text><text style="&st18;" transform="matrix(&st16;  1132.59  202.05 )">PIM</text><text style="&st18;" transform="matrix(&st16;  1329.47  202.05 )">PR</text><text style="&st18;" transform="matrix(&st16;  1304.01  448.51 )">G-</text><text style="&st18;" transform="matrix(&st16;  1418.61  321.03 )">PCV-</text><text style="&st18;" transform="matrix(&st16;  1376.12  321.03 )">PCV+</text><text style="&st18;" transform="matrix(&st16;  1301.96  321.03 )">NE-</text><text style="&st18;" transform="matrix(&st16;  1267.97  321.03 )">NE+</text><text style="&st18;" transform="matrix(&st16;  1202.03  321.03 )">G-</text><text style="&st18;" transform="matrix(&st16;  1168.04  321.32 )">G+</text><text style="&st18;" transform="matrix(&st16;  1126.39  321.03 )">E1</text><text style="&st18;" transform="matrix(&st16;  1132.59  289.87 )">PIM</text><text style="&st18;" transform="matrix(&st16;  1214.4  289.87 )">EGLS</text><text style="&st18;" transform="matrix(&st16;  1325.41  289.87 )">PCR1</text><text style="&st18;" transform="matrix(&st16;  1465.45  289.87 )">VC</text><text style="&st18;" transform="matrix(&st16;  1269.98  425.85 )">NE</text><text style="&st18;" transform="matrix(&st16;  1301.96  425.85 )">NE-</text><text style="&st18;" transform="matrix(&st16;  1388.96  179.39 )">VC</text><text style="&st18;" transform="matrix(&st16;  1329.97  179.39 )">E2</text><text style="&st18;" transform="matrix(&st16;  1134.01  179.39 )">VC</text><text style="&st18;" transform="matrix(&st16;  1386.98  168.07 )">6</text><text style="&st18;" transform="matrix(&st16;  1344.48  559.0 )">5</text><text style="&st18;" transform="matrix(&st16;  1217.0  559.0 )">3</text><text style="&st18;" transform="matrix(&st16;  1121.11  559.0 )">11</text><text style="&st18;" transform="matrix(&st16;  1268.77  414.53 )">1</text><text style="&st18;" transform="matrix(&st16;  1301.99  414.53 )">2</text><text style="&st18;" transform="matrix(&st16;  1301.99  460.4 )">3</text><text style="&st18;" transform="matrix(&st16;  1260.27  168.07 )">1</text><text style="&st18;" transform="matrix(&st16;  1217.0  168.07 )">2</text><text style="&st18;" transform="matrix(&st16;  1132.02  168.07 )">3</text><text style="&st18;" transform="matrix(&st16;  1217.01  213.94 )">3</text><text style="&st18;" transform="matrix(&st16;  1132.02  213.94 )">2</text><text style="&st18;" transform="matrix(&st17;  1135.11  135.59 )">L-B</text><text style="&st18;" transform="matrix(&st17;  1220.1  136.08 )">Y-R</text><text style="&st18;" transform="matrix(&st17;  1262.59  135.59 )">L-B</text><text style="&st18;" transform="matrix(&st17;  1330.58  131.59 )">Y</text><text style="&st18;" transform="matrix(&st17;  1390.07  135.73 )">L-R</text><text style="&st18;" transform="matrix(&st17;  1466.56  135.59 )">L-B</text><text style="&st18;" transform="matrix(&st17;  1466.56  254.57 )">L-B</text><text style="&st18;" transform="matrix(&st17;  1330.58  250.57 )">P</text><text style="&st18;" transform="matrix(&st17;  1220.1  250.57 )">P</text><text style="&st18;" transform="matrix(&st17;  1135.11  250.57 )">P</text><text style="&st18;" transform="matrix(&st17;  1203.1  374.23 )">G</text><text style="&st18;" transform="matrix(&st17;  1169.11  373.95 )">R</text><text ewd:textID="1" style="&st18;" transform="matrix(&st17;  1152.11  387.47 )">(Shielded)</text><text style="&st18;" transform="matrix(&st17;  1126.62  376.28 )">BR</text><text ewd:textID="1" style="&st18;" transform="matrix(&st17;  1245.6  387.47 )">(Shielded)</text><text style="&st18;" transform="matrix(&st17;  1305.09  482.51 )">BR</text><text style="&st18;" transform="matrix(&st17;  1381.57  369.55 )">P</text><text style="&st18;" transform="matrix(&st17;  1424.07  374.04 )">Y-R</text><text style="&st18;" transform="matrix(&st16;  1056.0  32.08 )">L-B</text><text style="&st18;" transform="matrix(&st16;  1055.51  49.08 )">Y-R</text><text style="&st18;" transform="matrix(&st16;  1246.96  49.08 )">Y</text><text style="&st18;" transform="matrix(&st16;  1217.47  32.08 )">L-B</text><text style="&st18;" transform="matrix(&st16;  1302.46  32.08 )">L-B</text><text style="&st18;" transform="matrix(&st16;  1421.44  32.08 )">L-B</text><text style="&st18;" transform="matrix(&st16;  1178.78  587.3 )">D43</text><text style="&st18;" transform="matrix(&st17;  1188.91  208.28 )">D51</text><text style="&st18;" transform="matrix(&st17;  1290.9  208.28 )">D52</text><text style="&st18;" transform="matrix(&st16;  1057.52  626.98 )">BR</text><text style="&st18;" transform="matrix(&st17;  1418.38  208.28 )">D69</text><text style="&st18;" transform="matrix(&st16;  1057.52  397.52 )">BR</text><text style="&st18;" transform="matrix(&st17;  1486.36  199.78 )">D44</text><text style="&st18;" transform="matrix(&st17;  1188.91  454.73 )">D10</text><text style="&st18;" transform="matrix(&st17;  1249.54  454.73 )">D72</text><text style="&st18;" transform="matrix(&st17;  1401.38  454.73 )">D47</text><text style="&st18;" transform="matrix(&st17;  1126.62  533.5 )">BR</text><text ewd:textID="1" style="&st18;" transform="matrix(&st17;  1220.1  544.7 )">(Shielded)</text><text ewd:textID="1" style="&st18;" transform="matrix(&st17;  1347.58  544.7 )">(Shielded)</text><text style="&st18;" transform="matrix(&st16;  1226.63  179.95 )">E2</text><text style="&st18;" transform="matrix(&st16;  1269.12  179.95 )">VC</text><text style="&st18;" transform="matrix(&st16;  1226.63  202.06 )">EGLS</text><text style="&st18;" transform="matrix(&st16;  1135.91  279.67 )">M</text><text style="&st18;" transform="matrix(&st16;  1127.93  279.67 )">5</text><text style="&st18;" transform="matrix(&st16;  1212.92  279.67 )">4</text><text style="&st18;" transform="matrix(&st16;  1220.9  279.67 )">M</text><text style="&st18;" transform="matrix(&st16;  1331.8  279.67 )">N</text><text style="&st18;" transform="matrix(&st16;  1320.22  279.67 )">16</text><text style="&st18;" transform="matrix(&st16;  1467.36  279.67 )">M</text><text style="&st18;" transform="matrix(&st16;  1456.2  279.67 )">13</text><text style="&st18;" transform="matrix(&st16;  1127.98  331.23 )">K</text><text style="&st18;" transform="matrix(&st16;  1120.21  331.23 )">1</text><text style="&st18;" transform="matrix(&st16;  1170.83  331.23 )">L</text><text style="&st18;" transform="matrix(&st16;  1158.75  331.23 )">13</text><text style="&st18;" transform="matrix(&st16;  1204.82  331.23 )">L</text><text style="&st18;" transform="matrix(&st16;  1192.74  331.23 )">14</text><text style="&st18;" transform="matrix(&st16;  1272.81  331.23 )">L</text><text style="&st18;" transform="matrix(&st16;  1263.91  331.23 )">7</text><text style="&st18;" transform="matrix(&st16;  1306.8  331.23 )">L</text><text style="&st18;" transform="matrix(&st16;  1297.9  331.23 )">8</text><text style="&st18;" transform="matrix(&st16;  1383.29  331.23 )">L</text><text style="&st18;" transform="matrix(&st16;  1370.44  331.23 )">23</text><text style="&st18;" transform="matrix(&st16;  1425.78  331.23 )">L</text><text style="&st18;" transform="matrix(&st16;  1413.71  331.23 )">12</text><text ewd:textID="46" style="&st18;" transform="matrix(&st17;  1115.28  216.77 )">Water Temp. Sensor (Radiator)</text><text ewd:textID="6" style="&st18;" transform="matrix(&st17;  1196.02  454.73 )">Camshaft <tspan dy="6" x="0">Position Sensor</tspan></text><text ewd:textID="12" style="&st18;" transform="matrix(&st17;  1256.64  454.73 )">Crankshaft <tspan dy="6" x="0">Position Sensor</tspan></text><text ewd:textID="27" style="&st18;" transform="matrix(&st16;  1178.78  594.41 )">Junction Connector</text><text ewd:textID="27" style="&st18;" transform="matrix(&st17;  1493.47  199.78 )">Junction <tspan dy="6" x="0">Connector</tspan></text><text ewd:textID="20" style="&st18;" transform="matrix(&st17;  1425.48  208.28 )">Fuel Pressure Sensor</text><text ewd:textID="35" style="&st18;" transform="matrix(&st17;  1408.48  454.73 )">Suction <tspan dy="6" x="0">Control Valve</tspan></text><text ewd:textID="42" style="&st18;" transform="matrix(&st17;  1196.02  208.28 )">Turbo Pressure Sensor</text><text ewd:textID="14" style="&st18;" transform="matrix(&st17;  1298.0  208.28 )">EGR Valve <tspan dy="6" x="-0.01">Position Sensor</tspan></text><text style="&st18;" transform="matrix(&st16;  1221.27  301.18 )">B47(I),B48(J),D70(K),D71(L),D75(M),D76(N)</text><text ewd:textID="15" style="&st18;" transform="matrix(&st16;  1221.27  308.29 )">Engine ECU</text><text style="&st18;" transform="matrix(&st16;  1000.5  560.13 )">A</text><text style="&st18;" transform="matrix(&st16;  1106.5  49.08 )">Y-R</text><text style="&st18;" transform="matrix(&st16;  1413.25  587.88 )">1</text><text style="&st18;" transform="matrix(&st17;  1415.57  609.99 )">BR</text><text style="&st18;" transform="matrix(&st17;  1271.09  373.95 )">R</text><text style="&st18;" transform="matrix(&st17;  1305.09  374.23 )">G</text></svg>