﻿<?xml version="1.0" encoding="utf-8"?>
<!-- Generator: Adobe Illustrator 10.0, SVG Export Plug-In . SVG Version: 3.0.0 Build 77)  -->
<!DOCTYPE svg PUBLIC "-//W3C//DTD SVG 1.0//EN" "http://www.w3.org/TR/2001/REC-SVG-20010904/DTD/svg10.dtd"[
   <!ENTITY ns_flows "http://ns.adobe.com/Flows/1.0/">
   <!ENTITY ns_svg "http://www.w3.org/2000/svg">
   <!ENTITY ns_xlink "http://www.w3.org/1999/xlink">
   <!ENTITY st0 "font-size:7px;font-family:'MS-PGothic';adobe-font-script:japanese;">
   <!ENTITY st1 "font-size:6px;font-family:'ArialMT';">
   <!ENTITY st2 "fill:#FFFFFF;stroke:#000000; stroke-width:1.41;stroke-linecap:round;stroke-linejoin:round;">
   <!ENTITY st3 "fill:#FFFFCC;stroke:#FFFFCC; stroke-width:0.1;stroke-linecap:round;stroke-linejoin:round;">
   <!ENTITY st4 "fill:#CCCCCC;stroke:#CCCCCC; stroke-width:0.1;stroke-linecap:round;stroke-linejoin:round;">
   <!ENTITY st5 "fill:#CCECF4;stroke:#000000; stroke-width:1.133;stroke-linecap:round;stroke-linejoin:round;">
   <!ENTITY st6 "fill:none;stroke-linecap:butt; stroke-linejoin:round;">
   <!ENTITY st7 "fill:none;stroke:#000000;stroke-linecap:round;stroke-linejoin:round;">
   <!ENTITY st8 "enable-background:new;">
   <!ENTITY st9 "fill:#000000;stroke:#000000; stroke-linecap:round;stroke-linejoin:round;">
   <!ENTITY st10 "font-size:9px;font-family:'ArialMT';">
   <!ENTITY st11 "font-size:9px;font-family:'Svg Symbol';">
   <!ENTITY st12 "font-size:6px;font-family:'Svg Symbol';">
   <!ENTITY st13 "fill:none;stroke:#ff0000;stroke-linecap:round;stroke-linejoin:round;">
   <!ENTITY st14 "fill:#FFFF00;stroke:#FFFF00; stroke-width:0.1;stroke-linecap:round;stroke-linejoin:round;">
   <!ENTITY st15 "font-size:6px;font-family:'MS-PGothic';adobe-font-script:japanese;">
   <!ENTITY st16 "1.00 0.00 0.00 1.00">
   <!ENTITY st17 "0.00 -1.00 1.00 0.00">
   <!ENTITY st18 "font-size:6px;font-family:'Arial';">
   <!ENTITY st19 "font-size:9px;font-family:'Arial';">
   <!ENTITY st20 "font-size:6px;font-family:'MS-PGothic','MS PGothic';adobe-font-script:japanese;">
   <!ENTITY st21 "font-size:7px;font-family:'MS-PGothic','MS PGothic';adobe-font-script:japanese;">
   <!ATTLIST svg
       xmlns:ewd CDATA #FIXED "http://shcl.co.jp/ewd"
       xmlns:a CDATA #FIXED "http://ns.adobe.com/AdobeSVGViewerExtensions/3.0/"
       ewd:ver CDATA #IMPLIED >
   <!ATTLIST a
       ewd:lineID CDATA #IMPLIED
       ewd:groupID CDATA #IMPLIED
       ewd:figtype CDATA #IMPLIED
       ewd:code CDATA #IMPLIED
       ewd:figID CDATA #IMPLIED
       ewd:pinNo CDATA #IMPLIED
       ewd:comment CDATA #IMPLIED >
   <!ATTLIST g
       ewd:lineID CDATA #IMPLIED
       ewd:groupID CDATA #IMPLIED
       ewd:figtype CDATA #IMPLIED
       ewd:code CDATA #IMPLIED
       ewd:figID CDATA #IMPLIED
       ewd:pinNo CDATA #IMPLIED
       ewd:comment CDATA #IMPLIED >
   <!ATTLIST text
       ewd:textID CDATA #IMPLIED >
   <!ATTLIST title
       ewd:textID CDATA #IMPLIED >
]>
<svg xmlns="http://www.w3.org/2000/svg" xmlns:xlink="http://www.w3.org/1999/xlink" width="5733.68" height="724.44" viewBox="0 0 5733.68 724.44" xml:space="preserve" xmlns:ewd="http://shcl.co.jp/ewd" ewd:ver="2.0">
  
  <defs>
    <font horiz-adv-x="1229">
      <font-face font-family="Svg Symbol" units-per-em="2048" panose-1="5 5 1 2 1 7 6 2 5 7" ascent="2059" descent="450" alphabetic="0" />
      <missing-glyph d="M 103,0 l 0,1280 1024,0 0,-1280 -1024,0 z m 32,32 l 960,0 0,1216 -960,0 0,-1216 z" />
      <glyph d4p1:unicode="" horiz-adv-x="1573" d="M 1517,0 l -567,0 24,279 q 141,59 207.5,168 66.5,109 66.5,306 0,272 -132.5,417.5 -132.5,145.5 -333.5,145.5 -194,0 -328,-147.5 -134,-147.5 -134,-401.5 0,-200 68.5,-319 68.5,-119 206.5,-169 l 25,-279 -564,0 0,279 35,0 q 3,-61 32,-83 45,-35 137,-35 l 270,0 0,70 q -210,61 -324.5,209 -114.5,148 -114.5,349 0,252 186.5,425 186.5,173 504.5,173 195,0 358.5,-73.5 163.5,-73.5 252,-214.5 88.5,-141 88.5,-310 0,-207 -121.5,-360.5 -121.5,-153.5 -317.5,-197.5 l -8,-70 275,0 q 92,0 128,28 36,28 42,90 l 38,0 0,-279 z" xmlns:d4p1="def-glyph-attr-unicode" />
    </font>
  </defs>
  
<g ewd:figtype="jb" ewd:code="6" ewd:figID="3">
      <path d="M 2300.49,342.97 C 2300.49 343.75 2299.86 344.39 2299.07 344.39 C 2298.28013671875 344.390029296875 2297.65 343.76 2297.65 342.97 C 2297.6498046875 342.180002441406 2298.28 341.55 2299.07 341.55 C 2299.86013671875 341.549975585937 2300.49 342.18 2300.49 342.97" style="stroke-linecap:round;stroke-linejoin:round;" />
      <path d="M 2300.49,410.98 C 2300.49 411.76 2299.86 412.4 2299.07 412.4 C 2298.28013671875 412.399987792969 2297.65 411.77 2297.65 410.98 C 2297.65 410.2 2298.28 409.56 2299.07 409.56 C 2299.86013671875 409.559995117188 2300.49 410.2 2300.49 410.98" style="stroke-linecap:round;stroke-linejoin:round;" />
      <path d="M 2300.49,445.02 C 2300.49 445.8 2299.86 446.44 2299.07 446.44 C 2298.28013671875 446.440004882813 2297.65 445.81 2297.65 445.02 C 2297.6498046875 444.229978027344 2298.28 443.6 2299.07 443.6 C 2299.86013671875 443.600012207031 2300.49 444.24 2300.49 445.02" style="stroke-linecap:round;stroke-linejoin:round;" />
      <path d="M 2300.49,479.04 C 2300.49 479.82 2299.86 480.46 2299.07 480.46 C 2298.28013671875 480.459982910156 2297.65 479.83 2297.65 479.04 C 2297.6498046875 478.250017089844 2298.28 477.62 2299.07 477.62 C 2299.86013671875 477.619990234375 2300.49 478.25 2300.49 479.04" style="stroke-linecap:round;stroke-linejoin:round;" />
      <path d="M 2300.35,513.05 C 2300.35 513.83 2299.72 514.47 2298.93 514.47 C 2298.13986328125 514.46994140625 2297.51 513.84 2297.51 513.05 C 2297.51001953125 512.259975585937 2298.14 511.63 2298.93 511.63 C 2299.71986328125 511.630009765625 2300.35 512.27 2300.35 513.05" style="stroke-linecap:round;stroke-linejoin:round;" />
      <path d="M 2300.35,538.57 C 2300.35 539.35 2299.72 539.99 2298.93 539.99 C 2298.13986328125 539.98998046875 2297.51 539.36 2297.51 538.57 C 2297.51001953125 537.780014648437 2298.14 537.15 2298.93 537.15 C 2299.71986328125 537.150048828125 2300.35 537.79 2300.35 538.57" style="stroke-linecap:round;stroke-linejoin:round;" />
      <path style="fill:none;stroke:#000000;stroke-width:0.85;" d="M 2298.92,538.54 L 2313.23, 538.54" />
      <path style="fill:none;stroke:#000000;stroke-width:0.85;" d="M 2299.07,445.02 L 2313.23, 445.02" />
      <path style="fill:none;stroke:#000000;stroke-width:0.85;" d="M 2299.07,538.56 L 2299.07, 342.96" />
      <path style="fill:none;stroke:#000000;stroke-width:0.85;" d="M 2298.93,538.54 L 2284.88, 538.54" />
      <path style="fill:none;stroke:#000000;stroke-width:0.85;" d="M 2298.93,513.03 L 2284.88, 513.03" />
      <path style="fill:none;stroke:#000000;stroke-width:0.85;" d="M 2298.93,479.02 L 2284.88, 479.02" />
      <path style="fill:none;stroke:#000000;stroke-width:0.85;" d="M 2298.93,445 L 2284.88, 445" />
      <path style="fill:none;stroke:#000000;stroke-width:0.85;" d="M 2298.93,410.98 L 2284.88, 410.98" />
      <path style="fill:none;stroke:#000000;stroke-width:0.85;" d="M 2284.88,342.95 L 2313.23, 342.95" />
      <path d="M 2313.23,445.01 L 2310.4, 442.17 L 2307.57, 442.17 L 2310.4, 445.01 L 2307.57, 447.84 L 2310.4, 447.84 L 2313.23, 445.01" style="stroke-linecap:round;stroke-linejoin:round;" />
      <path style="fill:none;stroke:#000000;stroke-width:0.85;stroke-linecap:round;stroke-linejoin:round;" d="M 2327.41,450.68 C 2330.54 450.68 2333.08 448.14 2333.08 445.01 C 2333.08 441.88 2330.54 439.34 2327.41 439.34 L 2318.91, 439.34 C 2315.78 439.34 2313.24 441.88 2313.24 445.01 C 2313.24 448.14 2315.78 450.68 2318.91 450.68 L 2327.41, 450.68" />
      <path d="M 2313.23,538.57 L 2310.4, 535.73 L 2307.57, 535.73 L 2310.4, 538.57 L 2307.57, 541.4 L 2310.4, 541.4 L 2313.23, 538.57" style="stroke-linecap:round;stroke-linejoin:round;" />
      <path style="fill:none;stroke:#000000;stroke-width:0.85;stroke-linecap:round;stroke-linejoin:round;" d="M 2327.41,544.23 C 2330.54 544.23 2333.08 541.69 2333.08 538.56 C 2333.08 535.43 2330.54 532.89 2327.41 532.89 L 2318.91, 532.89 C 2315.78 532.89 2313.24 535.43 2313.24 538.56 C 2313.24 541.69 2315.78 544.23 2318.91 544.23 L 2327.41, 544.23" />
      <path d="M 2313.23,342.95 L 2310.4, 340.11 L 2307.57, 340.11 L 2310.4, 342.94 L 2307.57, 345.77 L 2310.4, 345.77 L 2313.23, 342.95" style="stroke-linecap:round;stroke-linejoin:round;" />
      <path style="fill:none;stroke:#000000;stroke-width:0.85;stroke-linecap:round;stroke-linejoin:round;" d="M 2327.41,348.62 C 2330.54 348.62 2333.08 346.08 2333.08 342.95 C 2333.08 339.82 2330.54 337.28 2327.41 337.28 L 2318.91, 337.28 C 2315.78 337.28 2313.24 339.82 2313.24 342.95 C 2313.24 346.08 2315.78 348.62 2318.91 348.62 L 2327.41, 348.62" />
      <path d="M 2284.88,538.54 L 2287.71, 535.7 L 2290.55, 535.7 L 2287.71, 538.53 L 2290.55, 541.36 L 2287.71, 541.36 L 2284.88, 538.54" style="stroke-linecap:round;stroke-linejoin:round;" />
      <path style="fill:none;stroke:#000000;stroke-width:0.85;stroke-linecap:round;stroke-linejoin:round;" d="M 2279.21,544.21 C 2282.34 544.21 2284.88 541.67 2284.88 538.54 C 2284.88 535.41 2282.34 532.87 2279.21 532.87 L 2270.71, 532.87 C 2267.58 532.87 2265.04 535.41 2265.04 538.54 C 2265.04 541.67 2267.58 544.21 2270.71 544.21 L 2279.21, 544.21" />
      <path d="M 2284.88,513.03 L 2287.71, 510.19 L 2290.55, 510.19 L 2287.71, 513.02 L 2290.55, 515.85 L 2287.71, 515.85 L 2284.88, 513.03" style="stroke-linecap:round;stroke-linejoin:round;" />
      <path style="fill:none;stroke:#000000;stroke-width:0.85;stroke-linecap:round;stroke-linejoin:round;" d="M 2279.21,518.7 C 2282.34 518.7 2284.88 516.16 2284.88 513.03 C 2284.88 509.9 2282.34 507.36 2279.21 507.36 L 2270.71, 507.36 C 2267.58 507.36 2265.04 509.9 2265.04 513.03 C 2265.04 516.16 2267.58 518.7 2270.71 518.7 L 2279.21, 518.7" />
      <path d="M 2284.88,479.02 L 2287.71, 476.18 L 2290.55, 476.18 L 2287.71, 479.01 L 2290.55, 481.84 L 2287.71, 481.84 L 2284.88, 479.02" style="stroke-linecap:round;stroke-linejoin:round;" />
      <path style="fill:none;stroke:#000000;stroke-width:0.85;stroke-linecap:round;stroke-linejoin:round;" d="M 2279.21,484.68 C 2282.34 484.68 2284.88 482.14 2284.88 479.01 C 2284.88 475.88 2282.34 473.34 2279.21 473.34 L 2270.71, 473.34 C 2267.58 473.34 2265.04 475.88 2265.04 479.01 C 2265.04 482.14 2267.58 484.68 2270.71 484.68 L 2279.21, 484.68" />
      <path d="M 2284.88,445 L 2287.71, 442.16 L 2290.55, 442.16 L 2287.71, 444.99 L 2290.55, 447.82 L 2287.71, 447.82 L 2284.88, 445" style="stroke-linecap:round;stroke-linejoin:round;" />
      <path style="fill:none;stroke:#000000;stroke-width:0.85;stroke-linecap:round;stroke-linejoin:round;" d="M 2279.21,450.67 C 2282.34 450.67 2284.88 448.13 2284.88 445 C 2284.88 441.87 2282.34 439.33 2279.21 439.33 L 2270.71, 439.33 C 2267.58 439.33 2265.04 441.87 2265.04 445 C 2265.04 448.13 2267.58 450.67 2270.71 450.67 L 2279.21, 450.67" />
      <path d="M 2284.88,410.98 L 2287.71, 408.14 L 2290.55, 408.14 L 2287.71, 410.97 L 2290.55, 413.8 L 2287.71, 413.8 L 2284.88, 410.98" style="stroke-linecap:round;stroke-linejoin:round;" />
      <path style="fill:none;stroke:#000000;stroke-width:0.85;stroke-linecap:round;stroke-linejoin:round;" d="M 2279.21,416.65 C 2282.34 416.65 2284.88 414.11 2284.88 410.98 C 2284.88 407.85 2282.34 405.31 2279.21 405.31 L 2270.71, 405.31 C 2267.58 405.31 2265.04 407.85 2265.04 410.98 C 2265.04 414.11 2267.58 416.65 2270.71 416.65 L 2279.21, 416.65" />
      <path d="M 2284.88,342.95 L 2287.71, 340.11 L 2290.55, 340.11 L 2287.71, 342.94 L 2290.55, 345.77 L 2287.71, 345.77 L 2284.88, 342.95" style="stroke-linecap:round;stroke-linejoin:round;" />
      <path style="fill:none;stroke:#000000;stroke-width:0.85;stroke-linecap:round;stroke-linejoin:round;" d="M 2279.21,348.62 C 2282.34 348.62 2284.88 346.08 2284.88 342.95 C 2284.88 339.82 2282.34 337.28 2279.21 337.28 L 2270.71, 337.28 C 2267.58 337.28 2265.04 339.82 2265.04 342.95 C 2265.04 346.08 2267.58 348.62 2270.71 348.62 L 2279.21, 348.62" />
      <text transform="matrix(1 0 0 1 2319.6533 446.7188)" style="font-family:'Arial'; font-size:6px;">6F</text>
      <text transform="matrix(1 0 0 1 2321.4858 436.7969)" style="font-family:'Arial'; font-size:6px;">5</text>
      <text transform="matrix(1 0 0 1 2319.6533 540.2725)" style="font-family:'Arial'; font-size:6px;">6F</text>
      <text transform="matrix(1 0 0 1 2321.4858 530.3506)" style="font-family:'Arial'; font-size:6px;">1</text>
      <text transform="matrix(1 0 0 1 2319.6533 344.6597)" style="font-family:'Arial'; font-size:6px;">6F</text>
      <text transform="matrix(1 0 0 1 2321.4858 334.7378)" style="font-family:'Arial'; font-size:6px;">9</text>
      <text transform="matrix(1 0 0 1 2271.4619 540.25)" style="font-family:'Arial'; font-size:6px;">6F</text>
      <text transform="matrix(1 0 0 1 2273.2944 530.3271)" style="font-family:'Arial'; font-size:6px;">7</text>
      <text transform="matrix(1 0 0 1 2271.4619 514.7383)" style="font-family:'Arial'; font-size:6px;">6F</text>
      <text transform="matrix(1 0 0 1 2273.2944 504.8154)" style="font-family:'Arial'; font-size:6px;">6</text>
      <text transform="matrix(1 0 0 1 2271.4619 480.7227)" style="font-family:'Arial'; font-size:6px;">6F</text>
      <text transform="matrix(1 0 0 1 2273.2944 470.7998)" style="font-family:'Arial'; font-size:6px;">4</text>
      <text transform="matrix(1 0 0 1 2271.4619 446.707)" style="font-family:'Arial'; font-size:6px;">6F</text>
      <text transform="matrix(1 0 0 1 2273.2944 436.7842)" style="font-family:'Arial'; font-size:6px;">2</text>
      <text transform="matrix(1 0 0 1 2271.4619 412.6914)" style="font-family:'Arial'; font-size:6px;">6F</text>
      <text transform="matrix(1 0 0 1 2273.2944 402.7686)" style="font-family:'Arial'; font-size:6px;">8</text>
      <text transform="matrix(1 0 0 1 2271.4619 344.6597)" style="font-family:'Arial'; font-size:6px;">6F</text>
      <text transform="matrix(1 0 0 1 2273.2944 334.7373)" style="font-family:'Arial'; font-size:6px;">3</text>
    </g><g ewd:figtype="jb" ewd:code="13" ewd:figID="1">
      <path style="fill:none;stroke:#000000;stroke-width:0.85;" d="M 2514.52,351.46 L 2537.19, 351.46" />
      <path style="fill:none;stroke:#000000;stroke-width:1.417;stroke-linecap:round;stroke-linejoin:round;" d="M 2622.24,368.47 L 2622.24, 342.96 L 2537.2, 342.96 L 2537.2, 368.47 L 2622.24, 368.47" />
      <path d="M 2514.52,351.46 L 2517.35, 348.63 L 2520.18, 348.63 L 2517.35, 351.46 L 2520.18, 354.3 L 2517.35, 354.3 L 2514.52, 351.46" style="stroke-linecap:round;stroke-linejoin:round;" />
      <path style="fill:none;stroke:#000000;stroke-width:0.85;stroke-linecap:round;stroke-linejoin:round;" d="M 2500.35,357.12 C 2497.22 357.12 2494.68 354.58 2494.68 351.45 C 2494.68 348.32 2497.22 345.78 2500.35 345.78 L 2508.85, 345.78 C 2511.98 345.78 2514.52 348.32 2514.52 351.45 C 2514.52 354.58 2511.98 357.12 2508.85 357.12 L 2500.35, 357.12" />
      <text transform="matrix(1 0 0 1 2565.5464 358.1265)" style="font-family:'Arial'; font-size:6px;" ewd:textID="172">RR HTR Relay</text>
      <text transform="matrix(1 0 0 1 2538.6177 353.1665)" style="font-family:'Arial'; font-size:6px;">(-S)</text>
      <text transform="matrix(1 0 0 1 2499.0996 353.1616)" style="font-family:'Arial'; font-size:6px;">13C</text>
      <text transform="matrix(1 0 0 1 2501.2661 343.2402)" style="font-family:'Arial'; font-size:6px;">15</text>
    </g><g ewd:figtype="w2w" ewd:code="HA1" ewd:pin_no="9" ewd:figID="131">
      <path style="fill:#FFFFFF;stroke:#FFFFFF;stroke-width:0;stroke-linecap:round;stroke-linejoin:round;" d="M 2376.5,168.62 L 2372.25, 172.87 L 2376.5, 177.12 L 2369.95, 177.12 L 2369.95, 168.62 L 2376.5, 168.62" />
      <path style="fill:#FFFFFF;stroke:#FFFFFF;stroke-width:0;stroke-linecap:round;stroke-linejoin:round;" d="M 2379.33,168.62 L 2375.08, 172.87 L 2379.33, 177.12 L 2372.78, 177.12 L 2372.78, 168.62 L 2379.33, 168.62" />
      <path style="fill:none;stroke:#000000;stroke-width:0.85;" d="M 2377.03,168.62 L 2372.78, 172.87 L 2377.03, 177.12" />
      <path style="fill:none;stroke:#000000;stroke-width:0.85;" d="M 2374.2,168.62 L 2369.95, 172.87 L 2374.2, 177.12" />
      <path style="fill:none;stroke:#000000;stroke-width:0.85;stroke-linecap:round;stroke-linejoin:round;" d="M 2369.94,177.13 L 2369.94, 168.63 L 2350.1, 168.63 L 2350.1, 177.13 L 2369.94, 177.13" />
      <text transform="matrix(1 0 0 1 2358.3535 166.4312)" style="font-family:'Arial'; font-size:6px;">9</text>
    </g><g ewd:figtype="w2w" ewd:code="Hu1" ewd:pin_no="12" ewd:figID="132">
      <path style="fill:#FFFFFF;stroke:#FFFFFF;stroke-width:0;stroke-linecap:round;stroke-linejoin:round;" d="M 2376.5,219.65 L 2372.25, 223.9 L 2376.5, 228.15 L 2369.95, 228.15 L 2369.95, 219.65 L 2376.5, 219.65" />
      <path style="fill:#FFFFFF;stroke:#FFFFFF;stroke-width:0;stroke-linecap:round;stroke-linejoin:round;" d="M 2379.33,219.65 L 2375.08, 223.9 L 2379.33, 228.15 L 2372.78, 228.15 L 2372.78, 219.65 L 2379.33, 219.65" />
      <path style="fill:none;stroke:#000000;stroke-width:0.85;" d="M 2377.03,219.65 L 2372.78, 223.9 L 2377.03, 228.15" />
      <path style="fill:none;stroke:#000000;stroke-width:0.85;" d="M 2374.2,219.65 L 2369.95, 223.9 L 2374.2, 228.15" />
      <path style="fill:none;stroke:#000000;stroke-width:0.85;stroke-linecap:round;stroke-linejoin:round;" d="M 2369.94,228.15 L 2369.94, 219.65 L 2350.1, 219.65 L 2350.1, 228.15 L 2369.94, 228.15" />
      <text transform="matrix(1 0 0 1 2356.6855 217.4551)" style="font-family:'Arial'; font-size:6px;">12</text>
    </g><g ewd:figtype="w2w" ewd:code="KA2" ewd:pin_no="5" ewd:figID="133">
      <path style="fill:#FFFFFF;stroke:#FFFFFF;stroke-width:0;stroke-linecap:round;stroke-linejoin:round;" d="M 2462.61,117.59 L 2466.86, 121.84 L 2462.61, 126.09 L 2469.16, 126.09 L 2469.16, 117.59 L 2462.61, 117.59" />
      <path style="fill:#FFFFFF;stroke:#FFFFFF;stroke-width:0;stroke-linecap:round;stroke-linejoin:round;" d="M 2459.77,117.59 L 2464.02, 121.84 L 2459.77, 126.09 L 2466.32, 126.09 L 2466.32, 117.59 L 2459.77, 117.59" />
      <path style="fill:none;stroke:#000000;stroke-width:0.85;" d="M 2462.07,117.59 L 2466.32, 121.84 L 2462.07, 126.09" />
      <path style="fill:none;stroke:#000000;stroke-width:0.85;" d="M 2464.91,117.59 L 2469.16, 121.84 L 2464.91, 126.09" />
      <path style="fill:none;stroke:#000000;stroke-width:0.85;stroke-linecap:round;stroke-linejoin:round;" d="M 2469.16,126.1 L 2469.16, 117.6 L 2489, 117.6 L 2489, 126.1 L 2469.16, 126.1" />
      <text transform="matrix(1 0 0 1 2477.4131 115.4023)" style="font-family:'Arial'; font-size:6px;">5</text>
    </g><g ewd:figtype="w2w" ewd:code="LA2" ewd:pin_no="5" ewd:figID="134">
      <path style="fill:#FFFFFF;stroke:#FFFFFF;stroke-width:0;stroke-linecap:round;stroke-linejoin:round;" d="M 2462.61,168.62 L 2466.86, 172.87 L 2462.61, 177.12 L 2469.16, 177.12 L 2469.16, 168.62 L 2462.61, 168.62" />
      <path style="fill:#FFFFFF;stroke:#FFFFFF;stroke-width:0;stroke-linecap:round;stroke-linejoin:round;" d="M 2459.77,168.62 L 2464.02, 172.87 L 2459.77, 177.12 L 2466.32, 177.12 L 2466.32, 168.62 L 2459.77, 168.62" />
      <path style="fill:none;stroke:#000000;stroke-width:0.85;" d="M 2462.07,168.62 L 2466.32, 172.87 L 2462.07, 177.12" />
      <path style="fill:none;stroke:#000000;stroke-width:0.85;" d="M 2464.91,168.62 L 2469.16, 172.87 L 2464.91, 177.12" />
      <path style="fill:none;stroke:#000000;stroke-width:0.85;stroke-linecap:round;stroke-linejoin:round;" d="M 2469.16,177.12 L 2469.16, 168.62 L 2489, 168.62 L 2489, 177.12 L 2469.16, 177.12" />
      <text transform="matrix(1 0 0 1 2477.4131 166.4258)" style="font-family:'Arial'; font-size:6px;">5</text>
    </g><g ewd:figtype="w2w" ewd:code="IH6" ewd:pin_no="17" ewd:comment="2" ewd:figID="135">
      <path style="fill:#FFFFFF;stroke:#FFFFFF;stroke-width:0;stroke-linecap:round;stroke-linejoin:round;" d="M 2428.04,590.48 L 2423.79, 586.23 L 2419.54, 590.48 L 2419.54, 583.93 L 2428.04, 583.93 L 2428.04, 590.48" />
      <path style="fill:#FFFFFF;stroke:#FFFFFF;stroke-width:0;stroke-linecap:round;stroke-linejoin:round;" d="M 2428.04,593.32 L 2423.79, 589.07 L 2419.54, 593.32 L 2419.54, 586.77 L 2428.04, 586.77 L 2428.04, 593.32" />
      <path style="fill:none;stroke:#000000;stroke-width:0.85;" d="M 2428.04,591.02 L 2423.79, 586.77 L 2419.54, 591.02" />
      <path style="fill:none;stroke:#000000;stroke-width:0.85;" d="M 2428.04,588.18 L 2423.79, 583.93 L 2419.54, 588.18" />
      <path style="fill:none;stroke:#000000;stroke-width:0.85;stroke-linecap:round;stroke-linejoin:round;" d="M 2433.7,575.43 L 2433.7, 583.93 L 2413.86, 583.93 L 2413.86, 575.43 L 2433.7, 575.43" />
      <text transform="matrix(1 0 0 1 2436.6279 581.3916)" style="font-family:'Arial'; font-size:6px;">(*2)</text>
      <text transform="matrix(1 0 0 1 2405.771 581.3848)" style="font-family:'Arial'; font-size:6px;">17</text>
    </g><g ewd:figtype="w2w" ewd:code="IH3" ewd:pin_no="10" ewd:comment="1" ewd:figID="136">
      <path style="fill:none;stroke:#000000;stroke-width:0.85;stroke-linecap:round;stroke-linejoin:round;" d="M 2433.7,566.92 L 2433.7, 575.42 L 2413.86, 575.42 L 2413.86, 566.92 L 2433.7, 566.92" />
      <text transform="matrix(1 0 0 1 2436.6279 572.8877)" style="font-family:'Arial'; font-size:6px;">(*1)</text>
      <text transform="matrix(1 0 0 1 2405.771 572.8809)" style="font-family:'Arial'; font-size:6px;">10</text>
    </g><g ewd:figtype="w2w" ewd:code="IH6" ewd:pin_no="1" ewd:comment="2" ewd:figID="137">
      <path style="fill:#FFFFFF;stroke:#FFFFFF;stroke-width:0;stroke-linecap:round;stroke-linejoin:round;" d="M 2479.07,590.48 L 2474.82, 586.23 L 2470.57, 590.48 L 2470.57, 583.93 L 2479.07, 583.93 L 2479.07, 590.48" />
      <path style="fill:#FFFFFF;stroke:#FFFFFF;stroke-width:0;stroke-linecap:round;stroke-linejoin:round;" d="M 2479.07,593.32 L 2474.82, 589.07 L 2470.57, 593.32 L 2470.57, 586.77 L 2479.07, 586.77 L 2479.07, 593.32" />
      <path style="fill:none;stroke:#000000;stroke-width:0.85;" d="M 2479.07,591.02 L 2474.82, 586.77 L 2470.57, 591.02" />
      <path style="fill:none;stroke:#000000;stroke-width:0.85;" d="M 2479.07,588.18 L 2474.82, 583.93 L 2470.57, 588.18" />
      <path style="fill:none;stroke:#000000;stroke-width:0.85;stroke-linecap:round;stroke-linejoin:round;" d="M 2484.74,575.43 L 2484.74, 583.93 L 2464.9, 583.93 L 2464.9, 575.43 L 2484.74, 575.43" />
      <text transform="matrix(1 0 0 1 2487.6514 581.3916)" style="font-family:'Arial'; font-size:6px;">(*2)</text>
      <text transform="matrix(1 0 0 1 2460.1455 581.3848)" style="font-family:'Arial'; font-size:6px;">1</text>
    </g><g ewd:figtype="w2w" ewd:code="IH3" ewd:pin_no="1" ewd:comment="1" ewd:figID="138">
      <path style="fill:none;stroke:#000000;stroke-width:0.85;stroke-linecap:round;stroke-linejoin:round;" d="M 2484.74,566.92 L 2484.74, 575.42 L 2464.9, 575.42 L 2464.9, 566.92 L 2484.74, 566.92" />
      <text transform="matrix(1 0 0 1 2487.6514 572.8877)" style="font-family:'Arial'; font-size:6px;">(*1)</text>
      <text transform="matrix(1 0 0 1 2460.1455 572.8809)" style="font-family:'Arial'; font-size:6px;">1</text>
    </g><g ewd:figtype="w2w" ewd:code="Iu1" ewd:pin_no="12" ewd:figID="163">
      <path style="fill:#FFFFFF;stroke:#FFFFFF;stroke-width:0;stroke-linecap:round;stroke-linejoin:round;" d="M 2561.8,287.69 L 2566.05, 291.94 L 2561.8, 296.19 L 2568.35, 296.19 L 2568.35, 287.69 L 2561.8, 287.69" />
      <path style="fill:#FFFFFF;stroke:#FFFFFF;stroke-width:0;stroke-linecap:round;stroke-linejoin:round;" d="M 2558.97,287.69 L 2563.22, 291.94 L 2558.97, 296.19 L 2565.52, 296.19 L 2565.52, 287.69 L 2558.97, 287.69" />
      <path style="fill:none;stroke:#000000;stroke-width:0.85;" d="M 2561.27,287.69 L 2565.52, 291.94 L 2561.27, 296.19" />
      <path style="fill:none;stroke:#000000;stroke-width:0.85;" d="M 2564.1,287.69 L 2568.35, 291.94 L 2564.1, 296.19" />
      <path style="fill:none;stroke:#000000;stroke-width:0.85;stroke-linecap:round;stroke-linejoin:round;" d="M 2568.36,296.19 L 2568.36, 287.69 L 2588.2, 287.69 L 2588.2, 296.19 L 2568.36, 296.19" />
      <text transform="matrix(1 0 0 1 2574.9404 285.4937)" style="font-family:'Arial'; font-size:6px;">12</text>
    </g><g ewd:figtype="w2w" ewd:code="IH2" ewd:pin_no="8" ewd:figID="165">
      <path style="fill:#FFFFFF;stroke:#FFFFFF;stroke-width:0;stroke-linecap:round;stroke-linejoin:round;" d="M 2434.09,483.53 L 2438.34, 487.78 L 2434.09, 492.03 L 2440.64, 492.03 L 2440.64, 483.53 L 2434.09, 483.53" />
      <path style="fill:#FFFFFF;stroke:#FFFFFF;stroke-width:0;stroke-linecap:round;stroke-linejoin:round;" d="M 2431.26,483.53 L 2435.51, 487.78 L 2431.26, 492.03 L 2437.81, 492.03 L 2437.81, 483.53 L 2431.26, 483.53" />
      <path style="fill:none;stroke:#000000;stroke-width:0.85;" d="M 2433.56,483.53 L 2437.81, 487.78 L 2433.56, 492.03" />
      <path style="fill:none;stroke:#000000;stroke-width:0.85;" d="M 2436.39,483.53 L 2440.64, 487.78 L 2436.39, 492.03" />
      <path style="fill:none;stroke:#000000;stroke-width:0.85;stroke-linecap:round;stroke-linejoin:round;" d="M 2440.65,492.03 L 2440.65, 483.53 L 2460.49, 483.53 L 2460.49, 492.03 L 2440.65, 492.03" />
      <text transform="matrix(1 0 0 1 2448.8989 481.3389)" style="font-family:'Arial'; font-size:6px;">8</text>
    </g><g ewd:figtype="w2w" ewd:code="HB2" ewd:pin_no="18" ewd:figID="166">
      <path style="fill:#FFFFFF;stroke:#FFFFFF;stroke-width:0;stroke-linecap:round;stroke-linejoin:round;" d="M 2413.19,526.05 L 2408.94, 530.3 L 2413.19, 534.55 L 2406.64, 534.55 L 2406.64, 526.05 L 2413.19, 526.05" />
      <path style="fill:#FFFFFF;stroke:#FFFFFF;stroke-width:0;stroke-linecap:round;stroke-linejoin:round;" d="M 2416.02,526.05 L 2411.77, 530.3 L 2416.02, 534.55 L 2409.47, 534.55 L 2409.47, 526.05 L 2416.02, 526.05" />
      <path style="fill:none;stroke:#000000;stroke-width:0.85;" d="M 2413.72,526.05 L 2409.47, 530.3 L 2413.72, 534.55" />
      <path style="fill:none;stroke:#000000;stroke-width:0.85;" d="M 2410.89,526.05 L 2406.64, 530.3 L 2410.89, 534.55" />
      <path style="fill:none;stroke:#000000;stroke-width:0.85;stroke-linecap:round;stroke-linejoin:round;" d="M 2406.63,534.56 L 2406.63, 526.06 L 2386.79, 526.06 L 2386.79, 534.56 L 2406.63, 534.56" />
      <text transform="matrix(1 0 0 1 2393.3755 523.8633)" style="font-family:'Arial'; font-size:6px;">18</text>
    </g><g ewd:figtype="w2w" ewd:code="BT1" ewd:pin_no="30" ewd:figID="167">
      <path style="fill:#FFFFFF;stroke:#FFFFFF;stroke-width:0;stroke-linecap:round;stroke-linejoin:round;" d="M 2506.72,526.05 L 2502.47, 530.3 L 2506.72, 534.55 L 2500.17, 534.55 L 2500.17, 526.05 L 2506.72, 526.05" />
      <path style="fill:#FFFFFF;stroke:#FFFFFF;stroke-width:0;stroke-linecap:round;stroke-linejoin:round;" d="M 2509.56,526.05 L 2505.31, 530.3 L 2509.56, 534.55 L 2503.01, 534.55 L 2503.01, 526.05 L 2509.56, 526.05" />
      <path style="fill:none;stroke:#000000;stroke-width:0.85;" d="M 2507.26,526.05 L 2503.01, 530.3 L 2507.26, 534.55" />
      <path style="fill:none;stroke:#000000;stroke-width:0.85;" d="M 2504.42,526.05 L 2500.17, 530.3 L 2504.42, 534.55" />
      <path style="fill:none;stroke:#000000;stroke-width:0.85;stroke-linecap:round;stroke-linejoin:round;" d="M 2500.17,534.56 L 2500.17, 526.06 L 2480.33, 526.06 L 2480.33, 534.56 L 2500.17, 534.56" />
      <text transform="matrix(1 0 0 1 2486.9131 523.8633)" style="font-family:'Arial'; font-size:6px;">30</text>
    </g><g ewd:figtype="conn" ewd:code="H89" ewd:figID="16">
      <path style="fill:none;stroke:#000000;stroke-width:0.85;" d="M 2378.42,487.53 L 2378.42, 496.03" />
      <path style="fill:none;stroke:#000000;stroke-width:0.85;" d="M 2369.92,487.53 L 2386.93, 487.53" />
      <path d="M 2378.42,488.95 C 2379.2 488.95 2379.84 488.32 2379.84 487.53 C 2379.84017578125 486.739997558594 2379.21 486.11 2378.42 486.11 C 2377.62984375 486.109970703125 2377 486.74 2377 487.53 C 2377 488.319997558594 2377.64 488.95 2378.42 488.95" style="stroke-linecap:round;stroke-linejoin:round;" />
      <path style="fill:none;stroke:#000000;stroke-width:1.417;stroke-linecap:round;stroke-linejoin:round;" d="M 2386.92,496.04 L 2386.92, 479.03 L 2369.91, 479.03 L 2369.91, 496.04 L 2386.92, 496.04" />
      <text transform="matrix(1 0 0 1 2370.124 503.4131)" style="font-family:'Arial'; font-size:6px;">6</text>
      <text transform="matrix(1 0 0 1 2364.4541 480.7363)" style="font-family:'Arial'; font-size:6px;">4</text>
      <text transform="matrix(1 0 0 1 2389.0508 480.7363)" style="font-family:'Arial'; font-size:6px;">5</text>
      <g ewd:figtype="title">
        <text transform="matrix(1 0 0 1 2359.7324 463.4199)" style="font-family:'Arial'; font-size:6px;">H89</text>
        <text transform="matrix(1 0 0 1 2359.7324 470.5068)" style="font-family:'Arial'; font-size:6px;" ewd:textID="137">Junction Connector</text>
      </g>
    </g><g ewd:figtype="annex" ewd:code="" ewd:figID="1376">
      <path style="fill:none;stroke:#000000;stroke-width:1.417;stroke-linecap:round;stroke-linejoin:round;" d="M 2622.24,104.88 L 2622.24, 79.37 L 2537.2, 79.37 L 2537.2, 104.88 L 2622.24, 104.88" />
      <text transform="matrix(1 0 0 1 2538.6182 89.5796)" style="font-family:'Arial'; font-size:6px;">(E)</text>
    </g><g ewd:figtype="annex" ewd:code="" ewd:figID="1378">
      <path style="fill:none;stroke:#000000;stroke-width:1.417;stroke-linecap:round;stroke-linejoin:round;" d="M 2741.27,564.12 L 2741.27, 462.07 L 2656.23, 462.07 L 2656.23, 564.12 L 2741.27, 564.12" />
      <text transform="matrix(1 0 0 1 2731.8506 472.2783)" style="font-family:'Arial'; font-size:6px;">(E)</text>
    </g><g ewd:figtype="annex" ewd:code="" ewd:figID="1388">
      <path style="fill:none;stroke:#000000;stroke-width:1.417;stroke-linecap:round;stroke-linejoin:round;" d="M 2622.24,428 L 2622.24, 385.48 L 2537.2, 385.48 L 2537.2, 428 L 2622.24, 428" />
      <text transform="matrix(1 0 0 1 2538.6177 395.6924)" style="font-family:'Arial'; font-size:6px;">(GND)</text>
    </g><g ewd:figtype="annex" ewd:code="" ewd:figID="1389">
      <path style="fill:none;stroke:#000000;stroke-width:1.417;stroke-linecap:round;stroke-linejoin:round;" d="M 2622.24,257.92 L 2622.24, 215.4 L 2537.2, 215.4 L 2537.2, 257.92 L 2622.24, 257.92" />
      <text transform="matrix(1 0 0 1 2538.6177 225.6064)" style="font-family:'Arial'; font-size:6px;">(E)</text>
    </g><g ewd:figtype="annex" ewd:code="" ewd:figID="1390">
      <path style="fill:none;stroke:#000000;stroke-width:1.417;stroke-linecap:round;stroke-linejoin:round;" d="M 2622.24,206.89 L 2622.24, 164.37 L 2537.2, 164.37 L 2537.2, 206.89 L 2622.24, 206.89" />
      <text transform="matrix(1 0 0 1 2538.6177 174.583)" style="font-family:'Arial'; font-size:6px;">(E)</text>
    </g><g ewd:figtype="annex" ewd:code="" ewd:figID="1391">
      <path style="fill:none;stroke:#000000;stroke-width:1.417;stroke-linecap:round;stroke-linejoin:round;" d="M 2622.19,575.47 L 2622.19, 524.4399 L 2537.16, 524.4399 L 2537.16, 575.4698 L 2622.19, 575.4698" />
      <text transform="matrix(1 0 0 1 2538.5762 534.6533)" style="font-family:'Arial'; font-size:6px;">(GND)</text>
    </g><g ewd:figtype="annex" ewd:code="" ewd:figID="1392">
      <path style="fill:none;stroke:#000000;stroke-width:1.417;stroke-linecap:round;stroke-linejoin:round;" d="M 2622.19,504.59 L 2622.19, 479.08 L 2537.16, 479.08 L 2537.16, 504.59 L 2622.19, 504.59" />
      <text transform="matrix(1 0 0 1 2538.5762 489.2939)" style="font-family:'Arial'; font-size:6px;">(E)</text>
    </g><g ewd:figtype="annex" ewd:code="" ewd:figID="1393">
      <path style="fill:none;stroke:#000000;stroke-width:1.417;stroke-linecap:round;stroke-linejoin:round;" d="M 2622.19,462.07 L 2622.19, 436.56 L 2537.16, 436.56 L 2537.16, 462.07 L 2622.19, 462.07" />
      <text transform="matrix(1 0 0 1 2538.5762 446.7695)" style="font-family:'Arial'; font-size:6px;">(ECC)</text>
    </g><g ewd:figtype="annex" ewd:code="" ewd:figID="1396">
      <path style="fill:none;stroke:#000000;stroke-width:1.417;stroke-linecap:round;stroke-linejoin:round;" d="M 2622.24,155.86 L 2622.24, 113.34 L 2537.2, 113.34 L 2537.2, 155.86 L 2622.24, 155.86" />
      <text transform="matrix(1 0 0 1 2538.6177 123.5547)" style="font-family:'Arial'; font-size:6px;">(E)</text>
    </g><g ewd:figtype="annex" ewd:code="" ewd:figID="1407">
      <path style="fill:none;stroke:#000000;stroke-width:1.417;stroke-linecap:round;stroke-linejoin:round;" d="M 2741.28,453.56 L 2741.28, 402.53 L 2656.24, 402.53 L 2656.24, 453.56 L 2741.28, 453.56" />
      <text transform="matrix(1 0 0 1 2731.8525 412.7441)" style="font-family:'Arial'; font-size:6px;">(E)</text>
      <text transform="matrix(1 0 0 1 2725.5156 438.2559)" style="font-family:'Arial'; font-size:6px;">(ILL-)</text>
    </g><g ewd:figtype="annex" ewd:code="" ewd:figID="1408">
      <path style="fill:none;stroke:#000000;stroke-width:1.417;stroke-linecap:round;stroke-linejoin:round;" d="M 2741.28,394.03 L 2741.28, 343 L 2656.24, 343 L 2656.24, 394.03 L 2741.28, 394.03" />
      <text transform="matrix(1 0 0 1 2731.8525 353.2173)" style="font-family:'Arial'; font-size:6px;">(E)</text>
      <text transform="matrix(1 0 0 1 2725.5156 378.7285)" style="font-family:'Arial'; font-size:6px;">(ILL-)</text>
    </g><g ewd:figtype="annex" ewd:code="" ewd:figID="1409">
      <path style="fill:none;stroke:#000000;stroke-width:1.417;stroke-linecap:round;stroke-linejoin:round;" d="M 2741.28,266.42 L 2741.28, 215.4 L 2656.24, 215.4 L 2656.24, 266.43 L 2741.28, 266.43" />
      <text transform="matrix(1 0 0 1 2731.8516 225.6094)" style="font-family:'Arial'; font-size:6px;">(E)</text>
      <text transform="matrix(1 0 0 1 2725.5146 251.1216)" style="font-family:'Arial'; font-size:6px;">(ILL-)</text>
    </g><g ewd:figtype="annex" ewd:code="" ewd:figID="1410">
      <path style="fill:none;stroke:#000000;stroke-width:1.417;stroke-linecap:round;stroke-linejoin:round;" d="M 2741.28,206.89 L 2741.28, 164.37 L 2656.24, 164.37 L 2656.24, 206.89 L 2741.28, 206.89" />
      <text transform="matrix(1 0 0 1 2725.5146 174.5781)" style="font-family:'Arial'; font-size:6px;">(ILL-)</text>
    </g><g ewd:figtype="annex" ewd:code="" ewd:figID="1411">
      <path style="fill:none;stroke:#000000;stroke-width:1.417;stroke-linecap:round;stroke-linejoin:round;" d="M 2741.28,155.87 L 2741.28, 104.84 L 2656.24, 104.84 L 2656.24, 155.87 L 2741.28, 155.87" />
      <text transform="matrix(1 0 0 1 2731.8516 115.0503)" style="font-family:'Arial'; font-size:6px;">(E)</text>
      <text transform="matrix(1 0 0 1 2725.5146 140.5625)" style="font-family:'Arial'; font-size:6px;">(ILL-)</text>
    </g><g ewd:figtype="comment" ewd:code="1" ewd:figID="1056">
      <text transform="matrix(1 0 0 1 2508.835 586.3252)" style="font-family:'Arial'; font-size:6px;">*1 : LHD</text>
    </g><g ewd:figtype="comment" ewd:code="2" ewd:figID="1055">
      <text transform="matrix(1 0 0 1 2508.835 594.8281)" style="font-family:'Arial'; font-size:6px;">*2 : RHD</text>
    </g><g ewd:figtype="comment" ewd:code="8" ewd:figID="1054">
      <text transform="matrix(1 0 0 1 2508.835 603.332)" style="font-family:'Arial'; font-size:6px;">*8 : 5L-E</text>
    </g><g ewd:figtype="comment" ewd:code="10" ewd:figID="1053">
      <text transform="matrix(1 0 0 1 2508.835 611.8359)" style="font-family:'Arial'; font-size:6px;">*10 : A/T</text>
    </g><g ewd:figtype="comment" ewd:code="11" ewd:figID="1052">
      <text transform="matrix(1 0 0 1 2508.835 620.3398)" style="font-family:'Arial'; font-size:6px;">*11 : M/T</text>
    </g><g ewd:figtype="comment" ewd:code="12" ewd:figID="1051">
      <text transform="matrix(1 0 0 1 2508.835 628.8438)" style="font-family:'Arial'; font-size:6px;" ewd:textID="2">*12 : w/ PTC Heater</text>
    </g><g ewd:figtype="comment" ewd:code="36" ewd:figID="1050">
      <text transform="matrix(1 0 0 1 2508.835 637.3477)" style="font-family:'Arial'; font-size:6px;" ewd:textID="25">*36 : w/ Map Lamp</text>
    </g><g ewd:figtype="comment" ewd:code="13" ewd:figID="1049">
      <text transform="matrix(1 0 0 1 2656.2188 594.8418)" style="font-family:'Arial'; font-size:6px;" ewd:textID="3">*13 : LHD Russia </text>
    </g><g ewd:figtype="comment" ewd:code="14" ewd:figID="1048">
      <text transform="matrix(1 0 0 1 2656.2188 603.3457)" style="font-family:'Arial'; font-size:6px;" ewd:textID="4">*14 : Except LHD Russia </text>
    </g><g ewd:figtype="comment" ewd:code="15" ewd:figID="1047">
      <text transform="matrix(1 0 0 1 2656.2188 611.8496)" style="font-family:'Arial'; font-size:6px;" ewd:textID="5">*15 : w/ TVSS</text>
    </g><g ewd:figtype="comment" ewd:code="16" ewd:figID="1046">
      <text transform="matrix(1 0 0 1 2656.2188 620.3535)" style="font-family:'Arial'; font-size:6px;" ewd:textID="6">*16 : w/o TVSS</text>
    </g><g ewd:figtype="comment" ewd:code="17" ewd:figID="1045">
      <text transform="matrix(1 0 0 1 2656.2188 628.8574)" style="font-family:'Arial'; font-size:6px;" ewd:textID="7">*17 : w/o Entry and Start System</text>
    </g><g ewd:figtype="comment" ewd:code="18" ewd:figID="1044">
      <text transform="matrix(1 0 0 1 2656.2188 637.3613)" style="font-family:'Arial'; font-size:6px;" ewd:textID="9">*18 : w/ Entry and Start System</text>
    </g><g ewd:figtype="comment" ewd:code="1" ewd:figID="1043">
      <text transform="matrix(1 0 0 1 2656.2246 577.793)" style="font-family:'Arial'; font-size:6px;">*1 : LHD</text>
    </g><g ewd:figtype="comment" ewd:code="2" ewd:figID="1042">
      <text transform="matrix(1 0 0 1 2656.2246 586.2959)" style="font-family:'Arial'; font-size:6px;">*2 : RHD</text>
    </g><g ewd:figtype="comment" ewd:code="48" ewd:figID="1041">
      <text transform="matrix(1 0 0 1 2508.835 645.8525)" style="font-family:'Arial'; font-size:6px;" ewd:textID="38">*48 : w/ Tire Pressure Warning System</text>
    </g><text transform="matrix(1 0 0 1 2327.1221 253.9512)" style="font-family:'Arial'; font-size:6px;">W-B</text><text transform="matrix(1 0 0 1 2327.1221 168.9116)" style="font-family:'Arial'; font-size:6px;">W-B</text><text transform="matrix(1 0 0 1 2386.6494 168.9116)" style="font-family:'Arial'; font-size:6px;">W-B</text><text transform="matrix(1 0 0 1 2327.1221 219.9355)" style="font-family:'Arial'; font-size:6px;">W-B</text><text transform="matrix(1 0 0 1 2327.1221 287.9761)" style="font-family:'Arial'; font-size:6px;">W-B</text><text transform="matrix(1 0 0 1 2386.6494 219.9355)" style="font-family:'Arial'; font-size:6px;">W-B</text><text transform="matrix(1 0 0 1 2514.0435 390.0244)" style="font-family:'Arial'; font-size:6px;">W-B</text><text transform="matrix(1 0 0 1 2514.0435 441.0537)" style="font-family:'Arial'; font-size:6px;">W-B</text><text transform="matrix(1 0 0 1 2514.0435 483.5781)" style="font-family:'Arial'; font-size:6px;">W-B</text><text transform="matrix(1 0 0 1 2607.8779 313.4883)" style="font-family:'Arial'; font-size:6px;">W-B</text><text transform="matrix(1 0 0 1 2607.8779 287.9766)" style="font-family:'Arial'; font-size:6px;">W-B</text><text transform="matrix(1 0 0 1 2437.7759 168.9111)" style="font-family:'Arial'; font-size:6px;">W-B</text><text transform="matrix(1 0 0 1 2437.7759 117.8877)" style="font-family:'Arial'; font-size:6px;">W-B</text><text transform="matrix(1 0 0 1 2505.8071 168.9111)" style="font-family:'Arial'; font-size:6px;">W-B</text><text transform="matrix(1 0 0 1 2505.8071 117.8877)" style="font-family:'Arial'; font-size:6px;">W-B</text><text transform="matrix(0 -1 1 0 2375.0107 523.3438)" style="font-family:'Arial'; font-size:6px;">W-B</text><text transform="matrix(0 -1 1 0 2341.3076 478.1602)" style="font-family:'Arial'; font-size:6px;">W-B</text><text transform="matrix(1 0 0 1 2522.8389 287.9766)" style="font-family:'Arial'; font-size:6px;">W-B</text><text transform="matrix(1 0 0 1 2505.8042 83.8833)" style="font-family:'Arial'; font-size:6px;">W-B</text><text transform="matrix(1 0 0 1 2406.0366 483.5781)" style="font-family:'Arial'; font-size:6px;">W-B</text><text transform="matrix(1 0 0 1 2445.7192 526.1025)" style="font-family:'Arial'; font-size:6px;">W-B</text><text transform="matrix(1 0 0 1 2515.0708 526.1025)" style="font-family:'Arial'; font-size:6px;">W-B</text><text transform="matrix(1 0 0 1 2505.1333 95.2222)" style="font-family:'Arial'; font-size:6px;">(*36)</text><text transform="matrix(0 -1 1 0 2384.6958 524.0176)" style="font-family:'Arial'; font-size:6px;">(*48)</text><text transform="matrix(1 0 0 1 2444.8081 537.1328)" style="font-family:'Arial'; font-size:6px;">(*48)</text><text transform="matrix(1 0 0 1 2512.8354 537.1328)" style="font-family:'Arial'; font-size:6px;">(*48)</text><text transform="matrix(0 -1 1 0 2350.6821 478.6582)" style="font-family:'Arial'; font-size:6px;">(*48)</text><text transform="matrix(1 0 0 1 2405.1255 494.6084)" style="font-family:'Arial'; font-size:6px;">(*48)</text><text transform="matrix(1 0 0 1 2512.8354 494.6084)" style="font-family:'Arial'; font-size:6px;">(*48)</text><text transform="matrix(1 0 0 1 2523.8237 299.3149)" style="font-family:'Arial'; font-size:6px;">(*2)</text><text transform="matrix(1 0 0 1 2659.8867 299.3149)" style="font-family:'Arial'; font-size:6px;">(*2)</text><text transform="matrix(1 0 0 1 2608.8633 299.3149)" style="font-family:'Arial'; font-size:6px;">(*2)</text><text transform="matrix(1 0 0 1 2387.79 231.2793)" style="font-family:'Arial'; font-size:6px;">(*1)</text><text transform="matrix(1 0 0 1 2437.7759 347.4941)" style="font-family:'Arial'; font-size:6px;">W-B</text><text transform="matrix(1 0 0 1 2658.9019 313.4883)" style="font-family:'Arial'; font-size:6px;">W-B</text><text transform="matrix(1 0 0 1 2658.9019 287.9766)" style="font-family:'Arial'; font-size:6px;">W-B</text><text transform="matrix(1 0 0 1 2607.8779 665.0098)" style="font-family:'Arial'; font-size:6px;">W-B</text><text transform="matrix(1 0 0 1 2658.9019 665.0098)" style="font-family:'Arial'; font-size:6px;">W-B</text><text transform="matrix(1 0 0 1 2607.8789 52.7021)" style="font-family:'Arial'; font-size:6px;">W-B</text><text transform="matrix(1 0 0 1 2607.8789 38.5068)" style="font-family:'Arial'; font-size:6px;">W-B</text><text transform="matrix(1 0 0 1 2612.042 24.334)" style="font-family:'Arial'; font-size:6px;">L</text><text transform="matrix(1 0 0 1 2658.9023 52.7021)" style="font-family:'Arial'; font-size:6px;">W-B</text><text transform="matrix(1 0 0 1 2658.9023 38.5068)" style="font-family:'Arial'; font-size:6px;">W-B</text><text transform="matrix(1 0 0 1 2663.0654 24.334)" style="font-family:'Arial'; font-size:6px;">L</text><text transform="matrix(1 0 0 1 2565.5479 87.4536)" style="font-family:'Arial'; font-size:6px;">T5</text><text transform="matrix(1 0 0 1 2565.5479 94.5405)" style="font-family:'Arial'; font-size:6px;" ewd:textID="140">Map Lamp</text><text transform="matrix(1 0 0 1 2657.6475 470.1533)" style="font-family:'Arial'; font-size:6px;">H72</text><text transform="matrix(1 0 0 1 2657.6475 477.2393)" style="font-family:'Arial'; font-size:6px;" ewd:textID="189">Transmission <tspan x="0" dy="1em">Control Switch and </tspan><tspan x="0" dy="1em">A/T Shift Lever </tspan><tspan x="0" dy="1em">Illumination (Shift </tspan><tspan x="0" dy="1em">Lock Control Unit </tspan><tspan x="0" dy="1em">Assembly)</tspan></text><text transform="matrix(1 0 0 1 2565.5474 393.5664)" style="font-family:'Arial'; font-size:6px;">I2</text><text transform="matrix(1 0 0 1 2565.5474 400.6533)" style="font-family:'Arial'; font-size:6px;" ewd:textID="163">Radio Receiver <tspan x="0" dy="1em">Assembly</tspan></text><text transform="matrix(1 0 0 1 2565.5474 223.4805)" style="font-family:'Arial'; font-size:6px;">u3</text><text transform="matrix(1 0 0 1 2565.5474 230.5674)" style="font-family:'Arial'; font-size:6px;" ewd:textID="134">Inner Rear View <tspan x="0" dy="1em">Mirror Assembly</tspan></text><text transform="matrix(1 0 0 1 2565.5474 172.457)" style="font-family:'Arial'; font-size:6px;">L1</text><text transform="matrix(1 0 0 1 2565.5474 179.5439)" style="font-family:'Arial'; font-size:6px;" ewd:textID="85">Door Lock Assembly <tspan x="0" dy="1em">(Front LH)</tspan></text><text transform="matrix(1 0 0 1 2565.5015 532.5264)" style="font-family:'Arial'; font-size:6px;">T38</text><text transform="matrix(1 0 0 1 2565.5015 539.6143)" style="font-family:'Arial'; font-size:6px;" ewd:textID="186">Tire Pressure <tspan x="0" dy="1em">Warning ECU </tspan><tspan x="0" dy="1em">(Tire Pressure </tspan><tspan x="0" dy="1em">Monitor Receiver </tspan><tspan x="0" dy="1em">Assembly)</tspan></text><text transform="matrix(1 0 0 1 2565.5015 487.167)" style="font-family:'Arial'; font-size:6px;">I35</text><text transform="matrix(1 0 0 1 2565.5015 494.2549)" style="font-family:'Arial'; font-size:6px;" ewd:textID="187">Tire Pressure <tspan x="0" dy="1em">Warning Reset SW</tspan></text><text transform="matrix(1 0 0 1 2565.5015 444.6426)" style="font-family:'Arial'; font-size:6px;">H77</text><text transform="matrix(1 0 0 1 2565.5015 451.7305)" style="font-family:'Arial'; font-size:6px;" ewd:textID="182">Spiral Cable</text><text transform="matrix(1 0 0 1 2657.6494 410.6191)" style="font-family:'Arial'; font-size:6px;">H91</text><text transform="matrix(1 0 0 1 2657.6494 417.7051)" style="font-family:'Arial'; font-size:6px;" ewd:textID="120">Heater Switch <tspan x="0" dy="1em">Assembly</tspan></text><text transform="matrix(1 0 0 1 2657.6494 351.0923)" style="font-family:'Arial'; font-size:6px;">H82</text><text transform="matrix(1 0 0 1 2657.6494 358.1782)" style="font-family:'Arial'; font-size:6px;" ewd:textID="123">Idle-Up SW</text><text transform="matrix(1 0 0 1 2657.6484 223.4844)" style="font-family:'Arial'; font-size:6px;">I31</text><text transform="matrix(1 0 0 1 2657.6484 230.5703)" style="font-family:'Arial'; font-size:6px;" ewd:textID="155">Power Slide Door <tspan x="0" dy="1em">Control SW (RH)</tspan></text><text transform="matrix(1 0 0 1 2657.6484 172.4531)" style="font-family:'Arial'; font-size:6px;">I29</text><text transform="matrix(1 0 0 1 2657.6484 179.5391)" style="font-family:'Arial'; font-size:6px;" ewd:textID="156">Power Slide Door <tspan x="0" dy="1em">Main SW</tspan></text><text transform="matrix(1 0 0 1 2657.6484 112.9253)" style="font-family:'Arial'; font-size:6px;">I28</text><text transform="matrix(1 0 0 1 2657.6484 120.0112)" style="font-family:'Arial'; font-size:6px;" ewd:textID="154">Power Slide Door <tspan x="0" dy="1em">Control SW (LH)</tspan></text><text transform="matrix(1 0 0 1 2565.5474 121.4287)" style="font-family:'Arial'; font-size:6px;">K1</text><text transform="matrix(1 0 0 1 2565.5474 128.5156)" style="font-family:'Arial'; font-size:6px;" ewd:textID="86">Door Lock Assembly <tspan x="0" dy="1em">(Front RH)</tspan></text></svg>