﻿<?xml version="1.0" encoding="utf-8"?>
<!-- Generator: Adobe Illustrator 10.0, SVG Export Plug-In . SVG Version: 3.0.0 Build 77)  -->
<!DOCTYPE svg PUBLIC "-//W3C//DTD SVG 1.0//EN" "http://www.w3.org/TR/2001/REC-SVG-20010904/DTD/svg10.dtd"[
   <!ENTITY ns_flows "http://ns.adobe.com/Flows/1.0/">
   <!ENTITY ns_svg "http://www.w3.org/2000/svg">
   <!ENTITY ns_xlink "http://www.w3.org/1999/xlink">
   <!ENTITY st0 "font-size:7px;font-family:'MS-PGothic';adobe-font-script:japanese;">
   <!ENTITY st1 "font-size:6px;font-family:'ArialMT';">
   <!ENTITY st2 "fill:#FFFFFF;stroke:#000000; stroke-width:1.41;stroke-linecap:round;stroke-linejoin:round;">
   <!ENTITY st3 "fill:#FFFFCC;stroke:#FFFFCC; stroke-width:0.1;stroke-linecap:round;stroke-linejoin:round;">
   <!ENTITY st4 "fill:#CCCCCC;stroke:#CCCCCC; stroke-width:0.1;stroke-linecap:round;stroke-linejoin:round;">
   <!ENTITY st5 "fill:#CCECF4;stroke:#000000; stroke-width:1.133;stroke-linecap:round;stroke-linejoin:round;">
   <!ENTITY st6 "fill:none;stroke-linecap:butt; stroke-linejoin:round;">
   <!ENTITY st7 "fill:none;stroke:#000000;stroke-linecap:round;stroke-linejoin:round;">
   <!ENTITY st8 "enable-background:new;">
   <!ENTITY st9 "fill:#000000;stroke:#000000; stroke-linecap:round;stroke-linejoin:round;">
   <!ENTITY st10 "font-size:9px;font-family:'ArialMT';">
   <!ENTITY st11 "font-size:9px;font-family:'Svg Symbol';">
   <!ENTITY st12 "font-size:6px;font-family:'Svg Symbol';">
   <!ENTITY st13 "fill:none;stroke:#ff0000;stroke-linecap:round;stroke-linejoin:round;">
   <!ENTITY st14 "fill:#FFFF00;stroke:#FFFF00; stroke-width:0.1;stroke-linecap:round;stroke-linejoin:round;">
   <!ENTITY st15 "font-size:6px;font-family:'MS-PGothic';adobe-font-script:japanese;">
   <!ENTITY st16 "1.00 0.00 0.00 1.00">
   <!ENTITY st17 "0.00 -1.00 1.00 0.00">
   <!ENTITY st18 "font-size:6px;font-family:'Arial';">
   <!ENTITY st19 "font-size:9px;font-family:'Arial';">
   <!ENTITY st20 "font-size:6px;font-family:'MS-PGothic','MS PGothic';adobe-font-script:japanese;">
   <!ENTITY st21 "font-size:7px;font-family:'MS-PGothic','MS PGothic';adobe-font-script:japanese;">
   <!ATTLIST svg
       xmlns:ewd CDATA #FIXED "http://shcl.co.jp/ewd"
       xmlns:a CDATA #FIXED "http://ns.adobe.com/AdobeSVGViewerExtensions/3.0/"
       ewd:ver CDATA #IMPLIED >
   <!ATTLIST a
       ewd:lineID CDATA #IMPLIED
       ewd:groupID CDATA #IMPLIED
       ewd:figtype CDATA #IMPLIED
       ewd:code CDATA #IMPLIED
       ewd:figID CDATA #IMPLIED
       ewd:pinNo CDATA #IMPLIED
       ewd:comment CDATA #IMPLIED >
   <!ATTLIST g
       ewd:lineID CDATA #IMPLIED
       ewd:groupID CDATA #IMPLIED
       ewd:figtype CDATA #IMPLIED
       ewd:code CDATA #IMPLIED
       ewd:figID CDATA #IMPLIED
       ewd:pinNo CDATA #IMPLIED
       ewd:comment CDATA #IMPLIED >
   <!ATTLIST text
       ewd:textID CDATA #IMPLIED >
   <!ATTLIST title
       ewd:textID CDATA #IMPLIED >
]>
<svg xmlns="http://www.w3.org/2000/svg" xmlns:xlink="http://www.w3.org/1999/xlink" width="1754.2" height="721" viewBox="0 0 1754.2 721" xml:space="preserve" xmlns:ewd="http://shcl.co.jp/ewd" ewd:ver="2.0">
  
  <defs>
    <font horiz-adv-x="1229">
      <font-face font-family="Svg Symbol" units-per-em="2048" panose-1="5 5 1 2 1 7 6 2 5 7" ascent="2059" descent="450" alphabetic="0" />
      <missing-glyph d="M 103,0 l 0,1280 1024,0 0,-1280 -1024,0 z m 32,32 l 960,0 0,1216 -960,0 0,-1216 z" />
      <glyph d4p1:unicode="" horiz-adv-x="1573" d="M 1517,0 l -567,0 24,279 q 141,59 207.5,168 66.5,109 66.5,306 0,272 -132.5,417.5 -132.5,145.5 -333.5,145.5 -194,0 -328,-147.5 -134,-147.5 -134,-401.5 0,-200 68.5,-319 68.5,-119 206.5,-169 l 25,-279 -564,0 0,279 35,0 q 3,-61 32,-83 45,-35 137,-35 l 270,0 0,70 q -210,61 -324.5,209 -114.5,148 -114.5,349 0,252 186.5,425 186.5,173 504.5,173 195,0 358.5,-73.5 163.5,-73.5 252,-214.5 88.5,-141 88.5,-310 0,-207 -121.5,-360.5 -121.5,-153.5 -317.5,-197.5 l -8,-70 275,0 q 92,0 128,28 36,28 42,90 l 38,0 0,-279 z" xmlns:d4p1="def-glyph-attr-unicode" />
    </font>
  </defs>
  
<g ewd:figtype="rb" ewd:code="15" ewd:figID="6">
      <path style="fill:none;stroke:#000000;stroke-width:0.85;" d="M 289.15,320.29 L 289.15, 334.47" />
      <path style="fill:none;stroke:#000000;stroke-width:0.85;" d="M 289.15,334.47 L 289.15, 341.98" />
      <path style="fill:none;stroke:#000000;stroke-width:0.85;" d="M 289.15,360.97 L 289.15, 368.48" />
      <path style="fill:none;stroke:#000000;stroke-width:0.85;" d="M 289.15,368.48 L 289.15, 382.65" />
      <path style="fill:none;stroke:#000000;stroke-width:0.85;" d="M 314.66,320.29 L 314.66, 334.47" />
      <path style="fill:none;stroke:#000000;stroke-width:0.85;" d="M 314.66,334.47 L 314.66, 338.72" />
      <path style="fill:none;stroke:#000000;stroke-width:0.85;" d="M 314.66,364.23 L 314.66, 368.48" />
      <path style="fill:none;stroke:#000000;stroke-width:0.85;" d="M 314.66,368.48 L 314.66, 382.65" />
      <path style="fill:none;stroke:#000000;stroke-width:0.85;stroke-linecap:round;stroke-linejoin:round;" d="M 314.65,364.23 C 315.43 364.23 316.07 363.6 316.07 362.81 C 316.070014648438 362.019995117187 315.44 361.39 314.65 361.39 C 313.859987792969 361.390029296875 313.23 362.02 313.23 362.81 C 313.230021972656 363.599995117188 313.87 364.23 314.65 364.23" />
      <path style="fill:none;stroke:#000000;stroke-width:1.417;" d="M 315.02,361.45 L 320.32, 338.73" />
      <path style="fill:none;stroke:#000000;stroke-width:0.85;stroke-linecap:round;stroke-linejoin:round;" d="M 314.65,341.55 C 315.43 341.55 316.07 340.92 316.07 340.13 C 316.070014648438 339.340009765625 315.44 338.71 314.65 338.71 C 313.859987792969 338.709982910156 313.23 339.34 313.23 340.13 C 313.230021972656 340.920009765625 313.87 341.55 314.65 341.55" />
      <path style="fill:none;stroke:#000000;stroke-width:0.85;stroke-linecap:round;" d="M 285.99,354.29 C 286.77 353.43 287.89 352.89 289.14 352.89 C 291.49 352.89 293.39 354.79 293.39 357.14 C 293.39 359.49 291.49 361.39 289.14 361.39" />
      <path style="fill:none;stroke:#000000;stroke-width:0.85;stroke-linecap:round;" d="M 285.94,354.27 C 286.72 355.16 287.87 355.73 289.14 355.73 C 291.49 355.73 293.39 353.83 293.39 351.48 C 293.390029296875 349.130021972656 291.49 347.23 289.14 347.23 C 287.86 347.23 286.72 347.79 285.94 348.68" />
      <path style="fill:none;stroke:#000000;stroke-width:0.85;stroke-linecap:round;" d="M 285.96,348.63 C 286.74 349.51 287.88 350.06 289.14 350.06 C 291.49 350.06 293.39 348.16 293.39 345.81 C 293.39 343.46 291.49 341.56 289.14 341.56" />
      <path style="fill:none;stroke:#000000;stroke-width:1.417;stroke-linecap:round;stroke-linejoin:round;" d="M 323.15,368.48 L 323.15, 334.46 L 280.63, 334.46 L 280.63, 368.48 L 323.15, 368.48" />
      <path d="M 289.15,382.65 L 291.98, 379.82 L 291.98, 376.98 L 289.15, 379.82 L 286.32, 376.98 L 286.32, 379.82 L 289.15, 382.65" style="stroke-linecap:round;stroke-linejoin:round;" />
      <path style="fill:none;stroke:#000000;stroke-width:0.85;stroke-linecap:round;stroke-linejoin:round;" d="M 293.4,394 C 296.53 394 299.07 391.46 299.07 388.33 C 299.07 385.2 296.53 382.66 293.4 382.66 L 284.9, 382.66 C 281.77 382.66 279.23 385.2 279.23 388.33 C 279.23 391.46 281.77 394 284.9 394 L 293.4, 394" />
      <path d="M 289.15,320.29 L 291.98, 323.12 L 291.98, 325.95 L 289.15, 323.12 L 286.32, 325.95 L 286.32, 323.12 L 289.15, 320.29" style="stroke-linecap:round;stroke-linejoin:round;" />
      <path style="fill:none;stroke:#000000;stroke-width:0.85;stroke-linecap:round;stroke-linejoin:round;" d="M 293.4,320.29 C 296.53 320.29 299.07 317.75 299.07 314.62 C 299.07 311.49 296.53 308.95 293.4 308.95 L 284.9, 308.95 C 281.77 308.95 279.23 311.49 279.23 314.62 C 279.23 317.75 281.77 320.29 284.9 320.29 L 293.4, 320.29" />
      <path d="M 314.66,382.65 L 317.49, 379.82 L 317.49, 376.98 L 314.66, 379.82 L 311.83, 376.98 L 311.83, 379.82 L 314.66, 382.65" style="stroke-linecap:round;stroke-linejoin:round;" />
      <path style="fill:none;stroke:#000000;stroke-width:0.85;stroke-linecap:round;stroke-linejoin:round;" d="M 318.91,394 C 322.04 394 324.58 391.46 324.58 388.33 C 324.58 385.2 322.04 382.66 318.91 382.66 L 310.41, 382.66 C 307.28 382.66 304.74 385.2 304.74 388.33 C 304.74 391.46 307.28 394 310.41 394 L 318.91, 394" />
      <path d="M 314.66,320.29 L 317.49, 323.12 L 317.49, 325.95 L 314.66, 323.12 L 311.83, 325.95 L 311.83, 323.12 L 314.66, 320.29" style="stroke-linecap:round;stroke-linejoin:round;" />
      <path style="fill:none;stroke:#000000;stroke-width:0.85;stroke-linecap:round;stroke-linejoin:round;" d="M 318.91,320.29 C 322.04 320.29 324.58 317.75 324.58 314.62 C 324.58 311.49 322.04 308.95 318.91 308.95 L 310.41, 308.95 C 307.28 308.95 304.74 311.49 304.74 314.62 C 304.74 317.75 307.28 320.29 310.41 320.29 L 318.91, 320.29" />
      <text transform="matrix(1 0 0 1 325.9946 349.5059)" style="font-family:'Arial'; font-size:6px;" ewd:textID="8">FAN NO.2<tspan x="0" dy="1em">Relay</tspan></text>
      <text transform="matrix(1 0 0 1 280.8413 375.8594)" style="font-family:'Arial'; font-size:6px;">2</text>
      <text transform="matrix(1 0 0 1 306.3525 375.8594)" style="font-family:'Arial'; font-size:6px;">5</text>
      <text transform="matrix(1 0 0 1 280.8413 330.5054)" style="font-family:'Arial'; font-size:6px;">1</text>
      <text transform="matrix(1 0 0 1 306.3525 330.5054)" style="font-family:'Arial'; font-size:6px;">3</text>
      <text transform="matrix(1 0 0 1 285.8086 390.0313)" style="font-family:'Arial'; font-size:6px;">15</text>
      <text transform="matrix(1 0 0 1 285.8086 316.3281)" style="font-family:'Arial'; font-size:6px;">15</text>
      <text transform="matrix(1 0 0 1 311.3184 390.0313)" style="font-family:'Arial'; font-size:6px;">15</text>
      <text transform="matrix(1 0 0 1 311.3184 316.3281)" style="font-family:'Arial'; font-size:6px;">15</text>
    </g><g ewd:figtype="rb" ewd:code="FUSE216" ewd:figID="8">
      <path style="fill:none;stroke:#000000;stroke-width:0.85;" d="M 314.66,80.75 L 314.66, 87.84" />
      <path style="fill:none;stroke:#000000;stroke-width:0.85;" d="M 314.66,87.84 L 314.66, 102.02" />
      <path style="fill:none;stroke:#000000;stroke-width:1.417;" d="M 315.65,78.33 C 315.65 78.33 325.15 72.2 314.77 63.03 C 310.59 59.34 313.64 54.82 313.64 54.82" />
      <path style="fill:none;stroke:#000000;stroke-width:1.417;" d="M 313.64,54.82 C 313.64 54.82 304.14 60.95 314.52 70.12 C 318.7 73.81001 315.65 78.33 315.65 78.33" />
      <path style="fill:none;stroke:#000000;stroke-width:0.85;stroke-linecap:round;stroke-linejoin:round;" d="M 314.65,80.75 C 315.43 80.75 316.07 80.12 316.07 79.33 C 316.070014648438 78.5400036621094 315.44 77.91 314.65 77.91 C 313.87 77.91 313.23 78.54 313.23 79.33 C 313.230021972656 80.1200036621094 313.86 80.75 314.65 80.75" />
      <path style="fill:none;stroke:#000000;stroke-width:0.85;stroke-linecap:round;stroke-linejoin:round;" d="M 314.65,55.24 C 315.43 55.24 316.07 54.61 316.07 53.82 C 316.070014648438 53.0299993896484 315.44 52.4 314.65 52.4 C 313.87 52.4 313.23 53.03 313.23 53.82 C 313.230021972656 54.6099993896484 313.86 55.24 314.65 55.24" />
      <path style="fill:none;stroke:#000000;stroke-width:1.417;" d="M 313.64,54.82 C 313.64 54.82 307.57 59.5 314.64 66.57 C 321.71 73.64 315.64 78.32 315.64 78.32" />
      <path style="fill:none;stroke:#000000;stroke-width:1.417;stroke-linecap:round;stroke-linejoin:round;" d="M 327.4,87.84 L 327.4, 45.32 L 301.89, 45.32 L 301.89, 87.84 L 327.4, 87.84" />
      <path d="M 314.64,102.01 L 317.47, 99.18 L 317.47, 96.35 L 314.64, 99.18 L 311.81, 96.35 L 311.81, 99.18 L 314.64, 102.01" style="stroke-linecap:round;stroke-linejoin:round;" />
      <path style="fill:none;stroke:#000000;stroke-width:0.85;stroke-linecap:round;stroke-linejoin:round;" d="M 318.89,113.35 C 322.02 113.35 324.56 110.81 324.56 107.68 C 324.56 104.55 322.02 102.01 318.89 102.01 L 310.39, 102.01 C 307.26 102.01 304.72 104.55 304.72 107.68 C 304.72 110.81 307.26 113.35 310.39 113.35 L 318.89, 113.35" />
      <text transform="matrix(1 0 0 1 306.3477 95.2129)" style="font-family:'Arial'; font-size:6px;">2</text>
      <text transform="matrix(1 0 0 1 306.8125 41.3535)" style="font-family:'Arial'; font-size:6px;">(BAT)</text>
      <text transform="matrix(1 0 0 1 330.2354 61.1968)" style="font-family:'Arial'; font-size:6px;">60A<tspan x="0" dy="1em">FAN </tspan><tspan x="0" dy="1em">NO.2</tspan></text>
      <text transform="matrix(1 0 0 1 311.3032 109.3877)" style="font-family:'Arial'; font-size:6px;">15</text>
    </g><g ewd:figtype="gp" ewd:code="B1" ewd:figID="25">
      <path style="fill:none;stroke:#000000;stroke-width:0.85;" d="M 433.72,708.66 L 433.72, 711.49" />
      <path style="fill:none;stroke:#000000;stroke-width:0.85;" d="M 432.3,720 L 435.14, 720" />
      <path style="fill:none;stroke:#000000;stroke-width:0.85;" d="M 430.89,717.17 L 436.56, 717.17" />
      <path style="fill:none;stroke:#000000;stroke-width:0.85;" d="M 428.05,714.33 L 439.39, 714.33" />
      <path style="fill:none;stroke:#000000;stroke-width:0.85;" d="M 425.22,711.5 L 442.23, 711.5" />
    </g><g ewd:figtype="conn" ewd:code="D32" ewd:figID="9">
      <path style="fill:none;stroke:#000000;stroke-width:0.85;" d="M 680.31,127.56 L 680.31, 139.25" />
      <path style="fill:none;stroke:#000000;stroke-width:0.85;" d="M 680.31,155.55 L 680.31, 167.24" />
      <path style="fill:none;stroke:#000000;stroke-width:1.417;stroke-linecap:round;stroke-linejoin:round;" d="M 691.65,167.25 L 691.65, 127.57 L 668.97, 127.57 L 668.97, 167.25 L 691.65, 167.25" />
      <path style="fill:none;stroke:#000000;stroke-width:0.85;" d="M 680.31,138.9 L 682.77, 140.32 L 677.86, 143.15 L 682.77, 145.98 L 677.86, 148.82 L 682.77, 151.65 L 677.86, 154.48 L 680.32, 155.9" />
      <path style="fill:none;stroke:#000000;stroke-width:0.85;stroke-linecap:round;stroke-linejoin:round;" d="M 688.82,138.9 C 688.82 134.2 685.01 130.4 680.32 130.4 C 675.62 130.4 671.82 134.21 671.82 138.9 L 671.82, 155.91 C 671.82 160.61 675.63 164.41 680.32 164.41 C 685.02 164.41 688.82 160.6 688.82 155.91 L 688.82, 138.9" />
      <text transform="matrix(1 0 0 1 672.0151 174.6221)" style="font-family:'Arial'; font-size:6px;">2</text>
      <text transform="matrix(1 0 0 1 672.0151 123.5977)" style="font-family:'Arial'; font-size:6px;">1</text>
      <g ewd:figtype="title">
        <text transform="matrix(0 -1 1 0 699.7358 172.9141)" style="font-family:'Arial'; font-size:6px;">D32</text>
        <text transform="matrix(0 -1 1 0 706.8228 172.9141)" style="font-family:'Arial'; font-size:6px;" ewd:textID="12">Water Temp. Sensor (Engine Coolant)</text>
      </g>
    </g><g ewd:figtype="conn" ewd:code="B91" ewd:figID="2">
      <path style="fill:none;stroke:#000000;stroke-width:0.85;" d="M 365.67,548.5 L 365.67, 535.74" />
      <path style="fill:none;stroke:#000000;stroke-width:0.85;" d="M 391.19,535.73 L 391.19, 561.24 L 378.43, 561.24" />
      <path style="fill:none;stroke:#000000;stroke-width:0.85;" d="M 352.92,561.25 L 340.16, 561.25 L 340.16, 535.74" />
      <path style="fill:none;stroke:#000000;stroke-width:1.417;stroke-linecap:round;stroke-linejoin:round;" d="M 361.42,553.88 C 360.15 554.63 359.04 555.73 358.3 557 L 352.91, 557 L 352.91, 565.5 L 358.3, 565.5 C 359.77 568.03 362.53 569.75 365.67 569.75 C 368.81 569.75 371.57 568.03 373.04 565.5 L 378.43, 565.5 L 378.43, 557 L 373.04, 557 C 372.3 555.74 371.19 554.63 369.92 553.88 L 369.92, 548.5 L 361.42, 548.5 L 361.42, 553.88" />
      <path style="fill:none;stroke:#000000;stroke-width:1.417;" d="M 369.93,553.88 C 368.67 553.14 367.24 552.75 365.68 552.75 C 364.12 552.75 362.68 553.15 361.43 553.88" />
      <path style="fill:none;stroke:#000000;stroke-width:1.417;" d="M 358.3,565.5 C 357.56 564.24 357.17 562.81 357.17 561.25 C 357.17 559.69 357.57 558.25 358.3 557" />
      <path style="fill:none;stroke:#000000;stroke-width:1.417;" d="M 373.04,565.5 C 373.78 564.24 374.17 562.81 374.17 561.25 C 374.17 559.69 373.77 558.25 373.04 557" />
      <path style="fill:none;stroke:#000000;stroke-width:1.417;" d="M 323.15,535.74 L 408.19, 535.74" />
      <path style="fill:none;stroke:#000000;stroke-width:1.417;stroke-linecap:round;stroke-linejoin:round;" d="M 450.71,535.73 L 450.71, 504.55 L 323.15, 504.55 L 323.15, 578.25 L 408.19, 578.25 L 408.19, 535.73 L 450.71, 535.73" />
      <text transform="matrix(1 0 0 1 363.1748 563.3135)" style="font-family:'Arial'; font-size:6px;">M</text>
      <text transform="matrix(1 0 0 1 425.3481 546.001)" style="font-family:'Arial'; font-size:6px;">1</text>
      <text transform="matrix(1 0 0 1 425.3481 500.6465)" style="font-family:'Arial'; font-size:6px;">2</text>
      <text transform="matrix(1 0 0 1 331.8047 500.6465)" style="font-family:'Arial'; font-size:6px;">3</text>
      <text transform="matrix(1 0 0 1 334.7383 511.9385)" style="font-family:'Arial'; font-size:6px;">+B2</text>
      <text transform="matrix(1 0 0 1 429.1943 511.9385)" style="font-family:'Arial'; font-size:6px;">SI2</text>
      <text transform="matrix(1 0 0 1 430.0273 531.7832)" style="font-family:'Arial'; font-size:6px;">E2</text>
      <g ewd:figtype="title">
        <text transform="matrix(1 0 0 1 323.1519 586.3467)" style="font-family:'Arial'; font-size:6px;">B91</text>
        <text transform="matrix(1 0 0 1 323.1519 593.4336)" style="font-family:'Arial'; font-size:6px;" ewd:textID="4">Cooling Fan Motor (No.2)</text>
      </g>
    </g><g ewd:figtype="conn" ewd:code="B97,D134" ewd:figID="4">
      <path style="fill:none;stroke:#000000;stroke-width:1.417;stroke-linecap:round;stroke-linejoin:round;" d="M 1023.32,283.47 L 1023.32, 232.45 L 663.31, 232.45 L 663.31, 283.47 L 1023.32, 283.47" />
      <g ewd:lineID="19">
        <path style="fill:#FFFFFF;stroke:#000000;stroke-width:0.85;stroke-linecap:round;stroke-linejoin:round;" d="M 994.98,294.8 C 998.11 294.8 1000.65 292.26 1000.65 289.13 C 1000.65004882813 286.000009765625 998.11 283.46 994.98 283.46 C 991.8499609375 283.459982910156 989.31 286 989.31 289.13 C 989.309995117188 292.260009765625 991.84 294.8 994.98 294.8" />
        <text transform="matrix(1 0 0 1 992.9746 290.8423)" style="font-family:'Arial'; font-size:6px;">B</text>
        <text transform="matrix(1 0 0 1 981.0742 290.8423)" style="font-family:'Arial'; font-size:6px;">46</text>
        <text transform="matrix(1 0 0 1 987.4707 279.5034)" style="font-family:'Arial'; font-size:6px;">E1D2</text>
      </g>
      <g ewd:lineID="20">
        <path style="fill:#FFFFFF;stroke:#000000;stroke-width:0.85;stroke-linecap:round;stroke-linejoin:round;" d="M 952.45,294.8 C 955.58 294.8 958.12 292.26 958.12 289.13 C 958.119990234375 286.000009765625 955.58 283.46 952.45 283.46 C 949.320024414062 283.459982910156 946.78 286 946.78 289.13 C 946.78005859375 292.260009765625 949.32 294.8 952.45 294.8" />
        <text transform="matrix(1 0 0 1 950.4492 290.8423)" style="font-family:'Arial'; font-size:6px;">B</text>
        <text transform="matrix(1 0 0 1 938.5498 290.8423)" style="font-family:'Arial'; font-size:6px;">47</text>
        <text transform="matrix(1 0 0 1 944.9473 279.5034)" style="font-family:'Arial'; font-size:6px;">E1D1</text>
      </g>
      <g ewd:lineID="21">
        <path style="fill:#FFFFFF;stroke:#000000;stroke-width:0.85;stroke-linecap:round;stroke-linejoin:round;" d="M 824.88,294.8 C 828.01 294.8 830.55 292.26 830.55 289.13 C 830.549975585938 286.000009765625 828.01 283.46 824.88 283.46 C 821.750009765625 283.459982910156 819.21 286 819.21 289.13 C 819.210043945312 292.260009765625 821.75 294.8 824.88 294.8" />
        <text transform="matrix(1 0 0 1 822.876 290.8423)" style="font-family:'Arial'; font-size:6px;">A</text>
        <text transform="matrix(1 0 0 1 810.9761 290.8423)" style="font-family:'Arial'; font-size:6px;">14</text>
        <text transform="matrix(1 0 0 1 820.71 279.5034)" style="font-family:'Arial'; font-size:6px;">EC</text>
      </g>
      <g ewd:lineID="22">
        <path style="fill:#FFFFFF;stroke:#000000;stroke-width:0.85;stroke-linecap:round;stroke-linejoin:round;" d="M 824.88,232.44 C 828.01 232.44 830.55 229.9 830.55 226.77 C 830.55 223.64 828.01 221.1 824.88 221.1 C 821.750009765625 221.100012207031 819.21 223.64 819.21 226.77 C 819.21 229.9 821.75 232.44 824.88 232.44" />
        <text transform="matrix(1 0 0 1 822.8799 228.479)" style="font-family:'Arial'; font-size:6px;">B</text>
        <text transform="matrix(1 0 0 1 810.98 228.479)" style="font-family:'Arial'; font-size:6px;">99</text>
        <text transform="matrix(1 0 0 1 817.0459 239.8179)" style="font-family:'Arial'; font-size:6px;">FPEX</text>
      </g>
      <g ewd:lineID="24">
        <path style="fill:#FFFFFF;stroke:#000000;stroke-width:0.85;stroke-linecap:round;stroke-linejoin:round;" d="M 765.35,232.44 C 768.48 232.44 771.02 229.9 771.02 226.77 C 771.02 223.64 768.48 221.1 765.35 221.1 C 762.22 221.1 759.68 223.64 759.68 226.77 C 759.69 229.9 762.22 232.44 765.35 232.44" />
        <text transform="matrix(1 0 0 1 763.3535 228.479)" style="font-family:'Arial'; font-size:6px;">A</text>
        <text transform="matrix(1 0 0 1 751.4526 228.479)" style="font-family:'Arial'; font-size:6px;">37</text>
        <text transform="matrix(1 0 0 1 756.3574 239.8179)" style="font-family:'Arial'; font-size:6px;">RTHW</text>
      </g>
      <g ewd:lineID="25">
        <path style="fill:#FFFFFF;stroke:#000000;stroke-width:0.85;stroke-linecap:round;stroke-linejoin:round;" d="M 722.83,232.44 C 725.96 232.44 728.5 229.9 728.5 226.77 C 728.5 223.64 725.96 221.1 722.83 221.1 C 719.700034179687 221.100012207031 717.16 223.64 717.16 226.77 C 717.16 229.9 719.7 232.44 722.83 232.44" />
        <text transform="matrix(1 0 0 1 720.832 228.48)" style="font-family:'Arial'; font-size:6px;">B</text>
        <text transform="matrix(1 0 0 1 705.5952 228.48)" style="font-family:'Arial'; font-size:6px;">105</text>
        <text transform="matrix(1 0 0 1 714.002 239.8188)" style="font-family:'Arial'; font-size:6px;">ETHW</text>
      </g>
      <g ewd:lineID="26">
        <path style="fill:#FFFFFF;stroke:#000000;stroke-width:0.85;stroke-linecap:round;stroke-linejoin:round;" d="M 680.31,232.44 C 683.44 232.44 685.98 229.9 685.98 226.77 C 685.98 223.64 683.44 221.1 680.31 221.1 C 677.18 221.1 674.64 223.64 674.64 226.77 C 674.65 229.9 677.18 232.44 680.31 232.44" />
        <text transform="matrix(1 0 0 1 678.3135 228.48)" style="font-family:'Arial'; font-size:6px;">B</text>
        <text transform="matrix(1 0 0 1 663.0757 228.48)" style="font-family:'Arial'; font-size:6px;">104</text>
        <text transform="matrix(1 0 0 1 673.4839 239.8188)" style="font-family:'Arial'; font-size:6px;">THW</text>
      </g>
      <g ewd:lineID="28">
        <path style="fill:#FFFFFF;stroke:#000000;stroke-width:0.85;stroke-linecap:round;stroke-linejoin:round;" d="M 943.95,232.44 C 947.08 232.44 949.62 229.9 949.62 226.77 C 949.62 223.64 947.08 221.1 943.95 221.1 C 940.820024414062 221.100012207031 938.28 223.64 938.28 226.77 C 938.28 229.9 940.81 232.44 943.95 232.44" />
        <text transform="matrix(1 0 0 1 941.9434 228.48)" style="font-family:'Arial'; font-size:6px;">B</text>
        <text transform="matrix(1 0 0 1 926.707 228.48)" style="font-family:'Arial'; font-size:6px;">110</text>
        <text transform="matrix(1 0 0 1 935.6064 239.8188)" style="font-family:'Arial'; font-size:6px;">VCNE</text>
      </g>
      <g ewd:lineID="29">
        <path style="fill:#FFFFFF;stroke:#000000;stroke-width:0.85;stroke-linecap:round;stroke-linejoin:round;" d="M 909.93,232.44 C 913.06 232.44 915.6 229.9 915.6 226.77 C 915.6 223.64 913.06 221.1 909.93 221.1 C 906.799985351563 221.100012207031 904.26 223.64 904.26 226.77 C 904.26 229.9 906.79 232.44 909.93 232.44" />
        <text transform="matrix(1 0 0 1 907.9238 228.48)" style="font-family:'Arial'; font-size:6px;">B</text>
        <text transform="matrix(1 0 0 1 892.6875 228.48)" style="font-family:'Arial'; font-size:6px;">109</text>
        <text transform="matrix(1 0 0 1 904.7559 239.8188)" style="font-family:'Arial'; font-size:6px;">NE-</text>
      </g>
      <g ewd:lineID="31">
        <path style="fill:#FFFFFF;stroke:#000000;stroke-width:0.85;stroke-linecap:round;stroke-linejoin:round;" d="M 875.91,232.44 C 879.04 232.44 881.58 229.9 881.58 226.77 C 881.58 223.64 879.04 221.1 875.91 221.1 C 872.779946289063 221.100012207031 870.24 223.64 870.24 226.77 C 870.24 229.9 872.78 232.44 875.91 232.44" />
        <text transform="matrix(1 0 0 1 873.9043 228.48)" style="font-family:'Arial'; font-size:6px;">B</text>
        <text transform="matrix(1 0 0 1 862.0044 228.48)" style="font-family:'Arial'; font-size:6px;">76</text>
        <text transform="matrix(1 0 0 1 869.9863 239.8188)" style="font-family:'Arial'; font-size:6px;">NE+</text>
      </g>
      <g ewd:lineID="33">
        <path style="fill:#FFFFFF;stroke:#000000;stroke-width:0.85;stroke-linecap:round;stroke-linejoin:round;" d="M 680.31,294.8 C 683.44 294.8 685.98 292.26 685.98 289.13 C 685.9799609375 286.000009765625 683.44 283.46 680.31 283.46 C 677.179995117187 283.459982910156 674.64 286 674.64 289.13 C 674.640029296875 292.260009765625 677.18 294.8 680.31 294.8" />
        <text transform="matrix(1 0 0 1 678.3135 290.8423)" style="font-family:'Arial'; font-size:6px;">A</text>
        <text transform="matrix(1 0 0 1 666.4136 290.8423)" style="font-family:'Arial'; font-size:6px;">60</text>
        <text transform="matrix(1 0 0 1 674.1494 279.5034)" style="font-family:'Arial'; font-size:6px;">RFC</text>
      </g>
      <g ewd:lineID="34">
        <path style="fill:#FFFFFF;stroke:#000000;stroke-width:0.85;stroke-linecap:round;stroke-linejoin:round;" d="M 722.83,294.8 C 725.96 294.8 728.5 292.26 728.5 289.13 C 728.5 286.000009765625 725.96 283.46 722.83 283.46 C 719.700034179687 283.459982910156 717.16 286 717.16 289.13 C 717.159946289063 292.260009765625 719.7 294.8 722.83 294.8" />
        <text transform="matrix(1 0 0 1 720.833 290.8423)" style="font-family:'Arial'; font-size:6px;">A</text>
        <text transform="matrix(1 0 0 1 708.9331 290.8423)" style="font-family:'Arial'; font-size:6px;">58</text>
        <text transform="matrix(1 0 0 1 715.0005 279.5034)" style="font-family:'Arial'; font-size:6px;">RFC2</text>
      </g>
      <g ewd:lineID="5">
        <path style="fill:#FFFFFF;stroke:#000000;stroke-width:0.85;stroke-linecap:round;stroke-linejoin:round;" d="M 909.92,294.8 C 913.05 294.8 915.59 292.26 915.59 289.13 C 915.590053710937 286.000009765625 913.05 283.46 909.92 283.46 C 906.789965820313 283.459982910156 904.25 286 904.25 289.13 C 904.25 292.260009765625 906.79 294.8 909.92 294.8" />
        <text transform="matrix(1 0 0 1 907.9209 290.8423)" style="font-family:'Arial'; font-size:6px;">A</text>
        <text transform="matrix(1 0 0 1 896.0205 290.8423)" style="font-family:'Arial'; font-size:6px;">26</text>
        <text transform="matrix(1 0 0 1 901.9199 279.5034)" style="font-family:'Arial'; font-size:6px;">CANL</text>
      </g>
      <g ewd:lineID="9">
        <path style="fill:#FFFFFF;stroke:#000000;stroke-width:0.85;stroke-linecap:round;stroke-linejoin:round;" d="M 867.4,294.8 C 870.53 294.8 873.07 292.26 873.07 289.13 C 873.070014648437 286.000009765625 870.53 283.46 867.4 283.46 C 864.27 283.46 861.73 286 861.73 289.13 C 861.7299609375 292.260009765625 864.27 294.8 867.4 294.8" />
        <text transform="matrix(1 0 0 1 865.4004 290.8423)" style="font-family:'Arial'; font-size:6px;">A</text>
        <text transform="matrix(1 0 0 1 853.5005 290.8423)" style="font-family:'Arial'; font-size:6px;">13</text>
        <text transform="matrix(1 0 0 1 858.9014 279.5034)" style="font-family:'Arial'; font-size:6px;">CANH</text>
      </g>
      <g ewd:figtype="title">
        <text transform="matrix(1 0 0 1 768.188 256.1172)" style="font-family:'Arial'; font-size:6px;">B97(A), D134(B)</text>
        <text transform="matrix(1 0 0 1 768.188 263.2041)" style="font-family:'Arial'; font-size:6px;" ewd:textID="6">Engine ECU</text>
      </g>
    </g><text transform="matrix(0 -1 1 0 676.3599 312.9521)" style="font-family:'Arial'; font-size:6px;">LG</text><text transform="matrix(0 -1 1 0 718.8813 310.9512)" style="font-family:'Arial'; font-size:6px;">P</text><text transform="matrix(0 -1 1 0 310.6982 141.6968)" style="font-family:'Arial'; font-size:6px;">W</text><text transform="matrix(0 -1 1 0 285.1812 431.0313)" style="font-family:'Arial'; font-size:6px;">W-B</text><text transform="matrix(0 -1 1 0 310.6968 428.0117)" style="font-family:'Arial'; font-size:6px;">W</text><text transform="matrix(0 -1 1 0 429.7573 575.6064)" style="font-family:'Arial'; font-size:6px;">W-B</text><text transform="matrix(0 -1 1 0 676.3511 200.5928)" style="font-family:'Arial'; font-size:6px;">R</text><text transform="matrix(0 -1 1 0 718.8706 202.5938)" style="font-family:'Arial'; font-size:6px;">BR</text><text transform="matrix(1 0 0 1 497.7583 356.0527)" style="font-family:'Arial'; font-size:6px;">LG</text><text transform="matrix(1 0 0 1 499.7593 407.0469)" style="font-family:'Arial'; font-size:6px;">P</text><text transform="matrix(1 0 0 1 550.7813 407.0469)" style="font-family:'Arial'; font-size:6px;">P</text><text transform="matrix(1 0 0 1 548.7822 356.0527)" style="font-family:'Arial'; font-size:6px;">LG</text><text transform="matrix(0 -1 1 0 676.3511 100.5469)" style="font-family:'Arial'; font-size:6px;">BR</text></svg>