﻿<?xml version="1.0" encoding="utf-8"?>
<!-- Generator: Adobe Illustrator 10.0, SVG Export Plug-In . SVG Version: 3.0.0 Build 77)  -->
<!DOCTYPE svg PUBLIC "-//W3C//DTD SVG 1.0//EN" "http://www.w3.org/TR/2001/REC-SVG-20010904/DTD/svg10.dtd"[
   <!ENTITY ns_flows "http://ns.adobe.com/Flows/1.0/">
   <!ENTITY ns_svg "http://www.w3.org/2000/svg">
   <!ENTITY ns_xlink "http://www.w3.org/1999/xlink">
   <!ENTITY st0 "font-size:7px;font-family:'MS-PGothic';adobe-font-script:japanese;">
   <!ENTITY st1 "font-size:6px;font-family:'ArialMT';">
   <!ENTITY st2 "fill:#FFFFFF;stroke:#000000; stroke-width:1.41;stroke-linecap:round;stroke-linejoin:round;">
   <!ENTITY st3 "fill:#FFFFCC;stroke:#FFFFCC; stroke-width:0.1;stroke-linecap:round;stroke-linejoin:round;">
   <!ENTITY st4 "fill:#CCCCCC;stroke:#CCCCCC; stroke-width:0.1;stroke-linecap:round;stroke-linejoin:round;">
   <!ENTITY st5 "fill:#CCECF4;stroke:#000000; stroke-width:1.133;stroke-linecap:round;stroke-linejoin:round;">
   <!ENTITY st6 "fill:none;stroke-linecap:butt; stroke-linejoin:round;">
   <!ENTITY st7 "fill:none;stroke:#000000;stroke-linecap:round;stroke-linejoin:round;">
   <!ENTITY st8 "enable-background:new;">
   <!ENTITY st9 "fill:#000000;stroke:#000000; stroke-linecap:round;stroke-linejoin:round;">
   <!ENTITY st10 "font-size:9px;font-family:'ArialMT';">
   <!ENTITY st11 "font-size:9px;font-family:'Svg Symbol';">
   <!ENTITY st12 "font-size:6px;font-family:'Svg Symbol';">
   <!ENTITY st13 "fill:none;stroke:#ff0000;stroke-linecap:round;stroke-linejoin:round;">
   <!ENTITY st14 "fill:#FFFF00;stroke:#FFFF00; stroke-width:0.1;stroke-linecap:round;stroke-linejoin:round;">
   <!ENTITY st15 "font-size:6px;font-family:'MS-PGothic';adobe-font-script:japanese;">
   <!ENTITY st16 "1.00 0.00 0.00 1.00">
   <!ENTITY st17 "0.00 -1.00 1.00 0.00">
   <!ENTITY st18 "font-size:6px;font-family:'Arial';">
   <!ENTITY st19 "font-size:9px;font-family:'Arial';">
   <!ENTITY st20 "font-size:6px;font-family:'MS-PGothic','MS PGothic';adobe-font-script:japanese;">
   <!ENTITY st21 "font-size:7px;font-family:'MS-PGothic','MS PGothic';adobe-font-script:japanese;">
   <!ATTLIST svg
       xmlns:ewd CDATA #FIXED "http://shcl.co.jp/ewd"
       xmlns:a CDATA #FIXED "http://ns.adobe.com/AdobeSVGViewerExtensions/3.0/"
       ewd:ver CDATA #IMPLIED >
   <!ATTLIST a
       ewd:lineID CDATA #IMPLIED
       ewd:groupID CDATA #IMPLIED
       ewd:figtype CDATA #IMPLIED
       ewd:code CDATA #IMPLIED
       ewd:figID CDATA #IMPLIED
       ewd:pinNo CDATA #IMPLIED
       ewd:comment CDATA #IMPLIED >
   <!ATTLIST g
       ewd:lineID CDATA #IMPLIED
       ewd:groupID CDATA #IMPLIED
       ewd:figtype CDATA #IMPLIED
       ewd:code CDATA #IMPLIED
       ewd:figID CDATA #IMPLIED
       ewd:pinNo CDATA #IMPLIED
       ewd:comment CDATA #IMPLIED >
   <!ATTLIST text
       ewd:textID CDATA #IMPLIED >
   <!ATTLIST title
       ewd:textID CDATA #IMPLIED >
]>
<svg xmlns="http://www.w3.org/2000/svg" xmlns:xlink="http://www.w3.org/1999/xlink" width="814.98" height="718.17" viewBox="0 0 814.98 718.17" xml:space="preserve" xmlns:ewd="http://shcl.co.jp/ewd" ewd:ver="2.0">
  
  <defs>
    <font horiz-adv-x="1229">
      <font-face font-family="Svg Symbol" units-per-em="2048" panose-1="5 5 1 2 1 7 6 2 5 7" ascent="2059" descent="450" alphabetic="0" />
      <missing-glyph d="M 103,0 l 0,1280 1024,0 0,-1280 -1024,0 z m 32,32 l 960,0 0,1216 -960,0 0,-1216 z" />
      <glyph d4p1:unicode="" horiz-adv-x="1573" d="M 1517,0 l -567,0 24,279 q 141,59 207.5,168 66.5,109 66.5,306 0,272 -132.5,417.5 -132.5,145.5 -333.5,145.5 -194,0 -328,-147.5 -134,-147.5 -134,-401.5 0,-200 68.5,-319 68.5,-119 206.5,-169 l 25,-279 -564,0 0,279 35,0 q 3,-61 32,-83 45,-35 137,-35 l 270,0 0,70 q -210,61 -324.5,209 -114.5,148 -114.5,349 0,252 186.5,425 186.5,173 504.5,173 195,0 358.5,-73.5 163.5,-73.5 252,-214.5 88.5,-141 88.5,-310 0,-207 -121.5,-360.5 -121.5,-153.5 -317.5,-197.5 l -8,-70 275,0 q 92,0 128,28 36,28 42,90 l 38,0 0,-279 z" xmlns:d4p1="def-glyph-attr-unicode" />
    </font>
  </defs>
  
<g ewd:figtype="jb" ewd:code="13" ewd:figID="1">
      <path style="fill:none;stroke:#000000;stroke-width:0.85;" d="M 714.36,97.76 L 714.36, 104.85" />
      <path style="fill:none;stroke:#000000;stroke-width:0.85;" d="M 714.36,104.84 L 714.36, 119.02" />
      <path style="fill:none;stroke:#000000;stroke-width:0.85;" d="M 637.82,97.76 L 637.82, 104.85" />
      <path style="fill:none;stroke:#000000;stroke-width:0.85;" d="M 637.82,104.84 L 637.82, 119.02" />
      <path style="fill:none;stroke:#000000;stroke-width:0.85;stroke-linecap:round;stroke-linejoin:round;" d="M 637.81,97.76 C 638.59 97.76 639.23 97.13 639.23 96.34 C 639.2299609375 95.5499926757813 638.6 94.92 637.81 94.92 C 637.03 94.92 636.39 95.55 636.39 96.34 C 636.390029296875 97.1299926757813 637.03 97.76 637.81 97.76" />
      <path style="fill:none;stroke:#000000;stroke-width:0.85;stroke-linecap:round;stroke-linejoin:round;" d="M 637.81,72.25 C 638.59 72.25 639.23 71.62 639.23 70.83 C 639.2299609375 70.0400036621094 638.6 69.41 637.81 69.41 C 637.03 69.41 636.39 70.04 636.39 70.83 C 636.390029296875 71.6200036621094 637.03 72.25 637.81 72.25" />
      <path style="fill:none;stroke:#000000;stroke-width:1.417;" d="M 636.81,71.83 C 636.81 71.83 630.74 76.51 637.81 83.58 C 644.879995117187 90.6500036621094 638.81 95.33 638.81 95.33" />
      <path style="fill:none;stroke:#000000;stroke-width:1.417;stroke-linecap:round;stroke-linejoin:round;" d="M 650.57,104.84 L 650.57, 62.33 L 625.06, 62.33 L 625.06, 104.85 L 650.57, 104.85" />
      <path style="fill:none;stroke:#000000;stroke-width:0.85;stroke-linecap:round;stroke-linejoin:round;" d="M 714.34,97.76 C 715.1201 97.76 715.76 97.13 715.76 96.34 C 715.76001953125 95.5499926757813 715.13 94.92 714.34 94.92 C 713.56 94.92 712.92 95.55 712.92 96.34 C 712.919965820313 97.1299926757813 713.56 97.76 714.34 97.76" />
      <path style="fill:none;stroke:#000000;stroke-width:0.85;stroke-linecap:round;stroke-linejoin:round;" d="M 714.34,72.25 C 715.1201 72.25 715.76 71.62 715.76 70.83 C 715.76001953125 70.0400036621094 715.13 69.41 714.34 69.41 C 713.56 69.41 712.92 70.04 712.92 70.83 C 712.919965820313 71.6200036621094 713.56 72.25 714.34 72.25" />
      <path style="fill:none;stroke:#000000;stroke-width:1.417;" d="M 713.34,71.83 C 713.34 71.83 707.27 76.51 714.34 83.58 C 721.410053710938 90.6500036621094 715.34 95.33 715.34 95.33" />
      <path style="fill:none;stroke:#000000;stroke-width:1.417;stroke-linecap:round;stroke-linejoin:round;" d="M 727.1,104.84 L 727.1, 62.33 L 701.59, 62.33 L 701.59, 104.85 L 727.1, 104.85" />
      <path d="M 714.35,119.02 L 717.18, 116.19 L 717.18, 113.36 L 714.35, 116.19 L 711.52, 113.36 L 711.52, 116.19 L 714.35, 119.02" style="stroke-linecap:round;stroke-linejoin:round;" />
      <path style="fill:none;stroke:#000000;stroke-width:0.85;stroke-linecap:round;stroke-linejoin:round;" d="M 718.6,130.36 C 721.73 130.36 724.27 127.82 724.27 124.69 C 724.27 121.56 721.73 119.02 718.6 119.02 L 710.1, 119.02 C 706.97 119.02 704.43 121.56 704.43 124.69 C 704.43 127.82 706.97 130.36 710.1 130.36 L 718.6, 130.36" />
      <path d="M 637.82,119.02 L 640.65, 116.19 L 640.65, 113.36 L 637.82, 116.19 L 634.99, 113.36 L 634.99, 116.19 L 637.82, 119.02" style="stroke-linecap:round;stroke-linejoin:round;" />
      <path style="fill:none;stroke:#000000;stroke-width:0.85;stroke-linecap:round;stroke-linejoin:round;" d="M 642.07,130.36 C 645.2 130.36 647.74 127.82 647.74 124.69 C 647.74 121.56 645.2 119.02 642.07 119.02 L 633.57, 119.02 C 630.44 119.02 627.9 121.56 627.9 124.69 C 627.9 127.82 630.44 130.36 633.57 130.36 L 642.07, 130.36" />
      <text transform="matrix(1 0 0 1 629.5151 112.2207)" style="font-family:'Arial'; font-size:6px;">2</text>
      <text transform="matrix(1 0 0 1 632.6479 58.3613)" style="font-family:'Arial'; font-size:6px;">(IG)</text>
      <text transform="matrix(1 0 0 1 653.4038 81.748)" style="font-family:'Arial'; font-size:6px;">10A<tspan x="0" dy="1em">MET IGN</tspan></text>
      <text transform="matrix(1 0 0 1 706.0464 112.2207)" style="font-family:'Arial'; font-size:6px;">2</text>
      <text transform="matrix(1 0 0 1 709.1792 58.3613)" style="font-family:'Arial'; font-size:6px;">(IG)</text>
      <text transform="matrix(1 0 0 1 729.9341 78.2046)" style="font-family:'Arial'; font-size:6px;">10A<tspan x="0" dy="1em">GAUGE</tspan><tspan x="0" dy="1em">NO. 1</tspan></text>
      <text transform="matrix(1 0 0 1 709.0112 126.3955)" style="font-family:'Arial'; font-size:6px;">13E</text>
      <text transform="matrix(1 0 0 1 699.6743 126.3955)" style="font-family:'Arial'; font-size:6px;">2</text>
      <text transform="matrix(1 0 0 1 631.9819 126.3955)" style="font-family:'Arial'; font-size:6px;">13M</text>
      <text transform="matrix(1 0 0 1 623.1431 126.3955)" style="font-family:'Arial'; font-size:6px;">1</text>
    </g><g ewd:figtype="w2w" ewd:code="DB3" ewd:pin_no="6" ewd:figID="16">
      <path style="fill:#FFFFFF;stroke:#FFFFFF;stroke-width:0;stroke-linecap:round;stroke-linejoin:round;" d="M 344.42,281.49 L 340.17, 277.24 L 335.92, 281.49 L 335.92, 274.94 L 344.42, 274.94 L 344.42, 281.49" />
      <path style="fill:#FFFFFF;stroke:#FFFFFF;stroke-width:0;stroke-linecap:round;stroke-linejoin:round;" d="M 344.42,284.32 L 340.17, 280.07 L 335.92, 284.32 L 335.92, 277.77 L 344.42, 277.77 L 344.42, 284.32" />
      <path style="fill:none;stroke:#000000;stroke-width:0.85;" d="M 344.42,282.02 L 340.17, 277.77 L 335.92, 282.02" />
      <path style="fill:none;stroke:#000000;stroke-width:0.85;" d="M 344.42,279.19 L 340.17, 274.94 L 335.92, 279.19" />
      <path style="fill:none;stroke:#000000;stroke-width:0.85;stroke-linecap:round;stroke-linejoin:round;" d="M 350.09,266.43 L 350.09, 274.93 L 330.25, 274.93 L 330.25, 266.43 L 350.09, 266.43" />
      <text transform="matrix(1 0 0 1 325.4907 272.3882)" style="font-family:'Arial'; font-size:6px;">6</text>
    </g><g ewd:figtype="conn" ewd:code="D97" ewd:figID="6">
      <path style="fill:none;stroke:#000000;stroke-width:1.417;stroke-linecap:round;stroke-linejoin:round;" d="M 357.17,189.89 L 357.17, 155.88 L 272.13, 155.88 L 272.13, 189.89 L 357.17, 189.89" />
      <g ewd:lineID="18">
        <path style="fill:#FFFFFF;stroke:#000000;stroke-width:0.85;stroke-linecap:round;stroke-linejoin:round;" d="M 340.18,201.23 C 343.31 201.23 345.85 198.69 345.85 195.56 C 345.850012207031 192.429995117188 343.31 189.89 340.18 189.89 C 337.05 189.89 334.51 192.43 334.51 195.56 C 334.51001953125 198.689995117187 337.04 201.23 340.18 201.23" />
        <text transform="matrix(1 0 0 1 338.1738 197.27)" style="font-family:'Arial'; font-size:6px;">B</text>
        <text transform="matrix(1 0 0 1 326.2739 197.27)" style="font-family:'Arial'; font-size:6px;">52</text>
        <text transform="matrix(1 0 0 1 334.6616 185.9292)" style="font-family:'Arial'; font-size:6px;">ALT</text>
      </g>
      <g ewd:lineID="3">
        <path style="fill:#FFFFFF;stroke:#000000;stroke-width:0.85;stroke-linecap:round;stroke-linejoin:round;" d="M 289.15,201.23 C 292.28 201.23 294.82 198.69 294.82 195.56 C 294.820014648438 192.429995117188 292.28 189.89 289.15 189.89 C 286.02 189.89 283.48 192.43 283.48 195.56 C 283.480021972656 198.689995117187 286.02 201.23 289.15 201.23" />
        <text transform="matrix(1 0 0 1 287.1504 197.27)" style="font-family:'Arial'; font-size:6px;">B</text>
        <text transform="matrix(1 0 0 1 275.2505 197.27)" style="font-family:'Arial'; font-size:6px;">57</text>
        <text transform="matrix(1 0 0 1 282.9717 185.9292)" style="font-family:'Arial'; font-size:6px;">RLO</text>
      </g>
      <g ewd:figtype="title">
        <text transform="matrix(0 -1 1 0 365.2573 192.728)" style="font-family:'Arial'; font-size:6px;">D97(B)</text>
        <text transform="matrix(0 -1 1 0 372.3442 192.728)" style="font-family:'Arial'; font-size:6px;" ewd:textID="16">Engine ECU</text>
      </g>
    </g><g ewd:figtype="conn" ewd:code="D99" ewd:figID="7">
      <path style="fill:#FFFFFF;stroke:#000000;stroke-width:0.85;stroke-linecap:round;stroke-linejoin:round;" d="M 408.21,201.23 C 411.34 201.23 413.88 198.69 413.88 195.56 C 413.880009765625 192.429995117188 411.34 189.89 408.21 189.89 C 405.08 189.89 402.54 192.43 402.54 195.56 C 402.540017089844 198.689995117187 405.07 201.23 408.21 201.23" />
      <path style="fill:none;stroke:#000000;stroke-width:1.417;stroke-linecap:round;stroke-linejoin:round;" d="M 425.2,189.89 L 425.2, 155.88 L 391.19, 155.88 L 391.19, 189.89 L 425.2, 189.89" />
      <text transform="matrix(1 0 0 1 402.6929 185.9292)" style="font-family:'Arial'; font-size:6px;">ALT</text>
      <text transform="matrix(1 0 0 1 394.3052 197.27)" style="font-family:'Arial'; font-size:6px;">54</text>
      <text transform="matrix(1 0 0 1 406.2046 197.27)" style="font-family:'Arial'; font-size:6px;">B</text>
      <g ewd:figtype="title">
        <text transform="matrix(0 -1 1 0 433.2886 192.728)" style="font-family:'Arial'; font-size:6px;">D99(B)</text>
        <text transform="matrix(0 -1 1 0 440.3755 192.728)" style="font-family:'Arial'; font-size:6px;" ewd:textID="16">Engine ECU</text>
      </g>
    </g><g ewd:figtype="conn" ewd:code="D105" ewd:figID="8">
      <path style="fill:#FFFFFF;stroke:#000000;stroke-width:0.85;stroke-linecap:round;stroke-linejoin:round;" d="M 476.24,201.23 C 479.37 201.23 481.91 198.69 481.91 195.56 C 481.910007324219 192.429995117188 479.37 189.89 476.24 189.89 C 473.11 189.89 470.57 192.43 470.57 195.56 C 470.570014648438 198.689995117187 473.11 201.23 476.24 201.23" />
      <path style="fill:#FFFFFF;stroke:#000000;stroke-width:0.85;" d="M 476.24,201.23" />
      <path style="fill:none;stroke:#000000;stroke-width:1.417;stroke-linecap:round;stroke-linejoin:round;" d="M 493.23,189.89 L 493.23, 155.88 L 459.22, 155.88 L 459.22, 189.89 L 493.23, 189.89" />
      <text transform="matrix(1 0 0 1 470.7241 185.9292)" style="font-family:'Arial'; font-size:6px;">ALT</text>
      <text transform="matrix(1 0 0 1 462.3364 197.27)" style="font-family:'Arial'; font-size:6px;">54</text>
      <text transform="matrix(1 0 0 1 474.2358 197.27)" style="font-family:'Arial'; font-size:6px;">B</text>
      <g ewd:figtype="title">
        <text transform="matrix(0 -1 1 0 501.3198 192.728)" style="font-family:'Arial'; font-size:6px;">D105(B)</text>
        <text transform="matrix(0 -1 1 0 508.4067 192.728)" style="font-family:'Arial'; font-size:6px;" ewd:textID="16">Engine ECU</text>
      </g>
    </g><g ewd:figtype="conn" ewd:code="B80" ewd:figID="9">
      <path style="fill:none;stroke:#000000;stroke-width:0.85;" d="M 637.82,410.99 L 637.82, 419.51 L 612.29, 419.51" />
      <path style="fill:none;stroke:#000000;stroke-width:1.417;stroke-linecap:round;stroke-linejoin:round;" d="M 646.31,428 L 646.31, 410.99 L 612.29, 410.99 L 612.29, 428 L 646.31, 428" />
      <text transform="matrix(1 0 0 1 606.8062 412.71)" style="font-family:'Arial'; font-size:6px;">2</text>
      <text transform="matrix(1 0 0 1 629.5054 407.0293)" style="font-family:'Arial'; font-size:6px;">1</text>
      <g ewd:figtype="title">
        <text transform="matrix(1 0 0 1 649.1411 410.5732)" style="font-family:'Arial'; font-size:6px;">B80</text>
        <text transform="matrix(1 0 0 1 649.1411 417.6611)" style="font-family:'Arial'; font-size:6px;" ewd:textID="18">Junction <tspan x="0" dy="1em">Connector</tspan></text>
      </g>
    </g><g ewd:figtype="w2w" ewd:code="DB4" ewd:pin_no="5" ewd:figID="17">
      <path style="fill:#FFFFFF;stroke:#FFFFFF;stroke-width:0;stroke-linecap:round;stroke-linejoin:round;" d="M 718.6,455.48 L 714.35, 459.73 L 710.1, 455.48 L 710.1, 462.03 L 718.6, 462.03 L 718.6, 455.48" />
      <path style="fill:#FFFFFF;stroke:#FFFFFF;stroke-width:0;stroke-linecap:round;stroke-linejoin:round;" d="M 718.6,452.64 L 714.35, 456.89 L 710.1, 452.64 L 710.1, 459.19 L 718.6, 459.19 L 718.6, 452.64" />
      <path style="fill:none;stroke:#000000;stroke-width:0.85;" d="M 718.6,454.94 L 714.35, 459.19 L 710.1, 454.94" />
      <path style="fill:none;stroke:#000000;stroke-width:0.85;" d="M 718.6,457.78 L 714.35, 462.03 L 710.1, 457.78" />
      <path style="fill:none;stroke:#000000;stroke-width:0.85;stroke-linecap:round;stroke-linejoin:round;" d="M 724.27,470.54 L 724.27, 462.04 L 704.43, 462.04 L 704.43, 470.54 L 724.27, 470.54" />
      <text transform="matrix(1 0 0 1 699.6743 467.9893)" style="font-family:'Arial'; font-size:6px;">5</text>
    </g><g ewd:figtype="w2w" ewd:code="HB1" ewd:pin_no="45" ewd:figID="18">
      <path style="fill:#FFFFFF;stroke:#FFFFFF;stroke-width:0;stroke-linecap:round;stroke-linejoin:round;" d="M 642.07,349.52 L 637.82, 345.27 L 633.57, 349.52 L 633.57, 342.97 L 642.07, 342.97 L 642.07, 349.52" />
      <path style="fill:#FFFFFF;stroke:#FFFFFF;stroke-width:0;stroke-linecap:round;stroke-linejoin:round;" d="M 642.07,352.36 L 637.82, 348.11 L 633.57, 352.36 L 633.57, 345.81 L 642.07, 345.81 L 642.07, 352.36" />
      <path style="fill:none;stroke:#000000;stroke-width:0.85;" d="M 642.07,350.06 L 637.82, 345.81 L 633.57, 350.06" />
      <path style="fill:none;stroke:#000000;stroke-width:0.85;" d="M 642.07,347.22 L 637.82, 342.97 L 633.57, 347.22" />
      <path style="fill:none;stroke:#000000;stroke-width:0.85;stroke-linecap:round;stroke-linejoin:round;" d="M 647.74,334.47 L 647.74, 342.97 L 627.9, 342.97 L 627.9, 334.47 L 647.74, 334.47" />
      <text transform="matrix(1 0 0 1 619.8071 340.4238)" style="font-family:'Arial'; font-size:6px;">45</text>
    </g><g ewd:figtype="w2w" ewd:code="DB3" ewd:pin_no="1" ewd:comment="9" ewd:figID="19">
      <path style="fill:#FFFFFF;stroke:#FFFFFF;stroke-width:0;stroke-linecap:round;stroke-linejoin:round;" d="M 366.59,415.25 L 362.34, 419.5 L 366.59, 423.75 L 360.04, 423.75 L 360.04, 415.25 L 366.59, 415.25" />
      <path style="fill:#FFFFFF;stroke:#FFFFFF;stroke-width:0;stroke-linecap:round;stroke-linejoin:round;" d="M 369.42,415.25 L 365.17, 419.5 L 369.42, 423.75 L 362.87, 423.75 L 362.87, 415.25 L 369.42, 415.25" />
      <path style="fill:none;stroke:#000000;stroke-width:0.85;" d="M 367.12,415.25 L 362.87, 419.5 L 367.12, 423.75" />
      <path style="fill:none;stroke:#000000;stroke-width:0.85;" d="M 364.29,415.25 L 360.04, 419.5 L 364.29, 423.75" />
      <path style="fill:none;stroke:#000000;stroke-width:0.85;stroke-linecap:round;stroke-linejoin:round;" d="M 360.04,423.76 L 360.04, 415.26 L 340.2, 415.26 L 340.2, 423.76 L 360.04, 423.76" />
      <text transform="matrix(1 0 0 1 345.2817 429.7178)" style="font-family:'Arial'; font-size:6px;">(*9)</text>
      <text transform="matrix(1 0 0 1 348.4482 413.0635)" style="font-family:'Arial'; font-size:6px;">1</text>
    </g><g ewd:figtype="w2w" ewd:code="DB2" ewd:pin_no="2" ewd:comment="8" ewd:figID="20">
      <path style="fill:none;stroke:#000000;stroke-width:0.85;stroke-linecap:round;stroke-linejoin:round;" d="M 340.2,423.76 L 340.2, 415.26 L 320.36, 415.26 L 320.36, 423.76 L 340.2, 423.76" />
      <text transform="matrix(1 0 0 1 325.4399 429.7168)" style="font-family:'Arial'; font-size:6px;">(*8)</text>
      <text transform="matrix(1 0 0 1 328.606 413.0635)" style="font-family:'Arial'; font-size:6px;">2</text>
    </g><g ewd:figtype="conn" ewd:code="H20" ewd:figID="12">
      <path style="fill:#FFFFFF;stroke:#000000;stroke-width:0.85;stroke-linecap:round;stroke-linejoin:round;" d="M 637.8,294.78 C 640.93 294.78 643.47 292.24 643.47 289.11 C 643.46994140625 285.979970703125 640.93 283.44 637.8 283.44 C 634.669975585938 283.440004882813 632.13 285.98 632.13 289.11 C 632.130009765625 292.239970703125 634.67 294.78 637.8 294.78" />
      <path style="fill:#FFFFFF;stroke:#000000;stroke-width:0.85;stroke-linecap:round;stroke-linejoin:round;" d="M 637.72,181.39 C 640.85 181.39 643.39 178.85 643.39 175.72 C 643.390029296875 172.590002441406 640.85 170.05 637.72 170.05 C 634.58994140625 170.050006103516 632.05 172.59 632.05 175.72 C 632.049975585938 178.850002441406 634.58 181.39 637.72 181.39" />
      <path style="fill:none;stroke:#000000;stroke-width:0.85;" d="M 637.82,181.39 L 637.82, 232.77" />
      <path style="fill:none;stroke:#000000;stroke-width:0.85;" d="M 637.82,249.06 L 637.82, 283.43" />
      <path d="M 632.14,198.4 L 643.48, 198.4 L 637.81, 206.9 L 632.14, 198.4" style="stroke-linecap:round;stroke-linejoin:round;" />
      <path style="fill:none;stroke:#000000;stroke-width:0.85;" d="M 632.14,206.9 L 643.48, 206.9" />
      <path d="M 632.14,257.93 L 643.48, 257.93 L 637.81, 266.43 L 632.14, 257.93" style="stroke-linecap:round;stroke-linejoin:round;" />
      <path style="fill:none;stroke:#000000;stroke-width:0.85;" d="M 632.14,266.43 L 643.48, 266.43" />
      <path style="fill:none;stroke:#000000;stroke-width:0.85;" d="M 637.81,232.41 L 640.27, 233.83 L 635.36, 236.66 L 640.27, 239.5 L 635.36, 242.33 L 640.27, 245.16 L 635.36, 247.99 L 637.82, 249.41" />
      <path d="M 652.41,219.01 L 651.15, 221.92 L 649.33, 219.75 L 652.41, 219.01" style="stroke-linecap:round;stroke-linejoin:round;" />
      <path style="fill:none;stroke:#000000;stroke-width:0.85;" d="M 645.9,224.47 L 650.2401, 220.83" />
      <path d="M 652.41,214.76 L 651.15, 217.67 L 649.33, 215.5 L 652.41, 214.76" style="stroke-linecap:round;stroke-linejoin:round;" />
      <path style="fill:none;stroke:#000000;stroke-width:0.85;" d="M 645.9,220.22 L 650.2401, 216.58" />
      <path d="M 632.15,215.4 L 643.4901, 215.4 L 637.8201, 223.9 L 632.15, 215.4" style="stroke-linecap:round;stroke-linejoin:round;" />
      <path style="fill:none;stroke:#000000;stroke-width:0.85;" d="M 632.15,223.91 L 643.4901, 223.91" />
      <path style="fill:none;stroke:#000000;stroke-width:1.417;stroke-linecap:round;stroke-linejoin:round;" d="M 663.33,283.43 L 612.3, 283.43 L 612.3, 181.38 L 663.32, 181.38 L 663.32, 283.43" />
      <text transform="matrix(1 0 0 1 627.1509 177.4233)" style="font-family:'Arial'; font-size:6px;">2</text>
      <text transform="matrix(1 0 0 1 635.7144 177.4233)" style="font-family:'Arial'; font-size:6px;">A</text>
      <text transform="matrix(1 0 0 1 623.8989 290.8145)" style="font-family:'Arial'; font-size:6px;">15</text>
      <text transform="matrix(1 0 0 1 635.7983 290.8145)" style="font-family:'Arial'; font-size:6px;">A</text>
      <text transform="matrix(0 -1 1 0 628.187 229.4873)" style="font-family:'Arial'; font-size:6px;" ewd:textID="13">Charge</text>
      <text transform="matrix(1 0 0 1 639.2349 279.4634)" style="font-family:'Arial'; font-size:6px;">CHG-</text>
      <text transform="matrix(1 0 0 1 639.2349 188.7573)" style="font-family:'Arial'; font-size:6px;">IG+</text>
      <g ewd:figtype="title">
        <text transform="matrix(0 -1 1 0 671.4146 283.4321)" style="font-family:'Arial'; font-size:6px;">H20(A)</text>
        <text transform="matrix(0 -1 1 0 678.5015 283.4321)" style="font-family:'Arial'; font-size:6px;" ewd:textID="14">Combination <tspan x="0" dy="1em">Meter</tspan></text>
      </g>
    </g><text transform="matrix(1 0 0 1 670.1265 483.584)" style="font-family:'Arial'; font-size:6px;">L</text><text transform="matrix(1 0 0 1 517.0542 483.584)" style="font-family:'Arial'; font-size:6px;">L</text><text transform="matrix(1 0 0 1 491.5425 500.5918)" style="font-family:'Arial'; font-size:6px;">L</text><text transform="matrix(1 0 0 1 515.8921 517.6016)" style="font-family:'Arial'; font-size:6px;">W</text><text transform="matrix(1 0 0 1 567.7466 415.5508)" style="font-family:'Arial'; font-size:6px;">B</text><text transform="matrix(0 -1 1 0 472.2437 218.2324)" style="font-family:'Arial'; font-size:6px;">W</text><text transform="matrix(0 -1 1 0 336.1812 303.2813)" style="font-family:'Arial'; font-size:6px;">W</text><text transform="matrix(0 -1 1 0 336.1812 218.2324)" style="font-family:'Arial'; font-size:6px;">W</text><text transform="matrix(0 -1 1 0 404.2124 218.2324)" style="font-family:'Arial'; font-size:6px;">W</text><text transform="matrix(0 -1 1 0 633.813 157.8711)" style="font-family:'Arial'; font-size:6px;">B</text><text transform="matrix(0 -1 1 0 633.813 310.9561)" style="font-family:'Arial'; font-size:6px;">B</text><text transform="matrix(0 -1 1 0 633.813 387.4893)" style="font-family:'Arial'; font-size:6px;">B</text><text transform="matrix(0 -1 1 0 710.3433 157.5605)" style="font-family:'Arial'; font-size:6px;">L</text><text transform="matrix(0 -1 1 0 254.0015 475.3574)" style="font-family:'Arial'; font-size:6px;">(*3)</text><text transform="matrix(0 -1 1 0 296.4971 220.2354)" style="font-family:'Arial'; font-size:6px;">(*3)</text><text transform="matrix(1 0 0 1 301.3296 511.9297)" style="font-family:'Arial'; font-size:6px;">(*7)</text><text transform="matrix(1 0 0 1 488.4165 511.9297)" style="font-family:'Arial'; font-size:6px;">(*7)</text><text transform="matrix(1 0 0 1 590.4634 511.9297)" style="font-family:'Arial'; font-size:6px;">(*7)</text><text transform="matrix(1 0 0 1 666.9995 494.9219)" style="font-family:'Arial'; font-size:6px;">(*6)</text><text transform="matrix(1 0 0 1 326.8413 494.9219)" style="font-family:'Arial'; font-size:6px;">(*6)</text><text transform="matrix(1 0 0 1 513.9282 494.9219)" style="font-family:'Arial'; font-size:6px;">(*6)</text><text transform="matrix(1 0 0 1 564.9517 494.9219)" style="font-family:'Arial'; font-size:6px;">(*6)</text><text transform="matrix(0 -1 1 0 483.5835 220.2354)" style="font-family:'Arial'; font-size:6px;">(*5)</text><text transform="matrix(0 -1 1 0 415.5522 220.2354)" style="font-family:'Arial'; font-size:6px;">(*4)</text><text transform="matrix(0 -1 1 0 347.521 220.2354)" style="font-family:'Arial'; font-size:6px;">(*8)</text><text transform="matrix(0 -1 1 0 285.1577 217.5674)" style="font-family:'Arial'; font-size:6px;">R</text><text transform="matrix(1 0 0 1 389.1636 415.5508)" style="font-family:'Arial'; font-size:6px;">B</text><text transform="matrix(1 0 0 1 516.7231 415.5508)" style="font-family:'Arial'; font-size:6px;">B</text><text transform="matrix(1 0 0 1 329.9683 483.584)" style="font-family:'Arial'; font-size:6px;">L</text><text transform="matrix(1 0 0 1 304.4565 500.5918)" style="font-family:'Arial'; font-size:6px;">L</text><text transform="matrix(1 0 0 1 328.8052 517.6016)" style="font-family:'Arial'; font-size:6px;">W</text><text transform="matrix(0 -1 1 0 710.3433 412.6836)" style="font-family:'Arial'; font-size:6px;">L</text><text transform="matrix(1 0 0 1 515.8921 24.3691)" style="font-family:'Arial'; font-size:6px;">W</text><text transform="matrix(1 0 0 1 566.9155 24.3691)" style="font-family:'Arial'; font-size:6px;">W</text><text transform="matrix(1 0 0 1 568.0776 483.584)" style="font-family:'Arial'; font-size:6px;">L</text><text transform="matrix(1 0 0 1 593.5894 500.5918)" style="font-family:'Arial'; font-size:6px;">L</text><text transform="matrix(1 0 0 1 566.9155 517.6016)" style="font-family:'Arial'; font-size:6px;">W</text></svg>