﻿<?xml version="1.0" encoding="utf-8"?>
<!-- Generator: Adobe Illustrator 10.0, SVG Export Plug-In . SVG Version: 3.0.0 Build 77)  -->
<!DOCTYPE svg PUBLIC "-//W3C//DTD SVG 1.0//EN" "http://www.w3.org/TR/2001/REC-SVG-20010904/DTD/svg10.dtd"[
   <!ENTITY ns_flows "http://ns.adobe.com/Flows/1.0/">
   <!ENTITY ns_svg "http://www.w3.org/2000/svg">
   <!ENTITY ns_xlink "http://www.w3.org/1999/xlink">
   <!ENTITY st0 "font-size:7px;font-family:'MS-PGothic';adobe-font-script:japanese;">
   <!ENTITY st1 "font-size:6px;font-family:'ArialMT';">
   <!ENTITY st2 "fill:#FFFFFF;stroke:#000000; stroke-width:1.41;stroke-linecap:round;stroke-linejoin:round;">
   <!ENTITY st3 "fill:#FFFFCC;stroke:#FFFFCC; stroke-width:0.1;stroke-linecap:round;stroke-linejoin:round;">
   <!ENTITY st4 "fill:#CCCCCC;stroke:#CCCCCC; stroke-width:0.1;stroke-linecap:round;stroke-linejoin:round;">
   <!ENTITY st5 "fill:#CCECF4;stroke:#000000; stroke-width:1.133;stroke-linecap:round;stroke-linejoin:round;">
   <!ENTITY st6 "fill:none;stroke-linecap:butt; stroke-linejoin:round;">
   <!ENTITY st7 "fill:none;stroke:#000000;stroke-linecap:round;stroke-linejoin:round;">
   <!ENTITY st8 "enable-background:new;">
   <!ENTITY st9 "fill:#000000;stroke:#000000; stroke-linecap:round;stroke-linejoin:round;">
   <!ENTITY st10 "font-size:9px;font-family:'ArialMT';">
   <!ENTITY st11 "font-size:9px;font-family:'Svg Symbol';">
   <!ENTITY st12 "font-size:6px;font-family:'Svg Symbol';">
   <!ENTITY st13 "fill:none;stroke:#ff0000;stroke-linecap:round;stroke-linejoin:round;">
   <!ENTITY st14 "fill:#FFFF00;stroke:#FFFF00; stroke-width:0.1;stroke-linecap:round;stroke-linejoin:round;">
   <!ENTITY st15 "font-size:6px;font-family:'MS-PGothic';adobe-font-script:japanese;">
   <!ENTITY st16 "1.00 0.00 0.00 1.00">
   <!ENTITY st17 "0.00 -1.00 1.00 0.00">
   <!ENTITY st18 "font-size:6px;font-family:'Arial';">
   <!ENTITY st19 "font-size:9px;font-family:'Arial';">
   <!ENTITY st20 "font-size:6px;font-family:'MS-PGothic','MS PGothic';adobe-font-script:japanese;">
   <!ENTITY st21 "font-size:7px;font-family:'MS-PGothic','MS PGothic';adobe-font-script:japanese;">
   <!ATTLIST svg
       xmlns:ewd CDATA #FIXED "http://shcl.co.jp/ewd"
       xmlns:a CDATA #FIXED "http://ns.adobe.com/AdobeSVGViewerExtensions/3.0/"
       ewd:ver CDATA #IMPLIED >
   <!ATTLIST a
       ewd:lineID CDATA #IMPLIED
       ewd:groupID CDATA #IMPLIED
       ewd:figtype CDATA #IMPLIED
       ewd:code CDATA #IMPLIED
       ewd:figID CDATA #IMPLIED
       ewd:pinNo CDATA #IMPLIED
       ewd:comment CDATA #IMPLIED >
   <!ATTLIST g
       ewd:lineID CDATA #IMPLIED
       ewd:groupID CDATA #IMPLIED
       ewd:figtype CDATA #IMPLIED
       ewd:code CDATA #IMPLIED
       ewd:figID CDATA #IMPLIED
       ewd:pinNo CDATA #IMPLIED
       ewd:comment CDATA #IMPLIED >
   <!ATTLIST text
       ewd:textID CDATA #IMPLIED >
   <!ATTLIST title
       ewd:textID CDATA #IMPLIED >
]>
<svg xmlns="http://www.w3.org/2000/svg" xmlns:xlink="http://www.w3.org/1999/xlink" width="2957.94" height="720.99" viewBox="0 0 2957.94 720.99" xml:space="preserve" xmlns:ewd="http://shcl.co.jp/ewd" ewd:ver="2.0">
  
  <defs>
    <font horiz-adv-x="1229">
      <font-face font-family="Svg Symbol" units-per-em="2048" panose-1="5 5 1 2 1 7 6 2 5 7" ascent="2059" descent="450" alphabetic="0" />
      <missing-glyph d="M 103,0 l 0,1280 1024,0 0,-1280 -1024,0 z m 32,32 l 960,0 0,1216 -960,0 0,-1216 z" />
      <glyph d4p1:unicode="" horiz-adv-x="1573" d="M 1517,0 l -567,0 24,279 q 141,59 207.5,168 66.5,109 66.5,306 0,272 -132.5,417.5 -132.5,145.5 -333.5,145.5 -194,0 -328,-147.5 -134,-147.5 -134,-401.5 0,-200 68.5,-319 68.5,-119 206.5,-169 l 25,-279 -564,0 0,279 35,0 q 3,-61 32,-83 45,-35 137,-35 l 270,0 0,70 q -210,61 -324.5,209 -114.5,148 -114.5,349 0,252 186.5,425 186.5,173 504.5,173 195,0 358.5,-73.5 163.5,-73.5 252,-214.5 88.5,-141 88.5,-310 0,-207 -121.5,-360.5 -121.5,-153.5 -317.5,-197.5 l -8,-70 275,0 q 92,0 128,28 36,28 42,90 l 38,0 0,-279 z" xmlns:d4p1="def-glyph-attr-unicode" />
    </font>
  </defs>
  
<g ewd:figtype="jb" ewd:code="13" ewd:figID="8">
      <path style="fill:none;stroke:#000000;stroke-width:0.85;" d="M 858.9,87.84 L 858.9, 110.52" />
      <path d="M 858.9,110.51 L 861.73, 107.68 L 861.73, 104.85 L 858.9, 107.68 L 856.07, 104.85 L 856.07, 107.68 L 858.9, 110.51" style="stroke-linecap:round;stroke-linejoin:round;" />
      <path style="fill:none;stroke:#000000;stroke-width:0.85;stroke-linecap:round;stroke-linejoin:round;" d="M 863.15,121.85 C 866.28 121.85 868.82 119.31 868.82 116.18 C 868.82 113.05 866.28 110.51 863.15 110.51 L 854.65, 110.51 C 851.52 110.51 848.98 113.05 848.98 116.18 C 848.98 119.31 851.52 121.85 854.65 121.85 L 863.15, 121.85" />
      <text transform="matrix(1 0 0 1 847.2632 95.2129)" style="font-family:'Arial'; font-size:6px;">11</text>
      <text transform="matrix(1 0 0 1 853.3936 117.8901)" style="font-family:'Arial'; font-size:6px;">13H</text>
      <text transform="matrix(1 0 0 1 840.8853 117.8901)" style="font-family:'Arial'; font-size:6px;">13</text>
    </g><g ewd:figtype="jb" ewd:code="6" ewd:figID="7">
      <path d="M 860.31,215.4 C 860.31 216.18 859.68 216.82 858.89 216.82 C 858.11 216.82 857.47 216.19 857.47 215.4 C 857.46994140625 214.609987792969 858.1 213.98 858.89 213.98 C 859.68 213.98 860.31 214.61 860.31 215.4" style="stroke-linecap:round;stroke-linejoin:round;" />
      <path style="fill:none;stroke:#000000;stroke-width:0.85;" d="M 943.94,229.57 L 943.94, 215.4 L 858.9, 215.4" />
      <path style="fill:none;stroke:#000000;stroke-width:0.85;" d="M 858.9,201.22 L 858.9, 229.57" />
      <path d="M 943.94,229.57 L 946.77, 226.74 L 946.77, 223.91 L 943.94, 226.74 L 941.11, 223.91 L 941.11, 226.74 L 943.94, 229.57" style="stroke-linecap:round;stroke-linejoin:round;" />
      <path style="fill:none;stroke:#000000;stroke-width:0.85;stroke-linecap:round;stroke-linejoin:round;" d="M 948.19,240.91 C 951.32 240.91 953.86 238.37 953.86 235.24 C 953.86 232.11 951.32 229.57 948.19 229.57 L 939.69, 229.57 C 936.56 229.57 934.02 232.11 934.02 235.24 C 934.02 238.37 936.56 240.91 939.69 240.91 L 948.19, 240.91" />
      <path d="M 858.9,229.57 L 861.73, 226.74 L 861.73, 223.91 L 858.9, 226.74 L 856.07, 223.91 L 856.07, 226.74 L 858.9, 229.57" style="stroke-linecap:round;stroke-linejoin:round;" />
      <path style="fill:none;stroke:#000000;stroke-width:0.85;stroke-linecap:round;stroke-linejoin:round;" d="M 863.15,240.91 C 866.28 240.91 868.82 238.37 868.82 235.24 C 868.82 232.11 866.28 229.57 863.15 229.57 L 854.65, 229.57 C 851.52 229.57 848.98 232.11 848.98 235.24 C 848.98 238.37 851.52 240.91 854.65 240.91 L 863.15, 240.91" />
      <path d="M 858.9,201.22 L 861.73, 204.05 L 861.73, 206.88 L 858.9, 204.05 L 856.07, 206.88 L 856.07, 204.05 L 858.9, 201.22" style="stroke-linecap:round;stroke-linejoin:round;" />
      <path style="fill:none;stroke:#000000;stroke-width:0.85;stroke-linecap:round;stroke-linejoin:round;" d="M 863.15,201.22 C 866.28 201.22 868.82 198.68 868.82 195.55 C 868.82 192.42 866.28 189.88 863.15 189.88 L 854.65, 189.88 C 851.52 189.88 848.98 192.42 848.98 195.55 C 848.98 198.68 851.52 201.22 854.65 201.22 L 863.15, 201.22" />
      <text transform="matrix(1 0 0 1 940.2676 236.9458)" style="font-family:'Arial'; font-size:6px;">6B</text>
      <text transform="matrix(1 0 0 1 929.2622 236.9458)" style="font-family:'Arial'; font-size:6px;">2</text>
      <text transform="matrix(1 0 0 1 855.2275 236.9458)" style="font-family:'Arial'; font-size:6px;">6B</text>
      <text transform="matrix(1 0 0 1 844.2222 236.9458)" style="font-family:'Arial'; font-size:6px;">3</text>
      <text transform="matrix(1 0 0 1 855.2275 197.2593)" style="font-family:'Arial'; font-size:6px;">6B</text>
      <text transform="matrix(1 0 0 1 844.2222 197.2593)" style="font-family:'Arial'; font-size:6px;">1</text>
    </g><g ewd:figtype="jb" ewd:code="6" ewd:figID="6">
      <path style="fill:none;stroke:#000000;stroke-width:0.85;" d="M 858.9,600.9 L 858.9, 629.25" />
      <path d="M 858.9,629.25 L 861.73, 626.41 L 861.73, 623.58 L 858.9, 626.41 L 856.07, 623.58 L 856.07, 626.41 L 858.9, 629.25" style="stroke-linecap:round;stroke-linejoin:round;" />
      <path style="fill:none;stroke:#000000;stroke-width:0.85;stroke-linecap:round;stroke-linejoin:round;" d="M 863.15,640.59 C 866.28 640.59 868.82 638.05 868.82 634.92 C 868.82 631.79 866.28 629.25 863.15 629.25 L 854.65, 629.25 C 851.52 629.25 848.98 631.79 848.98 634.92 C 848.98 638.05 851.52 640.59 854.65 640.59 L 863.15, 640.59" />
      <path d="M 858.9,600.9 L 861.73, 603.7401 L 861.73, 606.5701 L 858.9, 603.7401 L 856.07, 606.5701 L 856.07, 603.7401 L 858.9, 600.9" style="stroke-linecap:round;stroke-linejoin:round;" />
      <path style="fill:none;stroke:#000000;stroke-width:0.85;stroke-linecap:round;stroke-linejoin:round;" d="M 863.15,600.9 C 866.28 600.9 868.82 598.36 868.82 595.23 C 868.82 592.1 866.28 589.56 863.15 589.56 L 854.65, 589.56 C 851.52 589.56 848.98 592.1 848.98 595.23 C 848.98 598.36 851.52 600.9 854.65 600.9 L 863.15, 600.9" />
      <text transform="matrix(1 0 0 1 855.396 636.627)" style="font-family:'Arial'; font-size:6px;">6F</text>
      <text transform="matrix(1 0 0 1 844.2222 636.627)" style="font-family:'Arial'; font-size:6px;">1</text>
      <text transform="matrix(1 0 0 1 855.396 596.9414)" style="font-family:'Arial'; font-size:6px;">6F</text>
      <text transform="matrix(1 0 0 1 844.2222 596.9414)" style="font-family:'Arial'; font-size:6px;">9</text>
    </g><g ewd:figtype="jb" ewd:code="6" ewd:figID="9">
      <path d="M 860.31,470.51 C 860.31 471.29 859.68 471.93 858.89 471.93 C 858.11 471.93 857.47 471.3 857.47 470.51 C 857.46994140625 469.72001953125 858.1 469.09 858.89 469.09 C 859.68 469.09 860.31 469.72 860.31 470.51" style="stroke-linecap:round;stroke-linejoin:round;" />
      <path d="M 945.35,470.51 C 945.35 471.29 944.72 471.93 943.93 471.93 C 943.15 471.93 942.51 471.3 942.51 470.51 C 942.51001953125 469.72001953125 943.14 469.09 943.93 469.09 C 944.72 469.09 945.35 469.72 945.35 470.51" style="stroke-linecap:round;stroke-linejoin:round;" />
      <path style="fill:none;stroke:#000000;stroke-width:0.85;" d="M 943.94,484.68 L 943.94, 456.33" />
      <path style="fill:none;stroke:#000000;stroke-width:0.85;" d="M 858.9,470.51 L 943.94, 470.51" />
      <path style="fill:none;stroke:#000000;stroke-width:0.85;" d="M 858.9,456.33 L 858.9, 484.68" />
      <path d="M 858.9,484.68 L 861.73, 481.84 L 861.73, 479.01 L 858.9, 481.84 L 856.07, 479.01 L 856.07, 481.84 L 858.9, 484.68" style="stroke-linecap:round;stroke-linejoin:round;" />
      <path style="fill:none;stroke:#000000;stroke-width:0.85;stroke-linecap:round;stroke-linejoin:round;" d="M 863.15,496.02 C 866.28 496.02 868.82 493.48 868.82 490.35 C 868.82 487.22 866.28 484.68 863.15 484.68 L 854.65, 484.68 C 851.52 484.68 848.98 487.22 848.98 490.35 C 848.98 493.48 851.52 496.02 854.65 496.02 L 863.15, 496.02" />
      <path d="M 858.9,456.33 L 861.73, 459.17 L 861.73, 462 L 858.9, 459.17 L 856.07, 462 L 856.07, 459.17 L 858.9, 456.33" style="stroke-linecap:round;stroke-linejoin:round;" />
      <path style="fill:none;stroke:#000000;stroke-width:0.85;stroke-linecap:round;stroke-linejoin:round;" d="M 863.15,456.33 C 866.28 456.33 868.82 453.79 868.82 450.66 C 868.82 447.53 866.28 444.99 863.15 444.99 L 854.65, 444.99 C 851.52 444.99 848.98 447.53 848.98 450.66 C 848.98 453.79 851.52 456.33 854.65 456.33 L 863.15, 456.33" />
      <path d="M 943.94,484.68 L 946.77, 481.84 L 946.77, 479.01 L 943.94, 481.84 L 941.11, 479.01 L 941.11, 481.84 L 943.94, 484.68" style="stroke-linecap:round;stroke-linejoin:round;" />
      <path style="fill:none;stroke:#000000;stroke-width:0.85;stroke-linecap:round;stroke-linejoin:round;" d="M 948.19,496.02 C 951.32 496.02 953.86 493.48 953.86 490.35 C 953.86 487.22 951.32 484.68 948.19 484.68 L 939.69, 484.68 C 936.56 484.68 934.02 487.22 934.02 490.35 C 934.02 493.48 936.56 496.02 939.69 496.02 L 948.19, 496.02" />
      <path d="M 943.94,456.33 L 946.77, 459.17 L 946.77, 462 L 943.94, 459.17 L 941.1, 462 L 941.1, 459.17 L 943.94, 456.33" style="stroke-linecap:round;stroke-linejoin:round;" />
      <path style="fill:none;stroke:#000000;stroke-width:0.85;stroke-linecap:round;stroke-linejoin:round;" d="M 948.19,456.33 C 951.32 456.33 953.86 453.79 953.86 450.66 C 953.86 447.53 951.32 444.99 948.19 444.99 L 939.69, 444.99 C 936.56 444.99 934.02 447.53 934.02 450.66 C 934.02 453.79 936.56 456.33 939.69 456.33 L 948.19, 456.33" />
      <text transform="matrix(1 0 0 1 855.396 492.0547)" style="font-family:'Arial'; font-size:6px;">6F</text>
      <text transform="matrix(1 0 0 1 840.8853 492.0547)" style="font-family:'Arial'; font-size:6px;">10</text>
      <text transform="matrix(1 0 0 1 855.396 452.3691)" style="font-family:'Arial'; font-size:6px;">6F</text>
      <text transform="matrix(1 0 0 1 840.8853 452.3691)" style="font-family:'Arial'; font-size:6px;">17</text>
      <text transform="matrix(1 0 0 1 940.4351 492.0547)" style="font-family:'Arial'; font-size:6px;">6F</text>
      <text transform="matrix(1 0 0 1 925.9243 492.0547)" style="font-family:'Arial'; font-size:6px;">19</text>
      <text transform="matrix(1 0 0 1 940.4351 452.3691)" style="font-family:'Arial'; font-size:6px;">6F</text>
      <text transform="matrix(1 0 0 1 925.9243 452.3691)" style="font-family:'Arial'; font-size:6px;">16</text>
    </g><g ewd:figtype="jb" ewd:code="13" ewd:figID="1">
      <path style="fill:none;stroke:#000000;stroke-width:0.85;" d="M 2397.15,144.54 L 2397.15, 104.84 L 1307.65, 104.84" />
      <path style="fill:none;stroke:#000000;stroke-width:0.85;" d="M 2346.11,144.54 L 2346.11, 113.34 L 1256.63, 113.34" />
      <path style="fill:none;stroke:#000000;stroke-width:0.85;" d="M 1792.35,113.35 L 1792.35, 144.53" />
      <path style="fill:none;stroke:#000000;stroke-width:0.85;" d="M 1843.39,144.53 L 1843.39, 104.84" />
      <path style="fill:none;stroke:#000000;stroke-width:0.85;" d="M 1214.11,121.84 L 1426.71, 121.84 L 1426.71, 144.52" />
      <path style="fill:none;stroke:#000000;stroke-width:0.85;" d="M 1163.09,130.34 L 1375.69, 130.34 L 1375.69, 144.51" />
      <path style="fill:none;stroke:#000000;stroke-width:0.85;" d="M 1307.65,87.84 L 1307.65, 144.52" />
      <path style="fill:none;stroke:#000000;stroke-width:0.85;" d="M 1256.63,144.51 L 1256.63, 87.84" />
      <path style="fill:none;stroke:#000000;stroke-width:0.85;" d="M 1214.11,87.84 L 1214.11, 144.52" />
      <path style="fill:none;stroke:#000000;stroke-width:0.85;" d="M 1163.09,87.84 L 1163.09, 144.52" />
      <path d="M 2397.15,144.54 L 2399.99, 141.71 L 2399.99, 138.88 L 2397.15, 141.71 L 2394.32, 138.88 L 2394.32, 141.71 L 2397.15, 144.54" style="stroke-linecap:round;stroke-linejoin:round;" />
      <path style="fill:none;stroke:#000000;stroke-width:0.85;stroke-linecap:round;stroke-linejoin:round;" d="M 2401.4,155.88 C 2404.53 155.88 2407.07 153.34 2407.07 150.21 C 2407.07 147.08 2404.53 144.54 2401.4 144.54 L 2392.9, 144.54 C 2389.77 144.54 2387.23 147.08 2387.23 150.21 C 2387.23 153.34 2389.77 155.88 2392.9 155.88 L 2401.4, 155.88" />
      <path d="M 2346.13,144.54 L 2348.97, 141.71 L 2348.97, 138.88 L 2346.13, 141.71 L 2343.3, 138.88 L 2343.3, 141.71 L 2346.13, 144.54" style="stroke-linecap:round;stroke-linejoin:round;" />
      <path style="fill:none;stroke:#000000;stroke-width:0.85;stroke-linecap:round;stroke-linejoin:round;" d="M 2350.38,155.88 C 2353.51 155.88 2356.05 153.34 2356.05 150.21 C 2356.05 147.08 2353.51 144.54 2350.38 144.54 L 2341.88, 144.54 C 2338.75 144.54 2336.21 147.08 2336.21 150.21 C 2336.21 153.34 2338.75 155.88 2341.88 155.88 L 2350.38, 155.88" />
      <path d="M 1843.34,144.53 L 1846.17, 141.7 L 1846.17, 138.87 L 1843.34, 141.7 L 1840.51, 138.87 L 1840.51, 141.7 L 1843.34, 144.53" style="stroke-linecap:round;stroke-linejoin:round;" />
      <path style="fill:none;stroke:#000000;stroke-width:0.85;stroke-linecap:round;stroke-linejoin:round;" d="M 1847.59,155.87 C 1850.72 155.87 1853.26 153.33 1853.26 150.2 C 1853.26 147.07 1850.72 144.53 1847.59 144.53 L 1839.09, 144.53 C 1835.96 144.53 1833.42 147.07 1833.42 150.2 C 1833.42 153.33 1835.96 155.87 1839.09 155.87 L 1847.59, 155.87" />
      <path d="M 1792.32,144.53 L 1795.15, 141.7 L 1795.15, 138.87 L 1792.32, 141.7 L 1789.49, 138.87 L 1789.49, 141.7 L 1792.32, 144.53" style="stroke-linecap:round;stroke-linejoin:round;" />
      <path style="fill:none;stroke:#000000;stroke-width:0.85;stroke-linecap:round;stroke-linejoin:round;" d="M 1796.57,155.87 C 1799.7 155.87 1802.24 153.33 1802.24 150.2 C 1802.24 147.07 1799.7 144.53 1796.57 144.53 L 1788.07, 144.53 C 1784.94 144.53 1782.4 147.07 1782.4 150.2 C 1782.4 153.33 1784.94 155.87 1788.07 155.87 L 1796.57, 155.87" />
      <path d="M 1426.71,144.51 L 1429.54, 141.68 L 1429.54, 138.85 L 1426.71, 141.68 L 1423.88, 138.85 L 1423.88, 141.68 L 1426.71, 144.51" style="stroke-linecap:round;stroke-linejoin:round;" />
      <path style="fill:none;stroke:#000000;stroke-width:0.85;stroke-linecap:round;stroke-linejoin:round;" d="M 1430.96,155.85 C 1434.09 155.85 1436.63 153.31 1436.63 150.18 C 1436.63 147.05 1434.09 144.51 1430.96 144.51 L 1422.46, 144.51 C 1419.33 144.51 1416.79 147.05 1416.79 150.18 C 1416.79 153.31 1419.33 155.85 1422.46 155.85 L 1430.96, 155.85" />
      <path d="M 1375.68,144.51 L 1378.51, 141.68 L 1378.51, 138.85 L 1375.68, 141.68 L 1372.85, 138.85 L 1372.85, 141.68 L 1375.68, 144.51" style="stroke-linecap:round;stroke-linejoin:round;" />
      <path style="fill:none;stroke:#000000;stroke-width:0.85;stroke-linecap:round;stroke-linejoin:round;" d="M 1379.93,155.85 C 1383.06 155.85 1385.6 153.31 1385.6 150.18 C 1385.6 147.05 1383.06 144.51 1379.93 144.51 L 1371.43, 144.51 C 1368.3 144.51 1365.76 147.05 1365.76 150.18 C 1365.76 153.31 1368.3 155.85 1371.43 155.85 L 1379.93, 155.85" />
      <path d="M 1307.65,144.51 L 1310.48, 141.68 L 1310.48, 138.85 L 1307.65, 141.68 L 1304.82, 138.85 L 1304.82, 141.68 L 1307.65, 144.51" style="stroke-linecap:round;stroke-linejoin:round;" />
      <path style="fill:none;stroke:#000000;stroke-width:0.85;stroke-linecap:round;stroke-linejoin:round;" d="M 1311.9,155.85 C 1315.03 155.85 1317.57 153.31 1317.57 150.18 C 1317.57 147.05 1315.03 144.51 1311.9 144.51 L 1303.4, 144.51 C 1300.27 144.51 1297.73 147.05 1297.73 150.18 C 1297.73 153.31 1300.27 155.85 1303.4 155.85 L 1311.9, 155.85" />
      <path d="M 1256.63,144.51 L 1259.46, 141.68 L 1259.46, 138.85 L 1256.63, 141.68 L 1253.8, 138.85 L 1253.8, 141.68 L 1256.63, 144.51" style="stroke-linecap:round;stroke-linejoin:round;" />
      <path style="fill:none;stroke:#000000;stroke-width:0.85;stroke-linecap:round;stroke-linejoin:round;" d="M 1260.88,155.85 C 1264.01 155.85 1266.55 153.31 1266.55 150.18 C 1266.55 147.05 1264.01 144.51 1260.88 144.51 L 1252.38, 144.51 C 1249.25 144.51 1246.71 147.05 1246.71 150.18 C 1246.71 153.31 1249.25 155.85 1252.38 155.85 L 1260.88, 155.85" />
      <path d="M 1214.11,144.51 L 1216.94, 141.68 L 1216.94, 138.85 L 1214.11, 141.68 L 1211.28, 138.85 L 1211.28, 141.68 L 1214.11, 144.51" style="stroke-linecap:round;stroke-linejoin:round;" />
      <path style="fill:none;stroke:#000000;stroke-width:0.85;stroke-linecap:round;stroke-linejoin:round;" d="M 1218.36,155.85 C 1221.49 155.85 1224.03 153.31 1224.03 150.18 C 1224.03 147.05 1221.49 144.51 1218.36 144.51 L 1209.86, 144.51 C 1206.73 144.51 1204.19 147.05 1204.19 150.18 C 1204.19 153.31 1206.73 155.85 1209.86 155.85 L 1218.36, 155.85" />
      <path d="M 1163.09,144.51 L 1165.92, 141.68 L 1165.92, 138.85 L 1163.09, 141.68 L 1160.26, 138.85 L 1160.26, 141.68 L 1163.09, 144.51" style="stroke-linecap:round;stroke-linejoin:round;" />
      <path style="fill:none;stroke:#000000;stroke-width:0.85;stroke-linecap:round;stroke-linejoin:round;" d="M 1167.34,155.85 C 1170.47 155.85 1173.01 153.31 1173.01 150.18 C 1173.01 147.05 1170.47 144.51 1167.34 144.51 L 1158.84, 144.51 C 1155.71 144.51 1153.17 147.05 1153.17 150.18 C 1153.17 153.31 1155.71 155.85 1158.84 155.85 L 1167.34, 155.85" />
      <path d="M 1844.79,104.84 C 1844.79 105.62 1844.16 106.26 1843.37 106.26 C 1842.59 106.26 1841.95 105.63 1841.95 104.84 C 1841.94990234375 104.049992675781 1842.58 103.42 1843.37 103.42 C 1844.16 103.43 1844.79 104.06 1844.79 104.84" style="stroke-linecap:round;stroke-linejoin:round;" />
      <path d="M 1793.77,113.35 C 1793.77 114.13 1793.14 114.77 1792.35 114.77 C 1791.57 114.77 1790.93 114.14 1790.93 113.35 C 1790.93010742187 112.559996948242 1791.56 111.93 1792.35 111.93 C 1793.13 111.93 1793.77 112.57 1793.77 113.35" style="stroke-linecap:round;stroke-linejoin:round;" />
      <path d="M 1309.07,104.83 C 1309.07 105.61 1308.44 106.25 1307.65 106.25 C 1306.87 106.25 1306.23 105.62 1306.23 104.83 C 1306.2299609375 104.040003662109 1306.86 103.41 1307.65 103.41 C 1308.43 103.41 1309.07 104.05 1309.07 104.83" style="stroke-linecap:round;stroke-linejoin:round;" />
      <path d="M 1258.05,113.33 C 1258.05 114.11 1257.42 114.75 1256.63 114.75 C 1255.85 114.75 1255.21 114.12 1255.21 113.33 C 1255.209921875 112.540003662109 1255.84 111.91 1256.63 111.91 C 1257.41 111.92 1258.05 112.55 1258.05 113.33" style="stroke-linecap:round;stroke-linejoin:round;" />
      <path d="M 1215.53,121.84 C 1215.53 122.62 1214.9 123.26 1214.11 123.26 C 1213.33 123.26 1212.69 122.63 1212.69 121.84 C 1212.6898828125 121.049992675781 1213.32 120.42 1214.11 120.42 C 1214.89 120.42 1215.53 121.05 1215.53 121.84" style="stroke-linecap:round;stroke-linejoin:round;" />
      <path d="M 1164.5,130.34 C 1164.5 131.12 1163.87 131.76 1163.08 131.76 C 1162.3 131.76 1161.66 131.13 1161.66 130.34 C 1161.66006835937 129.549992675781 1162.29 128.92 1163.08 128.92 C 1163.87 128.92 1164.5 129.56 1164.5 130.34" style="stroke-linecap:round;stroke-linejoin:round;" />
      <text transform="matrix(1 0 0 1 2391.8105 151.9185)" style="font-family:'Arial'; font-size:6px;">13A</text>
      <text transform="matrix(1 0 0 1 2379.1367 151.9185)" style="font-family:'Arial'; font-size:6px;">29</text>
      <text transform="matrix(1 0 0 1 2340.7871 151.9185)" style="font-family:'Arial'; font-size:6px;">13A</text>
      <text transform="matrix(1 0 0 1 2328.1133 151.9185)" style="font-family:'Arial'; font-size:6px;">10</text>
      <text transform="matrix(1 0 0 1 1838.002 151.9043)" style="font-family:'Arial'; font-size:6px;">13E</text>
      <text transform="matrix(1 0 0 1 1825.3281 151.9043)" style="font-family:'Arial'; font-size:6px;">27</text>
      <text transform="matrix(1 0 0 1 1786.9785 151.9043)" style="font-family:'Arial'; font-size:6px;">13E</text>
      <text transform="matrix(1 0 0 1 1774.3047 151.9043)" style="font-family:'Arial'; font-size:6px;">26</text>
      <text transform="matrix(1 0 0 1 1421.3691 151.8901)" style="font-family:'Arial'; font-size:6px;">13B</text>
      <text transform="matrix(1 0 0 1 1408.6953 151.8901)" style="font-family:'Arial'; font-size:6px;">22</text>
      <text transform="matrix(1 0 0 1 1370.3447 151.8901)" style="font-family:'Arial'; font-size:6px;">13B</text>
      <text transform="matrix(1 0 0 1 1357.6709 151.8901)" style="font-family:'Arial'; font-size:6px;">21</text>
      <text transform="matrix(1 0 0 1 1302.3145 151.8901)" style="font-family:'Arial'; font-size:6px;">13B</text>
      <text transform="matrix(1 0 0 1 1289.6406 151.8901)" style="font-family:'Arial'; font-size:6px;">35</text>
      <text transform="matrix(1 0 0 1 1251.291 151.8901)" style="font-family:'Arial'; font-size:6px;">13B</text>
      <text transform="matrix(1 0 0 1 1238.6172 151.8901)" style="font-family:'Arial'; font-size:6px;">17</text>
      <text transform="matrix(1 0 0 1 1208.7715 151.8901)" style="font-family:'Arial'; font-size:6px;">13B</text>
      <text transform="matrix(1 0 0 1 1199.4346 151.8901)" style="font-family:'Arial'; font-size:6px;">4</text>
      <text transform="matrix(1 0 0 1 1157.748 151.8901)" style="font-family:'Arial'; font-size:6px;">13B</text>
      <text transform="matrix(1 0 0 1 1148.4111 151.8901)" style="font-family:'Arial'; font-size:6px;">3</text>
      <text transform="matrix(1 0 0 1 1299.3545 95.1973)" style="font-family:'Arial'; font-size:6px;">3</text>
      <text transform="matrix(1 0 0 1 1248.3311 95.1973)" style="font-family:'Arial'; font-size:6px;">2</text>
      <text transform="matrix(1 0 0 1 1202.4746 95.1973)" style="font-family:'Arial'; font-size:6px;">16</text>
      <text transform="matrix(1 0 0 1 1151.4512 95.1973)" style="font-family:'Arial'; font-size:6px;">14</text>
    </g><g ewd:figtype="gp" ewd:code="H1" ewd:figID="77">
      <path style="fill:none;stroke:#000000;stroke-width:0.85;" d="M 858.9,708.62 L 858.9, 711.45" />
      <path style="fill:none;stroke:#000000;stroke-width:0.85;" d="M 857.48,719.96 L 860.32, 719.96" />
      <path style="fill:none;stroke:#000000;stroke-width:0.85;" d="M 856.06,717.13 L 861.73, 717.13" />
      <path style="fill:none;stroke:#000000;stroke-width:0.85;" d="M 853.23,714.29 L 864.57, 714.29" />
      <path style="fill:none;stroke:#000000;stroke-width:0.85;" d="M 850.4,711.46 L 867.41, 711.46" />
    </g><g ewd:figtype="w2w" ewd:code="HA1" ewd:pin_no="9" ewd:figID="78">
      <path style="fill:#FFFFFF;stroke:#FFFFFF;stroke-width:0;stroke-linecap:round;stroke-linejoin:round;" d="M 948.19,553.6 L 943.94, 549.35 L 939.69, 553.6 L 939.69, 547.05 L 948.19, 547.05 L 948.19, 553.6" />
      <path style="fill:#FFFFFF;stroke:#FFFFFF;stroke-width:0;stroke-linecap:round;stroke-linejoin:round;" d="M 948.19,556.43 L 943.94, 552.18 L 939.69, 556.43 L 939.69, 549.88 L 948.19, 549.88 L 948.19, 556.43" />
      <path style="fill:none;stroke:#000000;stroke-width:0.85;" d="M 948.19,554.13 L 943.94, 549.88 L 939.69, 554.13" />
      <path style="fill:none;stroke:#000000;stroke-width:0.85;" d="M 948.19,551.3 L 943.94, 547.05 L 939.69, 551.3" />
      <path style="fill:none;stroke:#000000;stroke-width:0.85;stroke-linecap:round;stroke-linejoin:round;" d="M 953.86,538.54 L 953.86, 547.04 L 934.02, 547.04 L 934.02, 538.54 L 953.86, 538.54" />
      <text transform="matrix(1 0 0 1 929.2612 544.502)" style="font-family:'Arial'; font-size:6px;">9</text>
    </g><g ewd:figtype="conn" ewd:code="H26" ewd:figID="29">
      <path style="fill:none;stroke:#000000;stroke-width:0.85;" d="M 943.94,351.46 L 943.94, 347.21" />
      <path style="fill:none;stroke:#000000;stroke-width:0.85;" d="M 943.94,321.69 L 943.94, 317.44" />
      <path style="fill:none;stroke:#000000;stroke-width:1.417;" d="M 949.62,321.74 L 944.3, 344.42" />
      <path style="fill:none;stroke:#000000;stroke-width:0.85;stroke-linecap:round;stroke-linejoin:round;" d="M 943.94,324.53 C 944.72 324.53 945.36 323.9 945.36 323.11 C 945.359970703125 322.319970703125 944.73 321.69 943.94 321.69 C 943.150004882812 321.690004882813 942.52 322.32 942.52 323.11 C 942.5200390625 323.899970703125 943.15 324.53 943.94 324.53" />
      <path style="fill:none;stroke:#000000;stroke-width:0.85;stroke-linecap:round;stroke-linejoin:round;" d="M 943.94,347.21 C 944.72 347.21 945.36 346.58 945.36 345.79 C 945.36 345.01 944.73 344.37 943.94 344.37 C 943.150004882812 344.369990234375 942.52 345 942.52 345.79 C 942.52 346.57 943.15 347.21 943.94 347.21" />
      <path style="fill:none;stroke:#000000;stroke-width:1.417;stroke-linecap:round;stroke-linejoin:round;" d="M 952.44,351.46 L 952.44, 317.44 L 935.43, 317.44 L 935.43, 351.46 L 952.44, 351.46" />
      <text transform="matrix(1 0 0 1 935.6411 313.4795)" style="font-family:'Arial'; font-size:6px;">2</text>
      <text transform="matrix(1 0 0 1 935.6411 358.8335)" style="font-family:'Arial'; font-size:6px;">1</text>
      <g ewd:figtype="title">
        <text transform="matrix(0 -1 1 0 960.5273 351.4575)" style="font-family:'Arial'; font-size:6px;">H26</text>
        <text transform="matrix(0 -1 1 0 967.6143 351.4575)" style="font-family:'Arial'; font-size:6px;" ewd:textID="47">Unlock Warning SW</text>
      </g>
    </g><g ewd:figtype="conn" ewd:code="H27" ewd:figID="30">
      <path style="fill:none;stroke:#000000;stroke-width:0.85;" d="M 858.9,317.44 L 858.9, 321.69" />
      <path style="fill:none;stroke:#000000;stroke-width:0.85;" d="M 858.9,347.21 L 858.9, 351.46" />
      <path style="fill:none;stroke:#000000;stroke-width:1.417;" d="M 864.58,321.74 L 859.26, 344.42" />
      <path style="fill:none;stroke:#000000;stroke-width:0.85;stroke-linecap:round;stroke-linejoin:round;" d="M 858.9,324.53 C 859.6801 324.53 860.32 323.9 860.32 323.11 C 860.320014648437 322.319970703125 859.69 321.69 858.9 321.69 C 858.110048828125 321.690004882813 857.48 322.32 857.48 323.11 C 857.4799609375 323.899970703125 858.12 324.53 858.9 324.53" />
      <path style="fill:none;stroke:#000000;stroke-width:0.85;stroke-linecap:round;stroke-linejoin:round;" d="M 858.9,347.21 C 859.6801 347.21 860.32 346.58 860.32 345.79 C 860.32 345.01 859.69 344.37 858.9 344.37 C 858.110048828125 344.369990234375 857.48 345 857.48 345.79 C 857.48 346.57 858.12 347.21 858.9 347.21" />
      <path style="fill:none;stroke:#000000;stroke-width:1.417;stroke-linecap:round;stroke-linejoin:round;" d="M 867.4,351.46 L 867.4, 317.44 L 850.4, 317.44 L 850.4, 351.46 L 867.4, 351.46" />
      <text transform="matrix(1 0 0 1 850.6021 313.4795)" style="font-family:'Arial'; font-size:6px;">2</text>
      <text transform="matrix(1 0 0 1 850.6021 358.8335)" style="font-family:'Arial'; font-size:6px;">1</text>
      <g ewd:figtype="title">
        <text transform="matrix(0 -1 1 0 875.4868 351.4575)" style="font-family:'Arial'; font-size:6px;">H27</text>
        <text transform="matrix(0 -1 1 0 882.5737 351.4575)" style="font-family:'Arial'; font-size:6px;" ewd:textID="47">Unlock Warning SW</text>
      </g>
    </g><g ewd:figtype="w2w" ewd:code="KA4" ewd:pin_no="8" ewd:figID="53">
      <path style="fill:#FFFFFF;stroke:#FFFFFF;stroke-width:0;stroke-linecap:round;stroke-linejoin:round;" d="M 1124.79,319.39 L 1120.54, 323.64 L 1116.29, 319.39 L 1116.29, 325.94 L 1124.79, 325.94 L 1124.79, 319.39" />
      <path style="fill:#FFFFFF;stroke:#FFFFFF;stroke-width:0;stroke-linecap:round;stroke-linejoin:round;" d="M 1124.79,316.55 L 1120.54, 320.8 L 1116.29, 316.55 L 1116.29, 323.1 L 1124.79, 323.1 L 1124.79, 316.55" />
      <path style="fill:none;stroke:#000000;stroke-width:0.85;" d="M 1124.79,318.85 L 1120.54, 323.1 L 1116.29, 318.85" />
      <path style="fill:none;stroke:#000000;stroke-width:0.85;" d="M 1124.79,321.69 L 1120.54, 325.94 L 1116.29, 321.69" />
      <path style="fill:none;stroke:#000000;stroke-width:0.85;stroke-linecap:round;stroke-linejoin:round;" d="M 1130.47,334.44 L 1130.47, 325.94 L 1110.62, 325.94 L 1110.62, 334.44 L 1130.47, 334.44" />
      <text transform="matrix(1 0 0 1 1105.8662 331.8965)" style="font-family:'Arial'; font-size:6px;">8</text>
    </g><g ewd:figtype="w2w" ewd:code="KA4" ewd:pin_no="2" ewd:figID="54">
      <path style="fill:#FFFFFF;stroke:#FFFFFF;stroke-width:0;stroke-linecap:round;stroke-linejoin:round;" d="M 1167.32,319.39 L 1163.07, 323.64 L 1158.82, 319.39 L 1158.82, 325.94 L 1167.32, 325.94 L 1167.32, 319.39" />
      <path style="fill:#FFFFFF;stroke:#FFFFFF;stroke-width:0;stroke-linecap:round;stroke-linejoin:round;" d="M 1167.32,316.55 L 1163.07, 320.8 L 1158.82, 316.55 L 1158.82, 323.1 L 1167.32, 323.1 L 1167.32, 316.55" />
      <path style="fill:none;stroke:#000000;stroke-width:0.85;" d="M 1167.32,318.85 L 1163.07, 323.1 L 1158.82, 318.85" />
      <path style="fill:none;stroke:#000000;stroke-width:0.85;" d="M 1167.32,321.69 L 1163.07, 325.94 L 1158.82, 321.69" />
      <path style="fill:none;stroke:#000000;stroke-width:0.85;stroke-linecap:round;stroke-linejoin:round;" d="M 1172.99,334.44 L 1172.99, 325.94 L 1153.15, 325.94 L 1153.15, 334.44 L 1172.99, 334.44" />
      <text transform="matrix(1 0 0 1 1148.3896 331.8965)" style="font-family:'Arial'; font-size:6px;">2</text>
    </g><g ewd:figtype="w2w" ewd:code="KA4" ewd:pin_no="7" ewd:figID="55">
      <path style="fill:#FFFFFF;stroke:#FFFFFF;stroke-width:0;stroke-linecap:round;stroke-linejoin:round;" d="M 1218.34,319.39 L 1214.09, 323.64 L 1209.84, 319.39 L 1209.84, 325.94 L 1218.34, 325.94 L 1218.34, 319.39" />
      <path style="fill:#FFFFFF;stroke:#FFFFFF;stroke-width:0;stroke-linecap:round;stroke-linejoin:round;" d="M 1218.34,316.55 L 1214.09, 320.8 L 1209.84, 316.55 L 1209.84, 323.1 L 1218.34, 323.1 L 1218.34, 316.55" />
      <path style="fill:none;stroke:#000000;stroke-width:0.85;" d="M 1218.34,318.85 L 1214.09, 323.1 L 1209.84, 318.85" />
      <path style="fill:none;stroke:#000000;stroke-width:0.85;" d="M 1218.34,321.69 L 1214.09, 325.94 L 1209.84, 321.69" />
      <path style="fill:none;stroke:#000000;stroke-width:0.85;stroke-linecap:round;stroke-linejoin:round;" d="M 1224.01,334.44 L 1224.01, 325.94 L 1204.17, 325.94 L 1204.17, 334.44 L 1224.01, 334.44" />
      <text transform="matrix(1 0 0 1 1199.4131 331.8965)" style="font-family:'Arial'; font-size:6px;">7</text>
    </g><g ewd:figtype="w2w" ewd:code="KA3" ewd:pin_no="2" ewd:figID="56">
      <path style="fill:#FFFFFF;stroke:#FFFFFF;stroke-width:0;stroke-linecap:round;stroke-linejoin:round;" d="M 1260.86,319.39 L 1256.61, 323.64 L 1252.36, 319.39 L 1252.36, 325.94 L 1260.86, 325.94 L 1260.86, 319.39" />
      <path style="fill:#FFFFFF;stroke:#FFFFFF;stroke-width:0;stroke-linecap:round;stroke-linejoin:round;" d="M 1260.86,316.55 L 1256.61, 320.8 L 1252.36, 316.55 L 1252.36, 323.1 L 1260.86, 323.1 L 1260.86, 316.55" />
      <path style="fill:none;stroke:#000000;stroke-width:0.85;" d="M 1260.86,318.85 L 1256.61, 323.1 L 1252.36, 318.85" />
      <path style="fill:none;stroke:#000000;stroke-width:0.85;" d="M 1260.86,321.69 L 1256.61, 325.94 L 1252.36, 321.69" />
      <path style="fill:none;stroke:#000000;stroke-width:0.85;stroke-linecap:round;stroke-linejoin:round;" d="M 1266.53,334.44 L 1266.53, 325.94 L 1246.69, 325.94 L 1246.69, 334.44 L 1266.53, 334.44" />
      <text transform="matrix(1 0 0 1 1241.9326 331.8965)" style="font-family:'Arial'; font-size:6px;">2</text>
    </g><g ewd:figtype="w2w" ewd:code="KA2" ewd:pin_no="5" ewd:figID="79">
      <path style="fill:#FFFFFF;stroke:#FFFFFF;stroke-width:0;stroke-linecap:round;stroke-linejoin:round;" d="M 1124.81,519.58 L 1120.56, 515.33 L 1116.31, 519.58 L 1116.31, 513.03 L 1124.81, 513.03 L 1124.81, 519.58" />
      <path style="fill:#FFFFFF;stroke:#FFFFFF;stroke-width:0;stroke-linecap:round;stroke-linejoin:round;" d="M 1124.81,522.41 L 1120.56, 518.16 L 1116.31, 522.41 L 1116.31, 515.86 L 1124.81, 515.86 L 1124.81, 522.41" />
      <path style="fill:none;stroke:#000000;stroke-width:0.85;" d="M 1124.81,520.11 L 1120.56, 515.86 L 1116.31, 520.11" />
      <path style="fill:none;stroke:#000000;stroke-width:0.85;" d="M 1124.81,517.28 L 1120.56, 513.03 L 1116.31, 517.28" />
      <path style="fill:none;stroke:#000000;stroke-width:0.85;stroke-linecap:round;stroke-linejoin:round;" d="M 1130.49,504.52 L 1130.49, 513.02 L 1110.64, 513.02 L 1110.64, 504.52 L 1130.49, 504.52" />
      <text transform="matrix(1 0 0 1 1105.8877 510.4775)" style="font-family:'Arial'; font-size:6px;">5</text>
    </g><g ewd:figtype="conn" ewd:code="K1" ewd:figID="18">
      <path style="fill:none;stroke:#000000;stroke-width:0.85;" d="M 1120.56,453.5 L 1120.56, 432.24" />
      <path style="fill:none;stroke:#000000;stroke-width:0.85;" d="M 1120.56,406.73 L 1120.56, 393.97" />
      <path style="fill:none;stroke:#000000;stroke-width:0.85;" d="M 1188.6,423.73 L 1188.6, 436.49 L 1120.56, 436.49" />
      <path style="fill:none;stroke:#000000;stroke-width:0.85;" d="M 1307.65,393.97 L 1307.65, 419.48 L 1294.89, 419.48" />
      <path style="fill:none;stroke:#000000;stroke-width:0.85;" d="M 1269.38,419.48 L 1256.62, 419.48 L 1256.62, 393.97" />
      <path style="fill:none;stroke:#000000;stroke-width:0.85;" d="M 1214.11,393.97 L 1214.11, 408.14 L 1198.52, 408.14" />
      <path style="fill:none;stroke:#000000;stroke-width:0.85;" d="M 1163.09,393.97 L 1163.09, 408.14 L 1178.68, 408.14" />
      <path style="fill:none;stroke:#000000;stroke-width:1.417;stroke-linecap:round;stroke-linejoin:round;" d="M 1269.38,423.73 L 1269.38, 415.23 L 1274.76, 415.23 C 1276.23 412.7 1278.99 410.98 1282.13 410.98 C 1285.27 410.98 1288.03 412.7 1289.5 415.23 L 1294.89, 415.23 L 1294.89, 423.73 L 1289.5, 423.73 C 1288.03 426.26 1285.27 427.98 1282.13 427.98 C 1278.99 427.98 1276.23 426.26 1274.76 423.73 L 1269.38, 423.73" />
      <path style="fill:none;stroke:#000000;stroke-width:1.417;" d="M 1289.51,415.23 C 1290.25 416.49 1290.64 417.92 1290.64 419.48 C 1290.64 421.04 1290.24 422.48 1289.51 423.73" />
      <path style="fill:none;stroke:#000000;stroke-width:1.417;" d="M 1274.77,415.23 C 1274.03 416.49 1273.64 417.92 1273.64 419.48 C 1273.64 421.04 1274.04 422.48 1274.77 423.73" />
      <path style="fill:none;stroke:#000000;stroke-width:1.417;" d="M 1194.26,406.77 L 1188.94, 420.95" />
      <path style="fill:none;stroke:#000000;stroke-width:0.85;stroke-linecap:round;stroke-linejoin:round;" d="M 1180.07,409.56 C 1180.85 409.56 1181.49 408.93 1181.49 408.14 C 1181.48998046875 407.350029296875 1180.86 406.72 1180.07 406.72 C 1179.27989257813 406.720002441406 1178.65 407.35 1178.65 408.14 C 1178.65004882812 408.930029296875 1179.29 409.56 1180.07 409.56" />
      <path style="fill:none;stroke:#000000;stroke-width:0.85;stroke-linecap:round;stroke-linejoin:round;" d="M 1197.08,409.56 C 1197.86 409.56 1198.5 408.93 1198.5 408.14 C 1198.5 407.350029296875 1197.87 406.72 1197.08 406.72 C 1196.28991210938 406.720002441406 1195.66 407.35 1195.66 408.14 C 1195.66006835937 408.930029296875 1196.3 409.56 1197.08 409.56" />
      <path style="fill:none;stroke:#000000;stroke-width:0.85;stroke-linecap:round;stroke-linejoin:round;" d="M 1188.58,423.73 C 1189.36 423.73 1190 423.1 1190 422.31 C 1190 421.53 1189.37 420.89 1188.58 420.89 C 1187.78991210938 420.890029296875 1187.16 421.52 1187.16 422.31 C 1187.16 423.1 1187.79 423.73 1188.58 423.73" />
      <path style="fill:none;stroke:#000000;stroke-width:1.417;" d="M 1126.22,406.77 L 1120.9, 429.45" />
      <path style="fill:none;stroke:#000000;stroke-width:0.85;stroke-linecap:round;stroke-linejoin:round;" d="M 1120.54,409.56 C 1121.32 409.56 1121.96 408.93 1121.96 408.14 C 1121.959921875 407.350029296875 1121.33 406.72 1120.54 406.72 C 1119.750078125 406.720002441406 1119.12 407.35 1119.12 408.14 C 1119.11999023438 408.930029296875 1119.76 409.56 1120.54 409.56" />
      <path style="fill:none;stroke:#000000;stroke-width:0.85;stroke-linecap:round;stroke-linejoin:round;" d="M 1120.54,432.24 C 1121.32 432.24 1121.96 431.61 1121.96 430.82 C 1121.96 430.04 1121.33 429.4 1120.54 429.4 C 1119.750078125 429.399987792969 1119.12 430.03 1119.12 430.82 C 1119.12 431.6 1119.76 432.24 1120.54 432.24" />
      <path d="M 1121.98,436.48 C 1121.98 437.26 1121.35 437.9 1120.56 437.9 C 1119.78 437.9 1119.14 437.27 1119.14 436.48 C 1119.14 435.7 1119.77 435.06 1120.56 435.06 C 1121.35 435.06 1121.98 435.7 1121.98 436.48" style="stroke-linecap:round;stroke-linejoin:round;" />
      <path style="fill:none;stroke:#000000;stroke-width:1.417;stroke-linecap:round;stroke-linejoin:round;" d="M 1324.64,453.5 L 1324.64, 393.97 L 1112.04, 393.97 L 1112.04, 453.5 L 1324.64, 453.5" />
      <text transform="matrix(1 0 0 1 1164.4629 401.373)" style="font-family:'Arial'; font-size:6px;">L</text>
      <text transform="matrix(1 0 0 1 1215.4863 401.373)" style="font-family:'Arial'; font-size:6px;">UL</text>
      <text transform="matrix(1 0 0 1 1258.0059 401.373)" style="font-family:'Arial'; font-size:6px;">L</text>
      <text transform="matrix(1 0 0 1 1309.0293 401.373)" style="font-family:'Arial'; font-size:6px;">UL</text>
      <text transform="matrix(1 0 0 1 1299.335 390.0059)" style="font-family:'Arial'; font-size:6px;">1</text>
      <text transform="matrix(1 0 0 1 1248.3115 390.0059)" style="font-family:'Arial'; font-size:6px;">4</text>
      <text transform="matrix(1 0 0 1 1205.792 390.0059)" style="font-family:'Arial'; font-size:6px;">5</text>
      <text transform="matrix(0 -1 1 0 1221.4854 429.1426)" style="font-family:'Arial'; font-size:6px;">UNLOCK</text>
      <text transform="matrix(1 0 0 1 1154.7686 390.0059)" style="font-family:'Arial'; font-size:6px;">6</text>
      <text transform="matrix(0 -1 1 0 1159.123 424.8086)" style="font-family:'Arial'; font-size:6px;">LOCK</text>
      <text transform="matrix(1 0 0 1 1112.2451 390.0059)" style="font-family:'Arial'; font-size:6px;">7</text>
      <text transform="matrix(1 0 0 1 1121.9805 401.3447)" style="font-family:'Arial'; font-size:6px;">LSSR</text>
      <text transform="matrix(1 0 0 1 1121.9805 449.5342)" style="font-family:'Arial'; font-size:6px;">E</text>
      <text transform="matrix(1 0 0 1 1112.2451 460.8721)" style="font-family:'Arial'; font-size:6px;">8</text>
      <text transform="matrix(1 0 0 1 1279.6416 421.1865)" style="font-family:'Arial'; font-size:6px;">M</text>
      <g ewd:figtype="title">
        <text transform="matrix(1 0 0 1 1231.1172 461.5811)" style="font-family:'Arial'; font-size:6px;">K1</text>
        <text transform="matrix(1 0 0 1 1231.1172 468.668)" style="font-family:'Arial'; font-size:6px;" ewd:textID="31">Door Lock Assembly (Front RH)</text>
      </g>
    </g><g ewd:figtype="w2w" ewd:code="HA1" ewd:pin_no="18" ewd:figID="102">
      <path style="fill:#FFFFFF;stroke:#FFFFFF;stroke-width:0;stroke-linecap:round;stroke-linejoin:round;" d="M 1124.79,162.41 L 1120.54, 158.16 L 1116.29, 162.41 L 1116.29, 155.86 L 1124.79, 155.86 L 1124.79, 162.41" />
      <path style="fill:#FFFFFF;stroke:#FFFFFF;stroke-width:0;stroke-linecap:round;stroke-linejoin:round;" d="M 1124.79,165.25 L 1120.54, 161 L 1116.29, 165.25 L 1116.29, 158.7 L 1124.79, 158.7 L 1124.79, 165.25" />
      <path style="fill:none;stroke:#000000;stroke-width:0.85;" d="M 1124.79,162.95 L 1120.54, 158.7 L 1116.29, 162.95" />
      <path style="fill:none;stroke:#000000;stroke-width:0.85;" d="M 1124.79,160.11 L 1120.54, 155.86 L 1116.29, 160.11" />
      <path style="fill:none;stroke:#000000;stroke-width:0.85;stroke-linecap:round;stroke-linejoin:round;" d="M 1130.47,147.36 L 1130.47, 155.86 L 1110.62, 155.86 L 1110.62, 147.36 L 1130.47, 147.36" />
      <text transform="matrix(1 0 0 1 1102.5293 153.3135)" style="font-family:'Arial'; font-size:6px;">18</text>
    </g><g ewd:figtype="comment" ewd:code="17" ewd:figID="1006">
      <text transform="matrix(1 0 0 1 1100.6797 654.3779)" style="font-family:'Arial'; font-size:6px;" ewd:textID="7">*17 : Thailand Long Wheelbase Complete Build-Up Type</text>
    </g><g ewd:figtype="comment" ewd:code="18" ewd:figID="1005">
      <text transform="matrix(1 0 0 1 1100.6797 662.8838)" style="font-family:'Arial'; font-size:6px;" ewd:textID="8">*18 : Except Thailand Long Wheelbase Complete Build-Up Type</text>
    </g><text transform="matrix(0 -1 1 0 752.8813 200.3862)" style="font-family:'Arial'; font-size:6px;">Y</text><text transform="matrix(0 -1 1 0 786.897 174.8745)" style="font-family:'Arial'; font-size:6px;">Y</text><text transform="matrix(0 -1 1 0 786.897 225.8979)" style="font-family:'Arial'; font-size:6px;">Y</text><text transform="matrix(0 -1 1 0 752.8813 319.4414)" style="font-family:'Arial'; font-size:6px;">Y</text><text transform="matrix(0 -1 1 0 939.9741 527.3672)" style="font-family:'Arial'; font-size:6px;">W-B</text><text transform="matrix(0 -1 1 0 854.9351 527.3672)" style="font-family:'Arial'; font-size:6px;">W-B</text><text transform="matrix(0 -1 1 0 854.9351 671.9336)" style="font-family:'Arial'; font-size:6px;">W-B</text><text transform="matrix(0 -1 1 0 854.9341 157.8696)" style="font-family:'Arial'; font-size:6px;">Y</text><text transform="matrix(0 -1 1 0 854.9478 276.918)" style="font-family:'Arial'; font-size:6px;">Y</text><text transform="matrix(0 -1 1 0 939.9878 276.918)" style="font-family:'Arial'; font-size:6px;">Y</text><text transform="matrix(0 -1 1 0 854.9478 408.3066)" style="font-family:'Arial'; font-size:6px;">W-B</text><text transform="matrix(0 -1 1 0 939.9878 408.3066)" style="font-family:'Arial'; font-size:6px;">W-B</text><text transform="matrix(1 0 0 1 1023.6372 628.1572)" style="font-family:'Arial'; font-size:6px;">W-B</text><text transform="matrix(0 -1 1 0 1116.5781 362.7852)" style="font-family:'Arial'; font-size:6px;">W</text><text transform="matrix(0 -1 1 0 1159.1006 362.7852)" style="font-family:'Arial'; font-size:6px;">W</text><text transform="matrix(0 -1 1 0 1210.124 361.9546)" style="font-family:'Arial'; font-size:6px;">Y</text><text transform="matrix(0 -1 1 0 1116.5781 493.3438)" style="font-family:'Arial'; font-size:6px;">W-B</text><text transform="matrix(0 -1 1 0 1116.5781 544.3672)" style="font-family:'Arial'; font-size:6px;">W-B</text><text transform="matrix(0 -1 1 0 1116.5781 124.6753)" style="font-family:'Arial'; font-size:6px;">W</text><text transform="matrix(0 -1 1 0 1116.5781 192.707)" style="font-family:'Arial'; font-size:6px;">W</text><text transform="matrix(0 -1 1 0 1159.1016 192.707)" style="font-family:'Arial'; font-size:6px;">W</text><text transform="matrix(0 -1 1 0 1210.125 191.8765)" style="font-family:'Arial'; font-size:6px;">Y</text><text transform="matrix(0 -1 1 0 951.3276 408.9785)" style="font-family:'Arial'; font-size:6px;">(*12)</text><text transform="matrix(0 -1 1 0 951.3276 281.4194)" style="font-family:'Arial'; font-size:6px;">(*12)</text><text transform="matrix(0 -1 1 0 866.2876 281.4194)" style="font-family:'Arial'; font-size:6px;">(*11)</text><text transform="matrix(0 -1 1 0 866.2876 408.9785)" style="font-family:'Arial'; font-size:6px;">(*11)</text><text transform="matrix(0 -1 1 0 798.2612 177.7148)" style="font-family:'Arial'; font-size:6px;">(*8)</text><text transform="matrix(0 -1 1 0 798.2612 228.7383)" style="font-family:'Arial'; font-size:6px;">(*8)</text><text transform="matrix(0 -1 1 0 764.2485 323.9521)" style="font-family:'Arial'; font-size:6px;">(*10)</text><text transform="matrix(0 -1 1 0 764.2485 203.2285)" style="font-family:'Arial'; font-size:6px;">(*9)</text><text transform="matrix(0 -1 1 0 939.9741 578.3906)" style="font-family:'Arial'; font-size:6px;">W-B</text><text transform="matrix(1 0 0 1 1072.1685 628.1016)" style="font-family:'Arial'; font-size:6px;">W-B</text><text transform="matrix(1 0 0 1 1157.208 628.1016)" style="font-family:'Arial'; font-size:6px;">W-B</text></svg>