﻿<?xml version="1.0" encoding="utf-8"?>
<!-- Generator: Adobe Illustrator 10.0, SVG Export Plug-In . SVG Version: 3.0.0 Build 77)  -->
<!DOCTYPE svg PUBLIC "-//W3C//DTD SVG 1.0//EN" "http://www.w3.org/TR/2001/REC-SVG-20010904/DTD/svg10.dtd"[
   <!ENTITY ns_flows "http://ns.adobe.com/Flows/1.0/">
   <!ENTITY ns_svg "http://www.w3.org/2000/svg">
   <!ENTITY ns_xlink "http://www.w3.org/1999/xlink">
   <!ENTITY st0 "font-size:7px;font-family:'MS-PGothic';adobe-font-script:japanese;">
   <!ENTITY st1 "font-size:6px;font-family:'ArialMT';">
   <!ENTITY st2 "fill:#FFFFFF;stroke:#000000; stroke-width:1.41;stroke-linecap:round;stroke-linejoin:round;">
   <!ENTITY st3 "fill:#FFFFCC;stroke:#FFFFCC; stroke-width:0.1;stroke-linecap:round;stroke-linejoin:round;">
   <!ENTITY st4 "fill:#CCCCCC;stroke:#CCCCCC; stroke-width:0.1;stroke-linecap:round;stroke-linejoin:round;">
   <!ENTITY st5 "fill:#CCECF4;stroke:#000000; stroke-width:1.133;stroke-linecap:round;stroke-linejoin:round;">
   <!ENTITY st6 "fill:none;stroke-linecap:butt; stroke-linejoin:round;">
   <!ENTITY st7 "fill:none;stroke:#000000;stroke-linecap:round;stroke-linejoin:round;">
   <!ENTITY st8 "enable-background:new;">
   <!ENTITY st9 "fill:#000000;stroke:#000000; stroke-linecap:round;stroke-linejoin:round;">
   <!ENTITY st10 "font-size:9px;font-family:'ArialMT';">
   <!ENTITY st11 "font-size:9px;font-family:'Svg Symbol';">
   <!ENTITY st12 "font-size:6px;font-family:'Svg Symbol';">
   <!ENTITY st13 "fill:none;stroke:#ff0000;stroke-linecap:round;stroke-linejoin:round;">
   <!ENTITY st14 "fill:#FFFF00;stroke:#FFFF00; stroke-width:0.1;stroke-linecap:round;stroke-linejoin:round;">
   <!ENTITY st15 "font-size:6px;font-family:'MS-PGothic';adobe-font-script:japanese;">
   <!ENTITY st16 "1.00 0.00 0.00 1.00">
   <!ENTITY st17 "0.00 -1.00 1.00 0.00">
   <!ENTITY st18 "font-size:6px;font-family:'Arial';">
   <!ENTITY st19 "font-size:9px;font-family:'Arial';">
   <!ENTITY st20 "font-size:6px;font-family:'MS-PGothic','MS PGothic';adobe-font-script:japanese;">
   <!ENTITY st21 "font-size:7px;font-family:'MS-PGothic','MS PGothic';adobe-font-script:japanese;">
   <!ATTLIST svg
       xmlns:ewd CDATA #FIXED "http://shcl.co.jp/ewd"
       xmlns:a CDATA #FIXED "http://ns.adobe.com/AdobeSVGViewerExtensions/3.0/"
       ewd:ver CDATA #IMPLIED >
   <!ATTLIST a
       ewd:lineID CDATA #IMPLIED
       ewd:groupID CDATA #IMPLIED
       ewd:figtype CDATA #IMPLIED
       ewd:code CDATA #IMPLIED
       ewd:figID CDATA #IMPLIED
       ewd:pinNo CDATA #IMPLIED
       ewd:comment CDATA #IMPLIED >
   <!ATTLIST g
       ewd:lineID CDATA #IMPLIED
       ewd:groupID CDATA #IMPLIED
       ewd:figtype CDATA #IMPLIED
       ewd:code CDATA #IMPLIED
       ewd:figID CDATA #IMPLIED
       ewd:pinNo CDATA #IMPLIED
       ewd:comment CDATA #IMPLIED >
   <!ATTLIST text
       ewd:textID CDATA #IMPLIED >
   <!ATTLIST title
       ewd:textID CDATA #IMPLIED >
]>
<svg xmlns="http://www.w3.org/2000/svg" xmlns:xlink="http://www.w3.org/1999/xlink" width="2957.94" height="720.99" viewBox="0 0 2957.94 720.99" xml:space="preserve" xmlns:ewd="http://shcl.co.jp/ewd" onload="call_execInitLoadProc_svg('system')" ewd:ver="2.0">
  <script type="text/javascript" xlink:href="../../../../../system/js/ewd/fig/svgfig.js" />
  <defs>
    <font horiz-adv-x="1229">
      <font-face font-family="Svg Symbol" units-per-em="2048" panose-1="5 5 1 2 1 7 6 2 5 7" ascent="2059" descent="450" alphabetic="0" />
      <missing-glyph d="M 103,0 l 0,1280 1024,0 0,-1280 -1024,0 z m 32,32 l 960,0 0,1216 -960,0 0,-1216 z" />
      <glyph d4p1:unicode="" horiz-adv-x="1573" d="M 1517,0 l -567,0 24,279 q 141,59 207.5,168 66.5,109 66.5,306 0,272 -132.5,417.5 -132.5,145.5 -333.5,145.5 -194,0 -328,-147.5 -134,-147.5 -134,-401.5 0,-200 68.5,-319 68.5,-119 206.5,-169 l 25,-279 -564,0 0,279 35,0 q 3,-61 32,-83 45,-35 137,-35 l 270,0 0,70 q -210,61 -324.5,209 -114.5,148 -114.5,349 0,252 186.5,425 186.5,173 504.5,173 195,0 358.5,-73.5 163.5,-73.5 252,-214.5 88.5,-141 88.5,-310 0,-207 -121.5,-360.5 -121.5,-153.5 -317.5,-197.5 l -8,-70 275,0 q 92,0 128,28 36,28 42,90 l 38,0 0,-279 z" xmlns:d4p1="def-glyph-attr-unicode" />
    </font>
  </defs>
  <g id="ewd_top">
    <a ewd:lineID="97" style="cursor:pointer;">
      <path style="fill:none;stroke:#008837;stroke-width:5;" d="M 408.21,317.41 L 408.21, 314.61 L 413.81, 308.91 L 459.21, 308.91 L 459.21, 266.41" />
    </a>
    <a ewd:lineID="77" style="cursor:pointer;">
      <path style="fill:none;stroke:#008837;stroke-width:5;" d="M 365.71,274.91 L 365.71, 263.61 L 371.31, 257.91 L 450.71, 257.91" />
    </a>
    <a ewd:lineID="106" style="cursor:pointer;">
      <path style="fill:none;stroke:#000000;stroke-width:5;" d="M 314.61,266.41 L 314.61, 223.91 L 277.81, 223.91 L 272.11, 218.21 L 272.11, 215.41" />
    </a>
    <a ewd:lineID="104" style="cursor:pointer;">
      <path style="fill:none;stroke:#000000;stroke-width:5;" d="M 272.11,368.51 L 272.11, 365.61 L 277.81, 359.91 L 314.61, 359.91 L 314.61, 317.41" />
    </a>
    <a ewd:lineID="103" style="cursor:pointer;">
      <path style="fill:none;stroke:#000000;stroke-width:5;" d="M 365.71,274.91 L 365.71, 138.91 L 402.51, 138.91 L 408.21, 133.21 L 408.21, 130.41" />
      <path style="fill:none;stroke:#FFFFFF;stroke-width:3.6;" d="M 365.71,274.91 L 365.71, 138.91 L 402.51, 138.91 L 408.21, 133.21 L 408.21, 130.41" />
    </a>
    <a ewd:lineID="102" style="cursor:pointer;">
      <path style="fill:none;stroke:#000000;stroke-width:5;" d="M 408.21,428.01 L 408.21, 425.21 L 402.51, 419.51 L 365.71, 419.51 L 365.71, 283.41" />
      <path style="fill:none;stroke:#FFFFFF;stroke-width:3.6;" d="M 408.21,428.01 L 408.21, 425.21 L 402.51, 419.51 L 365.71, 419.51 L 365.71, 283.41" />
    </a>
    <a ewd:lineID="100" style="cursor:pointer;">
      <path style="fill:none;stroke:#000000;stroke-width:5;" d="M 408.21,436.51 L 408.21, 447.81 L 402.51, 453.51 L 348.61, 453.51 L 348.61, 555.51" />
      <path style="fill:none;stroke:#FFFFFF;stroke-width:3.6;" d="M 408.21,436.51 L 408.21, 447.81 L 402.51, 453.51 L 348.61, 453.51 L 348.61, 555.51" />
    </a>
    <a ewd:lineID="99" style="cursor:pointer;">
      <path style="fill:none;stroke:#000000;stroke-width:5;" d="M 459.21,181.41 L 459.21, 138.91 L 413.81, 138.91 L 408.21, 133.21 L 408.21, 130.41" />
      <path style="fill:none;stroke:#FFFFFF;stroke-width:3.6;" d="M 459.21,181.41 L 459.21, 138.91 L 413.81, 138.91 L 408.21, 133.21 L 408.21, 130.41" />
    </a>
    <a ewd:lineID="40" style="cursor:pointer;">
      <path style="fill:none;stroke:#000000;stroke-width:5;" d="M 2499.21,266.41 L 2499.21, 674.61 L 2536.01, 674.61 L 2550.21, 688.81 L 2550.21, 691.61" />
      <path style="fill:none;stroke:#FFFFFF;stroke-width:3.6;" d="M 2499.21,266.41 L 2499.21, 674.61 L 2536.01, 674.61 L 2550.21, 688.81 L 2550.21, 691.61" />
      <path style="fill:none;stroke:#000000;" d="M 2499.21,266.41 L 2499.21, 674.61 L 2536.01, 674.61 L 2550.21, 688.81 L 2550.21, 691.61" />
    </a>
    <a ewd:lineID="38" style="cursor:pointer;">
      <path style="fill:none;stroke:#0A50A1;stroke-width:5;" d="M 2295.11,308.91 L 2295.11, 351.51 L 2331.91, 351.51 L 2346.11, 365.61 L 2346.11, 368.51" />
    </a>
    <a ewd:lineID="36" style="cursor:pointer;">
      <path style="fill:none;stroke:#0A50A1;stroke-width:5;" d="M 2346.11,155.91 L 2346.11, 158.71 L 2331.91, 172.91 L 2295.11, 172.91 L 2295.11, 223.91" />
    </a>
    <a ewd:lineID="35" style="cursor:pointer;">
      <path style="fill:none;stroke:#FF0000;stroke-width:5;" d="M 2448.11,308.91 L 2448.11, 351.51 L 2411.31, 351.51 L 2397.11, 365.61 L 2397.11, 368.51" />
    </a>
    <a ewd:lineID="33" style="cursor:pointer;">
      <path style="fill:none;stroke:#FF0000;stroke-width:5;" d="M 2397.11,155.91 L 2397.11, 158.71 L 2411.31, 172.91 L 2448.11, 172.91 L 2448.11, 223.91" />
    </a>
    <a ewd:lineID="29" style="cursor:pointer;">
      <path style="fill:none;stroke:#000000;stroke-width:5;" d="M 2941.31,189.91 L 2941.31, 232.41 L 2915.81, 232.41 L 2898.81, 249.41 L 2898.81, 257.91" />
    </a>
    <a ewd:lineID="28" style="cursor:pointer;">
      <path style="fill:none;stroke:#000000;stroke-width:5;" d="M 2898.81,113.31 L 2898.81, 116.21 L 2913.01, 130.31 L 2941.31, 130.31 L 2941.31, 172.91" />
    </a>
    <a ewd:lineID="21" style="cursor:pointer;">
      <path style="fill:none;stroke:#FF0000;stroke-width:5;" d="M 2227.11,274.91 L 2227.11, 172.91 L 1868.81, 172.91 L 1849.41, 192.41" />
    </a>
    <a ewd:lineID="8" style="cursor:pointer;">
      <path style="fill:none;stroke:#0A50A1;stroke-width:5;" d="M 1798.31,229.91 L 1817.81, 249.41 L 1954.01, 249.41 L 1954.01, 334.41" />
    </a>
    <a ewd:lineID="2" style="cursor:pointer;">
      <path style="fill:none;stroke:#000000;stroke-width:5;" d="M 1401.21,487.51 L 1401.21, 538.51" />
      <path style="fill:none;stroke:#FFFFFF;stroke-width:3.6;" d="M 1401.21,487.51 L 1401.21, 538.51" />
      <path style="fill:none;stroke:#000000;" d="M 1401.21,487.51 L 1401.21, 538.51" />
    </a>
    <a ewd:lineID="3" style="cursor:pointer;">
      <path style="fill:none;stroke:#000000;stroke-width:5;" d="M 1401.21,547.01 L 1401.21, 632.11 L 1171.61, 632.11" />
      <path style="fill:none;stroke:#FFFFFF;stroke-width:3.6;" d="M 1401.21,547.01 L 1401.21, 632.11 L 1171.61, 632.11" />
      <path style="fill:none;stroke:#000000;" d="M 1401.21,547.01 L 1401.21, 632.11 L 1171.61, 632.11" />
    </a>
    <a ewd:lineID="4" style="cursor:pointer;">
      <path style="fill:none;stroke:#000000;stroke-width:5;" d="M 1154.61,632.11 L 927.01, 632.11 L 927.01, 547.01" />
      <path style="fill:none;stroke:#FFFFFF;stroke-width:3.6;" d="M 1154.61,632.11 L 927.01, 632.11 L 927.01, 547.01" />
      <path style="fill:none;stroke:#000000;" d="M 1154.61,632.11 L 927.01, 632.11 L 927.01, 547.01" />
    </a>
    <a ewd:lineID="5" style="cursor:pointer;">
      <path style="fill:none;stroke:#000000;stroke-width:5;" d="M 927.01,538.51 L 927.01, 496.01" />
      <path style="fill:none;stroke:#FFFFFF;stroke-width:3.6;" d="M 927.01,538.51 L 927.01, 496.01" />
      <path style="fill:none;stroke:#000000;" d="M 927.01,538.51 L 927.01, 496.01" />
    </a>
    <a ewd:lineID="6" style="cursor:pointer;">
      <path style="fill:none;stroke:#000000;stroke-width:5;" d="M 927.01,445.01 L 927.01, 351.41" />
      <path style="fill:none;stroke:#FFFFFF;stroke-width:3.6;" d="M 927.01,445.01 L 927.01, 351.41" />
      <path style="fill:none;stroke:#000000;" d="M 927.01,445.01 L 927.01, 351.41" />
    </a>
    <a ewd:lineID="7" style="cursor:pointer;">
      <path style="fill:none;stroke:#FFF200;stroke-width:5;" d="M 927.01,317.41 L 927.01, 240.91" />
    </a>
    <a ewd:lineID="9" style="cursor:pointer;">
      <path style="fill:none;stroke:#0A50A1;stroke-width:5;" d="M 1954.01,342.91 L 1954.01, 385.51" />
    </a>
    <a ewd:lineID="10" style="cursor:pointer;">
      <path style="fill:none;stroke:#FF0000;stroke-width:5;" d="M 2005.01,385.51 L 2005.01, 342.91" />
    </a>
    <a ewd:lineID="11" style="cursor:pointer;">
      <path style="fill:none;stroke:#FF0000;stroke-width:5;" d="M 2005.01,334.41 L 2005.01, 198.41 L 1851.81, 198.41" />
    </a>
    <a ewd:lineID="12" style="cursor:pointer;">
      <path style="fill:none;stroke:#FF0000;stroke-width:5;" d="M 1834.81,198.41 L 1698.71, 198.41 L 1698.71, 385.51" />
    </a>
    <a ewd:lineID="13" style="cursor:pointer;">
      <path style="fill:none;stroke:#0A50A1;stroke-width:5;" d="M 1647.71,385.51 L 1647.71, 223.91 L 1783.81, 223.91" />
    </a>
    <a ewd:lineID="14" style="cursor:pointer;">
      <path style="fill:none;stroke:#0A50A1;stroke-width:5;" d="M 1800.81,223.91 L 2176.11, 223.91 L 2176.11, 274.91" />
    </a>
    <a ewd:lineID="15" style="cursor:pointer;">
      <path style="fill:none;stroke:#0A50A1;stroke-width:5;" d="M 2176.11,283.41 L 2176.11, 334.41" />
    </a>
    <a ewd:lineID="16" style="cursor:pointer;">
      <path style="fill:none;stroke:#0A50A1;stroke-width:5;" d="M 2176.11,342.91 L 2176.11, 385.51" />
    </a>
    <a ewd:lineID="17" style="cursor:pointer;">
      <path style="fill:none;stroke:#0A50A1;stroke-width:5;" d="M 2176.11,394.01 L 2176.11, 445.01" />
    </a>
    <a ewd:lineID="18" style="cursor:pointer;">
      <path style="fill:none;stroke:#FF0000;stroke-width:5;" d="M 2227.11,445.01 L 2227.11, 394.01" />
    </a>
    <a ewd:lineID="19" style="cursor:pointer;">
      <path style="fill:none;stroke:#FF0000;stroke-width:5;" d="M 2227.11,385.51 L 2227.11, 342.91" />
    </a>
    <a ewd:lineID="20" style="cursor:pointer;">
      <path style="fill:none;stroke:#FF0000;stroke-width:5;" d="M 2227.11,334.41 L 2227.11, 283.41" />
    </a>
    <a ewd:lineID="22" style="cursor:pointer;">
      <path style="fill:none;stroke:#F4449F;stroke-width:5;" d="M 2397.11,428.01 L 2397.11, 377.01" />
    </a>
    <a ewd:lineID="23" style="cursor:pointer;">
      <path style="fill:none;stroke:#FF0000;stroke-width:5;" d="M 2397.11,368.51 L 2397.11, 308.91" />
    </a>
    <a ewd:lineID="24" style="cursor:pointer;">
      <path style="fill:none;stroke:#FF0000;stroke-width:5;" d="M 2397.11,300.41 L 2397.11, 155.91" />
    </a>
    <a ewd:lineID="25" style="cursor:pointer;">
      <path style="fill:none;stroke:#0A50A1;stroke-width:5;" d="M 2346.11,428.01 L 2346.11, 377.01" />
    </a>
    <a ewd:lineID="26" style="cursor:pointer;">
      <path style="fill:none;stroke:#0A50A1;stroke-width:5;" d="M 2346.11,368.51 L 2346.11, 308.91" />
    </a>
    <a ewd:lineID="27" style="cursor:pointer;">
      <path style="fill:none;stroke:#0A50A1;stroke-width:5;" d="M 2346.11,300.41 L 2346.11, 155.91" />
    </a>
    <a ewd:lineID="30" style="cursor:pointer;">
      <path style="fill:none;stroke:#000000;stroke-width:5;" d="M 2898.81,113.31 L 2898.81, 257.91" />
    </a>
    <a ewd:lineID="31" style="cursor:pointer;">
      <path style="fill:none;stroke:#000000;stroke-width:5;" d="M 2898.81,266.41 L 2898.81, 291.91 L 2711.71, 291.91 L 2711.71, 266.41" />
    </a>
    <a ewd:lineID="32" style="cursor:pointer;">
      <path style="fill:none;stroke:#000000;stroke-width:5;" d="M 2711.71,215.41 L 2711.71, 130.31" />
    </a>
    <a ewd:lineID="34" style="cursor:pointer;">
      <path style="fill:none;stroke:#FF0000;stroke-width:5;" d="M 2448.11,232.41 L 2448.11, 300.41" />
    </a>
    <a ewd:lineID="37" style="cursor:pointer;">
      <path style="fill:none;stroke:#0A50A1;stroke-width:5;" d="M 2295.11,232.41 L 2295.11, 300.41" />
    </a>
    <a ewd:lineID="39" style="cursor:pointer;">
      <path style="fill:none;stroke:#000000;stroke-width:5;" d="M 2499.21,99.21 L 2499.21, 215.41" />
      <path style="fill:none;stroke:#FFFFFF;stroke-width:3.6;" d="M 2499.21,99.21 L 2499.21, 215.41" />
    </a>
    <a ewd:lineID="41" style="cursor:pointer;">
      <path style="fill:none;stroke:#000000;stroke-width:5;" d="M 2592.71,691.61 L 2592.71, 521.51" />
      <path style="fill:none;stroke:#FFFFFF;stroke-width:3.6;" d="M 2592.71,691.61 L 2592.71, 521.51" />
      <path style="fill:none;stroke:#000000;" d="M 2592.71,691.61 L 2592.71, 521.51" />
    </a>
    <a ewd:lineID="42" style="cursor:pointer;">
      <path style="fill:none;stroke:#000000;stroke-width:5;" d="M 2592.71,504.51 L 2592.71, 130.31" />
      <path style="fill:none;stroke:#FFFFFF;stroke-width:3.6;" d="M 2592.71,504.51 L 2592.71, 130.31" />
      <path style="fill:none;stroke:#000000;" d="M 2592.71,504.51 L 2592.71, 130.31" />
    </a>
    <a ewd:lineID="43" style="cursor:pointer;">
      <path style="fill:none;stroke:#000000;stroke-width:5;" d="M 2550.21,130.31 L 2550.21, 691.61" />
      <path style="fill:none;stroke:#FFFFFF;stroke-width:3.6;" d="M 2550.21,130.31 L 2550.21, 691.61" />
      <path style="fill:none;stroke:#000000;" d="M 2550.21,130.31 L 2550.21, 691.61" />
    </a>
    <a ewd:lineID="44" style="cursor:pointer;">
      <path style="fill:none;stroke:#0A50A1;stroke-width:5;" d="M 1792.31,155.91 L 1792.31, 215.41" />
    </a>
    <a ewd:lineID="45" style="cursor:pointer;">
      <path style="fill:none;stroke:#0A50A1;stroke-width:5;" d="M 1792.31,232.41 L 1792.31, 283.41" />
    </a>
    <a ewd:lineID="46" style="cursor:pointer;">
      <path style="fill:none;stroke:#0A50A1;stroke-width:5;" d="M 1792.31,291.91 L 1792.31, 342.91" />
    </a>
    <a ewd:lineID="47" style="cursor:pointer;">
      <path style="fill:none;stroke:#0A50A1;stroke-width:5;" d="M 1792.31,351.51 L 1792.31, 394.01" />
    </a>
    <a ewd:lineID="48" style="cursor:pointer;">
      <path style="fill:none;stroke:#0A50A1;stroke-width:5;" d="M 1792.31,402.51 L 1792.31, 445.01" />
    </a>
    <a ewd:lineID="49" style="cursor:pointer;">
      <path style="fill:none;stroke:#FF0000;stroke-width:5;" d="M 1843.41,445.01 L 1843.41, 402.51" />
    </a>
    <a ewd:lineID="50" style="cursor:pointer;">
      <path style="fill:none;stroke:#FF0000;stroke-width:5;" d="M 1843.41,394.01 L 1843.41, 351.51" />
    </a>
    <a ewd:lineID="51" style="cursor:pointer;">
      <path style="fill:none;stroke:#FF0000;stroke-width:5;" d="M 1843.41,342.91 L 1843.41, 291.91" />
    </a>
    <a ewd:lineID="52" style="cursor:pointer;">
      <path style="fill:none;stroke:#FF0000;stroke-width:5;" d="M 1843.41,283.41 L 1843.41, 206.91" />
    </a>
    <a ewd:lineID="53" style="cursor:pointer;">
      <path style="fill:none;stroke:#FF0000;stroke-width:5;" d="M 1843.41,189.91 L 1843.41, 155.91" />
    </a>
    <a ewd:lineID="54" style="cursor:pointer;">
      <path style="fill:none;stroke:#FFF200;stroke-width:5;" d="M 1426.71,155.81 L 1426.71, 359.91" />
    </a>
    <a ewd:lineID="55" style="cursor:pointer;">
      <path style="fill:none;stroke:#FFF200;stroke-width:5;" d="M 1426.71,368.41 L 1426.71, 428.01" />
      <path style="fill:none;stroke:#FFFFFF;stroke-width:2.2;" d="M 1426.71,368.41 L 1426.71, 428.01" />
      <path style="fill:none;stroke:#000000;" d="M 1426.71,368.41 L 1426.71, 428.01" />
    </a>
    <a ewd:lineID="56" style="cursor:pointer;">
      <path style="fill:none;stroke:#000000;stroke-width:5;" d="M 1375.71,155.81 L 1375.71, 359.91" />
      <path style="fill:none;stroke:#FFFFFF;stroke-width:3.6;" d="M 1375.71,155.81 L 1375.71, 359.91" />
    </a>
    <a ewd:lineID="57" style="cursor:pointer;">
      <path style="fill:none;stroke:#0A50A1;stroke-width:5;" d="M 1375.71,368.41 L 1375.71, 428.01" />
      <path style="fill:none;stroke:#FFFFFF;stroke-width:2.2;" d="M 1375.71,368.41 L 1375.71, 428.01" />
    </a>
    <a ewd:lineID="58" style="cursor:pointer;">
      <path style="fill:none;stroke:#000000;stroke-width:5;" d="M 1333.11,428.01 L 1333.11, 368.41" />
      <path style="fill:none;stroke:#FFFFFF;stroke-width:3.6;" d="M 1333.11,428.01 L 1333.11, 368.41" />
    </a>
    <a ewd:lineID="59" style="cursor:pointer;">
      <path style="fill:none;stroke:#000000;stroke-width:5;" d="M 1333.11,359.91 L 1333.11, 291.91 L 1095.01, 291.91 L 1095.01, 155.81" />
      <path style="fill:none;stroke:#FFFFFF;stroke-width:3.6;" d="M 1333.11,359.91 L 1333.11, 291.91 L 1095.01, 291.91 L 1095.01, 155.81" />
    </a>
    <a ewd:lineID="60" style="cursor:pointer;">
      <path style="fill:none;stroke:#000000;stroke-width:5;" d="M 1095.01,147.31 L 1095.01, 99.21" />
      <path style="fill:none;stroke:#FFFFFF;stroke-width:3.6;" d="M 1095.01,147.31 L 1095.01, 99.21" />
    </a>
    <a ewd:lineID="61" style="cursor:pointer;">
      <path style="fill:none;stroke:#0A50A1;stroke-width:5;" d="M 1239.61,257.91 L 1469.21, 257.91 L 1469.21, 359.91" />
    </a>
    <a ewd:lineID="62" style="cursor:pointer;">
      <path style="fill:none;stroke:#0A50A1;stroke-width:5;" d="M 1469.21,368.41 L 1469.21, 428.01" />
    </a>
    <a ewd:lineID="63" style="cursor:pointer;">
      <path style="fill:none;stroke:#FF0000;stroke-width:5;" d="M 1520.21,428.01 L 1520.21, 368.41" />
    </a>
    <a ewd:lineID="64" style="cursor:pointer;">
      <path style="fill:none;stroke:#FF0000;stroke-width:5;" d="M 1520.21,359.91 L 1520.21, 223.91 L 1290.61, 223.91" />
    </a>
    <a ewd:lineID="65" style="cursor:pointer;">
      <path style="fill:none;stroke:#000000;stroke-width:5;" d="M 1163.11,487.51 L 1163.11, 538.51" />
      <path style="fill:none;stroke:#FFFFFF;stroke-width:3.6;" d="M 1163.11,487.51 L 1163.11, 538.51" />
      <path style="fill:none;stroke:#000000;" d="M 1163.11,487.51 L 1163.11, 538.51" />
    </a>
    <a ewd:lineID="66" style="cursor:pointer;">
      <path style="fill:none;stroke:#000000;stroke-width:5;" d="M 1163.11,547.01 L 1163.11, 623.61" />
      <path style="fill:none;stroke:#FFFFFF;stroke-width:3.6;" d="M 1163.11,547.01 L 1163.11, 623.61" />
      <path style="fill:none;stroke:#000000;" d="M 1163.11,547.01 L 1163.11, 623.61" />
    </a>
    <a ewd:lineID="67" style="cursor:pointer;">
      <path style="fill:none;stroke:#FF0000;stroke-width:5;" d="M 1282.11,155.81 L 1282.11, 215.41" />
    </a>
    <a ewd:lineID="68" style="cursor:pointer;">
      <path style="fill:none;stroke:#FF0000;stroke-width:5;" d="M 1282.11,232.41 L 1282.11, 359.91" />
    </a>
    <a ewd:lineID="69" style="cursor:pointer;">
      <path style="fill:none;stroke:#FF0000;stroke-width:5;" d="M 1282.11,368.41 L 1282.11, 428.01" />
    </a>
    <a ewd:lineID="70" style="cursor:pointer;">
      <path style="fill:none;stroke:#0A50A1;stroke-width:5;" d="M 1231.11,428.01 L 1231.11, 368.41" />
    </a>
    <a ewd:lineID="71" style="cursor:pointer;">
      <path style="fill:none;stroke:#0A50A1;stroke-width:5;" d="M 1231.11,359.91 L 1231.11, 266.41" />
    </a>
    <a ewd:lineID="72" style="cursor:pointer;">
      <path style="fill:none;stroke:#0A50A1;stroke-width:5;" d="M 1231.11,249.41 L 1231.11, 155.81" />
    </a>
    <a ewd:lineID="73" style="cursor:pointer;">
      <path style="fill:none;stroke:#FFF200;stroke-width:5;" d="M 1188.61,155.81 L 1188.61, 359.91" />
    </a>
    <a ewd:lineID="74" style="cursor:pointer;">
      <path style="fill:none;stroke:#FFF200;stroke-width:5;" d="M 1188.61,368.41 L 1188.61, 428.01" />
    </a>
    <a ewd:lineID="75" style="cursor:pointer;">
      <path style="fill:none;stroke:#000000;stroke-width:5;" d="M 1137.61,155.81 L 1137.61, 359.91" />
      <path style="fill:none;stroke:#FFFFFF;stroke-width:3.6;" d="M 1137.61,155.81 L 1137.61, 359.91" />
    </a>
    <a ewd:lineID="76" style="cursor:pointer;">
      <path style="fill:none;stroke:#000000;stroke-width:5;" d="M 1137.61,368.41 L 1137.61, 428.01" />
      <path style="fill:none;stroke:#FFFFFF;stroke-width:3.6;" d="M 1137.61,368.41 L 1137.61, 428.01" />
    </a>
    <a ewd:lineID="78" style="cursor:pointer;">
      <path style="fill:none;stroke:#FFF200;stroke-width:5;" d="M 842.01,138.81 L 842.01, 189.91" />
    </a>
    <a ewd:lineID="79" style="cursor:pointer;">
      <path style="fill:none;stroke:#FFF200;stroke-width:5;" d="M 842.01,240.91 L 842.01, 317.41" />
    </a>
    <a ewd:lineID="80" style="cursor:pointer;">
      <path style="fill:none;stroke:#000000;stroke-width:5;" d="M 842.01,351.41 L 842.01, 445.01" />
      <path style="fill:none;stroke:#FFFFFF;stroke-width:3.6;" d="M 842.01,351.41 L 842.01, 445.01" />
      <path style="fill:none;stroke:#000000;" d="M 842.01,351.41 L 842.01, 445.01" />
    </a>
    <a ewd:lineID="81" style="cursor:pointer;">
      <path style="fill:none;stroke:#000000;stroke-width:5;" d="M 842.01,496.01 L 842.01, 589.61" />
      <path style="fill:none;stroke:#FFFFFF;stroke-width:3.6;" d="M 842.01,496.01 L 842.01, 589.61" />
      <path style="fill:none;stroke:#000000;" d="M 842.01,496.01 L 842.01, 589.61" />
    </a>
    <a ewd:lineID="82" style="cursor:pointer;">
      <path style="fill:none;stroke:#000000;stroke-width:5;" d="M 842.01,640.61 L 842.01, 691.61" />
      <path style="fill:none;stroke:#FFFFFF;stroke-width:3.6;" d="M 842.01,640.61 L 842.01, 691.61" />
      <path style="fill:none;stroke:#000000;" d="M 842.01,640.61 L 842.01, 691.61" />
    </a>
    <a ewd:lineID="83" style="cursor:pointer;">
      <path style="fill:none;stroke:#008837;stroke-width:5;" d="M 76.51,232.41 L 76.51, 130.31" />
    </a>
    <a ewd:lineID="84" style="cursor:pointer;">
      <path style="fill:none;stroke:#FF0000;stroke-width:5;" d="M 136.11,130.31 L 136.11, 232.41" />
    </a>
    <a ewd:lineID="85" style="cursor:pointer;">
      <path style="fill:none;stroke:#000000;stroke-width:5;" d="M 272.11,130.31 L 272.11, 181.41" />
      <path style="fill:none;stroke:#FFFFFF;stroke-width:3.6;" d="M 272.11,130.31 L 272.11, 181.41" />
    </a>
    <a ewd:lineID="86" style="cursor:pointer;">
      <path style="fill:none;stroke:#000000;stroke-width:5;" d="M 272.11,215.41 L 272.11, 308.91" />
    </a>
    <a ewd:lineID="87" style="cursor:pointer;">
      <path style="fill:none;stroke:#000000;stroke-width:5;" d="M 272.11,317.41 L 272.11, 368.51" />
    </a>
    <a ewd:lineID="88" style="cursor:pointer;">
      <path style="fill:none;stroke:#000000;stroke-width:5;" d="M 195.61,130.31 L 195.61, 181.41" />
      <path style="fill:none;stroke:#FFFFFF;stroke-width:3.6;" d="M 195.61,130.31 L 195.61, 181.41" />
    </a>
    <a ewd:lineID="89" style="cursor:pointer;">
      <path style="fill:none;stroke:#FF0000;stroke-width:5;" d="M 195.61,215.41 L 195.61, 308.91" />
    </a>
    <a ewd:lineID="90" style="cursor:pointer;">
      <path style="fill:none;stroke:#FF0000;stroke-width:5;" d="M 195.61,317.41 L 195.61, 368.51" />
    </a>
    <a ewd:lineID="91" style="cursor:pointer;">
      <path style="fill:none;stroke:#000000;stroke-width:5;" d="M 408.21,130.41 L 408.21, 317.41" />
      <path style="fill:none;stroke:#FFFFFF;stroke-width:3.6;" d="M 408.21,130.41 L 408.21, 317.41" />
    </a>
    <a ewd:lineID="92" style="cursor:pointer;">
      <path style="fill:none;stroke:#000000;stroke-width:5;" d="M 408.21,325.91 L 408.21, 377.01" />
      <path style="fill:none;stroke:#FFFFFF;stroke-width:3.6;" d="M 408.21,325.91 L 408.21, 377.01" />
    </a>
    <a ewd:lineID="93" style="cursor:pointer;">
      <path style="fill:none;stroke:#000000;stroke-width:5;" d="M 408.21,385.51 L 408.21, 428.01" />
      <path style="fill:none;stroke:#FFFFFF;stroke-width:3.6;" d="M 408.21,385.51 L 408.21, 428.01" />
    </a>
    <a ewd:lineID="94" style="cursor:pointer;">
      <path style="fill:none;stroke:#000000;stroke-width:5;" d="M 408.21,436.51 L 408.21, 496.01" />
      <path style="fill:none;stroke:#FFFFFF;stroke-width:3.6;" d="M 408.21,436.51 L 408.21, 496.01" />
    </a>
    <a ewd:lineID="95" style="cursor:pointer;">
      <path style="fill:none;stroke:#000000;stroke-width:5;" d="M 408.21,598.11 L 408.21, 640.61" />
      <path style="fill:none;stroke:#FFFFFF;stroke-width:3.6;" d="M 408.21,598.11 L 408.21, 640.61" />
      <path style="fill:none;stroke:#000000;" d="M 408.21,598.11 L 408.21, 640.61" />
    </a>
    <a ewd:lineID="96" style="cursor:pointer;">
      <path style="fill:none;stroke:#000000;stroke-width:5;" d="M 408.21,657.61 L 408.21, 691.61" />
      <path style="fill:none;stroke:#FFFFFF;stroke-width:3.6;" d="M 408.21,657.61 L 408.21, 691.61" />
      <path style="fill:none;stroke:#000000;" d="M 408.21,657.61 L 408.21, 691.61" />
    </a>
    <a ewd:lineID="98" style="cursor:pointer;">
      <path style="fill:none;stroke:#008837;stroke-width:5;" d="M 459.21,249.41 L 459.21, 206.91" />
    </a>
    <a ewd:lineID="101" style="cursor:pointer;">
      <path style="fill:none;stroke:#000000;stroke-width:5;" d="M 348.61,589.61 L 348.61, 649.11 L 399.71, 649.11" />
      <path style="fill:none;stroke:#FFFFFF;stroke-width:3.6;" d="M 348.61,589.61 L 348.61, 649.11 L 399.71, 649.11" />
      <path style="fill:none;stroke:#000000;" d="M 348.61,589.61 L 348.61, 649.11 L 399.71, 649.11" />
    </a>
    <a ewd:lineID="105" style="cursor:pointer;">
      <path style="fill:none;stroke:#000000;stroke-width:5;" d="M 314.61,308.91 L 314.61, 274.91" />
    </a>
    <a ewd:lineID="107" style="cursor:pointer;">
      <path style="fill:none;stroke:#000000;stroke-width:5;" d="M 731.31,419.51 L 731.31, 462.01" />
      <path style="fill:none;stroke:#FFFFFF;stroke-width:3.6;" d="M 731.31,419.51 L 731.31, 462.01" />
      <path style="fill:none;stroke:#000000;" d="M 731.31,419.51 L 731.31, 462.01" />
    </a>
    <a ewd:lineID="108" style="cursor:pointer;">
      <path style="fill:none;stroke:#000000;stroke-width:5;" d="M 731.31,479.01 L 731.31, 527.21" />
      <path style="fill:none;stroke:#FFFFFF;stroke-width:3.6;" d="M 731.31,479.01 L 731.31, 527.21" />
      <path style="fill:none;stroke:#000000;" d="M 731.31,479.01 L 731.31, 527.21" />
    </a>
    <a ewd:lineID="109" style="cursor:pointer;">
      <path style="fill:none;stroke:#000000;stroke-width:5;" d="M 731.31,575.41 L 731.31, 615.11" />
      <path style="fill:none;stroke:#FFFFFF;stroke-width:3.6;" d="M 731.31,575.41 L 731.31, 615.11" />
      <path style="fill:none;stroke:#000000;" d="M 731.31,575.41 L 731.31, 615.11" />
    </a>
    <a ewd:lineID="110" style="cursor:pointer;">
      <path style="fill:none;stroke:#000000;stroke-width:5;" d="M 731.31,623.61 L 731.31, 691.61" />
      <path style="fill:none;stroke:#FFFFFF;stroke-width:3.6;" d="M 731.31,623.61 L 731.31, 691.61" />
      <path style="fill:none;stroke:#000000;" d="M 731.31,623.61 L 731.31, 691.61" />
    </a>
    <a ewd:lineID="111" style="cursor:pointer;">
      <path style="fill:none;stroke:#000000;stroke-width:5;" d="M 705.81,138.81 L 705.81, 266.41" />
      <path style="fill:none;stroke:#FFFFFF;stroke-width:3.6;" d="M 705.81,138.81 L 705.81, 266.41" />
    </a>
    <a ewd:lineID="112" style="cursor:pointer;">
      <path style="fill:none;stroke:#000000;stroke-width:5;" d="M 705.81,274.91 L 705.81, 368.51" />
      <path style="fill:none;stroke:#FFFFFF;stroke-width:3.6;" d="M 705.81,274.91 L 705.81, 368.51" />
    </a>
    <a ewd:lineID="113" style="cursor:pointer;">
      <path style="fill:none;stroke:#FFF200;stroke-width:5;" d="M 756.91,368.51 L 756.91, 274.91" />
    </a>
    <a ewd:lineID="114" style="cursor:pointer;">
      <path style="fill:none;stroke:#FFF200;stroke-width:5;" d="M 756.91,266.41 L 756.91, 138.81" />
    </a>
    <a ewd:lineID="115" style="cursor:pointer;">
      <path style="fill:none;stroke:#000000;stroke-width:5;" d="M 603.81,419.51 L 603.81, 470.51" />
      <path style="fill:none;stroke:#FFFFFF;stroke-width:3.6;" d="M 603.81,419.51 L 603.81, 470.51" />
      <path style="fill:none;stroke:#000000;" d="M 603.81,419.51 L 603.81, 470.51" />
    </a>
    <a ewd:lineID="116" style="cursor:pointer;">
      <path style="fill:none;stroke:#000000;stroke-width:5;" d="M 603.81,479.01 L 603.81, 555.61" />
      <path style="fill:none;stroke:#FFFFFF;stroke-width:3.6;" d="M 603.81,479.01 L 603.81, 555.61" />
      <path style="fill:none;stroke:#000000;" d="M 603.81,479.01 L 603.81, 555.61" />
    </a>
    <a ewd:lineID="117" style="cursor:pointer;">
      <path style="fill:none;stroke:#000000;stroke-width:5;" d="M 603.81,572.61 L 603.81, 623.81" />
      <path style="fill:none;stroke:#FFFFFF;stroke-width:3.6;" d="M 603.81,572.61 L 603.81, 623.81" />
      <path style="fill:none;stroke:#000000;" d="M 603.81,572.61 L 603.81, 623.81" />
    </a>
    <a ewd:lineID="118" style="cursor:pointer;">
      <path style="fill:none;stroke:#000000;stroke-width:5;" d="M 603.81,640.81 L 603.81, 691.61" />
      <path style="fill:none;stroke:#FFFFFF;stroke-width:3.6;" d="M 603.81,640.81 L 603.81, 691.61" />
      <path style="fill:none;stroke:#000000;" d="M 603.81,640.81 L 603.81, 691.61" />
    </a>
    <a ewd:lineID="119" style="cursor:pointer;">
      <path style="fill:none;stroke:#FFF200;stroke-width:5;" d="M 629.31,138.81 L 629.31, 266.41" />
    </a>
    <a ewd:lineID="120" style="cursor:pointer;">
      <path style="fill:none;stroke:#FFF200;stroke-width:5;" d="M 629.31,274.91 L 629.31, 368.51" />
    </a>
    <a ewd:lineID="121" style="cursor:pointer;">
      <path style="fill:none;stroke:#000000;stroke-width:5;" d="M 578.31,368.51 L 578.31, 274.91" />
      <path style="fill:none;stroke:#FFFFFF;stroke-width:3.6;" d="M 578.31,368.51 L 578.31, 274.91" />
    </a>
    <a ewd:lineID="122" style="cursor:pointer;">
      <path style="fill:none;stroke:#000000;stroke-width:5;" d="M 578.31,266.41 L 578.31, 138.81" />
      <path style="fill:none;stroke:#FFFFFF;stroke-width:3.6;" d="M 578.31,266.41 L 578.31, 138.81" />
    </a>
    <a ewd:figtype="jb" ewd:code="13" style="cursor:pointer;" ewd:figID="10">
      <path style="fill:#CCCCCC;stroke-linecap:round;stroke-linejoin:round;" d="M 419.52,130.35 L 419.52, 87.83 L 56.69, 87.83 L 56.69, 130.35 L 419.52, 130.35" />
    </a>
    <a ewd:figtype="jb" ewd:code="13" style="cursor:pointer;" ewd:figID="9">
      <path style="fill:#CCCCCC;stroke-linecap:round;stroke-linejoin:round;" d="M 853.22,138.86 L 853.22, 87.83 L 558.42, 87.83 L 558.42, 138.85 L 853.22, 138.85" />
    </a>
    <a ewd:figtype="jb" ewd:code="6" style="cursor:pointer;" ewd:figID="8">
      <path style="fill:#CCCCCC;stroke-linecap:round;stroke-linejoin:round;" d="M 938.36,496.02 L 938.36, 445 L 822.14, 445 L 822.14, 496.02 L 938.36, 496.02" />
    </a>
    <a ewd:figtype="jb" ewd:code="6" style="cursor:pointer;" ewd:figID="7">
      <path style="fill:#CCCCCC;stroke-linecap:round;stroke-linejoin:round;" d="M 938.36,240.91 L 938.36, 189.89 L 822.14, 189.89 L 822.14, 240.91 L 938.36, 240.91" />
    </a>
    <a ewd:figtype="jb" ewd:code="6" style="cursor:pointer;" ewd:figID="6">
      <path style="fill:#CCCCCC;stroke-linecap:round;stroke-linejoin:round;" d="M 853.32,640.59 L 853.32, 589.57 L 822.14, 589.57 L 822.14, 640.59 L 853.32, 640.59" />
    </a>
    <a ewd:figtype="jb" ewd:code="13" style="cursor:pointer;" ewd:figID="5">
      <path style="fill:#CCCCCC;stroke-linecap:round;stroke-linejoin:round;" d="M 2604.02,130.36 L 2604.02, 87.84 L 2530.32, 87.84 L 2530.32, 130.36 L 2604.02, 130.36" />
    </a>
    <a ewd:figtype="jb" ewd:code="6" style="cursor:pointer;" ewd:figID="4">
      <path style="fill:#CCCCCC;stroke-linecap:round;stroke-linejoin:round;" d="M 2510.52,266.42 L 2510.52, 215.4 L 2479.34, 215.4 L 2479.34, 266.42 L 2510.52, 266.42" />
    </a>
    <a ewd:figtype="jb" ewd:code="13" style="cursor:pointer;" ewd:figID="3">
      <path style="fill:#CCCCCC;stroke-linecap:round;stroke-linejoin:round;" d="M 2859.14,130.36 L 2859.14, 45.32 L 2771.26, 45.32 L 2771.26, 87.84 L 2691.89, 87.84 L 2691.89, 130.36 L 2859.14, 130.36" />
    </a>
    <a ewd:figtype="jb" ewd:code="6" style="cursor:pointer;" ewd:figID="2">
      <path style="fill:#CCCCCC;stroke-linecap:round;stroke-linejoin:round;" d="M 2723.08,266.42 L 2723.08, 215.4 L 2691.9, 215.4 L 2691.9, 266.42 L 2723.08, 266.42" />
    </a>
    <a ewd:figtype="jb" ewd:code="13" style="cursor:pointer;" ewd:figID="1">
      <path style="fill:#CCCCCC;stroke-linecap:round;stroke-linejoin:round;" d="M 1117.73,87.82 L 1117.73, 155.85 L 2408.47, 155.85 L 2408.47, 87.84 L 1117.73, 87.82" />
    </a>
    <a ewd:figtype="conn" ewd:code="H7" style="cursor:pointer;" ewd:figID="34">
      <path style="fill:#CCECF4;stroke:#000000;stroke-width:1.133;stroke-linecap:round;stroke-linejoin:round;" d="M 51.02,36.81 L 2771.29, 36.81 L 2771.29, 87.84 L 51.02, 87.84 L 51.02, 36.81" />
      <title ewd:textID="36">Integration Relay</title>
    </a>
    <a ewd:figtype="conn" ewd:code="f5" style="cursor:pointer;" ewd:figID="33">
      <path style="fill:#CCECF4;stroke:#000000;stroke-width:1.133;stroke-linecap:round;stroke-linejoin:round;" d="M 2167.52,521.56 L 2244.05, 521.56 L 2244.05, 445.02 L 2167.52, 445.02 L 2167.52, 521.56" />
      <title ewd:textID="46">Slide Door Lock Remote Control Assembly (RH)</title>
    </a>
    <a ewd:figtype="conn" ewd:code="a3" style="cursor:pointer;" ewd:figID="32">
      <path style="fill:#CCECF4;stroke:#000000;stroke-width:1.133;stroke-linecap:round;stroke-linejoin:round;" d="M 2414.13,496.04 L 2414.13, 428.01 L 2329.09, 428.01 L 2329.09, 496.04 L 2414.13, 496.04" />
      <title ewd:textID="18">Back Door Lock Assembly</title>
    </a>
    <a ewd:figtype="conn" ewd:code="L1" style="cursor:pointer;" ewd:figID="31">
      <path style="fill:#CCECF4;stroke:#000000;stroke-width:1.133;stroke-linecap:round;stroke-linejoin:round;" d="M 1545.73,487.51 L 1545.73, 427.98 L 1324.62, 427.98 L 1324.62, 487.51 L 1545.73, 487.51" />
      <title ewd:textID="30">Door Lock Assembly (Front LH)</title>
    </a>
    <a ewd:figtype="conn" ewd:code="a7" style="cursor:pointer;" ewd:figID="30">
      <path style="fill:#CCECF4;stroke:#000000;stroke-width:1.133;stroke-linecap:round;stroke-linejoin:round;" d="M 425.19,598.08 L 425.19, 496.03 L 391.17, 496.03 L 391.17, 598.08 L 425.19, 598.08" />
      <title ewd:textID="19">Back Door Lock Assembly  (Door Control Switch)</title>
    </a>
    <a ewd:figtype="conn" ewd:code="I25" style="cursor:pointer;" ewd:figID="29">
      <path style="fill:#CCECF4;stroke:#000000;stroke-width:1.133;stroke-linecap:round;stroke-linejoin:round;" d="M 773.85,419.49 L 773.85, 368.47 L 688.81, 368.47 L 688.81, 419.49 L 773.85, 419.49" />
      <title ewd:textID="32">Door Lock Control SW</title>
    </a>
    <a ewd:figtype="conn" ewd:code="L5" style="cursor:pointer;" ewd:figID="28">
      <path style="fill:#CCECF4;stroke:#000000;stroke-width:1.133;stroke-linecap:round;stroke-linejoin:round;" d="M 646.3,419.49 L 646.3, 368.47 L 561.26, 368.47 L 561.26, 419.49 L 646.3, 419.49" />
      <title ewd:textID="40">Power Window Master SW</title>
    </a>
    <a ewd:figtype="conn" ewd:code="H27" style="cursor:pointer;" ewd:figID="27">
      <path style="fill:#CCECF4;stroke:#000000;stroke-width:1.133;stroke-linecap:round;stroke-linejoin:round;" d="M 850.48,351.46 L 850.48, 317.44 L 833.47, 317.44 L 833.47, 351.46 L 850.48, 351.46" />
      <title ewd:textID="47">Unlock Warning SW</title>
    </a>
    <a ewd:figtype="conn" ewd:code="H26" style="cursor:pointer;" ewd:figID="26">
      <path style="fill:#CCECF4;stroke:#000000;stroke-width:1.133;stroke-linecap:round;stroke-linejoin:round;" d="M 935.52,351.46 L 935.52, 317.44 L 918.51, 317.44 L 918.51, 351.46 L 935.52, 351.46" />
      <title ewd:textID="47">Unlock Warning SW</title>
    </a>
    <a ewd:figtype="conn" ewd:code="A31" style="cursor:pointer;" ewd:figID="25">
      <path style="fill:#CCECF4;stroke:#000000;stroke-width:1.133;stroke-linecap:round;stroke-linejoin:round;" d="M 612.29,572.59 L 612.29, 555.58 L 595.28, 555.58 L 595.28, 572.59 L 612.29, 572.59" />
      <title ewd:textID="37">Junction Connector </title>
    </a>
    <a ewd:figtype="conn" ewd:code="I12,I13" style="cursor:pointer;" ewd:figID="24">
      <path style="fill:#CCECF4;stroke:#000000;stroke-width:1.133;stroke-linecap:round;stroke-linejoin:round;" d="M 739.83,564.08 L 739.83, 538.57 L 722.82, 538.57 L 722.82, 564.08 L 739.83, 564.08" />
      <title ewd:textID="37">Junction Connector </title>
    </a>
    <a ewd:figtype="conn" ewd:code="B57" style="cursor:pointer;" ewd:figID="23">
      <path style="fill:#CCECF4;stroke:#000000;stroke-width:1.133;stroke-linecap:round;stroke-linejoin:round;" d="M 144.57,266.42 L 144.57, 232.4 L 127.56, 232.4 L 127.56, 266.42 L 144.57, 266.42" />
      <title ewd:textID="27">Door Courtesy SW  (Front RH)</title>
    </a>
    <a ewd:figtype="conn" ewd:code="B56" style="cursor:pointer;" ewd:figID="22">
      <path style="fill:#CCECF4;stroke:#000000;stroke-width:1.133;stroke-linecap:round;stroke-linejoin:round;" d="M 85.04,266.42 L 85.04, 232.4 L 68.03, 232.4 L 68.03, 266.42 L 85.04, 266.42" />
      <title ewd:textID="26">Door Courtesy SW  (Front LH)</title>
    </a>
    <a ewd:figtype="conn" ewd:code="T17" style="cursor:pointer;" ewd:figID="21">
      <path style="fill:#CCECF4;stroke:#000000;stroke-width:1.133;stroke-linecap:round;stroke-linejoin:round;" d="M 467.67,206.92 L 467.67, 181.41 L 450.66, 181.41 L 450.66, 206.92 L 467.67, 206.92" />
      <title ewd:textID="25">Diode  (Door Courtesy No.6)</title>
    </a>
    <a ewd:figtype="conn" ewd:code="a2" style="cursor:pointer;" ewd:figID="20">
      <path style="fill:#CCECF4;stroke:#000000;stroke-width:1.133;stroke-linecap:round;stroke-linejoin:round;" d="M 357.16,589.58 L 357.16, 555.56 L 340.15, 555.56 L 340.15, 589.58 L 357.16, 589.58" />
      <title ewd:textID="17">Back Door Courtesy SW</title>
    </a>
    <a ewd:figtype="conn" ewd:code="X2" style="cursor:pointer;" ewd:figID="19">
      <path style="fill:#CCECF4;stroke:#000000;stroke-width:1.133;stroke-linecap:round;stroke-linejoin:round;" d="M 280.63,402.48 L 280.63, 368.46 L 263.62, 368.46 L 263.62, 402.48 L 280.63, 402.48" />
      <title ewd:textID="29">Door Courtesy SW  (Slide Door RH)</title>
    </a>
    <a ewd:figtype="conn" ewd:code="T9" style="cursor:pointer;" ewd:figID="18">
      <path style="fill:#CCECF4;stroke:#000000;stroke-width:1.133;stroke-linecap:round;stroke-linejoin:round;" d="M 297.64,215.41 L 297.64, 181.39 L 263.62, 181.39 L 263.62, 215.41 L 297.64, 215.41" />
      <title ewd:textID="24">Diode (Door Courtesy No.5)</title>
    </a>
    <a ewd:figtype="conn" ewd:code="Y3" style="cursor:pointer;" ewd:figID="17">
      <path style="fill:#CCECF4;stroke:#000000;stroke-width:1.133;stroke-linecap:round;stroke-linejoin:round;" d="M 204.1,402.48 L 204.1, 368.46 L 187.09, 368.46 L 187.09, 402.48 L 204.1, 402.48" />
      <title ewd:textID="28">Door Courtesy SW  (Slide Door LH)</title>
    </a>
    <a ewd:figtype="rb" ewd:code="FUSE147" style="cursor:pointer;" ewd:figID="16">
      <path style="fill:#CCECF4;stroke:#000000;stroke-width:1.133;stroke-linecap:round;stroke-linejoin:round;" d="M 2911.58,87.84 L 2911.58, 45.32 L 2886.07, 45.32 L 2886.07, 87.84 L 2911.58, 87.84" />
    </a>
    <a ewd:figtype="conn" ewd:code="K1" style="cursor:pointer;" ewd:figID="15">
      <path style="fill:#CCECF4;stroke:#000000;stroke-width:1.133;stroke-linecap:round;stroke-linejoin:round;" d="M 1307.64,487.51 L 1307.64, 427.98 L 1120.55, 427.98 L 1120.55, 487.51 L 1307.64, 487.51" />
      <title ewd:textID="31">Door Lock Assembly (Front RH)</title>
    </a>
    <a ewd:figtype="conn" ewd:code="M1" style="cursor:pointer;" ewd:figID="14">
      <path style="fill:#CCECF4;stroke:#000000;stroke-width:1.133;stroke-linecap:round;stroke-linejoin:round;" d="M 2047.47,555.56 L 2047.47, 385.48 L 1928.41, 385.48 L 1928.41, 555.56 L 2047.47, 555.56" />
      <title ewd:textID="44">Slide Door Control Junction (Male RH)</title>
    </a>
    <a ewd:figtype="conn" ewd:code="B55" style="cursor:pointer;" ewd:figID="13">
      <path style="fill:#CCECF4;stroke:#000000;stroke-width:1.133;stroke-linecap:round;stroke-linejoin:round;" d="M 1741.27,555.56 L 1741.27, 385.48 L 1622.21, 385.48 L 1622.21, 555.56 L 1741.27, 555.56" />
      <title ewd:textID="43">Slide Door Control Junction (Male LH)</title>
    </a>
    <a ewd:figtype="conn" ewd:code="p5" style="cursor:pointer;" ewd:figID="12">
      <path style="fill:#CCECF4;stroke:#000000;stroke-width:1.133;stroke-linecap:round;stroke-linejoin:round;" d="M 1775.35,521.56 L 1860.39, 521.56 L 1860.39, 445.02 L 1775.35, 445.02 L 1775.35, 521.56" />
      <title ewd:textID="45">Slide Door Lock Remote Control Assembly (LH)</title>
    </a>
    <a ewd:figtype="conn" ewd:code="T6" style="cursor:pointer;" ewd:figID="11">
      <path style="fill:#CCECF4;stroke:#000000;stroke-width:1.133;stroke-linecap:round;stroke-linejoin:round;" d="M 221.1,215.41 L 221.1, 181.39 L 187.08, 181.39 L 187.08, 215.41 L 221.1, 215.41" />
      <title ewd:textID="23">Diode (Door Courtesy No.4)</title>
    </a>
    <a ewd:figtype="sp" ewd:code="105126" style="cursor:pointer;" ewd:figID="45">
      <path style="fill:#FFFFFF;stroke:#000000;stroke-width:0.85;stroke-linecap:round;stroke-linejoin:round;" d="M 2944.89,172.88 L 2937.8, 172.88 L 2932.84, 177.84 L 2932.84, 184.93 L 2937.8, 189.89 L 2944.89, 189.89 L 2949.85, 184.93 L 2949.85, 177.84 L 2944.89, 172.88" />
    </a>
    <a ewd:figtype="sp" ewd:code="105127" style="cursor:pointer;" ewd:figID="44">
      <path style="fill:#FFFFFF;stroke:#000000;stroke-width:0.85;stroke-linecap:round;stroke-linejoin:round;" d="M 2596.25,504.53 L 2589.16, 504.53 L 2584.2, 509.49 L 2584.2, 516.58 L 2589.16, 521.54 L 2596.25, 521.54 L 2601.21, 516.58 L 2601.21, 509.49 L 2596.25, 504.53" />
    </a>
    <a ewd:figtype="sp" ewd:code="105132" style="cursor:pointer;" ewd:figID="43">
      <path style="fill:#FFFFFF;stroke:#000000;stroke-width:0.85;stroke-linecap:round;stroke-linejoin:round;" d="M 1846.88,189.88 L 1839.79, 189.88 L 1834.83, 194.84 L 1834.83, 201.93 L 1839.79, 206.89 L 1846.88, 206.89 L 1851.84, 201.93 L 1851.84, 194.84 L 1846.88, 189.88" />
    </a>
    <a ewd:figtype="sp" ewd:code="105133" style="cursor:pointer;" ewd:figID="42">
      <path style="fill:#FFFFFF;stroke:#000000;stroke-width:0.85;stroke-linecap:round;stroke-linejoin:round;" d="M 1795.84,215.4 L 1788.75, 215.4 L 1783.79, 220.36 L 1783.79, 227.45 L 1788.75, 232.41 L 1795.84, 232.41 L 1800.8, 227.45 L 1800.8, 220.36 L 1795.84, 215.4" />
    </a>
    <a ewd:figtype="sp" ewd:code="105128" style="cursor:pointer;" ewd:figID="41">
      <path style="fill:#FFFFFF;stroke:#000000;stroke-width:0.85;stroke-linecap:round;stroke-linejoin:round;" d="M 1166.62,623.57 L 1159.53, 623.57 L 1154.57, 628.53 L 1154.57, 635.6201 L 1159.53, 640.5801 L 1166.62, 640.5801 L 1171.58, 635.6201 L 1171.58, 628.5301 L 1166.62, 623.57" />
    </a>
    <a ewd:figtype="sp" ewd:code="105129" style="cursor:pointer;" ewd:figID="40">
      <path style="fill:#FFFFFF;stroke:#000000;stroke-width:0.85;stroke-linecap:round;stroke-linejoin:round;" d="M 1285.68,215.38 L 1278.59, 215.38 L 1273.63, 220.34 L 1273.63, 227.43 L 1278.59, 232.39 L 1285.68, 232.39 L 1290.64, 227.43 L 1290.64, 220.34 L 1285.68, 215.38" />
    </a>
    <a ewd:figtype="sp" ewd:code="105130" style="cursor:pointer;" ewd:figID="39">
      <path style="fill:#FFFFFF;stroke:#000000;stroke-width:0.85;stroke-linecap:round;stroke-linejoin:round;" d="M 1234.64,249.4 L 1227.55, 249.4 L 1222.59, 254.36 L 1222.59, 261.45 L 1227.55, 266.41 L 1234.64, 266.41 L 1239.6, 261.45 L 1239.6, 254.36 L 1234.64, 249.4" />
    </a>
    <a ewd:figtype="sp" ewd:code="105134" style="cursor:pointer;" ewd:figID="38">
      <path style="fill:#FFFFFF;stroke:#000000;stroke-width:0.85;stroke-linecap:round;stroke-linejoin:round;" d="M 607.2,623.85 L 600.11, 623.85 L 595.15, 628.81 L 595.15, 635.9 L 600.11, 640.86 L 607.2, 640.86 L 612.16, 635.9 L 612.16, 628.81 L 607.2, 623.85" />
    </a>
    <a ewd:figtype="sp" ewd:code="105131" style="cursor:pointer;" ewd:figID="37">
      <path style="fill:#FFFFFF;stroke:#000000;stroke-width:0.85;stroke-linecap:round;stroke-linejoin:round;" d="M 462.71,249.44 L 455.62, 249.44 L 450.66, 254.4 L 450.66, 261.49 L 455.62, 266.45 L 462.71, 266.45 L 467.67, 261.49 L 467.67, 254.4 L 462.71, 249.44" />
    </a>
    <a ewd:figtype="sp" ewd:code="105135" style="cursor:pointer;" ewd:figID="36">
      <path style="fill:#FFFFFF;stroke:#000000;stroke-width:0.85;stroke-linecap:round;stroke-linejoin:round;" d="M 734.89,462.03 L 727.8, 462.03 L 722.84, 466.99 L 722.84, 474.08 L 727.8, 479.04 L 734.89, 479.04 L 739.85, 474.08 L 739.85, 466.99 L 734.89, 462.03" />
    </a>
    <a ewd:figtype="sp" ewd:code="105136" style="cursor:pointer;" ewd:figID="35">
      <path style="fill:#FFFFFF;stroke:#000000;stroke-width:0.85;stroke-linecap:round;stroke-linejoin:round;" d="M 411.73,640.6 L 404.64, 640.6 L 399.68, 645.56 L 399.68, 652.65 L 404.64, 657.61 L 411.73, 657.61 L 416.69, 652.65 L 416.69, 645.56 L 411.73, 640.6" />
    </a>
    <a ewd:figtype="fuse" ewd:code="FUSE147" style="cursor:pointer;" ewd:figID="103">
      <path style="fill:none;stroke:#000000;stroke-width:0.5;stroke-linecap:round;stroke-linejoin:round;" d="M 2911.58,87.84 L 2911.58, 45.32 L 2886.07, 45.32 L 2886.07, 87.84 L 2911.58, 87.84" />
    </a>
    <a ewd:figtype="fuse" ewd:code="FUSE187" style="cursor:pointer;" ewd:figID="102">
      <path style="fill:none;stroke:#000000;stroke-width:0.5;stroke-linecap:round;stroke-linejoin:round;" d="M 2826.54,87.84 L 2826.54, 45.32 L 2801.03, 45.32 L 2801.03, 87.84 L 2826.54, 87.84" />
    </a>
    
    
    
    
    
    
    
    
    
    
    
    
    
    
    
    
    
    
    
    
    
    
    
    
    
    
    
    
    
    
    
    
    
    
    
    
    
    
    
    
    
    
    
    
    
    
    
    
    
    
    
    
    
    
    
    
    
    
    
    
    
    
    
    
    
    
    
    
    
    
    
    
    
    
    
    
    
    
    
    
    
    
    
    
    
    
    
    
    
    
    
    
    
    
    
    
    
    
    
    
    
    
    
    
    
    
    
    
    
    
    
    
    
    
    
    
    
    
    
    
    
    
    
    
    
    
    
    
    
    
    
    
    
    
    
    
    
    
    
    
    
    
    
    
    
    
    
    
    
    
    
    
    
    
    
    
    
    
    
    
    
    
    
    
    
    
    
    
    
    
    
    
    
    
    
    
    
    
    
    
    
    
    
    
    
    
    
    
    
    
    
    
    
    
    
    
    
    
    
    
    
    
    
    
    
    
    
    
    
    
    
    
    
    
    
    
    
    
    
    
    
    
    
    
    
    
    
    
    
    
    
    
    
    
    
    
    
    
    
    
    
    
    
    
    
    
    
    
    
    
    
    
    
    
    
    
    
    
    
    
    
    
    
    
    
    
    
    
    
    
    
    
    
    
    
    
    
    
    
    
    
    
    
    
    
    
    
    
    
    
    
    
    
    
    
    
    
    
    
    
    
    
    
    
    
    
    
    
    
    
    
    
    
    
    
    
    
    
    
    
    
    
    
    
    
    
    <a style="cursor:pointer;" ewd:figID="101" ewd:figtype="w2w" ewd:code="HB1" ewd:pin_no="23">
      <path style="fill:#FFFFFF;stroke:#000000;stroke-width:0.85;stroke-linecap:round;stroke-linejoin:round;" d="M 2908.75,266.42 L 2908.75, 257.92 L 2888.91, 257.92 L 2888.91, 266.42 L 2908.75, 266.42" />
      <text transform="matrix(1 0 0 1 2892.9932 264.2231)" style="font-family:'Arial'; font-size:6px;">HB1</text>
    </a>
    <a style="cursor:pointer;" ewd:figID="100" ewd:figtype="w2w" ewd:code="ZU2" ewd:pin_no="7">
      <path style="fill:#FFFFFF;stroke:#000000;stroke-width:0.85;stroke-linecap:round;stroke-linejoin:round;" d="M 2458.07,308.96 L 2458.07, 300.46 L 2438.23, 300.46 L 2438.23, 308.96 L 2458.07, 308.96" />
      <text transform="matrix(1 0 0 1 2442.4814 306.7627)" style="font-family:'Arial'; font-size:6px;">ZU2</text>
    </a>
    <a style="cursor:pointer;" ewd:figID="99" ewd:figtype="w2w" ewd:code="ZT1" ewd:pin_no="7">
      <path style="fill:#FFFFFF;stroke:#000000;stroke-width:0.85;stroke-linecap:round;stroke-linejoin:round;" d="M 2407.05,308.96 L 2407.05, 300.46 L 2387.21, 300.46 L 2387.21, 308.96 L 2407.05, 308.96" />
      <text transform="matrix(1 0 0 1 2391.792 306.7627)" style="font-family:'Arial'; font-size:6px;">ZT1</text>
    </a>
    <a style="cursor:pointer;" ewd:figID="98" ewd:figtype="w2w" ewd:code="ZU2" ewd:pin_no="1">
      <path style="fill:#FFFFFF;stroke:#000000;stroke-width:0.85;stroke-linecap:round;stroke-linejoin:round;" d="M 2305,308.96 L 2305, 300.46 L 2285.16, 300.46 L 2285.16, 308.96 L 2305, 308.96" />
      <text transform="matrix(1 0 0 1 2289.4111 306.7627)" style="font-family:'Arial'; font-size:6px;">ZU2</text>
    </a>
    <a style="cursor:pointer;" ewd:figID="97" ewd:figtype="w2w" ewd:code="ZT1" ewd:pin_no="1">
      <path style="fill:#FFFFFF;stroke:#000000;stroke-width:0.85;stroke-linecap:round;stroke-linejoin:round;" d="M 2356.02,308.96 L 2356.02, 300.46 L 2336.18, 300.46 L 2336.18, 308.96 L 2356.02, 308.96" />
      <text transform="matrix(1 0 0 1 2340.7686 306.7627)" style="font-family:'Arial'; font-size:6px;">ZT1</text>
    </a>
    <a style="cursor:pointer;" ewd:figID="96" ewd:figtype="w2w" ewd:code="Za4" ewd:pin_no="7">
      <path style="fill:#FFFFFF;stroke:#000000;stroke-width:0.85;stroke-linecap:round;stroke-linejoin:round;" d="M 2407.05,368.49 L 2407.05, 376.99 L 2387.21, 376.99 L 2387.21, 368.49 L 2407.05, 368.49" />
      <text transform="matrix(1 0 0 1 2391.9541 374.7939)" style="font-family:'Arial'; font-size:6px;" ewd:textID="48">Za4</text>
    </a>
    <a style="cursor:pointer;" ewd:figID="95" ewd:figtype="w2w" ewd:code="Za4" ewd:pin_no="1">
      <path style="fill:#FFFFFF;stroke:#000000;stroke-width:0.85;stroke-linecap:round;stroke-linejoin:round;" d="M 2356.02,368.49 L 2356.02, 376.99 L 2336.18, 376.99 L 2336.18, 368.49 L 2356.02, 368.49" />
      <text transform="matrix(1 0 0 1 2340.9307 374.7939)" style="font-family:'Arial'; font-size:6px;" ewd:textID="48">Za4</text>
    </a>
    <a style="cursor:pointer;" ewd:figID="94" ewd:figtype="w2w" ewd:code="TU6" ewd:pin_no="3">
      <path style="fill:#FFFFFF;stroke:#000000;stroke-width:0.85;stroke-linecap:round;stroke-linejoin:round;" d="M 2458.12,223.9 L 2458.12, 232.4 L 2438.28, 232.4 L 2438.28, 223.9 L 2458.12, 223.9" />
      <text transform="matrix(1 0 0 1 2442.5322 230.2124)" style="font-family:'Arial'; font-size:6px;">TU6</text>
    </a>
    <a style="cursor:pointer;" ewd:figID="93" ewd:figtype="w2w" ewd:code="TU6" ewd:pin_no="1">
      <path style="fill:#FFFFFF;stroke:#000000;stroke-width:0.85;stroke-linecap:round;stroke-linejoin:round;" d="M 2305.05,223.9 L 2305.05, 232.4 L 2285.21, 232.4 L 2285.21, 223.9 L 2305.05, 223.9" />
      <text transform="matrix(1 0 0 1 2289.46 230.2124)" style="font-family:'Arial'; font-size:6px;">TU6</text>
    </a>
    <a style="cursor:pointer;" ewd:figID="92" ewd:figtype="gp" ewd:code="B4">
      <path style="fill:#FFFFFF;stroke:#000000;stroke-width:0.85;stroke-linecap:round;stroke-linejoin:round;" d="M 2579.93,691.62 L 2605.44, 691.62 L 2592.69, 708.63 L 2579.93, 691.62" />
      <text transform="matrix(1 0 0 1 2589.0146 698.4922)" style="font-family:'Arial'; font-size:6px;">B4</text>
    </a>
    <a style="cursor:pointer;" ewd:figID="91" ewd:figtype="gp" ewd:code="H1">
      <path style="fill:#FFFFFF;stroke:#000000;stroke-width:0.85;stroke-linecap:round;stroke-linejoin:round;" d="M 2537.41,691.62 L 2562.92, 691.62 L 2550.17, 708.63 L 2537.41, 691.62" />
      <text transform="matrix(1 0 0 1 2546.3291 698.4922)" style="font-family:'Arial'; font-size:6px;">H1</text>
    </a>
    <a style="cursor:pointer;" ewd:figID="90" ewd:figtype="w2w" ewd:code="Bi1" ewd:pin_no="8">
      <path style="fill:#FFFFFF;stroke:#000000;stroke-width:0.85;stroke-linecap:round;stroke-linejoin:round;" d="M 2236.96,274.93 L 2236.96, 283.43 L 2217.12, 283.43 L 2217.12, 274.93 L 2236.96, 274.93" />
      <text transform="matrix(1 0 0 1 2222.707 281.2358)" style="font-family:'Arial'; font-size:6px;" ewd:textID="20">Bi1</text>
    </a>
    <a style="cursor:pointer;" ewd:figID="89" ewd:figtype="w2w" ewd:code="Bi1" ewd:pin_no="4">
      <path style="fill:#FFFFFF;stroke:#000000;stroke-width:0.85;stroke-linecap:round;stroke-linejoin:round;" d="M 2185.94,274.93 L 2185.94, 283.43 L 2166.1, 283.43 L 2166.1, 274.93 L 2185.94, 274.93" />
      <text transform="matrix(1 0 0 1 2171.6846 281.2358)" style="font-family:'Arial'; font-size:6px;" ewd:textID="20">Bi1</text>
    </a>
    <a style="cursor:pointer;" ewd:figID="88" ewd:figtype="w2w" ewd:code="ci1" ewd:pin_no="6">
      <path style="fill:#FFFFFF;stroke:#000000;stroke-width:0.85;stroke-linecap:round;stroke-linejoin:round;" d="M 2236.97,342.96 L 2236.97, 334.46 L 2217.13, 334.46 L 2217.13, 342.96 L 2236.97, 342.96" />
      <text transform="matrix(1 0 0 1 2223.209 340.7632)" style="font-family:'Arial'; font-size:6px;" ewd:textID="22">ci1</text>
    </a>
    <a style="cursor:pointer;" ewd:figID="87" ewd:figtype="w2w" ewd:code="ci1" ewd:pin_no="2">
      <path style="fill:#FFFFFF;stroke:#000000;stroke-width:0.85;stroke-linecap:round;stroke-linejoin:round;" d="M 2185.94,342.96 L 2185.94, 334.46 L 2166.1, 334.46 L 2166.1, 342.96 L 2185.94, 342.96" />
      <text transform="matrix(1 0 0 1 2172.1865 340.7632)" style="font-family:'Arial'; font-size:6px;" ewd:textID="22">ci1</text>
    </a>
    <a style="cursor:pointer;" ewd:figID="86" ewd:figtype="w2w" ewd:code="oq1" ewd:pin_no="6">
      <path style="fill:#FFFFFF;stroke:#000000;stroke-width:0.85;stroke-linecap:round;stroke-linejoin:round;" d="M 1853.24,351.46 L 1853.24, 342.96 L 1833.4, 342.96 L 1833.4, 351.46 L 1853.24, 351.46" />
      <text transform="matrix(1 0 0 1 1838.3115 349.2671)" style="font-family:'Arial'; font-size:6px;" ewd:textID="38">oq1</text>
    </a>
    <a style="cursor:pointer;" ewd:figID="85" ewd:figtype="w2w" ewd:code="oq1" ewd:pin_no="2">
      <path style="fill:#FFFFFF;stroke:#000000;stroke-width:0.85;stroke-linecap:round;stroke-linejoin:round;" d="M 1802.21,351.46 L 1802.21, 342.96 L 1782.37, 342.96 L 1782.37, 351.46 L 1802.21, 351.46" />
      <text transform="matrix(1 0 0 1 1787.2881 349.2671)" style="font-family:'Arial'; font-size:6px;" ewd:textID="38">oq1</text>
    </a>
    <a style="cursor:pointer;" ewd:figID="84" ewd:figtype="w2w" ewd:code="MB1" ewd:pin_no="5">
      <path style="fill:#FFFFFF;stroke:#000000;stroke-width:0.85;stroke-linecap:round;stroke-linejoin:round;" d="M 2014.87,342.96 L 2014.87, 334.46 L 1995.03, 334.46 L 1995.03, 342.96 L 2014.87, 342.96" />
      <text transform="matrix(1 0 0 1 1998.7764 340.7627)" style="font-family:'Arial'; font-size:6px;">MB1</text>
    </a>
    <a style="cursor:pointer;" ewd:figID="83" ewd:figtype="w2w" ewd:code="MB1" ewd:pin_no="1">
      <path style="fill:#FFFFFF;stroke:#000000;stroke-width:0.85;stroke-linecap:round;stroke-linejoin:round;" d="M 1963.84,342.96 L 1963.84, 334.46 L 1944, 334.46 L 1944, 342.96 L 1963.84, 342.96" />
      <text transform="matrix(1 0 0 1 1947.7549 340.7627)" style="font-family:'Arial'; font-size:6px;">MB1</text>
    </a>
    <a style="cursor:pointer;" ewd:figID="82" ewd:figtype="w2w" ewd:code="po2" ewd:pin_no="3">
      <path style="fill:#FFFFFF;stroke:#000000;stroke-width:0.85;stroke-linecap:round;stroke-linejoin:round;" d="M 1853.24,402.49 L 1853.24, 393.99 L 1833.4, 393.99 L 1833.4, 402.49 L 1853.24, 402.49" />
      <text transform="matrix(1 0 0 1 1838.3115 400.29)" style="font-family:'Arial'; font-size:6px;" ewd:textID="39">po2</text>
    </a>
    <a style="cursor:pointer;" ewd:figID="81" ewd:figtype="w2w" ewd:code="po2" ewd:pin_no="2">
      <path style="fill:#FFFFFF;stroke:#000000;stroke-width:0.85;stroke-linecap:round;stroke-linejoin:round;" d="M 1802.21,402.49 L 1802.21, 393.99 L 1782.37, 393.99 L 1782.37, 402.49 L 1802.21, 402.49" />
      <text transform="matrix(1 0 0 1 1787.2881 400.29)" style="font-family:'Arial'; font-size:6px;" ewd:textID="39">po2</text>
    </a>
    <a style="cursor:pointer;" ewd:figID="80" ewd:figtype="w2w" ewd:code="KA2" ewd:pin_no="5">
      <path style="fill:#FFFFFF;stroke:#000000;stroke-width:0.85;stroke-linecap:round;stroke-linejoin:round;" d="M 1172.98,538.54 L 1172.98, 547.04 L 1153.14, 547.04 L 1153.14, 538.54 L 1172.98, 538.54" />
      <text transform="matrix(1 0 0 1 1157.3921 544.8428)" style="font-family:'Arial'; font-size:6px;">KA2</text>
    </a>
    <a style="cursor:pointer;" ewd:figID="79" ewd:figtype="w2w" ewd:code="LA2" ewd:pin_no="5">
      <path style="fill:#FFFFFF;stroke:#000000;stroke-width:0.85;stroke-linecap:round;stroke-linejoin:round;" d="M 1411.09,538.54 L 1411.09, 547.04 L 1391.25, 547.04 L 1391.25, 538.54 L 1411.09, 538.54" />
      <text transform="matrix(1 0 0 1 1395.835 544.8428)" style="font-family:'Arial'; font-size:6px;">LA2</text>
    </a>
    <a style="cursor:pointer;" ewd:figID="78" ewd:figtype="w2w" ewd:code="HA1" ewd:pin_no="9">
      <path style="fill:#FFFFFF;stroke:#000000;stroke-width:0.85;stroke-linecap:round;stroke-linejoin:round;" d="M 936.94,538.54 L 936.94, 547.04 L 917.1, 547.04 L 917.1, 538.54 L 936.94, 538.54" />
      <text transform="matrix(1 0 0 1 921.1812 544.8516)" style="font-family:'Arial'; font-size:6px;">HA1</text>
    </a>
    <a style="cursor:pointer;" ewd:figID="77" ewd:figtype="gp" ewd:code="H1">
      <path style="fill:#FFFFFF;stroke:#000000;stroke-width:0.85;stroke-linecap:round;stroke-linejoin:round;" d="M 829.22,691.61 L 854.73, 691.61 L 841.98, 708.62 L 829.22, 691.61" />
      <text transform="matrix(1 0 0 1 838.147 698.4863)" style="font-family:'Arial'; font-size:6px;">H1</text>
    </a>
    <a style="cursor:pointer;" ewd:figID="76" ewd:figtype="w2w" ewd:code="IH2" ewd:pin_no="14">
      <path style="fill:#FFFFFF;stroke:#000000;stroke-width:0.85;stroke-linecap:round;stroke-linejoin:round;" d="M 715.74,274.92 L 715.74, 266.42 L 695.9, 266.42 L 695.9, 274.92 L 715.74, 274.92" />
      <text transform="matrix(1 0 0 1 701.1533 272.7241)" style="font-family:'Arial'; font-size:6px;">IH2</text>
    </a>
    <a style="cursor:pointer;" ewd:figID="75" ewd:figtype="gp" ewd:code="H1">
      <path style="fill:#FFFFFF;stroke:#000000;stroke-width:0.85;stroke-linecap:round;stroke-linejoin:round;" d="M 718.58,691.62 L 744.09, 691.62 L 731.34, 708.63 L 718.58, 691.62" />
      <text transform="matrix(1 0 0 1 727.4995 698.4912)" style="font-family:'Arial'; font-size:6px;">H1</text>
    </a>
    <a style="cursor:pointer;" ewd:figID="74" ewd:figtype="w2w" ewd:code="IH3" ewd:pin_no="10">
      <path style="fill:#FFFFFF;stroke:#000000;stroke-width:0.85;stroke-linecap:round;stroke-linejoin:round;" d="M 741.26,615.08 L 741.26, 623.58 L 721.42, 623.58 L 721.42, 615.08 L 741.26, 615.08" />
      <text transform="matrix(1 0 0 1 726.666 621.3857)" style="font-family:'Arial'; font-size:6px;">IH3</text>
    </a>
    <a style="cursor:pointer;" ewd:figID="73" ewd:figtype="w2w" ewd:code="LA2" ewd:pin_no="1">
      <path style="fill:#FFFFFF;stroke:#000000;stroke-width:0.85;stroke-linecap:round;stroke-linejoin:round;" d="M 613.7,470.51 L 613.7, 479.01 L 593.86, 479.01 L 593.86, 470.51 L 613.7, 470.51" />
      <text transform="matrix(1 0 0 1 598.437 476.8193)" style="font-family:'Arial'; font-size:6px;">LA2</text>
    </a>
    <a style="cursor:pointer;" ewd:figID="72" ewd:figtype="w2w" ewd:code="LA3" ewd:pin_no="7">
      <path style="fill:#FFFFFF;stroke:#000000;stroke-width:0.85;stroke-linecap:round;stroke-linejoin:round;" d="M 639.21,274.92 L 639.21, 266.42 L 619.37, 266.42 L 619.37, 274.92 L 639.21, 274.92" />
      <text transform="matrix(1 0 0 1 623.9487 272.7241)" style="font-family:'Arial'; font-size:6px;">LA3</text>
    </a>
    <a style="cursor:pointer;" ewd:figID="71" ewd:figtype="w2w" ewd:code="LA3" ewd:pin_no="3">
      <path style="fill:#FFFFFF;stroke:#000000;stroke-width:0.85;stroke-linecap:round;stroke-linejoin:round;" d="M 588.19,274.92 L 588.19, 266.42 L 568.35, 266.42 L 568.35, 274.92 L 588.19, 274.92" />
      <text transform="matrix(1 0 0 1 572.9253 272.7241)" style="font-family:'Arial'; font-size:6px;">LA3</text>
    </a>
    <a style="cursor:pointer;" ewd:figID="70" ewd:figtype="gp" ewd:code="A1">
      <path style="fill:#FFFFFF;stroke:#000000;stroke-width:0.85;stroke-linecap:round;stroke-linejoin:round;" d="M 591.02,691.62 L 616.53, 691.62 L 603.78, 708.63 L 591.02, 691.62" />
      <text transform="matrix(1 0 0 1 600.1064 698.4912)" style="font-family:'Arial'; font-size:6px;">A1</text>
    </a>
    <a style="cursor:pointer;" ewd:figID="69" ewd:figtype="w2w" ewd:code="fc1" ewd:pin_no="3">
      <path style="fill:#FFFFFF;stroke:#000000;stroke-width:0.85;stroke-linecap:round;stroke-linejoin:round;" d="M 2236.97,393.98 L 2236.97, 385.48 L 2217.13, 385.48 L 2217.13, 393.98 L 2236.97, 393.98" />
      <text transform="matrix(1 0 0 1 2223.042 391.7861)" style="font-family:'Arial'; font-size:6px;" ewd:textID="35">fc1</text>
    </a>
    <a style="cursor:pointer;" ewd:figID="68" ewd:figtype="w2w" ewd:code="fc1" ewd:pin_no="2">
      <path style="fill:#FFFFFF;stroke:#000000;stroke-width:0.85;stroke-linecap:round;stroke-linejoin:round;" d="M 2184.19,393.98 L 2184.19, 385.48 L 2164.35, 385.48 L 2164.35, 393.98 L 2184.19, 393.98" />
      <text transform="matrix(1 0 0 1 2170.2695 391.7861)" style="font-family:'Arial'; font-size:6px;" ewd:textID="35">fc1</text>
    </a>
    <a style="cursor:pointer;" ewd:figID="67" ewd:figtype="w2w" ewd:code="Bq1" ewd:pin_no="8">
      <path style="fill:#FFFFFF;stroke:#000000;stroke-width:0.85;stroke-linecap:round;stroke-linejoin:round;" d="M 1853.24,283.43 L 1853.24, 291.93 L 1833.4, 291.93 L 1833.4, 283.43 L 1853.24, 283.43" />
      <text transform="matrix(1 0 0 1 1837.9785 289.7397)" style="font-family:'Arial'; font-size:6px;" ewd:textID="21">Bq1</text>
    </a>
    <a style="cursor:pointer;" ewd:figID="66" ewd:figtype="w2w" ewd:code="Bq1" ewd:pin_no="4">
      <path style="fill:#FFFFFF;stroke:#000000;stroke-width:0.85;stroke-linecap:round;stroke-linejoin:round;" d="M 1802.21,283.43 L 1802.21, 291.93 L 1782.37, 291.93 L 1782.37, 283.43 L 1802.21, 283.43" />
      <text transform="matrix(1 0 0 1 1786.9541 289.7397)" style="font-family:'Arial'; font-size:6px;" ewd:textID="21">Bq1</text>
    </a>
    <a style="cursor:pointer;" ewd:figID="65" ewd:figtype="w2w" ewd:code="LA3" ewd:pin_no="6">
      <path style="fill:#FFFFFF;stroke:#000000;stroke-width:0.85;stroke-linecap:round;stroke-linejoin:round;" d="M 1530.15,368.46 L 1530.15, 359.96 L 1510.31, 359.96 L 1510.31, 368.46 L 1530.15, 368.46" />
      <text transform="matrix(1 0 0 1 1514.8896 366.2607)" style="font-family:'Arial'; font-size:6px;">LA3</text>
    </a>
    <a style="cursor:pointer;" ewd:figID="64" ewd:figtype="w2w" ewd:code="LA3" ewd:pin_no="2">
      <path style="fill:#FFFFFF;stroke:#000000;stroke-width:0.85;stroke-linecap:round;stroke-linejoin:round;" d="M 1343.06,368.46 L 1343.06, 359.96 L 1323.22, 359.96 L 1323.22, 368.46 L 1343.06, 368.46" />
      <text transform="matrix(1 0 0 1 1327.8037 366.2607)" style="font-family:'Arial'; font-size:6px;">LA3</text>
    </a>
    <a style="cursor:pointer;" ewd:figID="63" ewd:figtype="w2w" ewd:code="LA3" ewd:pin_no="2">
      <path style="fill:#FFFFFF;stroke:#000000;stroke-width:0.85;stroke-linecap:round;stroke-linejoin:round;" d="M 1479.13,368.46 L 1479.13, 359.96 L 1459.29, 359.96 L 1459.29, 368.46 L 1479.13, 368.46" />
      <text transform="matrix(1 0 0 1 1463.8662 366.2607)" style="font-family:'Arial'; font-size:6px;">LA3</text>
    </a>
    <a style="cursor:pointer;" ewd:figID="62" ewd:figtype="w2w" ewd:code="LA4" ewd:pin_no="7">
      <path style="fill:#FFFFFF;stroke:#000000;stroke-width:0.85;stroke-linecap:round;stroke-linejoin:round;" d="M 1436.61,368.46 L 1436.61, 359.96 L 1416.77, 359.96 L 1416.77, 368.46 L 1436.61, 368.46" />
      <text transform="matrix(1 0 0 1 1421.3467 366.2607)" style="font-family:'Arial'; font-size:6px;">LA4</text>
    </a>
    <a style="cursor:pointer;" ewd:figID="61" ewd:figtype="w2w" ewd:code="LA4" ewd:pin_no="2">
      <path style="fill:#FFFFFF;stroke:#000000;stroke-width:0.85;stroke-linecap:round;stroke-linejoin:round;" d="M 1385.58,368.46 L 1385.58, 359.96 L 1365.74, 359.96 L 1365.74, 368.46 L 1385.58, 368.46" />
      <text transform="matrix(1 0 0 1 1370.3232 366.2607)" style="font-family:'Arial'; font-size:6px;">LA4</text>
    </a>
    <a style="cursor:pointer;" ewd:figID="60" ewd:figtype="w2w" ewd:code="KA3" ewd:pin_no="6">
      <path style="fill:#FFFFFF;stroke:#000000;stroke-width:0.85;stroke-linecap:round;stroke-linejoin:round;" d="M 1292.04,368.46 L 1292.04, 359.96 L 1272.2, 359.96 L 1272.2, 368.46 L 1292.04, 368.46" />
      <text transform="matrix(1 0 0 1 1276.4478 366.2607)" style="font-family:'Arial'; font-size:6px;">KA3</text>
    </a>
    <a style="cursor:pointer;" ewd:figID="59" ewd:figtype="w2w" ewd:code="KA3" ewd:pin_no="2">
      <path style="fill:#FFFFFF;stroke:#000000;stroke-width:0.85;stroke-linecap:round;stroke-linejoin:round;" d="M 1241.02,368.46 L 1241.02, 359.96 L 1221.18, 359.96 L 1221.18, 368.46 L 1241.02, 368.46" />
      <text transform="matrix(1 0 0 1 1225.4243 366.2607)" style="font-family:'Arial'; font-size:6px;">KA3</text>
    </a>
    <a style="cursor:pointer;" ewd:figID="58" ewd:figtype="w2w" ewd:code="KA4" ewd:pin_no="7">
      <path style="fill:#FFFFFF;stroke:#000000;stroke-width:0.85;stroke-linecap:round;stroke-linejoin:round;" d="M 1198.5,368.46 L 1198.5, 359.96 L 1178.66, 359.96 L 1178.66, 368.46 L 1198.5, 368.46" />
      <text transform="matrix(1 0 0 1 1182.9048 366.2607)" style="font-family:'Arial'; font-size:6px;">KA4</text>
    </a>
    <a style="cursor:pointer;" ewd:figID="57" ewd:figtype="w2w" ewd:code="KA4" ewd:pin_no="2">
      <path style="fill:#FFFFFF;stroke:#000000;stroke-width:0.85;stroke-linecap:round;stroke-linejoin:round;" d="M 1147.47,368.46 L 1147.47, 359.96 L 1127.63, 359.96 L 1127.63, 368.46 L 1147.47, 368.46" />
      <text transform="matrix(1 0 0 1 1131.8813 366.2607)" style="font-family:'Arial'; font-size:6px;">KA4</text>
    </a>
    <a style="cursor:pointer;" ewd:figID="56" ewd:figtype="w2w" ewd:code="HA1" ewd:pin_no="18">
      <path style="fill:#FFFFFF;stroke:#000000;stroke-width:0.85;stroke-linecap:round;stroke-linejoin:round;" d="M 1104.95,147.36 L 1104.95, 155.86 L 1085.1, 155.86 L 1085.1, 147.36 L 1104.95, 147.36" />
      <text transform="matrix(1 0 0 1 1089.1924 153.6631)" style="font-family:'Arial'; font-size:6px;">HA1</text>
    </a>
    <a style="cursor:pointer;" ewd:figID="55" ewd:figtype="w2w" ewd:code="TU5" ewd:pin_no="8">
      <path style="fill:#FFFFFF;stroke:#000000;stroke-width:0.85;stroke-linecap:round;stroke-linejoin:round;" d="M 324.57,274.92 L 324.57, 266.42 L 304.73, 266.42 L 304.73, 274.92 L 324.57, 274.92" />
      <text transform="matrix(1 0 0 1 308.9771 272.7256)" style="font-family:'Arial'; font-size:6px;">TU5</text>
    </a>
    <a style="cursor:pointer;" ewd:figID="54" ewd:figtype="w2w" ewd:code="ZT1" ewd:pin_no="2">
      <path style="fill:#FFFFFF;stroke:#000000;stroke-width:0.85;stroke-linecap:round;stroke-linejoin:round;" d="M 375.59,283.44 L 375.59, 274.94 L 355.75, 274.94 L 355.75, 283.44 L 375.59, 283.44" />
      <text transform="matrix(1 0 0 1 360.3306 281.2378)" style="font-family:'Arial'; font-size:6px;">ZT1</text>
    </a>
    <a style="cursor:pointer;" ewd:figID="53" ewd:figtype="w2w" ewd:code="ZU2" ewd:pin_no="2">
      <path style="fill:#FFFFFF;stroke:#000000;stroke-width:0.85;stroke-linecap:round;stroke-linejoin:round;" d="M 418.11,385.48 L 418.11, 376.98 L 398.27, 376.98 L 398.27, 385.48 L 418.11, 385.48" />
      <text transform="matrix(1 0 0 1 402.5171 383.2852)" style="font-family:'Arial'; font-size:6px;">ZU2</text>
    </a>
    <a style="cursor:pointer;" ewd:figID="52" ewd:figtype="gp" ewd:code="a1">
      <path style="fill:#FFFFFF;stroke:#000000;stroke-width:0.85;stroke-linecap:round;stroke-linejoin:round;" d="M 395.42,691.64 L 420.93, 691.64 L 408.18, 708.65 L 395.42, 691.64" />
      <text transform="matrix(1 0 0 1 404.8457 698.5098)" style="font-family:'Arial'; font-size:6px;">a1</text>
    </a>
    <a style="cursor:pointer;" ewd:figID="51" ewd:figtype="w2w" ewd:code="TY5" ewd:pin_no="2">
      <path style="fill:#FFFFFF;stroke:#000000;stroke-width:0.85;stroke-linecap:round;stroke-linejoin:round;" d="M 205.51,308.94 L 205.51, 317.44 L 185.67, 317.44 L 185.67, 308.94 L 205.51, 308.94" />
      <text transform="matrix(1 0 0 1 190.0898 315.2451)" style="font-family:'Arial'; font-size:6px;">TY5</text>
    </a>
    <a style="cursor:pointer;" ewd:figID="50" ewd:figtype="w2w" ewd:code="TX1" ewd:pin_no="3">
      <path style="fill:#FFFFFF;stroke:#000000;stroke-width:0.85;stroke-linecap:round;stroke-linejoin:round;" d="M 282.05,308.94 L 282.05, 317.44 L 262.21, 317.44 L 262.21, 308.94 L 282.05, 308.94" />
      <text transform="matrix(1 0 0 1 266.625 315.2451)" style="font-family:'Arial'; font-size:6px;">TX1</text>
    </a>
    <a style="cursor:pointer;" ewd:figID="49" ewd:figtype="w2w" ewd:code="UX1" ewd:pin_no="3">
      <path style="fill:#FFFFFF;stroke:#000000;stroke-width:0.85;stroke-linecap:round;stroke-linejoin:round;" d="M 324.57,308.94 L 324.57, 317.44 L 304.73, 317.44 L 304.73, 308.94 L 324.57, 308.94" />
      <text transform="matrix(1 0 0 1 308.8086 315.2451)" style="font-family:'Arial'; font-size:6px;">UX1</text>
    </a>
    <a style="cursor:pointer;" ewd:figID="48" ewd:figtype="w2w" ewd:code="Za4" ewd:pin_no="2">
      <path style="fill:#FFFFFF;stroke:#000000;stroke-width:0.85;stroke-linecap:round;stroke-linejoin:round;" d="M 418.11,428 L 418.11, 436.5 L 398.27, 436.5 L 398.27, 428 L 418.11, 428" />
      <text transform="matrix(1 0 0 1 403.0151 434.3096)" style="font-family:'Arial'; font-size:6px;" ewd:textID="48">Za4</text>
    </a>
    <a style="cursor:pointer;" ewd:figID="47" ewd:figtype="w2w" ewd:code="TU5" ewd:pin_no="13">
      <path style="fill:#FFFFFF;stroke:#000000;stroke-width:0.85;stroke-linecap:round;stroke-linejoin:round;" d="M 418.11,317.45 L 418.11, 325.95 L 398.27, 325.95 L 398.27, 317.45 L 418.11, 317.45" />
      <text transform="matrix(1 0 0 1 402.5171 323.7588)" style="font-family:'Arial'; font-size:6px;">TU5</text>
    </a>
    <a style="cursor:pointer;" ewd:figID="46" ewd:figtype="w2w" ewd:code="IH2" ewd:pin_no="4">
      <path style="fill:#FFFFFF;stroke:#000000;stroke-width:0.85;stroke-linecap:round;stroke-linejoin:round;" d="M 766.77,274.92 L 766.77, 266.42 L 746.93, 266.42 L 746.93, 274.92 L 766.77, 274.92" />
      <text transform="matrix(1 0 0 1 752.1768 272.7241)" style="font-family:'Arial'; font-size:6px;">IH2</text>
    </a>
  </g>
</svg>