﻿<?xml version="1.0" encoding="utf-8"?>
<!-- Generator: Adobe Illustrator 10.0, SVG Export Plug-In . SVG Version: 3.0.0 Build 77)  -->
<!DOCTYPE svg PUBLIC "-//W3C//DTD SVG 1.0//EN" "http://www.w3.org/TR/2001/REC-SVG-20010904/DTD/svg10.dtd"[
   <!ENTITY ns_flows "http://ns.adobe.com/Flows/1.0/">
   <!ENTITY ns_svg "http://www.w3.org/2000/svg">
   <!ENTITY ns_xlink "http://www.w3.org/1999/xlink">
   <!ENTITY st0 "font-size:7px;font-family:'MS-PGothic';adobe-font-script:japanese;">
   <!ENTITY st1 "font-size:6px;font-family:'ArialMT';">
   <!ENTITY st2 "fill:#FFFFFF;stroke:#000000; stroke-width:1.41;stroke-linecap:round;stroke-linejoin:round;">
   <!ENTITY st3 "fill:#FFFFCC;stroke:#FFFFCC; stroke-width:0.1;stroke-linecap:round;stroke-linejoin:round;">
   <!ENTITY st4 "fill:#CCCCCC;stroke:#CCCCCC; stroke-width:0.1;stroke-linecap:round;stroke-linejoin:round;">
   <!ENTITY st5 "fill:#CCECF4;stroke:#000000; stroke-width:1.133;stroke-linecap:round;stroke-linejoin:round;">
   <!ENTITY st6 "fill:none;stroke-linecap:butt; stroke-linejoin:round;">
   <!ENTITY st7 "fill:none;stroke:#000000;stroke-linecap:round;stroke-linejoin:round;">
   <!ENTITY st8 "enable-background:new;">
   <!ENTITY st9 "fill:#000000;stroke:#000000; stroke-linecap:round;stroke-linejoin:round;">
   <!ENTITY st10 "font-size:9px;font-family:'ArialMT';">
   <!ENTITY st11 "font-size:9px;font-family:'Svg Symbol';">
   <!ENTITY st12 "font-size:6px;font-family:'Svg Symbol';">
   <!ENTITY st13 "fill:none;stroke:#ff0000;stroke-linecap:round;stroke-linejoin:round;">
   <!ENTITY st14 "fill:#FFFF00;stroke:#FFFF00; stroke-width:0.1;stroke-linecap:round;stroke-linejoin:round;">
   <!ENTITY st15 "font-size:6px;font-family:'MS-PGothic';adobe-font-script:japanese;">
   <!ENTITY st16 "1.00 0.00 0.00 1.00">
   <!ENTITY st17 "0.00 -1.00 1.00 0.00">
   <!ENTITY st18 "font-size:6px;font-family:'Arial';">
   <!ENTITY st19 "font-size:9px;font-family:'Arial';">
   <!ENTITY st20 "font-size:6px;font-family:'MS-PGothic','MS PGothic';adobe-font-script:japanese;">
   <!ENTITY st21 "font-size:7px;font-family:'MS-PGothic','MS PGothic';adobe-font-script:japanese;">
   <!ATTLIST svg
       xmlns:ewd CDATA #FIXED "http://shcl.co.jp/ewd"
       xmlns:a CDATA #FIXED "http://ns.adobe.com/AdobeSVGViewerExtensions/3.0/"
       ewd:ver CDATA #IMPLIED >
   <!ATTLIST a
       ewd:lineID CDATA #IMPLIED
       ewd:groupID CDATA #IMPLIED
       ewd:figtype CDATA #IMPLIED
       ewd:code CDATA #IMPLIED
       ewd:figID CDATA #IMPLIED
       ewd:pinNo CDATA #IMPLIED
       ewd:comment CDATA #IMPLIED >
   <!ATTLIST g
       ewd:lineID CDATA #IMPLIED
       ewd:groupID CDATA #IMPLIED
       ewd:figtype CDATA #IMPLIED
       ewd:code CDATA #IMPLIED
       ewd:figID CDATA #IMPLIED
       ewd:pinNo CDATA #IMPLIED
       ewd:comment CDATA #IMPLIED >
   <!ATTLIST text
       ewd:textID CDATA #IMPLIED >
   <!ATTLIST title
       ewd:textID CDATA #IMPLIED >
]>
<svg xmlns="http://www.w3.org/2000/svg" xmlns:xlink="http://www.w3.org/1999/xlink" width="6142.5" height="721" viewBox="0 0 6142.5 721" xml:space="preserve" xmlns:ewd="http://shcl.co.jp/ewd" ewd:ver="2.0">
  
  <defs>
    <font horiz-adv-x="1229">
      <font-face font-family="Svg Symbol" units-per-em="2048" panose-1="5 5 1 2 1 7 6 2 5 7" ascent="2059" descent="450" alphabetic="0" />
      <missing-glyph d="M 103,0 l 0,1280 1024,0 0,-1280 -1024,0 z m 32,32 l 960,0 0,1216 -960,0 0,-1216 z" />
      <glyph d4p1:unicode="" horiz-adv-x="1573" d="M 1517,0 l -567,0 24,279 q 141,59 207.5,168 66.5,109 66.5,306 0,272 -132.5,417.5 -132.5,145.5 -333.5,145.5 -194,0 -328,-147.5 -134,-147.5 -134,-401.5 0,-200 68.5,-319 68.5,-119 206.5,-169 l 25,-279 -564,0 0,279 35,0 q 3,-61 32,-83 45,-35 137,-35 l 270,0 0,70 q -210,61 -324.5,209 -114.5,148 -114.5,349 0,252 186.5,425 186.5,173 504.5,173 195,0 358.5,-73.5 163.5,-73.5 252,-214.5 88.5,-141 88.5,-310 0,-207 -121.5,-360.5 -121.5,-153.5 -317.5,-197.5 l -8,-70 275,0 q 92,0 128,28 36,28 42,90 l 38,0 0,-279 z" xmlns:d4p1="def-glyph-attr-unicode" />
    </font>
  </defs>
  
<g ewd:figtype="jb" ewd:code="13" ewd:figID="8">
      <path style="fill:none;stroke:#000000;stroke-width:0.85;" d="M 4497.6,510.22 L 4497.6, 490.38" />
      <path d="M 4497.61,510.21 L 4500.44, 507.38 L 4500.44, 504.55 L 4497.61, 507.38 L 4494.78, 504.55 L 4494.78, 507.38 L 4497.61, 510.21" style="stroke-linecap:round;stroke-linejoin:round;" />
      <path style="fill:none;stroke:#000000;stroke-width:0.85;stroke-linecap:round;stroke-linejoin:round;" d="M 4501.86,521.55 C 4504.99 521.55 4507.53 519.01 4507.53 515.88 C 4507.53 512.75 4504.99 510.21 4501.86 510.21 L 4493.36, 510.21 C 4490.23 510.21 4487.69 512.75 4487.69 515.88 C 4487.69 519.01 4490.23 521.55 4493.36 521.55 L 4501.86, 521.55" />
      <path d="M 4497.61,490.37 L 4500.44, 493.2 L 4500.44, 496.04 L 4497.61, 493.2 L 4494.78, 496.04 L 4494.78, 493.2 L 4497.61, 490.37" style="stroke-linecap:round;stroke-linejoin:round;" />
      <path style="fill:none;stroke:#000000;stroke-width:0.85;stroke-linecap:round;stroke-linejoin:round;" d="M 4501.86,490.37 C 4504.99 490.37 4507.53 487.83 4507.53 484.7 C 4507.53 481.57 4504.99 479.03 4501.86 479.03 L 4493.36, 479.03 C 4490.23 479.03 4487.69 481.57 4487.69 484.7 C 4487.69 487.83 4490.23 490.37 4493.36 490.37 L 4501.86, 490.37" />
      <text transform="matrix(1 0 0 1 4492.1021 517.5908)" style="font-family:'Arial'; font-size:6px;">13H</text>
      <text transform="matrix(1 0 0 1 4479.5942 517.5908)" style="font-family:'Arial'; font-size:6px;">14</text>
      <text transform="matrix(1 0 0 1 4492.2671 486.2324)" style="font-family:'Arial'; font-size:6px;">13E</text>
      <text transform="matrix(1 0 0 1 4479.5942 486.4102)" style="font-family:'Arial'; font-size:6px;">24</text>
    </g><g ewd:figtype="jb" ewd:code="13" ewd:figID="7">
      <path style="fill:none;stroke:#000000;stroke-width:0.85;" d="M 4659.18,80.76 L 4659.18, 87.85001" />
      <path style="fill:none;stroke:#000000;stroke-width:0.85;" d="M 4659.18,87.85 L 4659.18, 110.53" />
      <path style="fill:none;stroke:#000000;stroke-width:0.85;stroke-linecap:round;stroke-linejoin:round;" d="M 4659.18,80.76 C 4659.96 80.76 4660.6 80.13 4660.6 79.34 C 4660.6001953125 78.5499926757813 4659.97 77.92 4659.18 77.92 C 4658.4 77.92 4657.76 78.55 4657.76 79.34 C 4657.75953125 80.1299926757813 4658.4 80.76 4659.18 80.76" />
      <path style="fill:none;stroke:#000000;stroke-width:0.85;stroke-linecap:round;stroke-linejoin:round;" d="M 4659.18,55.25 C 4659.96 55.25 4660.6 54.62 4660.6 53.83 C 4660.6001953125 53.0400036621094 4659.97 52.41 4659.18 52.41 C 4658.4 52.41 4657.76 53.04 4657.76 53.83 C 4657.75953125 54.6200036621094 4658.4 55.25 4659.18 55.25" />
      <path style="fill:none;stroke:#000000;stroke-width:1.417;" d="M 4658.18,54.84 C 4658.18 54.84 4652.11 59.52 4659.18 66.59 C 4666.2503515625 73.6599926757812 4660.18 78.34 4660.18 78.34" />
      <path style="fill:none;stroke:#000000;stroke-width:1.417;stroke-linecap:round;stroke-linejoin:round;" d="M 4671.93,87.85 L 4671.93, 45.33 L 4646.42, 45.33 L 4646.42, 87.85001 L 4671.93, 87.85001" />
      <path d="M 4659.18,110.53 L 4662.01, 107.7 L 4662.01, 104.87 L 4659.18, 107.7 L 4656.35, 104.87 L 4656.35, 107.7 L 4659.18, 110.53" style="stroke-linecap:round;stroke-linejoin:round;" />
      <path style="fill:none;stroke:#000000;stroke-width:0.85;stroke-linecap:round;stroke-linejoin:round;" d="M 4663.43,121.87 C 4666.56 121.87 4669.1 119.33 4669.1 116.2 C 4669.1 113.07 4666.56 110.53 4663.43 110.53 L 4654.93, 110.53 C 4651.8 110.53 4649.26 113.07 4649.26 116.2 C 4649.26 119.33 4651.8 121.87 4654.93 121.87 L 4663.43, 121.87" />
      <text transform="matrix(1 0 0 1 4650.8794 95.2266)" style="font-family:'Arial'; font-size:6px;">2</text>
      <text transform="matrix(1 0 0 1 4651.3452 41.3672)" style="font-family:'Arial'; font-size:6px;">(BAT)</text>
      <text transform="matrix(1 0 0 1 4674.769 64.7539)" style="font-family:'Arial'; font-size:6px;">7.5A<tspan x="0" dy="1em">OBDII</tspan></text>
      <text transform="matrix(1 0 0 1 4653.8394 117.9048)" style="font-family:'Arial'; font-size:6px;">13S</text>
      <text transform="matrix(1 0 0 1 4644.5024 117.9048)" style="font-family:'Arial'; font-size:6px;">5</text>
    </g><g ewd:figtype="conn" ewd:code="D32" ewd:figID="31">
      <path style="fill:none;stroke:#000000;stroke-width:0.85;" d="M 4429.56,257.92 L 4429.56, 269.61" />
      <path style="fill:none;stroke:#000000;stroke-width:0.85;" d="M 4429.56,285.91 L 4429.56, 297.6" />
      <path style="fill:none;stroke:#000000;stroke-width:1.417;stroke-linecap:round;stroke-linejoin:round;" d="M 4440.91,297.61 L 4440.91, 257.93 L 4418.23, 257.93 L 4418.23, 297.61 L 4440.91, 297.61" />
      <path style="fill:none;stroke:#000000;stroke-width:0.85;" d="M 4429.58,269.26 L 4432.04, 270.68 L 4427.13, 273.51 L 4432.04, 276.34 L 4427.13, 279.18 L 4432.04, 282.01 L 4427.13, 284.84 L 4429.59, 286.26" />
      <path style="fill:none;stroke:#000000;stroke-width:0.85;stroke-linecap:round;stroke-linejoin:round;" d="M 4438.08,269.26 C 4438.08 264.56 4434.27 260.76 4429.58 260.76 C 4424.89015625 260.76001953125 4421.08 264.57 4421.08 269.26 L 4421.08, 286.27 C 4421.08 290.97 4424.89 294.77 4429.58 294.77 C 4434.27015625 294.769978027344 4438.08 290.96 4438.08 286.27 L 4438.08, 269.26" />
      <text transform="matrix(1 0 0 1 4421.2778 304.9844)" style="font-family:'Arial'; font-size:6px;">1</text>
      <text transform="matrix(1 0 0 1 4421.2778 253.96)" style="font-family:'Arial'; font-size:6px;">2</text>
      <g ewd:figtype="title">
        <text transform="matrix(0 -1 1 0 4448.9956 303.2793)" style="font-family:'Arial'; font-size:6px;">D32</text>
        <text transform="matrix(0 -1 1 0 4456.0815 303.2793)" style="font-family:'Arial'; font-size:6px;" ewd:textID="42">Water Temp. Sensor  <tspan x="0" dy="1em">(Engine Coolant)</tspan></text>
      </g>
    </g><g ewd:figtype="conn" ewd:code="D46" ewd:figID="52">
      <path style="fill:none;stroke:#000000;stroke-width:0.85;" d="M 4319,257.92 L 4319, 269.61" />
      <path style="fill:none;stroke:#000000;stroke-width:0.85;" d="M 4319,285.91 L 4319, 297.6" />
      <path style="fill:none;stroke:#000000;stroke-width:1.417;stroke-linecap:round;stroke-linejoin:round;" d="M 4330.34,297.61 L 4330.34, 257.93 L 4307.66, 257.93 L 4307.66, 297.61 L 4330.34, 297.61" />
      <path style="fill:none;stroke:#000000;stroke-width:0.85;" d="M 4319,269.26 L 4321.46, 270.68 L 4316.55, 273.51 L 4321.46, 276.34 L 4316.55, 279.18 L 4321.46, 282.01 L 4316.55, 284.84 L 4319.01, 286.26" />
      <path style="fill:none;stroke:#000000;stroke-width:0.85;stroke-linecap:round;stroke-linejoin:round;" d="M 4327.51,269.26 C 4327.51 264.56 4323.7 260.76 4319.01 260.76 C 4314.31953125 260.76001953125 4310.51 264.57 4310.51 269.26 L 4310.51, 286.27 C 4310.51 290.97 4314.32 294.77 4319.01 294.77 C 4323.69953125 294.769978027344 4327.51 290.96 4327.51 286.27 L 4327.51, 269.26" />
      <text transform="matrix(1 0 0 1 4310.7036 304.9844)" style="font-family:'Arial'; font-size:6px;">1</text>
      <text transform="matrix(1 0 0 1 4310.7036 253.96)" style="font-family:'Arial'; font-size:6px;">2</text>
      <g ewd:figtype="title">
        <text transform="matrix(0 -1 1 0 4338.4214 303.2793)" style="font-family:'Arial'; font-size:6px;">D46</text>
        <text transform="matrix(0 -1 1 0 4345.5073 303.2793)" style="font-family:'Arial'; font-size:6px;" ewd:textID="25">Fuel Temp. Sensor</text>
      </g>
    </g><g ewd:figtype="gp" ewd:code="D3" ewd:figID="161">
      <path style="fill:none;stroke:#000000;stroke-width:0.85;" d="M 4336.02,708.66 L 4336.02, 711.49" />
      <path style="fill:none;stroke:#000000;stroke-width:0.85;" d="M 4334.6,720 L 4337.44, 720" />
      <path style="fill:none;stroke:#000000;stroke-width:0.85;" d="M 4333.19,717.17 L 4338.86, 717.17" />
      <path style="fill:none;stroke:#000000;stroke-width:0.85;" d="M 4330.35,714.33 L 4341.69, 714.33" />
      <path style="fill:none;stroke:#000000;stroke-width:0.85;" d="M 4327.52,711.5 L 4344.53, 711.5" />
    </g><text transform="matrix(0 -1 1 0 4374.5718 336.6318)" style="font-family:'Arial'; font-size:6px;">R</text><text transform="matrix(0 -1 1 0 4263.9976 336.6304)" style="font-family:'Arial'; font-size:6px;">R</text><text transform="matrix(0 -1 1 0 4315.021 336.4648)" style="font-family:'Arial'; font-size:6px;">B</text><text transform="matrix(0 -1 1 0 4374.5815 442.3477)" style="font-family:'Arial'; font-size:6px;">W-B</text><text transform="matrix(0 -1 1 0 4332.062 442.3477)" style="font-family:'Arial'; font-size:6px;">W-B</text><text transform="matrix(0 -1 1 0 4493.6245 438.8516)" style="font-family:'Arial'; font-size:6px;">G</text><text transform="matrix(0 -1 1 0 4544.6304 337.2842)" style="font-family:'Arial'; font-size:6px;">W</text><text transform="matrix(0 -1 1 0 4493.6069 336.4536)" style="font-family:'Arial'; font-size:6px;">B</text><text transform="matrix(1 0 0 1 4716.355 585.6367)" style="font-family:'Arial'; font-size:6px;">G</text><text transform="matrix(0 -1 1 0 4425.5952 336.4668)" style="font-family:'Arial'; font-size:6px;">Y</text><text transform="matrix(0 -1 1 0 4655.2104 319.4707)" style="font-family:'Arial'; font-size:6px;">B</text><text transform="matrix(0 -1 1 0 4442.6108 600.4307)" style="font-family:'Arial'; font-size:6px;">G</text><text transform="matrix(0 -1 1 0 4453.9399 602.9258)" style="font-family:'Arial'; font-size:6px;">(*1)</text><text transform="matrix(1 0 0 1 4713.8481 163.2612)" style="font-family:'Arial'; font-size:6px;">(*1)</text><text transform="matrix(1 0 0 1 4713.8481 188.7715)" style="font-family:'Arial'; font-size:6px;">(*1)</text><text transform="matrix(0 -1 1 0 4385.9087 441.3516)" style="font-family:'Arial'; font-size:6px;">(*2)</text><text transform="matrix(0 -1 1 0 4385.9087 602.9258)" style="font-family:'Arial'; font-size:6px;">(*2)</text><text transform="matrix(0 -1 1 0 4343.3892 441.3516)" style="font-family:'Arial'; font-size:6px;">(*2)</text><text transform="matrix(0 -1 1 0 4343.3892 602.9258)" style="font-family:'Arial'; font-size:6px;">(*2)</text><text transform="matrix(0 -1 1 0 4275.3394 339.2871)" style="font-family:'Arial'; font-size:6px;">(*2)</text><text transform="matrix(0 -1 1 0 4326.3628 339.2871)" style="font-family:'Arial'; font-size:6px;">(*2)</text><text transform="matrix(0 -1 1 0 4385.8901 339.2871)" style="font-family:'Arial'; font-size:6px;">(*2)</text><text transform="matrix(0 -1 1 0 4436.9136 339.2871)" style="font-family:'Arial'; font-size:6px;">(*2)</text><text transform="matrix(0 -1 1 0 4504.9644 441.3516)" style="font-family:'Arial'; font-size:6px;">(*2)</text><text transform="matrix(0 -1 1 0 4504.9458 339.2871)" style="font-family:'Arial'; font-size:6px;">(*2)</text><text transform="matrix(1 0 0 1 4713.8481 214.2847)" style="font-family:'Arial'; font-size:6px;">(*2)</text><text transform="matrix(0 -1 1 0 4555.9692 339.2871)" style="font-family:'Arial'; font-size:6px;">(*2)</text><text transform="matrix(1 0 0 1 4713.8481 239.7949)" style="font-family:'Arial'; font-size:6px;">(*2)</text><text transform="matrix(0 -1 1 0 4374.5796 603.9287)" style="font-family:'Arial'; font-size:6px;">W-B</text><text transform="matrix(0 -1 1 0 4332.0562 603.9287)" style="font-family:'Arial'; font-size:6px;">W-B</text><text transform="matrix(0 -1 1 0 4493.811 549.5625)" style="font-family:'Arial'; font-size:6px;">G</text><text transform="matrix(1 0 0 1 4716.687 611.1484)" style="font-family:'Arial'; font-size:6px;">P</text><text transform="matrix(1 0 0 1 4716.687 636.6602)" style="font-family:'Arial'; font-size:6px;">B</text><text transform="matrix(1 0 0 1 4716.687 151.9087)" style="font-family:'Arial'; font-size:6px;">B</text><text transform="matrix(1 0 0 1 4715.8569 177.4189)" style="font-family:'Arial'; font-size:6px;">W</text><text transform="matrix(1 0 0 1 4716.687 202.9321)" style="font-family:'Arial'; font-size:6px;">B</text><text transform="matrix(1 0 0 1 4715.8569 228.4424)" style="font-family:'Arial'; font-size:6px;">W</text><text transform="matrix(0 -1 1 0 4655.2222 174.8945)" style="font-family:'Arial'; font-size:6px;">B</text></svg>