﻿<?xml version="1.0" encoding="utf-8"?>
<!-- Generator: Adobe Illustrator 10.0, SVG Export Plug-In . SVG Version: 3.0.0 Build 77)  -->
<!DOCTYPE svg PUBLIC "-//W3C//DTD SVG 1.0//EN" "http://www.w3.org/TR/2001/REC-SVG-20010904/DTD/svg10.dtd"[
   <!ENTITY ns_flows "http://ns.adobe.com/Flows/1.0/">
   <!ENTITY ns_svg "http://www.w3.org/2000/svg">
   <!ENTITY ns_xlink "http://www.w3.org/1999/xlink">
   <!ENTITY st0 "font-size:7px;font-family:'MS-PGothic';adobe-font-script:japanese;">
   <!ENTITY st1 "font-size:6px;font-family:'ArialMT';">
   <!ENTITY st2 "fill:#FFFFFF;stroke:#000000; stroke-width:1.41;stroke-linecap:round;stroke-linejoin:round;">
   <!ENTITY st3 "fill:#FFFFCC;stroke:#FFFFCC; stroke-width:0.1;stroke-linecap:round;stroke-linejoin:round;">
   <!ENTITY st4 "fill:#CCCCCC;stroke:#CCCCCC; stroke-width:0.1;stroke-linecap:round;stroke-linejoin:round;">
   <!ENTITY st5 "fill:#CCECF4;stroke:#000000; stroke-width:1.133;stroke-linecap:round;stroke-linejoin:round;">
   <!ENTITY st6 "fill:none;stroke-linecap:butt; stroke-linejoin:round;">
   <!ENTITY st7 "fill:none;stroke:#000000;stroke-linecap:round;stroke-linejoin:round;">
   <!ENTITY st8 "enable-background:new;">
   <!ENTITY st9 "fill:#000000;stroke:#000000; stroke-linecap:round;stroke-linejoin:round;">
   <!ENTITY st10 "font-size:9px;font-family:'ArialMT';">
   <!ENTITY st11 "font-size:9px;font-family:'Svg Symbol';">
   <!ENTITY st12 "font-size:6px;font-family:'Svg Symbol';">
   <!ENTITY st13 "fill:none;stroke:#ff0000;stroke-linecap:round;stroke-linejoin:round;">
   <!ENTITY st14 "fill:#FFFF00;stroke:#FFFF00; stroke-width:0.1;stroke-linecap:round;stroke-linejoin:round;">
   <!ENTITY st15 "font-size:6px;font-family:'MS-PGothic';adobe-font-script:japanese;">
   <!ENTITY st16 "1.00 0.00 0.00 1.00">
   <!ENTITY st17 "0.00 -1.00 1.00 0.00">
   <!ENTITY st18 "font-size:6px;font-family:'Arial';">
   <!ENTITY st19 "font-size:9px;font-family:'Arial';">
   <!ENTITY st20 "font-size:6px;font-family:'MS-PGothic','MS PGothic';adobe-font-script:japanese;">
   <!ENTITY st21 "font-size:7px;font-family:'MS-PGothic','MS PGothic';adobe-font-script:japanese;">
   <!ATTLIST svg
       xmlns:ewd CDATA #FIXED "http://shcl.co.jp/ewd"
       xmlns:a CDATA #FIXED "http://ns.adobe.com/AdobeSVGViewerExtensions/3.0/"
       ewd:ver CDATA #IMPLIED >
   <!ATTLIST a
       ewd:lineID CDATA #IMPLIED
       ewd:groupID CDATA #IMPLIED
       ewd:figtype CDATA #IMPLIED
       ewd:code CDATA #IMPLIED
       ewd:figID CDATA #IMPLIED
       ewd:pinNo CDATA #IMPLIED
       ewd:comment CDATA #IMPLIED >
   <!ATTLIST g
       ewd:lineID CDATA #IMPLIED
       ewd:groupID CDATA #IMPLIED
       ewd:figtype CDATA #IMPLIED
       ewd:code CDATA #IMPLIED
       ewd:figID CDATA #IMPLIED
       ewd:pinNo CDATA #IMPLIED
       ewd:comment CDATA #IMPLIED >
   <!ATTLIST text
       ewd:textID CDATA #IMPLIED >
   <!ATTLIST title
       ewd:textID CDATA #IMPLIED >
]>
<svg xmlns="http://www.w3.org/2000/svg" xmlns:xlink="http://www.w3.org/1999/xlink" width="5962.92" height="721" viewBox="0 0 5962.92 721" xml:space="preserve" xmlns:ewd="http://shcl.co.jp/ewd" ewd:ver="2.0">
  
  <defs>
    <font horiz-adv-x="1229">
      <font-face font-family="Svg Symbol" units-per-em="2048" panose-1="5 5 1 2 1 7 6 2 5 7" ascent="2059" descent="450" alphabetic="0" />
      <missing-glyph d="M 103,0 l 0,1280 1024,0 0,-1280 -1024,0 z m 32,32 l 960,0 0,1216 -960,0 0,-1216 z" />
      <glyph d4p1:unicode="" horiz-adv-x="1573" d="M 1517,0 l -567,0 24,279 q 141,59 207.5,168 66.5,109 66.5,306 0,272 -132.5,417.5 -132.5,145.5 -333.5,145.5 -194,0 -328,-147.5 -134,-147.5 -134,-401.5 0,-200 68.5,-319 68.5,-119 206.5,-169 l 25,-279 -564,0 0,279 35,0 q 3,-61 32,-83 45,-35 137,-35 l 270,0 0,70 q -210,61 -324.5,209 -114.5,148 -114.5,349 0,252 186.5,425 186.5,173 504.5,173 195,0 358.5,-73.5 163.5,-73.5 252,-214.5 88.5,-141 88.5,-310 0,-207 -121.5,-360.5 -121.5,-153.5 -317.5,-197.5 l -8,-70 275,0 q 92,0 128,28 36,28 42,90 l 38,0 0,-279 z" xmlns:d4p1="def-glyph-attr-unicode" />
    </font>
  </defs>
  
<g ewd:figtype="rb" ewd:code="FUSE101" ewd:figID="44">
      <path style="fill:none;stroke:#000000;stroke-width:0.85;" d="M 1493.72,80.75 L 1493.72, 87.84" />
      <path style="fill:none;stroke:#000000;stroke-width:0.85;" d="M 1493.72,87.84 L 1493.72, 102.01" />
      <path d="M 1493.71,102.01 L 1496.54, 99.18 L 1496.54, 96.35 L 1493.71, 99.18 L 1490.88, 96.35 L 1490.88, 99.18 L 1493.71, 102.01" style="stroke-linecap:round;stroke-linejoin:round;" />
      <path style="fill:none;stroke:#000000;stroke-width:0.85;stroke-linecap:round;stroke-linejoin:round;" d="M 1497.96,113.35 C 1501.09 113.35 1503.63 110.81 1503.63 107.68 C 1503.63 104.55 1501.09 102.01 1497.96 102.01 L 1489.46, 102.01 C 1486.33 102.01 1483.79 104.55 1483.79 107.68 C 1483.79 110.81 1486.33 113.35 1489.46 113.35 L 1497.96, 113.35" />
      <path style="fill:none;stroke:#000000;stroke-width:0.85;stroke-linecap:round;stroke-linejoin:round;" d="M 1493.71,80.75 C 1494.49 80.75 1495.13 80.12 1495.13 79.33 C 1495.13000976562 78.5400036621094 1494.5 77.91 1493.71 77.91 C 1492.93 77.91 1492.29 78.54 1492.29 79.33 C 1492.290078125 80.1200036621094 1492.93 80.75 1493.71 80.75" />
      <path style="fill:none;stroke:#000000;stroke-width:0.85;stroke-linecap:round;stroke-linejoin:round;" d="M 1493.71,55.24 C 1494.49 55.24 1495.13 54.61 1495.13 53.82 C 1495.13000976562 53.0299993896484 1494.5 52.4 1493.71 52.4 C 1492.93 52.4 1492.29 53.03 1492.29 53.82 C 1492.290078125 54.6099993896484 1492.93 55.24 1493.71 55.24" />
      <path style="fill:none;stroke:#000000;stroke-width:1.417;" d="M 1492.71,54.82 C 1492.71 54.82 1486.64 59.5 1493.71 66.57 C 1500.779921875 73.6399993896484 1494.71 78.32 1494.71 78.32" />
      <path style="fill:none;stroke:#000000;stroke-width:1.417;stroke-linecap:round;stroke-linejoin:round;" d="M 1506.46,87.84 L 1506.46, 45.32 L 1480.95, 45.32 L 1480.95, 87.84 L 1506.46, 87.84" />
      <text transform="matrix(1 0 0 1 1490.3726 109.3848)" style="font-family:'Arial'; font-size:6px;">10</text>
      <text transform="matrix(1 0 0 1 1485.4121 95.2129)" style="font-family:'Arial'; font-size:6px;">2</text>
      <text transform="matrix(1 0 0 1 1485.877 41.3535)" style="font-family:'Arial'; font-size:6px;">(BAT)</text>
      <text transform="matrix(1 0 0 1 1509.2998 64.7402)" style="font-family:'Arial'; font-size:6px;">10A<tspan x="0" dy="1em">EFI NO.2</tspan></text>
    </g><g ewd:figtype="w2w" ewd:code="BD3" ewd:pin_no="2" ewd:figID="128">
      <path style="fill:#FFFFFF;stroke:#FFFFFF;stroke-width:0;stroke-linecap:round;stroke-linejoin:round;" d="M 1285.35,255.97 L 1281.1, 251.72 L 1276.85, 255.97 L 1276.85, 249.42 L 1285.35, 249.42 L 1285.35, 255.97" />
      <path style="fill:#FFFFFF;stroke:#FFFFFF;stroke-width:0;stroke-linecap:round;stroke-linejoin:round;" d="M 1285.35,258.81 L 1281.1, 254.56 L 1276.85, 258.81 L 1276.85, 252.26 L 1285.35, 252.26 L 1285.35, 258.81" />
      <path style="fill:none;stroke:#000000;stroke-width:0.85;" d="M 1285.35,256.51 L 1281.1, 252.26 L 1276.85, 256.51" />
      <path style="fill:none;stroke:#000000;stroke-width:0.85;" d="M 1285.35,253.67 L 1281.1, 249.42 L 1276.85, 253.67" />
      <path style="fill:none;stroke:#000000;stroke-width:0.85;stroke-linecap:round;stroke-linejoin:round;" d="M 1291.02,240.92 L 1291.02, 249.42 L 1271.18, 249.42 L 1271.18, 240.92 L 1291.02, 240.92" />
      <text transform="matrix(1 0 0 1 1266.4229 246.875)" style="font-family:'Arial'; font-size:6px;">2</text>
    </g><g ewd:figtype="w2w" ewd:code="BD3" ewd:pin_no="3" ewd:figID="129">
      <path style="fill:#FFFFFF;stroke:#FFFFFF;stroke-width:0;stroke-linecap:round;stroke-linejoin:round;" d="M 1327.87,255.97 L 1323.62, 251.72 L 1319.37, 255.97 L 1319.37, 249.42 L 1327.87, 249.42 L 1327.87, 255.97" />
      <path style="fill:#FFFFFF;stroke:#FFFFFF;stroke-width:0;stroke-linecap:round;stroke-linejoin:round;" d="M 1327.87,258.81 L 1323.62, 254.56 L 1319.37, 258.81 L 1319.37, 252.26 L 1327.87, 252.26 L 1327.87, 258.81" />
      <path style="fill:none;stroke:#000000;stroke-width:0.85;" d="M 1327.87,256.51 L 1323.62, 252.26 L 1319.37, 256.51" />
      <path style="fill:none;stroke:#000000;stroke-width:0.85;" d="M 1327.87,253.67 L 1323.62, 249.42 L 1319.37, 253.67" />
      <path style="fill:none;stroke:#000000;stroke-width:0.85;stroke-linecap:round;stroke-linejoin:round;" d="M 1333.54,240.92 L 1333.54, 249.42 L 1313.7, 249.42 L 1313.7, 240.92 L 1333.54, 240.92" />
      <text transform="matrix(1 0 0 1 1308.9424 246.875)" style="font-family:'Arial'; font-size:6px;">3</text>
    </g><g ewd:figtype="w2w" ewd:code="DB1" ewd:pin_no="5" ewd:figID="131">
      <path style="fill:#FFFFFF;stroke:#FFFFFF;stroke-width:0;stroke-linecap:round;stroke-linejoin:round;" d="M 1254.62,627.87 L 1258.87, 632.12 L 1254.62, 636.37 L 1261.17, 636.37 L 1261.17, 627.87 L 1254.62, 627.87" />
      <path style="fill:#FFFFFF;stroke:#FFFFFF;stroke-width:0;stroke-linecap:round;stroke-linejoin:round;" d="M 1251.78,627.87 L 1256.03, 632.12 L 1251.78, 636.37 L 1258.33, 636.37 L 1258.33, 627.87 L 1251.78, 627.87" />
      <path style="fill:none;stroke:#000000;stroke-width:0.85;" d="M 1254.08,627.87 L 1258.33, 632.12 L 1254.08, 636.37" />
      <path style="fill:none;stroke:#000000;stroke-width:0.85;" d="M 1256.92,627.87 L 1261.17, 632.12 L 1256.92, 636.37" />
      <path style="fill:none;stroke:#000000;stroke-width:0.85;stroke-linecap:round;stroke-linejoin:round;" d="M 1261.17,636.37 L 1261.17, 627.87 L 1281.01, 627.87 L 1281.01, 636.37 L 1261.17, 636.37" />
      <text transform="matrix(1 0 0 1 1269.4204 625.6758)" style="font-family:'Arial'; font-size:6px;">5</text>
    </g><g ewd:figtype="conn" ewd:code="D74" ewd:figID="52">
      <path style="fill:none;stroke:#000000;stroke-width:0.85;" d="M 1332.03,436.53 L 1332.03, 444.04" />
      <path style="fill:none;stroke:#000000;stroke-width:0.85;" d="M 1332.03,463.03 L 1332.03, 470.54" />
      <path style="fill:none;stroke:#000000;stroke-width:0.85;" d="M 1332.02,443.62 C 1334.37 443.62 1336.27 445.52 1336.27 447.87 C 1336.27 450.22 1334.37 452.12 1332.02 452.12 C 1330.76 452.12 1329.63 451.57 1328.85 450.71 L 1328.85, 450.7 C 1329.63 449.83 1330.76 449.29 1332.02 449.29 C 1334.37 449.29 1336.27 451.19 1336.27 453.54 C 1336.27 455.89 1334.37 457.79 1332.02 457.79 C 1330.76 457.79 1329.63 457.24 1328.85 456.37 L 1328.85, 456.37 C 1329.63 455.5 1330.76 454.96 1332.02 454.96 C 1334.37 454.96 1336.27 456.86 1336.27 459.21 C 1336.2700390625 461.559982910156 1334.37 463.46 1332.02 463.46" />
      <path style="fill:none;stroke:#000000;stroke-width:1.417;stroke-linecap:round;stroke-linejoin:round;" d="M 1340.53,470.54 L 1340.53, 436.53 L 1323.52, 436.53 L 1323.52, 470.54 L 1340.53, 470.54" />
      <text transform="matrix(1 0 0 1 1323.7246 432.5654)" style="font-family:'Arial'; font-size:6px;">2</text>
      <text transform="matrix(1 0 0 1 1323.7246 477.9199)" style="font-family:'Arial'; font-size:6px;">1</text>
      <g ewd:figtype="title">
        <text transform="matrix(0 -1 1 0 1348.6113 473.3818)" style="font-family:'Arial'; font-size:6px;">D74</text>
        <text transform="matrix(0 -1 1 0 1355.6982 473.3818)" style="font-family:'Arial'; font-size:6px;">VSV (EGR)</text>
      </g>
    </g><g ewd:figtype="conn" ewd:code="D67" ewd:figID="53">
      <path style="fill:none;stroke:#000000;stroke-width:0.85;" d="M 1391.56,436.53 L 1391.56, 444.04" />
      <path style="fill:none;stroke:#000000;stroke-width:0.85;" d="M 1391.56,463.03 L 1391.56, 470.54" />
      <path style="fill:none;stroke:#000000;stroke-width:0.85;" d="M 1391.55,443.62 C 1393.9 443.62 1395.8 445.52 1395.8 447.87 C 1395.8 450.22 1393.9 452.12 1391.55 452.12 C 1390.29 452.12 1389.16 451.57 1388.38 450.71 L 1388.38, 450.7 C 1389.16 449.83 1390.29 449.29 1391.55 449.29 C 1393.9 449.29 1395.8 451.19 1395.8 453.54 C 1395.8 455.89 1393.9 457.79 1391.55 457.79 C 1390.29 457.79 1389.16 457.24 1388.38 456.37 L 1388.38, 456.37 C 1389.16 455.5 1390.29 454.96 1391.55 454.96 C 1393.9 454.96 1395.8 456.86 1395.8 459.21 C 1395.80009765625 461.559982910156 1393.9 463.46 1391.55 463.46" />
      <path style="fill:none;stroke:#000000;stroke-width:1.417;stroke-linecap:round;stroke-linejoin:round;" d="M 1400.05,470.54 L 1400.05, 436.53 L 1383.04, 436.53 L 1383.04, 470.54 L 1400.05, 470.54" />
      <text transform="matrix(1 0 0 1 1383.252 432.5654)" style="font-family:'Arial'; font-size:6px;">1</text>
      <text transform="matrix(1 0 0 1 1383.252 477.9199)" style="font-family:'Arial'; font-size:6px;">2</text>
      <g ewd:figtype="title">
        <text transform="matrix(0 -1 1 0 1408.1387 473.3818)" style="font-family:'Arial'; font-size:6px;">D67</text>
        <text transform="matrix(0 -1 1 0 1415.2256 473.3818)" style="font-family:'Arial'; font-size:6px;" ewd:textID="56">Swirl Control Valve</text>
      </g>
    </g><g ewd:figtype="conn" ewd:code="D68" ewd:figID="54">
      <path style="fill:none;stroke:#000000;stroke-width:0.85;" d="M 1451.09,436.53 L 1451.09, 444.04" />
      <path style="fill:none;stroke:#000000;stroke-width:0.85;" d="M 1451.09,463.03 L 1451.09, 470.54" />
      <path style="fill:none;stroke:#000000;stroke-width:0.85;" d="M 1451.08,443.62 C 1453.43 443.62 1455.33 445.52 1455.33 447.87 C 1455.33 450.22 1453.43 452.12 1451.08 452.12 C 1449.82 452.12 1448.69 451.57 1447.91 450.71 L 1447.91, 450.7 C 1448.69 449.83 1449.82 449.29 1451.08 449.29 C 1453.43 449.29 1455.33 451.19 1455.33 453.54 C 1455.33 455.89 1453.43 457.79 1451.08 457.79 C 1449.82 457.79 1448.69 457.24 1447.91 456.37 L 1447.91, 456.37 C 1448.69 455.5 1449.82 454.96 1451.08 454.96 C 1453.43 454.96 1455.33 456.86 1455.33 459.21 C 1455.32991210938 461.559982910156 1453.43 463.46 1451.08 463.46" />
      <path style="fill:none;stroke:#000000;stroke-width:1.417;stroke-linecap:round;stroke-linejoin:round;" d="M 1459.58,470.54 L 1459.58, 436.53 L 1442.57, 436.53 L 1442.57, 470.54 L 1459.58, 470.54" />
      <text transform="matrix(1 0 0 1 1442.7793 432.5654)" style="font-family:'Arial'; font-size:6px;">2</text>
      <text transform="matrix(1 0 0 1 1442.7793 477.9199)" style="font-family:'Arial'; font-size:6px;">1</text>
      <g ewd:figtype="title">
        <text transform="matrix(0 -1 1 0 1467.666 473.3818)" style="font-family:'Arial'; font-size:6px;">D68</text>
        <text transform="matrix(0 -1 1 0 1474.752 473.3818)" style="font-family:'Arial'; font-size:6px;" ewd:textID="63">VSV (EGR Cut)</text>
      </g>
    </g><g ewd:figtype="conn" ewd:code="D73" ewd:figID="55">
      <path style="fill:none;stroke:#000000;stroke-width:0.85;" d="M 1510.62,436.53 L 1510.62, 444.04" />
      <path style="fill:none;stroke:#000000;stroke-width:0.85;" d="M 1510.62,463.03 L 1510.62, 470.54" />
      <path style="fill:none;stroke:#000000;stroke-width:0.85;" d="M 1510.6,443.62 C 1512.95 443.62 1514.85 445.52 1514.85 447.87 C 1514.85 450.22 1512.95 452.12 1510.6 452.12 C 1509.34 452.12 1508.21 451.57 1507.43 450.71 L 1507.43, 450.7 C 1508.21 449.83 1509.34 449.29 1510.6 449.29 C 1512.95 449.29 1514.85 451.19 1514.85 453.54 C 1514.85 455.89 1512.95 457.79 1510.6 457.79 C 1509.34 457.79 1508.21 457.24 1507.43 456.37 L 1507.43, 456.37 C 1508.21 455.5 1509.34 454.96 1510.6 454.96 C 1512.95 454.96 1514.85 456.86 1514.85 459.21 C 1514.84995117188 461.559982910156 1512.95 463.46 1510.6 463.46" />
      <path style="fill:none;stroke:#000000;stroke-width:1.417;stroke-linecap:round;stroke-linejoin:round;" d="M 1519.11,470.54 L 1519.11, 436.53 L 1502.1, 436.53 L 1502.1, 470.54 L 1519.11, 470.54" />
      <text transform="matrix(1 0 0 1 1502.3057 432.5654)" style="font-family:'Arial'; font-size:6px;">2</text>
      <text transform="matrix(1 0 0 1 1502.3057 477.9199)" style="font-family:'Arial'; font-size:6px;">1</text>
      <g ewd:figtype="title">
        <text transform="matrix(0 -1 1 0 1527.1934 473.3818)" style="font-family:'Arial'; font-size:6px;">D73</text>
        <text transform="matrix(0 -1 1 0 1534.2793 473.3818)" style="font-family:'Arial'; font-size:6px;">VRV (EGR)</text>
      </g>
    </g><g ewd:figtype="gp" ewd:code="D3" ewd:figID="132">
      <path style="fill:none;stroke:#000000;stroke-width:0.85;" d="M 1723.3,708.66 L 1723.3, 711.49" />
      <path style="fill:none;stroke:#000000;stroke-width:0.85;" d="M 1721.88,720 L 1724.72, 720" />
      <path style="fill:none;stroke:#000000;stroke-width:0.85;" d="M 1720.46,717.17 L 1726.13, 717.17" />
      <path style="fill:none;stroke:#000000;stroke-width:0.85;" d="M 1717.63,714.33 L 1728.97, 714.33" />
      <path style="fill:none;stroke:#000000;stroke-width:0.85;" d="M 1714.8,711.5 L 1731.81, 711.5" />
    </g><g ewd:figtype="conn" ewd:code="B79" ewd:figID="56">
      <path style="fill:none;stroke:#000000;stroke-width:0.85;" d="M 1493.72,215.4 L 1493.72, 232.41" />
      <path style="fill:none;stroke:#000000;stroke-width:1.417;stroke-linecap:round;stroke-linejoin:round;" d="M 1502.22,232.41 L 1502.22, 215.4 L 1485.21, 215.4 L 1485.21, 232.41 L 1502.22, 232.41" />
      <text transform="matrix(1 0 0 1 1485.4189 239.7861)" style="font-family:'Arial'; font-size:6px;">2</text>
      <text transform="matrix(1 0 0 1 1485.4189 211.4404)" style="font-family:'Arial'; font-size:6px;">1</text>
      <g ewd:figtype="title">
        <text transform="matrix(0 -1 1 0 1510.3057 232.4111)" style="font-family:'Arial'; font-size:6px;">B79</text>
        <text transform="matrix(0 -1 1 0 1517.3926 232.4111)" style="font-family:'Arial'; font-size:6px;" ewd:textID="41">Junction  <tspan x="0" dy="1em">Connector</tspan></text>
      </g>
    </g><g ewd:figtype="conn" ewd:code="B1" ewd:figID="57">
      <path style="fill:none;stroke:#000000;stroke-width:1.417;stroke-linecap:round;stroke-linejoin:round;" d="M 1876.38,189.9 L 1876.38, 138.87 L 1629.75, 138.87 L 1629.75, 189.9 L 1876.38, 189.9" />
      <text transform="matrix(1 0 0 1 1851.0693 197.2686)" style="font-family:'Arial'; font-size:6px;">2</text>
      <text transform="matrix(1 0 0 1 1808.5498 197.2686)" style="font-family:'Arial'; font-size:6px;">3</text>
      <text transform="matrix(1 0 0 1 1766.0303 197.2686)" style="font-family:'Arial'; font-size:6px;">1</text>
      <text transform="matrix(1 0 0 1 1723.5107 197.2686)" style="font-family:'Arial'; font-size:6px;">5</text>
      <text transform="matrix(1 0 0 1 1680.9912 197.2686)" style="font-family:'Arial'; font-size:6px;">6</text>
      <text transform="matrix(1 0 0 1 1638.4707 197.2686)" style="font-family:'Arial'; font-size:6px;">4</text>
      <text transform="matrix(1 0 0 1 1851.6958 185.9312)" style="font-family:'Arial'; font-size:6px;">EPA2</text>
      <text transform="matrix(1 0 0 1 1809.1763 185.9312)" style="font-family:'Arial'; font-size:6px;">VPA2</text>
      <text transform="matrix(1 0 0 1 1766.4912 185.9312)" style="font-family:'Arial'; font-size:6px;">VCP2</text>
      <text transform="matrix(1 0 0 1 1725.8057 185.9312)" style="font-family:'Arial'; font-size:6px;">EPA</text>
      <text transform="matrix(1 0 0 1 1683.2861 185.9312)" style="font-family:'Arial'; font-size:6px;">VPA</text>
      <text transform="matrix(1 0 0 1 1638.5991 185.9312)" style="font-family:'Arial'; font-size:6px;">VCPA</text>
      <g ewd:figtype="title">
        <text transform="matrix(1 0 0 1 1638.1787 152.5381)" style="font-family:'Arial'; font-size:6px;">B1</text>
        <text transform="matrix(1 0 0 1 1638.1787 159.625)" style="font-family:'Arial'; font-size:6px;" ewd:textID="12">Accelerator Position Sensor</text>
      </g>
    </g><g ewd:figtype="conn" ewd:code="D48,D50" ewd:figID="59">
      <path style="fill:none;stroke:#000000;stroke-width:1.417;stroke-linecap:round;stroke-linejoin:round;" d="M 1842.36,479.04 L 1842.36, 436.52 L 1655.27, 436.52 L 1655.27, 479.04 L 1842.36, 479.04" />
      <g ewd:lineID="194">
        <path style="fill:#FFFFFF;stroke:#000000;stroke-width:0.85;stroke-linecap:round;stroke-linejoin:round;" d="M 1825.36,436.52 C 1828.49 436.52 1831.03 433.98 1831.03 430.85 C 1831.03005859375 427.720012207031 1828.49 425.18 1825.36 425.18 C 1822.22997070312 425.179985351562 1819.69 427.72 1819.69 430.85 C 1819.6898828125 433.980012207031 1822.23 436.52 1825.36 436.52" />
        <text transform="matrix(1 0 0 1 1819.5142 443.8906)" style="font-family:'Arial'; font-size:6px;">VTA</text>
        <text transform="matrix(1 0 0 1 1823.3589 432.5557)" style="font-family:'Arial'; font-size:6px;">B</text>
        <text transform="matrix(1 0 0 1 1814.7959 432.5557)" style="font-family:'Arial'; font-size:6px;">3</text>
      </g>
      <g ewd:lineID="195">
        <path style="fill:#FFFFFF;stroke:#000000;stroke-width:0.85;stroke-linecap:round;stroke-linejoin:round;" d="M 1774.33,436.52 C 1777.46 436.52 1780 433.98 1780 430.85 C 1780 427.720012207031 1777.46 425.18 1774.33 425.18 C 1771.19991210937 425.179985351562 1768.66 427.72 1768.66 430.85 C 1768.66006835937 433.980012207031 1771.2 436.52 1774.33 436.52" />
        <text transform="matrix(1 0 0 1 1770.6558 443.8906)" style="font-family:'Arial'; font-size:6px;">E2</text>
        <text transform="matrix(1 0 0 1 1772.3325 432.5557)" style="font-family:'Arial'; font-size:6px;">B</text>
        <text transform="matrix(1 0 0 1 1763.7695 432.5557)" style="font-family:'Arial'; font-size:6px;">2</text>
      </g>
      <g ewd:lineID="196">
        <path style="fill:#FFFFFF;stroke:#000000;stroke-width:0.85;stroke-linecap:round;stroke-linejoin:round;" d="M 1723.31,436.52 C 1726.44 436.52 1728.98 433.98 1728.98 430.85 C 1728.9799609375 427.720012207031 1726.44 425.18 1723.31 425.18 C 1720.1801171875 425.179985351562 1717.64 427.72 1717.64 430.85 C 1717.64002929687 433.980012207031 1720.18 436.52 1723.31 436.52" />
        <text transform="matrix(1 0 0 1 1719.1333 443.8906)" style="font-family:'Arial'; font-size:6px;">VC</text>
        <text transform="matrix(1 0 0 1 1721.3052 432.5557)" style="font-family:'Arial'; font-size:6px;">B</text>
        <text transform="matrix(1 0 0 1 1712.7422 432.5557)" style="font-family:'Arial'; font-size:6px;">1</text>
      </g>
      <g ewd:lineID="208">
        <path style="fill:#FFFFFF;stroke:#000000;stroke-width:0.85;stroke-linecap:round;stroke-linejoin:round;" d="M 1672.28,436.52 C 1675.41 436.52 1677.95 433.98 1677.95 430.85 C 1677.94990234375 427.720012207031 1675.41 425.18 1672.28 425.18 C 1669.15005859375 425.179985351562 1666.61 427.72 1666.61 430.85 C 1666.60997070313 433.980012207031 1669.15 436.52 1672.28 436.52" />
        <text transform="matrix(1 0 0 1 1665.7813 443.8955)" style="font-family:'Arial'; font-size:6px;">RSO</text>
        <text transform="matrix(1 0 0 1 1670.2749 432.5557)" style="font-family:'Arial'; font-size:6px;">A</text>
        <text transform="matrix(1 0 0 1 1661.7119 432.5557)" style="font-family:'Arial'; font-size:6px;">1</text>
      </g>
      <g ewd:lineID="211,209">
        <path style="fill:#FFFFFF;stroke:#000000;stroke-width:0.85;stroke-linecap:round;stroke-linejoin:round;" d="M 1723.31,490.38 C 1726.44 490.38 1728.98 487.84 1728.98 484.71 C 1728.9799609375 481.579982910156 1726.44 479.04 1723.31 479.04 C 1720.1801171875 479.040017089844 1717.64 481.58 1717.64 484.71 C 1717.64002929687 487.839982910156 1720.18 490.38 1723.31 490.38" />
        <text transform="matrix(1 0 0 1 1716.9717 475.0801)" style="font-family:'Arial'; font-size:6px;">RSC</text>
        <text transform="matrix(1 0 0 1 1721.3052 486.416)" style="font-family:'Arial'; font-size:6px;">A</text>
        <text transform="matrix(1 0 0 1 1712.7422 486.416)" style="font-family:'Arial'; font-size:6px;">3</text>
      </g>
      <g ewd:lineID="22">
        <path style="fill:#FFFFFF;stroke:#000000;stroke-width:0.85;stroke-linecap:round;stroke-linejoin:round;" d="M 1672.28,490.38 C 1675.41 490.38 1677.95 487.84 1677.95 484.71 C 1677.94990234375 481.579982910156 1675.41 479.04 1672.28 479.04 C 1669.15005859375 479.040017089844 1666.61 481.58 1666.61 484.71 C 1666.60997070313 487.839982910156 1669.15 490.38 1672.28 490.38" />
        <text transform="matrix(1 0 0 1 1670.2813 475.0801)" style="font-family:'Arial'; font-size:6px;">B</text>
        <text transform="matrix(1 0 0 1 1670.2788 486.416)" style="font-family:'Arial'; font-size:6px;">A</text>
        <text transform="matrix(1 0 0 1 1661.7158 486.416)" style="font-family:'Arial'; font-size:6px;">2</text>
      </g>
      <g ewd:figtype="title">
        <text transform="matrix(1 0 0 1 1748.8506 487.125)" style="font-family:'Arial'; font-size:6px;">D48(A), D50(B)</text>
        <text transform="matrix(1 0 0 1 1748.8506 494.2119)" style="font-family:'Arial'; font-size:6px;" ewd:textID="57">Throttle Body Assembly</text>
      </g>
    </g><text transform="matrix(0 -1 1 0 1276.8838 226.2422)" style="font-family:'Arial'; font-size:6px;">G</text><text transform="matrix(0 -1 1 0 1319.4033 225.9097)" style="font-family:'Arial'; font-size:6px;">V</text><text transform="matrix(0 -1 1 0 1277.1338 268.7637)" style="font-family:'Arial'; font-size:6px;">G</text><text transform="matrix(0 -1 1 0 1319.6533 268.4312)" style="font-family:'Arial'; font-size:6px;">V</text><text transform="matrix(0 -1 1 0 1362.1729 268.5967)" style="font-family:'Arial'; font-size:6px;">R</text><text transform="matrix(0 -1 1 0 1404.6924 268.7637)" style="font-family:'Arial'; font-size:6px;">G</text><text transform="matrix(0 -1 1 0 1489.7314 269.2617)" style="font-family:'Arial'; font-size:6px;">W</text><text transform="matrix(0 -1 1 0 1489.7314 184.2222)" style="font-family:'Arial'; font-size:6px;">W</text><text transform="matrix(0 -1 1 0 1642.8037 269.2563)" style="font-family:'Arial'; font-size:6px;">W</text><text transform="matrix(0 -1 1 0 1685.3232 268.0933)" style="font-family:'Arial'; font-size:6px;">L</text><text transform="matrix(0 -1 1 0 1727.8428 268.7583)" style="font-family:'Arial'; font-size:6px;">G</text><text transform="matrix(0 -1 1 0 1719.3232 387.1523)" style="font-family:'Arial'; font-size:6px;">L</text><text transform="matrix(1 0 0 1 1542.9819 628.124)" style="font-family:'Arial'; font-size:6px;">L</text><text transform="matrix(1 0 0 1 1355.8945 628.124)" style="font-family:'Arial'; font-size:6px;">L</text><text transform="matrix(1 0 0 1 1415.4219 628.124)" style="font-family:'Arial'; font-size:6px;">L</text><text transform="matrix(1 0 0 1 1474.9487 628.124)" style="font-family:'Arial'; font-size:6px;">L</text><text transform="matrix(1 0 0 1 1304.9575 628.1572)" style="font-family:'Arial'; font-size:6px;">L</text><text transform="matrix(0 -1 1 0 1328.0654 565.7539)" style="font-family:'Arial'; font-size:6px;">L</text><text transform="matrix(0 -1 1 0 1328.0654 396.1621)" style="font-family:'Arial'; font-size:6px;">R</text><text transform="matrix(0 -1 1 0 1387.5928 565.7539)" style="font-family:'Arial'; font-size:6px;">L</text><text transform="matrix(0 -1 1 0 1387.5928 396.8271)" style="font-family:'Arial'; font-size:6px;">W</text><text transform="matrix(0 -1 1 0 1447.1201 565.7539)" style="font-family:'Arial'; font-size:6px;">L</text><text transform="matrix(0 -1 1 0 1447.1201 396.8271)" style="font-family:'Arial'; font-size:6px;">W</text><text transform="matrix(0 -1 1 0 1506.6465 565.7539)" style="font-family:'Arial'; font-size:6px;">L</text><text transform="matrix(0 -1 1 0 1506.6465 395.9961)" style="font-family:'Arial'; font-size:6px;">B</text><text transform="matrix(0 -1 1 0 1719.3232 568.2529)" style="font-family:'Arial'; font-size:6px;">BR</text><text transform="matrix(0 -1 1 0 1668.1826 395.9961)" style="font-family:'Arial'; font-size:6px;">B</text><text transform="matrix(0 -1 1 0 1730.6631 568.9199)" style="font-family:'Arial'; font-size:6px;">(*1)</text><text transform="matrix(1 0 0 1 1611.0132 628.124)" style="font-family:'Arial'; font-size:6px;">L</text><text transform="matrix(0 -1 1 0 1665.457 565.7539)" style="font-family:'Arial'; font-size:6px;">L</text></svg>