﻿<?xml version="1.0" encoding="utf-8"?>
<!-- Generator: Adobe Illustrator 10.0, SVG Export Plug-In . SVG Version: 3.0.0 Build 77)  -->
<!DOCTYPE svg PUBLIC "-//W3C//DTD SVG 1.0//EN" "http://www.w3.org/TR/2001/REC-SVG-20010904/DTD/svg10.dtd"[
   <!ENTITY ns_flows "http://ns.adobe.com/Flows/1.0/">
   <!ENTITY ns_svg "http://www.w3.org/2000/svg">
   <!ENTITY ns_xlink "http://www.w3.org/1999/xlink">
   <!ENTITY st0 "font-size:7px;font-family:'MS-PGothic';adobe-font-script:japanese;">
   <!ENTITY st1 "font-size:6px;font-family:'ArialMT';">
   <!ENTITY st2 "fill:#FFFFFF;stroke:#000000; stroke-width:1.41;stroke-linecap:round;stroke-linejoin:round;">
   <!ENTITY st3 "fill:#FFFFCC;stroke:#FFFFCC; stroke-width:0.1;stroke-linecap:round;stroke-linejoin:round;">
   <!ENTITY st4 "fill:#CCCCCC;stroke:#CCCCCC; stroke-width:0.1;stroke-linecap:round;stroke-linejoin:round;">
   <!ENTITY st5 "fill:#CCECF4;stroke:#000000; stroke-width:1.133;stroke-linecap:round;stroke-linejoin:round;">
   <!ENTITY st6 "fill:none;stroke-linecap:butt; stroke-linejoin:round;">
   <!ENTITY st7 "fill:none;stroke:#000000;stroke-linecap:round;stroke-linejoin:round;">
   <!ENTITY st8 "enable-background:new;">
   <!ENTITY st9 "fill:#000000;stroke:#000000; stroke-linecap:round;stroke-linejoin:round;">
   <!ENTITY st10 "font-size:9px;font-family:'ArialMT';">
   <!ENTITY st11 "font-size:9px;font-family:'Svg Symbol';">
   <!ENTITY st12 "font-size:6px;font-family:'Svg Symbol';">
   <!ENTITY st13 "fill:none;stroke:#ff0000;stroke-linecap:round;stroke-linejoin:round;">
   <!ENTITY st14 "fill:#FFFF00;stroke:#FFFF00; stroke-width:0.1;stroke-linecap:round;stroke-linejoin:round;">
   <!ENTITY st15 "font-size:6px;font-family:'MS-PGothic';adobe-font-script:japanese;">
   <!ENTITY st16 "1.00 0.00 0.00 1.00">
   <!ENTITY st17 "0.00 -1.00 1.00 0.00">
   <!ENTITY st18 "font-size:6px;font-family:'Arial';">
   <!ENTITY st19 "font-size:9px;font-family:'Arial';">
   <!ENTITY st20 "font-size:6px;font-family:'MS-PGothic','MS PGothic';adobe-font-script:japanese;">
   <!ENTITY st21 "font-size:7px;font-family:'MS-PGothic','MS PGothic';adobe-font-script:japanese;">
   <!ATTLIST svg
       xmlns:ewd CDATA #FIXED "http://shcl.co.jp/ewd"
       xmlns:a CDATA #FIXED "http://ns.adobe.com/AdobeSVGViewerExtensions/3.0/"
       ewd:ver CDATA #IMPLIED >
   <!ATTLIST a
       ewd:lineID CDATA #IMPLIED
       ewd:groupID CDATA #IMPLIED
       ewd:figtype CDATA #IMPLIED
       ewd:code CDATA #IMPLIED
       ewd:figID CDATA #IMPLIED
       ewd:pinNo CDATA #IMPLIED
       ewd:comment CDATA #IMPLIED >
   <!ATTLIST g
       ewd:lineID CDATA #IMPLIED
       ewd:groupID CDATA #IMPLIED
       ewd:figtype CDATA #IMPLIED
       ewd:code CDATA #IMPLIED
       ewd:figID CDATA #IMPLIED
       ewd:pinNo CDATA #IMPLIED
       ewd:comment CDATA #IMPLIED >
   <!ATTLIST text
       ewd:textID CDATA #IMPLIED >
   <!ATTLIST title
       ewd:textID CDATA #IMPLIED >
]>
<svg xmlns="http://www.w3.org/2000/svg" xmlns:xlink="http://www.w3.org/1999/xlink" width="6835.94" height="721" viewBox="0 0 6835.94 721" xml:space="preserve" xmlns:ewd="http://shcl.co.jp/ewd" ewd:ver="2.0">
  
  <defs>
    <font horiz-adv-x="1229">
      <font-face font-family="Svg Symbol" units-per-em="2048" panose-1="5 5 1 2 1 7 6 2 5 7" ascent="2059" descent="450" alphabetic="0" />
      <missing-glyph d="M 103,0 l 0,1280 1024,0 0,-1280 -1024,0 z m 32,32 l 960,0 0,1216 -960,0 0,-1216 z" />
      <glyph d4p1:unicode="" horiz-adv-x="1573" d="M 1517,0 l -567,0 24,279 q 141,59 207.5,168 66.5,109 66.5,306 0,272 -132.5,417.5 -132.5,145.5 -333.5,145.5 -194,0 -328,-147.5 -134,-147.5 -134,-401.5 0,-200 68.5,-319 68.5,-119 206.5,-169 l 25,-279 -564,0 0,279 35,0 q 3,-61 32,-83 45,-35 137,-35 l 270,0 0,70 q -210,61 -324.5,209 -114.5,148 -114.5,349 0,252 186.5,425 186.5,173 504.5,173 195,0 358.5,-73.5 163.5,-73.5 252,-214.5 88.5,-141 88.5,-310 0,-207 -121.5,-360.5 -121.5,-153.5 -317.5,-197.5 l -8,-70 275,0 q 92,0 128,28 36,28 42,90 l 38,0 0,-279 z" xmlns:d4p1="def-glyph-attr-unicode" />
    </font>
  </defs>
  
<g ewd:figtype="conn" ewd:code="D81" ewd:figID="31">
      <path style="fill:none;stroke:#000000;stroke-width:0.85;" d="M 2693.74,419.52 L 2693.74, 427.03" />
      <path style="fill:none;stroke:#000000;stroke-width:0.85;" d="M 2693.74,446.02 L 2693.74, 453.53" />
      <path style="fill:none;stroke:#000000;stroke-width:0.85;" d="M 2693.74,426.61 C 2696.09 426.61 2697.99 428.51 2697.99 430.86 C 2697.99 433.21 2696.09 435.11 2693.74 435.11 C 2692.48 435.11 2691.35 434.56 2690.57 433.7 L 2690.57, 433.69 C 2691.35 432.82 2692.48 432.28 2693.74 432.28 C 2696.09 432.28 2697.99 434.18 2697.99 436.53 C 2697.99 438.88 2696.09 440.78 2693.74 440.78 C 2692.48 440.78 2691.35 440.23 2690.57 439.36 L 2690.57, 439.36 C 2691.35 438.49 2692.48 437.95 2693.74 437.95 C 2696.09 437.95 2697.99 439.85 2697.99 442.2 C 2697.98998046875 444.550024414062 2696.09 446.45 2693.74 446.45" />
      <path style="fill:none;stroke:#000000;stroke-width:1.417;stroke-linecap:round;stroke-linejoin:round;" d="M 2702.24,453.53 L 2702.24, 419.52 L 2685.23, 419.52 L 2685.23, 453.53 L 2702.24, 453.53" />
      <text transform="matrix(1 0 0 1 2685.4375 415.5557)" style="font-family:'Arial'; font-size:6px;">1</text>
      <text transform="matrix(1 0 0 1 2685.4375 460.9102)" style="font-family:'Arial'; font-size:6px;">2</text>
      <g ewd:figtype="title">
        <text transform="matrix(0 -1 1 0 2710.3271 456.3721)" style="font-family:'Arial'; font-size:6px;">D81</text>
        <text transform="matrix(0 -1 1 0 2717.416 456.3721)" style="font-family:'Arial'; font-size:6px;" ewd:textID="23">Fuel Injector Assembly (No. 1)</text>
      </g>
    </g><g ewd:figtype="conn" ewd:code="A50" ewd:figID="32">
      <path style="fill:none;stroke:#000000;stroke-width:1.417;stroke-linecap:round;stroke-linejoin:round;" d="M 2597.38,79.35 L 2597.38, 28.32 L 2435.79, 28.32 L 2435.79, 79.35 L 2597.38, 79.35" />
      <g ewd:lineID="145">
        <text transform="matrix(1 0 0 1 2572.064 86.7241)" style="font-family:'Arial'; font-size:6px;">2</text>
        <text transform="matrix(1 0 0 1 2574.3589 75.3867)" style="font-family:'Arial'; font-size:6px;">E2G</text>
      </g>
      <g ewd:lineID="149">
        <text transform="matrix(1 0 0 1 2529.5444 86.7241)" style="font-family:'Arial'; font-size:6px;">3</text>
        <text transform="matrix(1 0 0 1 2534.1729 75.3867)" style="font-family:'Arial'; font-size:6px;">5V</text>
      </g>
      <g ewd:lineID="153">
        <text transform="matrix(1 0 0 1 2487.0249 86.7241)" style="font-family:'Arial'; font-size:6px;">4</text>
        <text transform="matrix(1 0 0 1 2489.3228 75.3867)" style="font-family:'Arial'; font-size:6px;">THA</text>
      </g>
      <g ewd:lineID="197">
        <text transform="matrix(1 0 0 1 2444.5049 86.7241)" style="font-family:'Arial'; font-size:6px;">1</text>
        <text transform="matrix(1 0 0 1 2448.6367 75.3867)" style="font-family:'Arial'; font-size:6px;">FG</text>
      </g>
      <g ewd:figtype="title">
        <text transform="matrix(1 0 0 1 2435.709 16.4834)" style="font-family:'Arial'; font-size:6px;">A50</text>
        <text transform="matrix(1 0 0 1 2435.709 23.5703)" style="font-family:'Arial'; font-size:6px;" ewd:textID="4">Air Flow Meter</text>
      </g>
    </g><g ewd:figtype="conn" ewd:code="D118" ewd:figID="35">
      <path style="fill:none;stroke:#000000;stroke-width:1.417;stroke-linecap:round;stroke-linejoin:round;" d="M 2404.64,164.39 L 2404.64, 113.36 L 2285.57, 113.36 L 2285.57, 164.39 L 2404.64, 164.39" />
      <g ewd:lineID="185">
        <text transform="matrix(1 0 0 1 2379.3174 171.7583)" style="font-family:'Arial'; font-size:6px;">1</text>
        <text transform="matrix(1 0 0 1 2381.6958 160.4209)" style="font-family:'Arial'; font-size:6px;">NE+</text>
      </g>
      <g ewd:lineID="187">
        <text transform="matrix(1 0 0 1 2336.7979 171.7583)" style="font-family:'Arial'; font-size:6px;">2</text>
        <text transform="matrix(1 0 0 1 2339.9292 160.4209)" style="font-family:'Arial'; font-size:6px;">NE-</text>
      </g>
      <g ewd:lineID="192">
        <text transform="matrix(1 0 0 1 2294.2778 171.7583)" style="font-family:'Arial'; font-size:6px;">3</text>
        <text transform="matrix(1 0 0 1 2298.4082 160.4209)" style="font-family:'Arial'; font-size:6px;">VC</text>
      </g>
      <g ewd:figtype="title">
        <text transform="matrix(1 0 0 1 2285.5713 94.5044)" style="font-family:'Arial'; font-size:6px;">D118</text>
        <text transform="matrix(1 0 0 1 2285.5713 101.5913)" style="font-family:'Arial'; font-size:6px;" ewd:textID="12">Crankshaft Position <tspan x="0" dy="1em">Sensor</tspan></text>
      </g>
    </g><g ewd:figtype="conn" ewd:code="D124" ewd:figID="36">
      <path style="fill:none;stroke:#000000;stroke-width:1.417;stroke-linecap:round;stroke-linejoin:round;" d="M 2753.3,164.39 L 2753.3, 113.36 L 2676.73, 113.36 L 2676.73, 164.39 L 2753.3, 164.39" />
      <text transform="matrix(1 0 0 1 2729.938 160.4209)" style="font-family:'Arial'; font-size:6px;">NTO</text>
      <text transform="matrix(1 0 0 1 2687.7432 160.4209)" style="font-family:'Arial'; font-size:6px;">NTB</text>
      <text transform="matrix(1 0 0 1 2727.9717 171.7583)" style="font-family:'Arial'; font-size:6px;">1</text>
      <text transform="matrix(1 0 0 1 2685.4443 171.7583)" style="font-family:'Arial'; font-size:6px;">2</text>
      <g ewd:figtype="title">
        <text transform="matrix(1 0 0 1 2676.7354 94.5044)" style="font-family:'Arial'; font-size:6px;">D124</text>
        <text transform="matrix(1 0 0 1 2676.7354 101.5913)" style="font-family:'Arial'; font-size:6px;" ewd:textID="47">Transmission Revolution <tspan x="0" dy="1em">Sensor (NT)</tspan></text>
      </g>
    </g><g ewd:figtype="conn" ewd:code="D121" ewd:figID="57">
      <path style="fill:none;stroke:#000000;stroke-width:1.417;stroke-linecap:round;stroke-linejoin:round;" d="M 2336.61,518.72 L 2336.61, 467.68 L 2260.05, 467.68 L 2260.05, 518.72 L 2336.61, 518.72" />
      <g ewd:lineID="174">
        <text transform="matrix(1 0 0 1 2311.2822 463.7236)" style="font-family:'Arial'; font-size:6px;">2</text>
        <text transform="matrix(1 0 0 1 2310.9194 475.0645)" style="font-family:'Arial'; font-size:6px;">COM3</text>
      </g>
      <g ewd:lineID="176">
        <text transform="matrix(1 0 0 1 2268.769 463.7236)" style="font-family:'Arial'; font-size:6px;">1</text>
        <text transform="matrix(1 0 0 1 2271.231 475.0645)" style="font-family:'Arial'; font-size:6px;">RLV</text>
      </g>
      <g ewd:figtype="title">
        <text transform="matrix(1 0 0 1 2260.062 526.7871)" style="font-family:'Arial'; font-size:6px;">D121</text>
        <text transform="matrix(1 0 0 1 2260.062 533.875)" style="font-family:'Arial'; font-size:6px;" ewd:textID="28">Fuel Pressure Sensor <tspan x="0" dy="1em">(Common Rail Assembly)</tspan></text>
      </g>
    </g><g ewd:figtype="w2w" ewd:code="AA1" ewd:pin_no="3" ewd:figID="134">
      <path style="fill:#FFFFFF;stroke:#FFFFFF;stroke-width:0;stroke-linecap:round;stroke-linejoin:round;" d="M 2457.08,115.3 L 2452.83, 119.55 L 2448.58, 115.3 L 2448.58, 121.85 L 2457.08, 121.85 L 2457.08, 115.3" />
      <path style="fill:#FFFFFF;stroke:#FFFFFF;stroke-width:0;stroke-linecap:round;stroke-linejoin:round;" d="M 2457.08,112.47 L 2452.83, 116.72 L 2448.58, 112.47 L 2448.58, 119.02 L 2457.08, 119.02 L 2457.08, 112.47" />
      <path style="fill:none;stroke:#000000;stroke-width:0.85;" d="M 2457.08,114.77 L 2452.83, 119.02 L 2448.58, 114.77" />
      <path style="fill:none;stroke:#000000;stroke-width:0.85;" d="M 2457.08,117.6 L 2452.83, 121.85 L 2448.58, 117.6" />
      <path style="fill:none;stroke:#000000;stroke-width:0.85;stroke-linecap:round;stroke-linejoin:round;" d="M 2462.75,130.36 L 2462.75, 121.86 L 2442.91, 121.86 L 2442.91, 130.36 L 2462.75, 130.36" />
      <text transform="matrix(1 0 0 1 2438.1499 127.8125)" style="font-family:'Arial'; font-size:6px;">3</text>
    </g><g ewd:figtype="w2w" ewd:code="AA1" ewd:pin_no="4" ewd:figID="135">
      <path style="fill:#FFFFFF;stroke:#FFFFFF;stroke-width:0;stroke-linecap:round;stroke-linejoin:round;" d="M 2499.59,115.3 L 2495.34, 119.55 L 2491.09, 115.3 L 2491.09, 121.85 L 2499.59, 121.85 L 2499.59, 115.3" />
      <path style="fill:#FFFFFF;stroke:#FFFFFF;stroke-width:0;stroke-linecap:round;stroke-linejoin:round;" d="M 2499.59,112.47 L 2495.34, 116.72 L 2491.09, 112.47 L 2491.09, 119.02 L 2499.59, 119.02 L 2499.59, 112.47" />
      <path style="fill:none;stroke:#000000;stroke-width:0.85;" d="M 2499.59,114.77 L 2495.34, 119.02 L 2491.09, 114.77" />
      <path style="fill:none;stroke:#000000;stroke-width:0.85;" d="M 2499.59,117.6 L 2495.34, 121.85 L 2491.09, 117.6" />
      <path style="fill:none;stroke:#000000;stroke-width:0.85;stroke-linecap:round;stroke-linejoin:round;" d="M 2505.26,130.36 L 2505.26, 121.86 L 2485.42, 121.86 L 2485.42, 130.36 L 2505.26, 130.36" />
      <text transform="matrix(1 0 0 1 2480.667 127.8125)" style="font-family:'Arial'; font-size:6px;">4</text>
    </g><g ewd:figtype="w2w" ewd:code="AA1" ewd:pin_no="5" ewd:figID="136">
      <path style="fill:#FFFFFF;stroke:#FFFFFF;stroke-width:0;stroke-linecap:round;stroke-linejoin:round;" d="M 2542.11,115.3 L 2537.86, 119.55 L 2533.61, 115.3 L 2533.61, 121.85 L 2542.11, 121.85 L 2542.11, 115.3" />
      <path style="fill:#FFFFFF;stroke:#FFFFFF;stroke-width:0;stroke-linecap:round;stroke-linejoin:round;" d="M 2542.11,112.47 L 2537.86, 116.72 L 2533.61, 112.47 L 2533.61, 119.02 L 2542.11, 119.02 L 2542.11, 112.47" />
      <path style="fill:none;stroke:#000000;stroke-width:0.85;" d="M 2542.11,114.77 L 2537.86, 119.02 L 2533.61, 114.77" />
      <path style="fill:none;stroke:#000000;stroke-width:0.85;" d="M 2542.11,117.6 L 2537.86, 121.85 L 2533.61, 117.6" />
      <path style="fill:none;stroke:#000000;stroke-width:0.85;stroke-linecap:round;stroke-linejoin:round;" d="M 2547.78,130.36 L 2547.78, 121.86 L 2527.94, 121.86 L 2527.94, 130.36 L 2547.78, 130.36" />
      <text transform="matrix(1 0 0 1 2523.1841 127.8125)" style="font-family:'Arial'; font-size:6px;">5</text>
    </g><g ewd:figtype="w2w" ewd:code="AA1" ewd:pin_no="2" ewd:figID="137">
      <path style="fill:#FFFFFF;stroke:#FFFFFF;stroke-width:0;stroke-linecap:round;stroke-linejoin:round;" d="M 2584.63,115.3 L 2580.38, 119.55 L 2576.13, 115.3 L 2576.13, 121.85 L 2584.63, 121.85 L 2584.63, 115.3" />
      <path style="fill:#FFFFFF;stroke:#FFFFFF;stroke-width:0;stroke-linecap:round;stroke-linejoin:round;" d="M 2584.63,112.47 L 2580.38, 116.72 L 2576.13, 112.47 L 2576.13, 119.02 L 2584.63, 119.02 L 2584.63, 112.47" />
      <path style="fill:none;stroke:#000000;stroke-width:0.85;" d="M 2584.63,114.77 L 2580.38, 119.02 L 2576.13, 114.77" />
      <path style="fill:none;stroke:#000000;stroke-width:0.85;" d="M 2584.63,117.6 L 2580.38, 121.85 L 2576.13, 117.6" />
      <path style="fill:none;stroke:#000000;stroke-width:0.85;stroke-linecap:round;stroke-linejoin:round;" d="M 2590.3,130.36 L 2590.3, 121.86 L 2570.46, 121.86 L 2570.46, 130.36 L 2590.3, 130.36" />
      <text transform="matrix(1 0 0 1 2565.7012 127.8125)" style="font-family:'Arial'; font-size:6px;">2</text>
    </g><g ewd:figtype="w2w" ewd:code="AB4" ewd:pin_no="34" ewd:figID="138">
      <path style="fill:#FFFFFF;stroke:#FFFFFF;stroke-width:0;stroke-linecap:round;stroke-linejoin:round;" d="M 2457.08,179.43 L 2452.83, 175.18 L 2448.58, 179.43 L 2448.58, 172.88 L 2457.08, 172.88 L 2457.08, 179.43" />
      <path style="fill:#FFFFFF;stroke:#FFFFFF;stroke-width:0;stroke-linecap:round;stroke-linejoin:round;" d="M 2457.08,182.27 L 2452.83, 178.02 L 2448.58, 182.27 L 2448.58, 175.72 L 2457.08, 175.72 L 2457.08, 182.27" />
      <path style="fill:none;stroke:#000000;stroke-width:0.85;" d="M 2457.08,179.97 L 2452.83, 175.72 L 2448.58, 179.97" />
      <path style="fill:none;stroke:#000000;stroke-width:0.85;" d="M 2457.08,177.13 L 2452.83, 172.88 L 2448.58, 177.13" />
      <path style="fill:none;stroke:#000000;stroke-width:0.85;stroke-linecap:round;stroke-linejoin:round;" d="M 2462.75,164.38 L 2462.75, 172.88 L 2442.91, 172.88 L 2442.91, 164.38 L 2462.75, 164.38" />
      <text transform="matrix(1 0 0 1 2434.812 170.3345)" style="font-family:'Arial'; font-size:6px;">34</text>
    </g><g ewd:figtype="w2w" ewd:code="AB4" ewd:pin_no="15" ewd:figID="139">
      <path style="fill:#FFFFFF;stroke:#FFFFFF;stroke-width:0;stroke-linecap:round;stroke-linejoin:round;" d="M 2499.59,179.43 L 2495.34, 175.18 L 2491.09, 179.43 L 2491.09, 172.88 L 2499.59, 172.88 L 2499.59, 179.43" />
      <path style="fill:#FFFFFF;stroke:#FFFFFF;stroke-width:0;stroke-linecap:round;stroke-linejoin:round;" d="M 2499.59,182.27 L 2495.34, 178.02 L 2491.09, 182.27 L 2491.09, 175.72 L 2499.59, 175.72 L 2499.59, 182.27" />
      <path style="fill:none;stroke:#000000;stroke-width:0.85;" d="M 2499.59,179.97 L 2495.34, 175.72 L 2491.09, 179.97" />
      <path style="fill:none;stroke:#000000;stroke-width:0.85;" d="M 2499.59,177.13 L 2495.34, 172.88 L 2491.09, 177.13" />
      <path style="fill:none;stroke:#000000;stroke-width:0.85;stroke-linecap:round;stroke-linejoin:round;" d="M 2505.26,164.38 L 2505.26, 172.88 L 2485.42, 172.88 L 2485.42, 164.38 L 2505.26, 164.38" />
      <text transform="matrix(1 0 0 1 2477.3291 170.3345)" style="font-family:'Arial'; font-size:6px;">15</text>
    </g><g ewd:figtype="w2w" ewd:code="BD7" ewd:pin_no="12" ewd:figID="140">
      <path style="fill:#FFFFFF;stroke:#FFFFFF;stroke-width:0;stroke-linecap:round;stroke-linejoin:round;" d="M 2499.59,221.95 L 2495.34, 217.7 L 2491.09, 221.95 L 2491.09, 215.4 L 2499.59, 215.4 L 2499.59, 221.95" />
      <path style="fill:#FFFFFF;stroke:#FFFFFF;stroke-width:0;stroke-linecap:round;stroke-linejoin:round;" d="M 2499.59,224.78 L 2495.34, 220.53 L 2491.09, 224.78 L 2491.09, 218.23 L 2499.59, 218.23 L 2499.59, 224.78" />
      <path style="fill:none;stroke:#000000;stroke-width:0.85;" d="M 2499.59,222.48 L 2495.34, 218.23 L 2491.09, 222.48" />
      <path style="fill:none;stroke:#000000;stroke-width:0.85;" d="M 2499.59,219.65 L 2495.34, 215.4 L 2491.09, 219.65" />
      <path style="fill:none;stroke:#000000;stroke-width:0.85;stroke-linecap:round;stroke-linejoin:round;" d="M 2505.26,206.89 L 2505.26, 215.39 L 2485.42, 215.39 L 2485.42, 206.89 L 2505.26, 206.89" />
      <text transform="matrix(1 0 0 1 2477.3291 212.8516)" style="font-family:'Arial'; font-size:6px;">12</text>
    </g><g ewd:figtype="w2w" ewd:code="BD7" ewd:pin_no="14" ewd:figID="100">
      <path style="fill:#FFFFFF;stroke:#FFFFFF;stroke-width:0;stroke-linecap:round;stroke-linejoin:round;" d="M 2457.08,221.95 L 2452.83, 217.7 L 2448.58, 221.95 L 2448.58, 215.4 L 2457.08, 215.4 L 2457.08, 221.95" />
      <path style="fill:#FFFFFF;stroke:#FFFFFF;stroke-width:0;stroke-linecap:round;stroke-linejoin:round;" d="M 2457.08,224.78 L 2452.83, 220.53 L 2448.58, 224.78 L 2448.58, 218.23 L 2457.08, 218.23 L 2457.08, 224.78" />
      <path style="fill:none;stroke:#000000;stroke-width:0.85;" d="M 2457.08,222.48 L 2452.83, 218.23 L 2448.58, 222.48" />
      <path style="fill:none;stroke:#000000;stroke-width:0.85;" d="M 2457.08,219.65 L 2452.83, 215.4 L 2448.58, 219.65" />
      <path style="fill:none;stroke:#000000;stroke-width:0.85;stroke-linecap:round;stroke-linejoin:round;" d="M 2462.75,206.89 L 2462.75, 215.39 L 2442.91, 215.39 L 2442.91, 206.89 L 2462.75, 206.89" />
      <text transform="matrix(1 0 0 1 2434.812 212.8516)" style="font-family:'Arial'; font-size:6px;">14</text>
    </g><g ewd:figtype="w2w" ewd:code="DD2" ewd:pin_no="3" ewd:figID="101">
      <path style="fill:#FFFFFF;stroke:#FFFFFF;stroke-width:0;stroke-linecap:round;stroke-linejoin:round;" d="M 2306.85,221.95 L 2302.6, 217.7 L 2298.35, 221.95 L 2298.35, 215.4 L 2306.85, 215.4 L 2306.85, 221.95" />
      <path style="fill:#FFFFFF;stroke:#FFFFFF;stroke-width:0;stroke-linecap:round;stroke-linejoin:round;" d="M 2306.85,224.78 L 2302.6, 220.53 L 2298.35, 224.78 L 2298.35, 218.23 L 2306.85, 218.23 L 2306.85, 224.78" />
      <path style="fill:none;stroke:#000000;stroke-width:0.85;" d="M 2306.85,222.48 L 2302.6, 218.23 L 2298.35, 222.48" />
      <path style="fill:none;stroke:#000000;stroke-width:0.85;" d="M 2306.85,219.65 L 2302.6, 215.4 L 2298.35, 219.65" />
      <path style="fill:none;stroke:#000000;stroke-width:0.85;stroke-linecap:round;stroke-linejoin:round;" d="M 2312.52,206.89 L 2312.52, 215.39 L 2292.68, 215.39 L 2292.68, 206.89 L 2312.52, 206.89" />
      <text transform="matrix(1 0 0 1 2287.9219 212.8516)" style="font-family:'Arial'; font-size:6px;">3</text>
    </g><g ewd:figtype="w2w" ewd:code="DD2" ewd:pin_no="2" ewd:figID="102">
      <path style="fill:#FFFFFF;stroke:#FFFFFF;stroke-width:0;stroke-linecap:round;stroke-linejoin:round;" d="M 2349.37,221.95 L 2345.12, 217.7 L 2340.87, 221.95 L 2340.87, 215.4 L 2349.37, 215.4 L 2349.37, 221.95" />
      <path style="fill:#FFFFFF;stroke:#FFFFFF;stroke-width:0;stroke-linecap:round;stroke-linejoin:round;" d="M 2349.37,224.78 L 2345.12, 220.53 L 2340.87, 224.78 L 2340.87, 218.23 L 2349.37, 218.23 L 2349.37, 224.78" />
      <path style="fill:none;stroke:#000000;stroke-width:0.85;" d="M 2349.37,222.48 L 2345.12, 218.23 L 2340.87, 222.48" />
      <path style="fill:none;stroke:#000000;stroke-width:0.85;" d="M 2349.37,219.65 L 2345.12, 215.4 L 2340.87, 219.65" />
      <path style="fill:none;stroke:#000000;stroke-width:0.85;stroke-linecap:round;stroke-linejoin:round;" d="M 2355.04,206.89 L 2355.04, 215.39 L 2335.2, 215.39 L 2335.2, 206.89 L 2355.04, 206.89" />
      <text transform="matrix(1 0 0 1 2330.439 212.8516)" style="font-family:'Arial'; font-size:6px;">2</text>
    </g><g ewd:figtype="w2w" ewd:code="DD2" ewd:pin_no="1" ewd:figID="103">
      <path style="fill:#FFFFFF;stroke:#FFFFFF;stroke-width:0;stroke-linecap:round;stroke-linejoin:round;" d="M 2391.88,221.95 L 2387.63, 217.7 L 2383.38, 221.95 L 2383.38, 215.4 L 2391.88, 215.4 L 2391.88, 221.95" />
      <path style="fill:#FFFFFF;stroke:#FFFFFF;stroke-width:0;stroke-linecap:round;stroke-linejoin:round;" d="M 2391.88,224.78 L 2387.63, 220.53 L 2383.38, 224.78 L 2383.38, 218.23 L 2391.88, 218.23 L 2391.88, 224.78" />
      <path style="fill:none;stroke:#000000;stroke-width:0.85;" d="M 2391.88,222.48 L 2387.63, 218.23 L 2383.38, 222.48" />
      <path style="fill:none;stroke:#000000;stroke-width:0.85;" d="M 2391.88,219.65 L 2387.63, 215.4 L 2383.38, 219.65" />
      <path style="fill:none;stroke:#000000;stroke-width:0.85;stroke-linecap:round;stroke-linejoin:round;" d="M 2397.55,206.89 L 2397.55, 215.39 L 2377.71, 215.39 L 2377.71, 206.89 L 2397.55, 206.89" />
      <text transform="matrix(1 0 0 1 2372.9561 212.8516)" style="font-family:'Arial'; font-size:6px;">1</text>
    </g><g ewd:figtype="w2w" ewd:code="AB4" ewd:pin_no="41" ewd:figID="104">
      <path style="fill:#FFFFFF;stroke:#FFFFFF;stroke-width:0;stroke-linecap:round;stroke-linejoin:round;" d="M 2542.11,179.43 L 2537.86, 175.18 L 2533.61, 179.43 L 2533.61, 172.88 L 2542.11, 172.88 L 2542.11, 179.43" />
      <path style="fill:#FFFFFF;stroke:#FFFFFF;stroke-width:0;stroke-linecap:round;stroke-linejoin:round;" d="M 2542.11,182.27 L 2537.86, 178.02 L 2533.61, 182.27 L 2533.61, 175.72 L 2542.11, 175.72 L 2542.11, 182.27" />
      <path style="fill:none;stroke:#000000;stroke-width:0.85;" d="M 2542.11,179.97 L 2537.86, 175.72 L 2533.61, 179.97" />
      <path style="fill:none;stroke:#000000;stroke-width:0.85;" d="M 2542.11,177.13 L 2537.86, 172.88 L 2533.61, 177.13" />
      <path style="fill:none;stroke:#000000;stroke-width:0.85;stroke-linecap:round;stroke-linejoin:round;" d="M 2547.78,164.38 L 2547.78, 172.88 L 2527.94, 172.88 L 2527.94, 164.38 L 2547.78, 164.38" />
      <text transform="matrix(1 0 0 1 2519.8462 170.3345)" style="font-family:'Arial'; font-size:6px;">41</text>
    </g><g ewd:figtype="w2w" ewd:code="BD7" ewd:pin_no="15" ewd:figID="105">
      <path style="fill:#FFFFFF;stroke:#FFFFFF;stroke-width:0;stroke-linecap:round;stroke-linejoin:round;" d="M 2542.11,221.95 L 2537.86, 217.7 L 2533.61, 221.95 L 2533.61, 215.4 L 2542.11, 215.4 L 2542.11, 221.95" />
      <path style="fill:#FFFFFF;stroke:#FFFFFF;stroke-width:0;stroke-linecap:round;stroke-linejoin:round;" d="M 2542.11,224.78 L 2537.86, 220.53 L 2533.61, 224.78 L 2533.61, 218.23 L 2542.11, 218.23 L 2542.11, 224.78" />
      <path style="fill:none;stroke:#000000;stroke-width:0.85;" d="M 2542.11,222.48 L 2537.86, 218.23 L 2533.61, 222.48" />
      <path style="fill:none;stroke:#000000;stroke-width:0.85;" d="M 2542.11,219.65 L 2537.86, 215.4 L 2533.61, 219.65" />
      <path style="fill:none;stroke:#000000;stroke-width:0.85;stroke-linecap:round;stroke-linejoin:round;" d="M 2547.78,206.89 L 2547.78, 215.39 L 2527.94, 215.39 L 2527.94, 206.89 L 2547.78, 206.89" />
      <text transform="matrix(1 0 0 1 2519.8462 212.8516)" style="font-family:'Arial'; font-size:6px;">15</text>
    </g><g ewd:figtype="w2w" ewd:code="BD7" ewd:pin_no="4" ewd:figID="106">
      <path style="fill:#FFFFFF;stroke:#FFFFFF;stroke-width:0;stroke-linecap:round;stroke-linejoin:round;" d="M 2584.63,221.95 L 2580.38, 217.7 L 2576.13, 221.95 L 2576.13, 215.4 L 2584.63, 215.4 L 2584.63, 221.95" />
      <path style="fill:#FFFFFF;stroke:#FFFFFF;stroke-width:0;stroke-linecap:round;stroke-linejoin:round;" d="M 2584.63,224.78 L 2580.38, 220.53 L 2576.13, 224.78 L 2576.13, 218.23 L 2584.63, 218.23 L 2584.63, 224.78" />
      <path style="fill:none;stroke:#000000;stroke-width:0.85;" d="M 2584.63,222.48 L 2580.38, 218.23 L 2576.13, 222.48" />
      <path style="fill:none;stroke:#000000;stroke-width:0.85;" d="M 2584.63,219.65 L 2580.38, 215.4 L 2576.13, 219.65" />
      <path style="fill:none;stroke:#000000;stroke-width:0.85;stroke-linecap:round;stroke-linejoin:round;" d="M 2590.3,206.89 L 2590.3, 215.39 L 2570.46, 215.39 L 2570.46, 206.89 L 2590.3, 206.89" />
      <text transform="matrix(1 0 0 1 2565.7002 212.8516)" style="font-family:'Arial'; font-size:6px;">4</text>
    </g><g ewd:figtype="w2w" ewd:code="AB4" ewd:pin_no="40" ewd:figID="109">
      <path style="fill:#FFFFFF;stroke:#FFFFFF;stroke-width:0;stroke-linecap:round;stroke-linejoin:round;" d="M 2584.63,179.43 L 2580.38, 175.18 L 2576.13, 179.43 L 2576.13, 172.88 L 2584.63, 172.88 L 2584.63, 179.43" />
      <path style="fill:#FFFFFF;stroke:#FFFFFF;stroke-width:0;stroke-linecap:round;stroke-linejoin:round;" d="M 2584.63,182.27 L 2580.38, 178.02 L 2576.13, 182.27 L 2576.13, 175.72 L 2584.63, 175.72 L 2584.63, 182.27" />
      <path style="fill:none;stroke:#000000;stroke-width:0.85;" d="M 2584.63,179.97 L 2580.38, 175.72 L 2576.13, 179.97" />
      <path style="fill:none;stroke:#000000;stroke-width:0.85;" d="M 2584.63,177.13 L 2580.38, 172.88 L 2576.13, 177.13" />
      <path style="fill:none;stroke:#000000;stroke-width:0.85;stroke-linecap:round;stroke-linejoin:round;" d="M 2590.3,164.38 L 2590.3, 172.88 L 2570.46, 172.88 L 2570.46, 164.38 L 2590.3, 164.38" />
      <text transform="matrix(1 0 0 1 2562.3633 170.3345)" style="font-family:'Arial'; font-size:6px;">40</text>
    </g><g ewd:figtype="w2w" ewd:code="DD4" ewd:pin_no="1" ewd:figID="143">
      <path style="fill:#FFFFFF;stroke:#FFFFFF;stroke-width:0;stroke-linecap:round;stroke-linejoin:round;" d="M 2281.31,403.38 L 2277.06, 399.13 L 2272.81, 403.38 L 2272.81, 396.83 L 2281.31, 396.83 L 2281.31, 403.38" />
      <path style="fill:#FFFFFF;stroke:#FFFFFF;stroke-width:0;stroke-linecap:round;stroke-linejoin:round;" d="M 2281.31,406.22 L 2277.06, 401.97 L 2272.81, 406.22 L 2272.81, 399.67 L 2281.31, 399.67 L 2281.31, 406.22" />
      <path style="fill:none;stroke:#000000;stroke-width:0.85;" d="M 2281.31,403.92 L 2277.06, 399.67 L 2272.81, 403.92" />
      <path style="fill:none;stroke:#000000;stroke-width:0.85;" d="M 2281.31,401.08 L 2277.06, 396.83 L 2272.81, 401.08" />
      <path style="fill:none;stroke:#000000;stroke-width:0.85;stroke-linecap:round;stroke-linejoin:round;" d="M 2286.98,388.33 L 2286.98, 396.83 L 2267.14, 396.83 L 2267.14, 388.33 L 2286.98, 388.33" />
      <text transform="matrix(1 0 0 1 2262.3843 394.2842)" style="font-family:'Arial'; font-size:6px;">1</text>
    </g><g ewd:figtype="w2w" ewd:code="DD4" ewd:pin_no="2" ewd:figID="144">
      <path style="fill:#FFFFFF;stroke:#FFFFFF;stroke-width:0;stroke-linecap:round;stroke-linejoin:round;" d="M 2323.83,403.38 L 2319.58, 399.13 L 2315.33, 403.38 L 2315.33, 396.83 L 2323.83, 396.83 L 2323.83, 403.38" />
      <path style="fill:#FFFFFF;stroke:#FFFFFF;stroke-width:0;stroke-linecap:round;stroke-linejoin:round;" d="M 2323.83,406.22 L 2319.58, 401.97 L 2315.33, 406.22 L 2315.33, 399.67 L 2323.83, 399.67 L 2323.83, 406.22" />
      <path style="fill:none;stroke:#000000;stroke-width:0.85;" d="M 2323.83,403.92 L 2319.58, 399.67 L 2315.33, 403.92" />
      <path style="fill:none;stroke:#000000;stroke-width:0.85;" d="M 2323.83,401.08 L 2319.58, 396.83 L 2315.33, 401.08" />
      <path style="fill:none;stroke:#000000;stroke-width:0.85;stroke-linecap:round;stroke-linejoin:round;" d="M 2329.5,388.33 L 2329.5, 396.83 L 2309.66, 396.83 L 2309.66, 388.33 L 2329.5, 388.33" />
      <text transform="matrix(1 0 0 1 2304.9014 394.2842)" style="font-family:'Arial'; font-size:6px;">2</text>
    </g><g ewd:figtype="gp" ewd:code="D3" ewd:figID="145">
      <path style="fill:none;stroke:#000000;stroke-width:0.85;" d="M 2387.63,708.66 L 2387.63, 711.49" />
      <path style="fill:none;stroke:#000000;stroke-width:0.85;" d="M 2386.21,720 L 2389.05, 720" />
      <path style="fill:none;stroke:#000000;stroke-width:0.85;" d="M 2384.79,717.16 L 2390.46, 717.16" />
      <path style="fill:none;stroke:#000000;stroke-width:0.85;" d="M 2381.95,714.33 L 2393.29, 714.33" />
      <path style="fill:none;stroke:#000000;stroke-width:0.85;" d="M 2379.12,711.5 L 2396.13, 711.5" />
    </g><g ewd:figtype="gp" ewd:code="D5" ewd:figID="146">
      <path style="fill:none;stroke:#000000;stroke-width:0.85;" d="M 2472.67,708.66 L 2472.67, 711.49" />
      <path style="fill:none;stroke:#000000;stroke-width:0.85;" d="M 2471.25,720 L 2474.09, 720" />
      <path style="fill:none;stroke:#000000;stroke-width:0.85;" d="M 2469.83,717.16 L 2475.5, 717.16" />
      <path style="fill:none;stroke:#000000;stroke-width:0.85;" d="M 2466.99,714.33 L 2478.33, 714.33" />
      <path style="fill:none;stroke:#000000;stroke-width:0.85;" d="M 2464.16,711.5 L 2481.17, 711.5" />
    </g><g ewd:figtype="gp" ewd:code="B2" ewd:figID="147">
      <path style="fill:none;stroke:#000000;stroke-width:0.85;" d="M 2557.7,708.66 L 2557.7, 711.49" />
      <path style="fill:none;stroke:#000000;stroke-width:0.85;" d="M 2556.28,720 L 2559.12, 720" />
      <path style="fill:none;stroke:#000000;stroke-width:0.85;" d="M 2554.87,717.16 L 2560.54, 717.16" />
      <path style="fill:none;stroke:#000000;stroke-width:0.85;" d="M 2552.03,714.33 L 2563.37, 714.33" />
      <path style="fill:none;stroke:#000000;stroke-width:0.85;" d="M 2549.2,711.5 L 2566.21, 711.5" />
    </g><text transform="matrix(0 -1 1 0 2448.8379 242.583)" style="font-family:'Arial'; font-size:6px;">L</text><text transform="matrix(0 -1 1 0 2383.645 242.583)" style="font-family:'Arial'; font-size:6px;">L</text><text transform="matrix(0 -1 1 0 2341.1279 242.9155)" style="font-family:'Arial'; font-size:6px;">Y</text><text transform="matrix(0 -1 1 0 2298.6108 242.9155)" style="font-family:'Arial'; font-size:6px;">B</text><text transform="matrix(0 -1 1 0 2491.3574 243.0811)" style="font-family:'Arial'; font-size:6px;">R</text><text transform="matrix(0 -1 1 0 2533.877 242.9155)" style="font-family:'Arial'; font-size:6px;">Y</text><text transform="matrix(0 -1 1 0 2576.3965 242.583)" style="font-family:'Arial'; font-size:6px;">L</text><text transform="matrix(0 -1 1 0 2448.8379 195.2275)" style="font-family:'Arial'; font-size:6px;">Y-G</text><text transform="matrix(0 -1 1 0 2491.3574 192.0605)" style="font-family:'Arial'; font-size:6px;">R</text><text transform="matrix(0 -1 1 0 2533.877 191.895)" style="font-family:'Arial'; font-size:6px;">Y</text><text transform="matrix(0 -1 1 0 2576.3965 191.5625)" style="font-family:'Arial'; font-size:6px;">L</text><text transform="matrix(0 -1 1 0 2448.8379 152.7104)" style="font-family:'Arial'; font-size:6px;">Y-G</text><text transform="matrix(0 -1 1 0 2491.3574 149.5435)" style="font-family:'Arial'; font-size:6px;">R</text><text transform="matrix(0 -1 1 0 2533.877 149.3779)" style="font-family:'Arial'; font-size:6px;">Y</text><text transform="matrix(0 -1 1 0 2576.3965 149.0454)" style="font-family:'Arial'; font-size:6px;">L</text><text transform="matrix(0 -1 1 0 2448.8379 110.1934)" style="font-family:'Arial'; font-size:6px;">Y-G</text><text transform="matrix(0 -1 1 0 2491.3574 107.0264)" style="font-family:'Arial'; font-size:6px;">R</text><text transform="matrix(0 -1 1 0 2533.877 106.8608)" style="font-family:'Arial'; font-size:6px;">Y</text><text transform="matrix(0 -1 1 0 2576.3965 106.5283)" style="font-family:'Arial'; font-size:6px;">L</text><text transform="matrix(0 -1 1 0 2383.645 191.895)" style="font-family:'Arial'; font-size:6px;">Y</text><text transform="matrix(0 -1 1 0 2341.1279 192.0605)" style="font-family:'Arial'; font-size:6px;">R</text><text transform="matrix(0 -1 1 0 2298.6108 191.895)" style="font-family:'Arial'; font-size:6px;">B</text><text transform="matrix(0 -1 1 0 2732.3008 215.4014)" style="font-family:'Arial'; font-size:6px;">W</text><text transform="matrix(0 -1 1 0 2689.7764 214.5708)" style="font-family:'Arial'; font-size:6px;">B</text><text transform="matrix(0 -1 1 0 2315.6187 359.2944)" style="font-family:'Arial'; font-size:6px;">R</text><text transform="matrix(0 -1 1 0 2383.645 362.9595)" style="font-family:'Arial'; font-size:6px;">W-B</text><text transform="matrix(0 -1 1 0 2468.6792 362.9595)" style="font-family:'Arial'; font-size:6px;">W-B</text><text transform="matrix(0 -1 1 0 2553.7134 362.9595)" style="font-family:'Arial'; font-size:6px;">W-B</text><text transform="matrix(0 -1 1 0 2383.645 615.2676)" style="font-family:'Arial'; font-size:6px;">W-B</text><text transform="matrix(0 -1 1 0 2273.1016 359.9595)" style="font-family:'Arial'; font-size:6px;">W</text><text transform="matrix(0 -1 1 0 2315.6187 432.835)" style="font-family:'Arial'; font-size:6px;">B</text><text transform="matrix(0 -1 1 0 2273.1016 432.835)" style="font-family:'Arial'; font-size:6px;">Y</text><text transform="matrix(0 -1 1 0 2732.3008 359.1289)" style="font-family:'Arial'; font-size:6px;">V</text><text transform="matrix(0 -1 1 0 2689.7764 359.1289)" style="font-family:'Arial'; font-size:6px;">P</text><text transform="matrix(0 -1 1 0 2468.6792 615.2676)" style="font-family:'Arial'; font-size:6px;">W-B</text><text transform="matrix(0 -1 1 0 2553.7134 615.2676)" style="font-family:'Arial'; font-size:6px;">W-B</text></svg>