﻿<?xml version="1.0" encoding="utf-8"?>
<!-- Generator: Adobe Illustrator 10.0, SVG Export Plug-In . SVG Version: 3.0.0 Build 77)  -->
<!DOCTYPE svg PUBLIC "-//W3C//DTD SVG 1.0//EN" "http://www.w3.org/TR/2001/REC-SVG-20010904/DTD/svg10.dtd"[
   <!ENTITY ns_flows "http://ns.adobe.com/Flows/1.0/">
   <!ENTITY ns_svg "http://www.w3.org/2000/svg">
   <!ENTITY ns_xlink "http://www.w3.org/1999/xlink">
   <!ENTITY st0 "font-size:7px;font-family:'MS-PGothic';adobe-font-script:japanese;">
   <!ENTITY st1 "font-size:6px;font-family:'ArialMT';">
   <!ENTITY st2 "fill:#FFFFFF;stroke:#000000; stroke-width:1.41;stroke-linecap:round;stroke-linejoin:round;">
   <!ENTITY st3 "fill:#FFFFCC;stroke:#FFFFCC; stroke-width:0.1;stroke-linecap:round;stroke-linejoin:round;">
   <!ENTITY st4 "fill:#CCCCCC;stroke:#CCCCCC; stroke-width:0.1;stroke-linecap:round;stroke-linejoin:round;">
   <!ENTITY st5 "fill:#CCECF4;stroke:#000000; stroke-width:1.133;stroke-linecap:round;stroke-linejoin:round;">
   <!ENTITY st6 "fill:none;stroke-linecap:butt; stroke-linejoin:round;">
   <!ENTITY st7 "fill:none;stroke:#000000;stroke-linecap:round;stroke-linejoin:round;">
   <!ENTITY st8 "enable-background:new;">
   <!ENTITY st9 "fill:#000000;stroke:#000000; stroke-linecap:round;stroke-linejoin:round;">
   <!ENTITY st10 "font-size:9px;font-family:'ArialMT';">
   <!ENTITY st11 "font-size:9px;font-family:'Svg Symbol';">
   <!ENTITY st12 "font-size:6px;font-family:'Svg Symbol';">
   <!ENTITY st13 "fill:none;stroke:#ff0000;stroke-linecap:round;stroke-linejoin:round;">
   <!ENTITY st14 "fill:#FFFF00;stroke:#FFFF00; stroke-width:0.1;stroke-linecap:round;stroke-linejoin:round;">
   <!ENTITY st15 "font-size:6px;font-family:'MS-PGothic';adobe-font-script:japanese;">
   <!ENTITY st16 "1.00 0.00 0.00 1.00">
   <!ENTITY st17 "0.00 -1.00 1.00 0.00">
   <!ENTITY st18 "font-size:6px;font-family:'Arial';">
   <!ENTITY st19 "font-size:9px;font-family:'Arial';">
   <!ENTITY st20 "font-size:6px;font-family:'MS-PGothic','MS PGothic';adobe-font-script:japanese;">
   <!ENTITY st21 "font-size:7px;font-family:'MS-PGothic','MS PGothic';adobe-font-script:japanese;">
   <!ATTLIST svg
       xmlns:ewd CDATA #FIXED "http://shcl.co.jp/ewd"
       xmlns:a CDATA #FIXED "http://ns.adobe.com/AdobeSVGViewerExtensions/3.0/"
       ewd:ver CDATA #IMPLIED >
   <!ATTLIST a
       ewd:lineID CDATA #IMPLIED
       ewd:groupID CDATA #IMPLIED
       ewd:figtype CDATA #IMPLIED
       ewd:code CDATA #IMPLIED
       ewd:figID CDATA #IMPLIED
       ewd:pinNo CDATA #IMPLIED
       ewd:comment CDATA #IMPLIED >
   <!ATTLIST g
       ewd:lineID CDATA #IMPLIED
       ewd:groupID CDATA #IMPLIED
       ewd:figtype CDATA #IMPLIED
       ewd:code CDATA #IMPLIED
       ewd:figID CDATA #IMPLIED
       ewd:pinNo CDATA #IMPLIED
       ewd:comment CDATA #IMPLIED >
   <!ATTLIST text
       ewd:textID CDATA #IMPLIED >
   <!ATTLIST title
       ewd:textID CDATA #IMPLIED >
]>
<svg xmlns="http://www.w3.org/2000/svg" xmlns:xlink="http://www.w3.org/1999/xlink" xmlns:a="http://ns.adobe.com/AdobeSVGViewerExtensions/3.0/" width="510.24" height="721" viewBox="0 0 510.24 721" style="overflow:visible;enable-background:new 0 0 510.24 721" xml:space="preserve" xmlns:ewd="http://shcl.co.jp/ewd" onload="call_execInitLoadProc_svg('system')" ewd:ver="2.0">
  <script type="text/javascript" xlink:href="../../../../../system/js/ewd/fig/svgfig.js" />
  <defs>
    <font horiz-adv-x="1229">
      <font-face font-family="Svg Symbol" units-per-em="2048" panose-1="5 5 1 2 1 7 6 2 5 7" ascent="2059" descent="450" alphabetic="0" />
      <missing-glyph d="M 103,0 l 0,1280 1024,0 0,-1280 -1024,0 z m 32,32 l 960,0 0,1216 -960,0 0,-1216 z" />
      <glyph d4p1:unicode="" horiz-adv-x="1573" d="M 1517,0 l -567,0 24,279 q 141,59 207.5,168 66.5,109 66.5,306 0,272 -132.5,417.5 -132.5,145.5 -333.5,145.5 -194,0 -328,-147.5 -134,-147.5 -134,-401.5 0,-200 68.5,-319 68.5,-119 206.5,-169 l 25,-279 -564,0 0,279 35,0 q 3,-61 32,-83 45,-35 137,-35 l 270,0 0,70 q -210,61 -324.5,209 -114.5,148 -114.5,349 0,252 186.5,425 186.5,173 504.5,173 195,0 358.5,-73.5 163.5,-73.5 252,-214.5 88.5,-141 88.5,-310 0,-207 -121.5,-360.5 -121.5,-153.5 -317.5,-197.5 l -8,-70 275,0 q 92,0 128,28 36,28 42,90 l 38,0 0,-279 z" xmlns:d4p1="def-glyph-attr-unicode" />
    </font>
  </defs>
  <g id="ewd_top">
    <a ewd:lineID="28" style="cursor:pointer;">
      <path style="fill:none;stroke:#000000;stroke-width:5;" d="M 408.16,445.01 L 408.16, 487.51 L 337.36, 487.51 L 323.16, 501.71 L 323.16, 504.61" />
      <path style="fill:none;stroke:#FFFFFF;stroke-width:3.6;" d="M 408.16,445.01 L 408.16, 487.51 L 337.36, 487.51 L 323.16, 501.71 L 323.16, 504.61" />
      <path style="fill:none;stroke:#000000;" d="M 408.16,445.01 L 408.16, 487.51 L 337.36, 487.51 L 323.16, 501.71 L 323.16, 504.61" />
    </a>
    <a ewd:lineID="21" style="cursor:pointer;">
      <path style="fill:none;stroke:#000000;stroke-width:5;" d="M 476.26,266.41 L 476.26, 249.41 L 195.56, 249.41 L 184.56, 260.41" />
      <path style="fill:none;stroke:#FFFFFF;stroke-width:3.6;" d="M 476.26,266.41 L 476.26, 249.41 L 195.56, 249.41 L 184.56, 260.41" />
    </a>
    <a ewd:lineID="15" style="cursor:pointer;">
      <path style="fill:none;stroke:#000000;stroke-width:5;" d="M 42.56,334.51 L 42.56, 249.41 L 161.56, 249.41 L 172.56, 260.41" />
      <path style="fill:none;stroke:#FFFFFF;stroke-width:3.6;" d="M 42.56,334.51 L 42.56, 249.41 L 161.56, 249.41 L 172.56, 260.41" />
    </a>
    <a ewd:lineID="9" style="cursor:pointer;">
      <path style="fill:none;stroke:#000000;stroke-width:5;" d="M 178.56,368.51 L 178.56, 371.31 L 192.76, 385.51 L 280.66, 385.51 L 280.66, 436.51" />
      <path style="fill:none;stroke:#FFFFFF;stroke-width:3.6;" d="M 178.56,368.51 L 178.56, 371.31 L 192.76, 385.51 L 280.66, 385.51 L 280.66, 436.51" />
      <path style="fill:none;stroke:#000000;" d="M 178.56,368.51 L 178.56, 371.31 L 192.76, 385.51 L 280.66, 385.51 L 280.66, 436.51" />
    </a>
    <a ewd:lineID="7" style="cursor:pointer;">
      <path style="fill:none;stroke:#000000;stroke-width:5;" d="M 291.96,266.41 L 306.16, 266.41 L 323.16, 283.41 L 323.16, 334.51" />
      <path style="fill:none;stroke:#FFFFFF;stroke-width:3.6;" d="M 291.96,266.41 L 306.16, 266.41 L 323.16, 283.41 L 323.16, 334.51" />
    </a>
    <a ewd:lineID="6" style="cursor:pointer;">
      <path style="fill:none;stroke:#000000;stroke-width:5;" d="M 238.06,436.51 L 238.06, 402.51 L 141.76, 402.51 L 110.56, 371.31 L 110.56, 368.51" />
      <path style="fill:none;stroke:#FFFFFF;stroke-width:3.6;" d="M 238.06,436.51 L 238.06, 402.51 L 141.76, 402.51 L 110.56, 371.31 L 110.56, 368.51" />
      <path style="fill:none;stroke:#000000;" d="M 238.06,436.51 L 238.06, 402.51 L 141.76, 402.51 L 110.56, 371.31 L 110.56, 368.51" />
    </a>
    <a ewd:lineID="2" style="cursor:pointer;">
      <path style="fill:none;stroke:#000000;stroke-width:5;" d="M 42.56,640.61 L 42.56, 637.81 L 56.66, 623.61 L 127.56, 623.61" />
      <path style="fill:none;stroke:#FFFFFF;stroke-width:3.6;" d="M 42.56,640.61 L 42.56, 637.81 L 56.66, 623.61 L 127.56, 623.61" />
      <path style="fill:none;stroke:#000000;" d="M 42.56,640.61 L 42.56, 637.81 L 56.66, 623.61 L 127.56, 623.61" />
    </a>
    <a ewd:lineID="3" style="cursor:pointer;">
      <path style="fill:none;stroke:#000000;stroke-width:5;" d="M 147.36,623.61 L 238.06, 623.61 L 238.06, 589.61" />
      <path style="fill:none;stroke:#FFFFFF;stroke-width:3.6;" d="M 147.36,623.61 L 238.06, 623.61 L 238.06, 589.61" />
      <path style="fill:none;stroke:#000000;" d="M 147.36,623.61 L 238.06, 623.61 L 238.06, 589.61" />
    </a>
    <a ewd:lineID="4" style="cursor:pointer;">
      <path style="fill:none;stroke:#000000;stroke-width:5;" d="M 238.06,572.61 L 238.06, 521.61" />
      <path style="fill:none;stroke:#FFFFFF;stroke-width:3.6;" d="M 238.06,572.61 L 238.06, 521.61" />
      <path style="fill:none;stroke:#000000;" d="M 238.06,572.61 L 238.06, 521.61" />
    </a>
    <a ewd:lineID="5" style="cursor:pointer;">
      <path style="fill:none;stroke:#000000;stroke-width:5;" d="M 238.06,504.61 L 238.06, 445.01" />
      <path style="fill:none;stroke:#FFFFFF;stroke-width:3.6;" d="M 238.06,504.61 L 238.06, 445.01" />
      <path style="fill:none;stroke:#000000;" d="M 238.06,504.61 L 238.06, 445.01" />
    </a>
    <a ewd:lineID="8" style="cursor:pointer;">
      <path style="fill:none;stroke:#000000;stroke-width:5;" d="M 323.16,368.51 L 323.16, 504.61" />
      <path style="fill:none;stroke:#FFFFFF;stroke-width:3.6;" d="M 323.16,368.51 L 323.16, 504.61" />
      <path style="fill:none;stroke:#000000;" d="M 323.16,368.51 L 323.16, 504.61" />
    </a>
    <a ewd:lineID="10" style="cursor:pointer;">
      <path style="fill:none;stroke:#000000;stroke-width:5;" d="M 280.66,445.01 L 280.66, 504.61" />
      <path style="fill:none;stroke:#FFFFFF;stroke-width:3.6;" d="M 280.66,445.01 L 280.66, 504.61" />
      <path style="fill:none;stroke:#000000;" d="M 280.66,445.01 L 280.66, 504.61" />
    </a>
    <a ewd:lineID="11" style="cursor:pointer;">
      <path style="fill:none;stroke:#000000;stroke-width:5;" d="M 42.56,691.61 L 42.56, 649.11" />
      <path style="fill:none;stroke:#FFFFFF;stroke-width:3.6;" d="M 42.56,691.61 L 42.56, 649.11" />
      <path style="fill:none;stroke:#000000;" d="M 42.56,691.61 L 42.56, 649.11" />
    </a>
    <a ewd:lineID="12" style="cursor:pointer;">
      <path style="fill:none;stroke:#000000;stroke-width:5;" d="M 42.56,640.61 L 42.56, 589.61" />
      <path style="fill:none;stroke:#FFFFFF;stroke-width:3.6;" d="M 42.56,640.61 L 42.56, 589.61" />
      <path style="fill:none;stroke:#000000;" d="M 42.56,640.61 L 42.56, 589.61" />
    </a>
    <a ewd:lineID="13" style="cursor:pointer;">
      <path style="fill:none;stroke:#000000;stroke-width:5;" d="M 42.56,572.61 L 42.56, 521.61" />
      <path style="fill:none;stroke:#FFFFFF;stroke-width:3.6;" d="M 42.56,572.61 L 42.56, 521.61" />
      <path style="fill:none;stroke:#000000;" d="M 42.56,572.61 L 42.56, 521.61" />
    </a>
    <a ewd:lineID="14" style="cursor:pointer;">
      <path style="fill:none;stroke:#000000;stroke-width:5;" d="M 42.56,504.61 L 42.56, 368.51" />
      <path style="fill:none;stroke:#FFFFFF;stroke-width:3.6;" d="M 42.56,504.61 L 42.56, 368.51" />
      <path style="fill:none;stroke:#000000;" d="M 42.56,504.61 L 42.56, 368.51" />
    </a>
    <a ewd:lineID="16" style="cursor:pointer;">
      <path style="fill:none;stroke:#000000;stroke-width:5;" d="M 476.26,691.61 L 476.26, 649.11" />
      <path style="fill:none;stroke:#FFFFFF;stroke-width:3.6;" d="M 476.26,691.61 L 476.26, 649.11" />
      <path style="fill:none;stroke:#000000;" d="M 476.26,691.61 L 476.26, 649.11" />
    </a>
    <a ewd:lineID="17" style="cursor:pointer;">
      <path style="fill:none;stroke:#000000;stroke-width:5;" d="M 476.26,640.61 L 476.26, 581.11" />
      <path style="fill:none;stroke:#FFFFFF;stroke-width:3.6;" d="M 476.26,640.61 L 476.26, 581.11" />
      <path style="fill:none;stroke:#000000;" d="M 476.26,640.61 L 476.26, 581.11" />
    </a>
    <a ewd:lineID="18" style="cursor:pointer;">
      <path style="fill:none;stroke:#000000;stroke-width:5;" d="M 476.26,572.61 L 476.26, 521.61" />
    </a>
    <a ewd:lineID="19" style="cursor:pointer;">
      <path style="fill:none;stroke:#000000;stroke-width:5;" d="M 476.26,504.61 L 476.26, 368.51" />
      <path style="fill:none;stroke:#FFFFFF;stroke-width:3.6;" d="M 476.26,504.61 L 476.26, 368.51" />
      <path style="fill:none;stroke:#000000;" d="M 476.26,504.61 L 476.26, 368.51" />
    </a>
    <a ewd:lineID="20" style="cursor:pointer;">
      <path style="fill:none;stroke:#000000;stroke-width:5;" d="M 476.26,334.51 L 476.26, 274.91" />
      <path style="fill:none;stroke:#FFFFFF;stroke-width:3.6;" d="M 476.26,334.51 L 476.26, 274.91" />
    </a>
    <a ewd:lineID="22" style="cursor:pointer;">
      <path style="fill:none;stroke:#000000;stroke-width:5;" d="M 110.56,504.61 L 110.56, 368.51" />
      <path style="fill:none;stroke:#FFFFFF;stroke-width:3.6;" d="M 110.56,504.61 L 110.56, 368.51" />
      <path style="fill:none;stroke:#000000;" d="M 110.56,504.61 L 110.56, 368.51" />
    </a>
    <a ewd:lineID="23" style="cursor:pointer;">
      <path style="fill:none;stroke:#000000;stroke-width:5;" d="M 110.56,334.51 L 110.56, 266.41 L 170.06, 266.41" />
      <path style="fill:none;stroke:#FFFFFF;stroke-width:3.6;" d="M 110.56,334.51 L 110.56, 266.41 L 170.06, 266.41" />
    </a>
    <a ewd:lineID="24" style="cursor:pointer;">
      <path style="fill:none;stroke:#000000;stroke-width:5;" d="M 187.06,266.41 L 272.16, 266.41" />
      <path style="fill:none;stroke:#FFFFFF;stroke-width:3.6;" d="M 187.06,266.41 L 272.16, 266.41" />
    </a>
    <a ewd:lineID="25" style="cursor:pointer;">
      <path style="fill:none;stroke:#000000;stroke-width:5;" d="M 291.96,266.41 L 374.16, 266.41" />
      <path style="fill:none;stroke:#FFFFFF;stroke-width:3.6;" d="M 291.96,266.41 L 374.16, 266.41" />
    </a>
    <a ewd:lineID="26" style="cursor:pointer;">
      <path style="fill:none;stroke:#000000;stroke-width:5;" d="M 394.06,266.41 L 408.16, 266.41 L 408.16, 334.51" />
      <path style="fill:none;stroke:#FFFFFF;stroke-width:3.6;" d="M 394.06,266.41 L 408.16, 266.41 L 408.16, 334.51" />
    </a>
    <a ewd:lineID="27" style="cursor:pointer;">
      <path style="fill:none;stroke:#000000;stroke-width:5;" d="M 408.16,368.51 L 408.16, 436.51" />
      <path style="fill:none;stroke:#FFFFFF;stroke-width:3.6;" d="M 408.16,368.51 L 408.16, 436.51" />
      <path style="fill:none;stroke:#000000;" d="M 408.16,368.51 L 408.16, 436.51" />
    </a>
    <a ewd:lineID="29" style="cursor:pointer;">
      <path style="fill:none;stroke:#FF0000;stroke-width:5;" d="M 42.56,113.41 L 42.56, 155.91 L 68.06, 155.91" />
    </a>
    <a ewd:lineID="30" style="cursor:pointer;">
      <path style="fill:none;stroke:#FF0000;stroke-width:5;" d="M 85.06,155.91 L 127.56, 155.91 L 127.56, 113.41" />
    </a>
    <a ewd:lineID="31" style="cursor:pointer;">
      <path style="fill:none;stroke:#000000;stroke-width:5;" d="M 178.56,113.41 L 178.56, 164.41" />
    </a>
    <a ewd:lineID="32" style="cursor:pointer;">
      <path style="fill:none;stroke:#000000;stroke-width:5;" d="M 178.56,198.41 L 178.56, 257.91" />
      <path style="fill:none;stroke:#FFFFFF;stroke-width:3.6;" d="M 178.56,198.41 L 178.56, 257.91" />
    </a>
    <a ewd:lineID="33" style="cursor:pointer;">
      <path style="fill:none;stroke:#000000;stroke-width:5;" d="M 178.56,274.91 L 178.56, 334.51" />
      <path style="fill:none;stroke:#FFFFFF;stroke-width:3.6;" d="M 178.56,274.91 L 178.56, 334.51" />
    </a>
    <a ewd:lineID="34" style="cursor:pointer;">
      <path style="fill:none;stroke:#000000;stroke-width:5;" d="M 178.56,368.51 L 178.56, 504.61" />
      <path style="fill:none;stroke:#FFFFFF;stroke-width:3.6;" d="M 178.56,368.51 L 178.56, 504.61" />
      <path style="fill:none;stroke:#000000;" d="M 178.56,368.51 L 178.56, 504.61" />
    </a>
    <a ewd:figtype="jb" ewd:code="13" style="cursor:pointer;" ewd:figID="1">
      <path style="fill:#CCCCCC;stroke-linecap:round;stroke-linejoin:round;" d="M 189.92,113.38 L 189.92, 79.37 L 107.72, 79.37 L 107.72, 113.39 L 189.92, 113.39" />
    </a>
    <a ewd:figtype="conn" ewd:code="U4" style="cursor:pointer;" ewd:figID="11">
      <path style="fill:#CCECF4;stroke:#000000;stroke-width:1.133;stroke-linecap:round;stroke-linejoin:round;" d="M 331.65,521.57 L 331.65, 504.56 L 229.61, 504.56 L 229.61, 521.57 L 331.65, 521.57" />
      <title ewd:textID="9">Junction Connector</title>
    </a>
    <a ewd:figtype="conn" ewd:code="d4" style="cursor:pointer;" ewd:figID="10">
      <path style="fill:#CCECF4;stroke:#000000;stroke-width:1.133;stroke-linecap:round;stroke-linejoin:round;" d="M 484.72,368.5 L 484.72, 334.48 L 467.71, 334.48 L 467.71, 368.5 L 484.72, 368.5" />
      <title ewd:textID="10">Rear Hammer Switch (Back Door)</title>
    </a>
    <a ewd:figtype="conn" ewd:code="u2" style="cursor:pointer;" ewd:figID="9">
      <path style="fill:#CCECF4;stroke:#000000;stroke-width:1.133;stroke-linecap:round;stroke-linejoin:round;" d="M 416.69,368.5 L 416.69, 334.48 L 399.68, 334.48 L 399.68, 368.5 L 416.69, 368.5" />
      <title ewd:textID="12">Rear Hammer Switch RH</title>
    </a>
    <a ewd:figtype="conn" ewd:code="U3" style="cursor:pointer;" ewd:figID="8">
      <path style="fill:#CCECF4;stroke:#000000;stroke-width:1.133;stroke-linecap:round;stroke-linejoin:round;" d="M 331.65,368.5 L 331.65, 334.48 L 314.64, 334.48 L 314.64, 368.5 L 331.65, 368.5" />
      <title ewd:textID="12">Rear Hammer Switch RH</title>
    </a>
    <a ewd:figtype="conn" ewd:code="T35" style="cursor:pointer;" ewd:figID="7">
      <path style="fill:#CCECF4;stroke:#000000;stroke-width:1.133;stroke-linecap:round;stroke-linejoin:round;" d="M 187.09,521.57 L 187.09, 504.56 L 34.02, 504.56 L 34.02, 521.57 L 187.09, 521.57" />
      <title ewd:textID="9">Junction Connector</title>
    </a>
    <a ewd:figtype="conn" ewd:code="T30" style="cursor:pointer;" ewd:figID="6">
      <path style="fill:#CCECF4;stroke:#000000;stroke-width:1.133;stroke-linecap:round;stroke-linejoin:round;" d="M 187.09,368.5 L 187.09, 334.48 L 170.08, 334.48 L 170.08, 368.5 L 187.09, 368.5" />
      <title ewd:textID="11">Rear Hammer Switch LH</title>
    </a>
    <a ewd:figtype="conn" ewd:code="T29" style="cursor:pointer;" ewd:figID="5">
      <path style="fill:#CCECF4;stroke:#000000;stroke-width:1.133;stroke-linecap:round;stroke-linejoin:round;" d="M 119.06,368.5 L 119.06, 334.48 L 102.05, 334.48 L 102.05, 368.5 L 119.06, 368.5" />
      <title ewd:textID="7">Front Hammer Switch LH</title>
    </a>
    <a ewd:figtype="conn" ewd:code="T34" style="cursor:pointer;" ewd:figID="4">
      <path style="fill:#CCECF4;stroke:#000000;stroke-width:1.133;stroke-linecap:round;stroke-linejoin:round;" d="M 51.02,368.5 L 51.02, 334.48 L 34.02, 334.48 L 34.02, 368.5 L 51.02, 368.5" />
      <title ewd:textID="12">Rear Hammer Switch RH</title>
    </a>
    <a ewd:figtype="conn" ewd:code="T28" style="cursor:pointer;" ewd:figID="3">
      <path style="fill:#CCECF4;stroke:#000000;stroke-width:1.133;stroke-linecap:round;stroke-linejoin:round;" d="M 195.59,198.42 L 195.59, 164.4 L 161.57, 164.4 L 161.57, 198.42 L 195.59, 198.42" />
      <title ewd:textID="8">Hammer Buzzer (Buzzer Assembly)</title>
    </a>
    <a ewd:figtype="rb" ewd:code="FUSE130" style="cursor:pointer;" ewd:figID="2">
      <path style="fill:#CCECF4;stroke:#000000;stroke-width:1.133;stroke-linecap:round;stroke-linejoin:round;" d="M 55.27,87.87 L 55.27, 45.35 L 29.76, 45.35 L 29.76, 87.87 L 55.27, 87.87" />
    </a>
    <a ewd:figtype="sp" ewd:code="105265" style="cursor:pointer;" ewd:figID="16">
      <path style="fill:#FFFFFF;stroke:#000000;stroke-width:0.85;stroke-linecap:round;stroke-linejoin:round;" d="M 241.65,572.59 L 234.56, 572.59 L 229.6, 577.55 L 229.6, 584.64 L 234.56, 589.6 L 241.65, 589.6 L 246.61, 584.64 L 246.61, 577.55 L 241.65, 572.59" />
    </a>
    <a ewd:figtype="sp" ewd:code="105266" style="cursor:pointer;" ewd:figID="15">
      <path style="fill:#FFFFFF;stroke:#000000;stroke-width:0.85;stroke-linecap:round;stroke-linejoin:round;" d="M 479.76,504.56 L 472.67, 504.56 L 467.71, 509.52 L 467.71, 516.61 L 472.67, 521.57 L 479.76, 521.57 L 484.72, 516.61 L 484.72, 509.52 L 479.76, 504.56" />
    </a>
    <a ewd:figtype="sp" ewd:code="105267" style="cursor:pointer;" ewd:figID="14">
      <path style="fill:#FFFFFF;stroke:#000000;stroke-width:0.85;stroke-linecap:round;stroke-linejoin:round;" d="M 46.06,572.59 L 38.97, 572.59 L 34.01, 577.55 L 34.01, 584.64 L 38.97, 589.6 L 46.06, 589.6 L 51.02, 584.64 L 51.02, 577.55 L 46.06, 572.59" />
    </a>
    <a ewd:figtype="sp" ewd:code="105268" style="cursor:pointer;" ewd:figID="13">
      <path style="fill:#FFFFFF;stroke:#000000;stroke-width:0.85;stroke-linecap:round;stroke-linejoin:round;" d="M 182.13,257.95 L 175.04, 257.95 L 170.08, 262.91 L 170.08, 270 L 175.04, 274.96 L 182.13, 274.96 L 187.09, 270 L 187.09, 262.91 L 182.13, 257.95" />
    </a>
    <a ewd:figtype="sp" ewd:code="105269" style="cursor:pointer;" ewd:figID="12">
      <path style="fill:#FFFFFF;stroke:#000000;stroke-width:0.85;stroke-linecap:round;stroke-linejoin:round;" d="M 80.08,147.4 L 72.99001, 147.4 L 68.03001, 152.36 L 68.03001, 159.45 L 72.99001, 164.41 L 80.08002, 164.41 L 85.04002, 159.45 L 85.04002, 152.36 L 80.08, 147.4" />
    </a>
    <a ewd:figtype="fuse" ewd:code="FUSE130" style="cursor:pointer;" ewd:figID="29">
      <path style="fill:none;stroke:#000000;stroke-width:0.5;stroke-linecap:round;stroke-linejoin:round;" d="M 55.27,87.87 L 55.27, 45.35 L 29.76, 45.35 L 29.76, 87.87 L 55.27, 87.87" />
    </a>
    <g ewd:figtype="rb" ewd:code="FUSE130" ewd:figID="2">
      <path style="fill:none;stroke:#000000;stroke-width:0.85;" d="M 42.52,80.78 L 42.52, 87.87" />
      <path style="fill:none;stroke:#000000;stroke-width:0.85;" d="M 42.52,87.87 L 42.52, 102.04" />
      <path d="M 42.52,102.04 L 45.36, 99.21 L 45.36, 96.38 L 42.52, 99.21 L 39.69, 96.38 L 39.69, 99.21 L 42.52, 102.04" style="stroke-linecap:round;stroke-linejoin:round;" />
      <path style="fill:none;stroke:#000000;stroke-width:0.85;stroke-linecap:round;stroke-linejoin:round;" d="M 46.77,113.38 C 49.9 113.38 52.44 110.84 52.44 107.71 C 52.44 104.58 49.9 102.04 46.77 102.04 L 38.27, 102.04 C 35.14 102.04 32.6 104.58 32.6 107.71 C 32.6 110.84 35.14 113.38 38.27 113.38 L 46.77, 113.38" />
      <path style="fill:none;stroke:#000000;stroke-width:0.85;stroke-linecap:round;stroke-linejoin:round;" d="M 42.52,80.78 C 43.3 80.78 43.94 80.15 43.94 79.36 C 43.939997253418 78.5700012207031 43.3 77.94 42.52 77.94 C 41.7400009155273 77.9400048828125 41.1 78.57 41.1 79.36 C 41.0999969482422 80.1500012207031 41.74 80.78 42.52 80.78" />
      <path style="fill:none;stroke:#000000;stroke-width:0.85;stroke-linecap:round;stroke-linejoin:round;" d="M 42.52,55.27 C 43.3 55.27 43.94 54.64 43.94 53.85 C 43.94 53.07 43.3 52.43 42.52 52.43 C 41.7400009155273 52.4300006103516 41.1 53.06 41.1 53.85 C 41.1 54.64 41.74 55.27 42.52 55.27" />
      <path style="fill:none;stroke:#000000;stroke-width:1.417;" d="M 41.52,54.86 C 41.52 54.86 35.45 59.54 42.52 66.61 C 49.5900009155273 73.6800012207031 43.52 78.36 43.52 78.36" />
      <path style="fill:none;stroke:#000000;stroke-width:1.417;stroke-linecap:round;stroke-linejoin:round;" d="M 55.27,87.87 L 55.27, 45.35 L 29.76, 45.35 L 29.76, 87.87 L 55.27, 87.87" />
      <text transform="matrix(1 0 0 1 39.1826 109.4204)" style="font-family:'Arial'; font-size:6px;">11</text>
      <text transform="matrix(1 0 0 1 34.2217 95.2476)" style="font-family:'Arial'; font-size:6px;">2</text>
      <text transform="matrix(1 0 0 1 34.6865 41.3887)" style="font-family:'Arial'; font-size:6px;">(BAT)</text>
      <text transform="matrix(1 0 0 1 58.1099 61.2319)" style="font-family:'Arial'; font-size:6px;">10A<tspan x="0" dy="1em">DOME</tspan><tspan x="0" dy="1em">NO.1</tspan></text>
    </g>
    <g ewd:figtype="jb" ewd:code="13" ewd:figID="1">
      <path style="fill:none;stroke:#000000;stroke-width:0.85;" d="M 127.56,102.04 L 127.56, 87.87 L 178.58, 87.87 L 178.58, 102.04" />
      <path d="M 127.56,102.04 L 130.39, 99.21 L 130.39, 96.38 L 127.56, 99.21 L 124.73, 96.38 L 124.73, 99.21 L 127.56, 102.04" style="stroke-linecap:round;stroke-linejoin:round;" />
      <path style="fill:none;stroke:#000000;stroke-width:0.85;stroke-linecap:round;stroke-linejoin:round;" d="M 131.81,113.38 C 134.94 113.38 137.48 110.84 137.48 107.71 C 137.48 104.58 134.94 102.04 131.81 102.04 L 123.31, 102.04 C 120.18 102.04 117.64 104.58 117.64 107.71 C 117.64 110.84 120.18 113.38 123.31 113.38 L 131.81, 113.38" />
      <path d="M 178.58,102.04 L 181.41, 99.21 L 181.41, 96.38 L 178.58, 99.21 L 175.75, 96.38 L 175.75, 99.21 L 178.58, 102.04" style="stroke-linecap:round;stroke-linejoin:round;" />
      <path style="fill:none;stroke:#000000;stroke-width:0.85;stroke-linecap:round;stroke-linejoin:round;" d="M 182.83,113.38 C 185.96 113.38 188.5 110.84 188.5 107.71 C 188.5 104.58 185.96 102.04 182.83 102.04 L 174.33, 102.04 C 171.2 102.04 168.66 104.58 168.66 107.71 C 168.66 110.84 171.2 113.38 174.33 113.38 L 182.83, 113.38" />
      <text transform="matrix(1 0 0 1 122.2212 109.4204)" style="font-family:'Arial'; font-size:6px;">13E</text>
      <text transform="matrix(1 0 0 1 109.5474 109.4204)" style="font-family:'Arial'; font-size:6px;">18</text>
      <text transform="matrix(1 0 0 1 173.2451 109.4204)" style="font-family:'Arial'; font-size:6px;">13K</text>
      <text transform="matrix(1 0 0 1 163.9082 109.4204)" style="font-family:'Arial'; font-size:6px;">5</text>
    </g>
    <g ewd:figtype="w2w" ewd:code="TU5" ewd:pin_no="1" ewd:figID="17">
      <path style="fill:#FFFFFF;stroke:#FFFFFF;stroke-width:0;stroke-linecap:round;stroke-linejoin:round;" d="M 298.52,262.2 L 294.27, 266.45 L 298.52, 270.7 L 291.97, 270.7 L 291.97, 262.2 L 298.52, 262.2" />
      <path style="fill:#FFFFFF;stroke:#FFFFFF;stroke-width:0;stroke-linecap:round;stroke-linejoin:round;" d="M 301.36,262.2 L 297.11, 266.45 L 301.36, 270.7 L 294.81, 270.7 L 294.81, 262.2 L 301.36, 262.2" />
      <path style="fill:none;stroke:#000000;stroke-width:0.85;" d="M 299.06,262.2 L 294.81, 266.45 L 299.06, 270.7" />
      <path style="fill:none;stroke:#000000;stroke-width:0.85;" d="M 296.22,262.2 L 291.97, 266.45 L 296.22, 270.7" />
      <path style="fill:none;stroke:#000000;stroke-width:0.85;stroke-linecap:round;stroke-linejoin:round;" d="M 291.97,270.71 L 291.97, 262.21 L 272.13, 262.21 L 272.13, 270.71 L 291.97, 270.71" />
      <text transform="matrix(1 0 0 1 280.3779 260.0107)" style="font-family:'Arial'; font-size:6px;">1</text>
    </g>
    <g ewd:figtype="w2w" ewd:code="TY3" ewd:pin_no="6" ewd:figID="18">
      <path style="fill:#FFFFFF;stroke:#FFFFFF;stroke-width:0;stroke-linecap:round;stroke-linejoin:round;" d="M 46.77,655.68 L 42.52, 651.43 L 38.27, 655.68 L 38.27, 649.13 L 46.77, 649.13 L 46.77, 655.68" />
      <path style="fill:#FFFFFF;stroke:#FFFFFF;stroke-width:0;stroke-linecap:round;stroke-linejoin:round;" d="M 46.77,658.52 L 42.52, 654.27 L 38.27, 658.52 L 38.27, 651.97 L 46.77, 651.97 L 46.77, 658.52" />
      <path style="fill:none;stroke:#000000;stroke-width:0.85;" d="M 46.77,656.22 L 42.52, 651.97 L 38.27, 656.22" />
      <path style="fill:none;stroke:#000000;stroke-width:0.85;" d="M 46.77,653.38 L 42.52, 649.13 L 38.27, 653.38" />
      <path style="fill:none;stroke:#000000;stroke-width:0.85;stroke-linecap:round;stroke-linejoin:round;" d="M 52.44,640.63 L 52.44, 649.13 L 32.6, 649.13 L 32.6, 640.63 L 52.44, 640.63" />
      <text transform="matrix(1 0 0 1 27.8442 646.5859)" style="font-family:'Arial'; font-size:6px;">6</text>
    </g>
    <g ewd:figtype="w2w" ewd:code="TY5" ewd:pin_no="12" ewd:figID="19">
      <path style="fill:#FFFFFF;stroke:#FFFFFF;stroke-width:0;stroke-linecap:round;stroke-linejoin:round;" d="M 480.47,655.68 L 476.22, 651.43 L 471.97, 655.68 L 471.97, 649.13 L 480.47, 649.13 L 480.47, 655.68" />
      <path style="fill:#FFFFFF;stroke:#FFFFFF;stroke-width:0;stroke-linecap:round;stroke-linejoin:round;" d="M 480.47,658.52 L 476.22, 654.27 L 471.97, 658.52 L 471.97, 651.97 L 480.47, 651.97 L 480.47, 658.52" />
      <path style="fill:none;stroke:#000000;stroke-width:0.85;" d="M 480.47,656.22 L 476.22, 651.97 L 471.97, 656.22" />
      <path style="fill:none;stroke:#000000;stroke-width:0.85;" d="M 480.47,653.38 L 476.22, 649.13 L 471.97, 653.38" />
      <path style="fill:none;stroke:#000000;stroke-width:0.85;stroke-linecap:round;stroke-linejoin:round;" d="M 486.14,640.63 L 486.14, 649.13 L 466.3, 649.13 L 466.3, 640.63 L 486.14, 640.63" />
      <text transform="matrix(1 0 0 1 458.208 646.5859)" style="font-family:'Arial'; font-size:6px;">12</text>
    </g>
    <g ewd:figtype="w2w" ewd:code="dT2" ewd:pin_no="1" ewd:figID="20">
      <path style="fill:#FFFFFF;stroke:#FFFFFF;stroke-width:0;stroke-linecap:round;stroke-linejoin:round;" d="M 480.47,587.65 L 476.22, 583.4 L 471.97, 587.65 L 471.97, 581.1 L 480.47, 581.1 L 480.47, 587.65" />
      <path style="fill:#FFFFFF;stroke:#FFFFFF;stroke-width:0;stroke-linecap:round;stroke-linejoin:round;" d="M 480.47,590.49 L 476.22, 586.24 L 471.97, 590.49 L 471.97, 583.94 L 480.47, 583.94 L 480.47, 590.49" />
      <path style="fill:none;stroke:#000000;stroke-width:0.85;" d="M 480.47,588.19 L 476.22, 583.94 L 471.97, 588.19" />
      <path style="fill:none;stroke:#000000;stroke-width:0.85;" d="M 480.47,585.35 L 476.22, 581.1 L 471.97, 585.35" />
      <path style="fill:none;stroke:#000000;stroke-width:0.85;stroke-linecap:round;stroke-linejoin:round;" d="M 486.14,572.6 L 486.14, 581.1 L 466.3, 581.1 L 466.3, 572.6 L 486.14, 572.6" />
      <text transform="matrix(1 0 0 1 461.5449 578.5547)" style="font-family:'Arial'; font-size:6px;">1</text>
    </g>
    <g ewd:figtype="w2w" ewd:code="TU5" ewd:pin_no="9" ewd:figID="21">
      <path style="fill:#FFFFFF;stroke:#FFFFFF;stroke-width:0;stroke-linecap:round;stroke-linejoin:round;" d="M 242.36,451.59 L 238.11, 447.34 L 233.86, 451.59 L 233.86, 445.04 L 242.36, 445.04 L 242.36, 451.59" />
      <path style="fill:#FFFFFF;stroke:#FFFFFF;stroke-width:0;stroke-linecap:round;stroke-linejoin:round;" d="M 242.36,454.42 L 238.11, 450.17 L 233.86, 454.42 L 233.86, 447.87 L 242.36, 447.87 L 242.36, 454.42" />
      <path style="fill:none;stroke:#000000;stroke-width:0.85;" d="M 242.36,452.12 L 238.11, 447.87 L 233.86, 452.12" />
      <path style="fill:none;stroke:#000000;stroke-width:0.85;" d="M 242.36,449.29 L 238.11, 445.04 L 233.86, 449.29" />
      <path style="fill:none;stroke:#000000;stroke-width:0.85;stroke-linecap:round;stroke-linejoin:round;" d="M 248.03,436.53 L 248.03, 445.03 L 228.19, 445.03 L 228.19, 436.53 L 248.03, 436.53" />
      <text transform="matrix(1 0 0 1 223.436 442.4902)" style="font-family:'Arial'; font-size:6px;">9</text>
    </g>
    <g ewd:figtype="w2w" ewd:code="TU5" ewd:pin_no="4" ewd:figID="22">
      <path style="fill:#FFFFFF;stroke:#FFFFFF;stroke-width:0;stroke-linecap:round;stroke-linejoin:round;" d="M 284.88,451.59 L 280.63, 447.34 L 276.38, 451.59 L 276.38, 445.04 L 284.88, 445.04 L 284.88, 451.59" />
      <path style="fill:#FFFFFF;stroke:#FFFFFF;stroke-width:0;stroke-linecap:round;stroke-linejoin:round;" d="M 284.88,454.42 L 280.63, 450.17 L 276.38, 454.42 L 276.38, 447.87 L 284.88, 447.87 L 284.88, 454.42" />
      <path style="fill:none;stroke:#000000;stroke-width:0.85;" d="M 284.88,452.12 L 280.63, 447.87 L 276.38, 452.12" />
      <path style="fill:none;stroke:#000000;stroke-width:0.85;" d="M 284.88,449.29 L 280.63, 445.04 L 276.38, 449.29" />
      <path style="fill:none;stroke:#000000;stroke-width:0.85;stroke-linecap:round;stroke-linejoin:round;" d="M 290.55,436.53 L 290.55, 445.03 L 270.71, 445.03 L 270.71, 436.53 L 290.55, 436.53" />
      <text transform="matrix(1 0 0 1 265.9551 442.4902)" style="font-family:'Arial'; font-size:6px;">4</text>
    </g>
    <g ewd:figtype="w2w" ewd:code="TU5" ewd:pin_no="7" ewd:figID="23">
      <path style="fill:#FFFFFF;stroke:#FFFFFF;stroke-width:0;stroke-linecap:round;stroke-linejoin:round;" d="M 153.95,619.37 L 149.7, 623.62 L 153.95, 627.87 L 147.4, 627.87 L 147.4, 619.37 L 153.95, 619.37" />
      <path style="fill:#FFFFFF;stroke:#FFFFFF;stroke-width:0;stroke-linecap:round;stroke-linejoin:round;" d="M 156.79,619.37 L 152.54, 623.62 L 156.79, 627.87 L 150.24, 627.87 L 150.24, 619.37 L 156.79, 619.37" />
      <path style="fill:none;stroke:#000000;stroke-width:0.85;" d="M 154.49,619.37 L 150.24, 623.62 L 154.49, 627.87" />
      <path style="fill:none;stroke:#000000;stroke-width:0.85;" d="M 151.65,619.37 L 147.4, 623.62 L 151.65, 627.87" />
      <path style="fill:none;stroke:#000000;stroke-width:0.85;stroke-linecap:round;stroke-linejoin:round;" d="M 147.4,627.87 L 147.4, 619.37 L 127.56, 619.37 L 127.56, 627.87 L 147.4, 627.87" />
      <text transform="matrix(1 0 0 1 135.8125 617.1758)" style="font-family:'Arial'; font-size:6px;">7</text>
    </g>
    <g ewd:figtype="gp" ewd:code="Y1" ewd:figID="24">
      <path style="fill:none;stroke:#000000;stroke-width:0.85;" d="M 42.52,708.66 L 42.52, 711.5" />
      <path style="fill:none;stroke:#000000;stroke-width:0.85;" d="M 41.1,720 L 43.94, 720" />
      <path style="fill:none;stroke:#000000;stroke-width:0.85;" d="M 39.68,717.16 L 45.35, 717.16" />
      <path style="fill:none;stroke:#000000;stroke-width:0.85;" d="M 36.85,714.33 L 48.19, 714.33" />
      <path style="fill:none;stroke:#000000;stroke-width:0.85;" d="M 34.01,711.49 L 51.02, 711.49" />
    </g>
    <g ewd:figtype="gp" ewd:code="Y1" ewd:figID="25">
      <path style="fill:none;stroke:#000000;stroke-width:0.85;" d="M 476.22,708.66 L 476.22, 711.5" />
      <path style="fill:none;stroke:#000000;stroke-width:0.85;" d="M 474.8,720 L 477.64, 720" />
      <path style="fill:none;stroke:#000000;stroke-width:0.85;" d="M 473.38,717.16 L 479.05, 717.16" />
      <path style="fill:none;stroke:#000000;stroke-width:0.85;" d="M 470.55,714.33 L 481.89, 714.33" />
      <path style="fill:none;stroke:#000000;stroke-width:0.85;" d="M 467.71,711.49 L 484.72, 711.49" />
    </g>
    <g ewd:figtype="conn" ewd:code="T28" ewd:figID="3">
      <path style="fill:none;stroke:#000000;stroke-width:1.417;stroke-linecap:round;stroke-linejoin:round;" d="M 195.59,198.42 L 195.59, 164.4 L 161.57, 164.4 L 161.57, 198.42 L 195.59, 198.42" />
      <text transform="matrix(1 0 0 1 170.2856 160.4438)" style="font-family:'Arial'; font-size:6px;">2</text>
      <text transform="matrix(1 0 0 1 170.2856 205.7979)" style="font-family:'Arial'; font-size:6px;">1</text>
      <text transform="matrix(1 0 0 1 171.5835 194.46)" style="font-family:'Arial'; font-size:6px;">BZR-</text>
      <text transform="matrix(1 0 0 1 170.8306 171.7827)" style="font-family:'Arial'; font-size:6px;">BZR+</text>
      <g ewd:figtype="title">
        <text transform="matrix(1 0 0 1 198.4253 186.6641)" style="font-family:'Arial'; font-size:6px;" ewd:textID="8">Hammer Buzzer (Buzzer Assembly)</text>
        <text transform="matrix(1 0 0 1 198.4253 179.5776)" style="font-family:'Arial'; font-size:6px;">T28</text>
      </g>
    </g>
    <g ewd:figtype="conn" ewd:code="T34" ewd:figID="4">
      <path style="fill:none;stroke:#000000;stroke-width:0.85;" d="M 42.52,368.5 L 42.52, 364.25" />
      <path style="fill:none;stroke:#000000;stroke-width:0.85;" d="M 42.52,338.74 L 42.52, 334.49" />
      <path style="fill:none;stroke:#000000;stroke-width:1.417;" d="M 48.2,338.78 L 42.88, 361.46" />
      <path style="fill:none;stroke:#000000;stroke-width:0.85;stroke-linecap:round;stroke-linejoin:round;" d="M 42.52,341.57 C 43.3 341.57 43.94 340.94 43.94 340.15 C 43.939997253418 339.359987792969 43.31 338.73 42.52 338.73 C 41.74 338.73 41.1 339.36 41.1 340.15 C 41.0999969482422 340.939987792969 41.74 341.57 42.52 341.57" />
      <path style="fill:none;stroke:#000000;stroke-width:0.85;stroke-linecap:round;stroke-linejoin:round;" d="M 42.52,364.25 C 43.3 364.25 43.94 363.62 43.94 362.83 C 43.94 362.05 43.31 361.41 42.52 361.41 C 41.74 361.41 41.1 362.04 41.1 362.83 C 41.1 363.61 41.74 364.25 42.52 364.25" />
      <path style="fill:none;stroke:#000000;stroke-width:1.417;stroke-linecap:round;stroke-linejoin:round;" d="M 51.02,368.5 L 51.02, 334.48 L 34.02, 334.48 L 34.02, 368.5 L 51.02, 368.5" />
      <text transform="matrix(1 0 0 1 34.2227 330.5225)" style="font-family:'Arial'; font-size:6px;">2</text>
      <text transform="matrix(1 0 0 1 34.2227 375.877)" style="font-family:'Arial'; font-size:6px;">1</text>
      <g ewd:figtype="title">
        <text transform="matrix(0 -1 1 0 59.1089 368.5)" style="font-family:'Arial'; font-size:6px;">T34</text>
        <text transform="matrix(0 -1 1 0 66.1958 368.5)" style="font-family:'Arial'; font-size:6px;" ewd:textID="12">Rear Hammer Switch RH</text>
      </g>
    </g>
    <g ewd:figtype="conn" ewd:code="T29" ewd:figID="5">
      <path style="fill:none;stroke:#000000;stroke-width:0.85;" d="M 110.55,368.5 L 110.55, 364.25" />
      <path style="fill:none;stroke:#000000;stroke-width:0.85;" d="M 110.55,338.74 L 110.55, 334.49" />
      <path style="fill:none;stroke:#000000;stroke-width:1.417;" d="M 116.23,338.78 L 110.91, 361.46" />
      <path style="fill:none;stroke:#000000;stroke-width:0.85;stroke-linecap:round;stroke-linejoin:round;" d="M 110.55,341.57 C 111.33 341.57 111.97 340.94 111.97 340.15 C 111.970002441406 339.359987792969 111.34 338.73 110.55 338.73 C 109.77 338.73 109.13 339.36 109.13 340.15 C 109.129994506836 340.939987792969 109.77 341.57 110.55 341.57" />
      <path style="fill:none;stroke:#000000;stroke-width:0.85;stroke-linecap:round;stroke-linejoin:round;" d="M 110.55,364.25 C 111.33 364.25 111.97 363.62 111.97 362.83 C 111.97 362.05 111.34 361.41 110.55 361.41 C 109.77 361.41 109.13 362.04 109.13 362.83 C 109.13 363.61 109.77 364.25 110.55 364.25" />
      <path style="fill:none;stroke:#000000;stroke-width:1.417;stroke-linecap:round;stroke-linejoin:round;" d="M 119.06,368.5 L 119.06, 334.48 L 102.05, 334.48 L 102.05, 368.5 L 119.06, 368.5" />
      <text transform="matrix(1 0 0 1 102.2539 330.5225)" style="font-family:'Arial'; font-size:6px;">2</text>
      <text transform="matrix(1 0 0 1 102.2539 375.877)" style="font-family:'Arial'; font-size:6px;">1</text>
      <g ewd:figtype="title">
        <text transform="matrix(0 -1 1 0 127.1401 368.5)" style="font-family:'Arial'; font-size:6px;">T29</text>
        <text transform="matrix(0 -1 1 0 134.2271 368.5)" style="font-family:'Arial'; font-size:6px;" ewd:textID="7">Front Hammer Switch LH</text>
      </g>
    </g>
    <g ewd:figtype="conn" ewd:code="T30" ewd:figID="6">
      <path style="fill:none;stroke:#000000;stroke-width:0.85;" d="M 178.58,334.48 L 178.58, 338.73" />
      <path style="fill:none;stroke:#000000;stroke-width:0.85;" d="M 178.58,364.25 L 178.58, 368.5" />
      <path style="fill:none;stroke:#000000;stroke-width:1.417;" d="M 184.27,338.78 L 178.95, 361.46" />
      <path style="fill:none;stroke:#000000;stroke-width:0.85;stroke-linecap:round;stroke-linejoin:round;" d="M 178.58,341.57 C 179.36 341.57 180 340.94 180 340.15 C 180 339.359987792969 179.37 338.73 178.58 338.73 C 177.8 338.73 177.16 339.36 177.16 340.15 C 177.160007324219 340.939987792969 177.8 341.57 178.58 341.57" />
      <path style="fill:none;stroke:#000000;stroke-width:0.85;stroke-linecap:round;stroke-linejoin:round;" d="M 178.58,364.25 C 179.36 364.25 180 363.62 180 362.83 C 180 362.05 179.37 361.41 178.58 361.41 C 177.8 361.41 177.16 362.04 177.16 362.83 C 177.17 363.61 177.8 364.25 178.58 364.25" />
      <path style="fill:none;stroke:#000000;stroke-width:1.417;stroke-linecap:round;stroke-linejoin:round;" d="M 187.09,368.5 L 187.09, 334.48 L 170.08, 334.48 L 170.08, 368.5 L 187.09, 368.5" />
      <text transform="matrix(1 0 0 1 170.2856 330.5225)" style="font-family:'Arial'; font-size:6px;">2</text>
      <text transform="matrix(1 0 0 1 170.2856 375.877)" style="font-family:'Arial'; font-size:6px;">1</text>
      <g ewd:figtype="title">
        <text transform="matrix(0 -1 1 0 195.1714 368.5)" style="font-family:'Arial'; font-size:6px;">T30</text>
        <text transform="matrix(0 -1 1 0 202.2583 368.5)" style="font-family:'Arial'; font-size:6px;" ewd:textID="11">Rear Hammer Switch LH</text>
      </g>
    </g>
    <g ewd:figtype="conn" ewd:code="T35" ewd:figID="7">
      <path style="fill:none;stroke:#000000;stroke-width:0.85;" d="M 42.52,521.57 L 42.52, 504.56" />
      <path style="fill:none;stroke:#000000;stroke-width:0.85;" d="M 110.55,513.07 L 110.55, 504.57" />
      <path style="fill:none;stroke:#000000;stroke-width:0.85;" d="M 178.58,504.56 L 178.58, 513.06 L 42.52, 513.06" />
      <path d="M 110.55,514.49 C 111.33 514.49 111.97 513.86 111.97 513.07 C 111.97 512.29 111.34 511.65 110.55 511.65 C 109.77 511.65 109.13 512.28 109.13 513.07 C 109.13 513.85 109.77 514.49 110.55 514.49" style="stroke-linecap:round;stroke-linejoin:round;" />
      <path d="M 42.52,514.49 C 43.3 514.49 43.94 513.86 43.94 513.07 C 43.94 512.29 43.31 511.65 42.52 511.65 C 41.74 511.65 41.1 512.28 41.1 513.07 C 41.1 513.85 41.74 514.49 42.52 514.49" style="stroke-linecap:round;stroke-linejoin:round;" />
      <path style="fill:none;stroke:#000000;stroke-width:1.417;stroke-linecap:round;stroke-linejoin:round;" d="M 187.09,521.57 L 187.09, 504.56 L 34.02, 504.56 L 34.02, 521.57 L 187.09, 521.57" />
      <text transform="matrix(1 0 0 1 170.2847 500.6016)" style="font-family:'Arial'; font-size:6px;">2</text>
      <text transform="matrix(1 0 0 1 102.2529 500.6016)" style="font-family:'Arial'; font-size:6px;">1</text>
      <text transform="matrix(1 0 0 1 34.2217 528.9473)" style="font-family:'Arial'; font-size:6px;">4</text>
      <text transform="matrix(1 0 0 1 34.2217 500.6016)" style="font-family:'Arial'; font-size:6px;">3</text>
      <g ewd:figtype="title">
        <text transform="matrix(1 0 0 1 85.0396 536.7432)" style="font-family:'Arial'; font-size:6px;" ewd:textID="9">Junction Connector</text>
        <text transform="matrix(1 0 0 1 85.0396 529.6572)" style="font-family:'Arial'; font-size:6px;">T35</text>
      </g>
    </g>
    <g ewd:figtype="conn" ewd:code="U3" ewd:figID="8">
      <path style="fill:none;stroke:#000000;stroke-width:0.85;" d="M 323.15,334.48 L 323.15, 338.73" />
      <path style="fill:none;stroke:#000000;stroke-width:0.85;" d="M 323.15,364.25 L 323.15, 368.5" />
      <path style="fill:none;stroke:#000000;stroke-width:1.417;" d="M 328.83,338.78 L 323.51, 361.46" />
      <path style="fill:none;stroke:#000000;stroke-width:0.85;stroke-linecap:round;stroke-linejoin:round;" d="M 323.15,341.57 C 323.93 341.57 324.57 340.94 324.57 340.15 C 324.570014648438 339.359987792969 323.94 338.73 323.15 338.73 C 322.359987792969 338.730021972656 321.73 339.36 321.73 340.15 C 321.730021972656 340.939987792969 322.37 341.57 323.15 341.57" />
      <path style="fill:none;stroke:#000000;stroke-width:0.85;stroke-linecap:round;stroke-linejoin:round;" d="M 323.15,364.25 C 323.93 364.25 324.57 363.62 324.57 362.83 C 324.57 362.05 323.94 361.41 323.15 361.41 C 322.359987792969 361.410007324219 321.73 362.04 321.73 362.83 C 321.73 363.61 322.37 364.25 323.15 364.25" />
      <path style="fill:none;stroke:#000000;stroke-width:1.417;stroke-linecap:round;stroke-linejoin:round;" d="M 331.65,368.5 L 331.65, 334.48 L 314.64, 334.48 L 314.64, 368.5 L 331.65, 368.5" />
      <text transform="matrix(1 0 0 1 314.8516 330.5225)" style="font-family:'Arial'; font-size:6px;">2</text>
      <text transform="matrix(1 0 0 1 314.8516 375.877)" style="font-family:'Arial'; font-size:6px;">1</text>
      <g ewd:figtype="title">
        <text transform="matrix(0 -1 1 0 339.7383 368.5)" style="font-family:'Arial'; font-size:6px;">U3</text>
        <text transform="matrix(0 -1 1 0 346.8252 368.5)" style="font-family:'Arial'; font-size:6px;" ewd:textID="12">Rear Hammer Switch RH</text>
      </g>
    </g>
    <g ewd:figtype="conn" ewd:code="u2" ewd:figID="9">
      <path style="fill:none;stroke:#000000;stroke-width:0.85;" d="M 408.19,334.48 L 408.19, 338.73" />
      <path style="fill:none;stroke:#000000;stroke-width:0.85;" d="M 408.19,364.25 L 408.19, 368.5" />
      <path style="fill:none;stroke:#000000;stroke-width:1.417;" d="M 413.87,338.78 L 408.55, 361.46" />
      <path style="fill:none;stroke:#000000;stroke-width:0.85;stroke-linecap:round;stroke-linejoin:round;" d="M 408.19,341.57 C 408.97 341.57 409.61 340.94 409.61 340.15 C 409.609970703125 339.359987792969 408.98 338.73 408.19 338.73 C 407.41 338.73 406.77 339.36 406.77 340.15 C 406.769978027344 340.939987792969 407.41 341.57 408.19 341.57" />
      <path style="fill:none;stroke:#000000;stroke-width:0.85;stroke-linecap:round;stroke-linejoin:round;" d="M 408.19,364.25 C 408.97 364.25 409.61 363.62 409.61 362.83 C 409.61 362.05 408.98 361.41 408.19 361.41 C 407.41 361.41 406.77 362.04 406.77 362.83 C 406.77 363.61 407.41 364.25 408.19 364.25" />
      <path style="fill:none;stroke:#000000;stroke-width:1.417;stroke-linecap:round;stroke-linejoin:round;" d="M 416.69,368.5 L 416.69, 334.48 L 399.68, 334.48 L 399.68, 368.5 L 416.69, 368.5" />
      <text transform="matrix(1 0 0 1 399.8916 330.5225)" style="font-family:'Arial'; font-size:6px;">2</text>
      <text transform="matrix(1 0 0 1 399.8916 375.877)" style="font-family:'Arial'; font-size:6px;">1</text>
      <g ewd:figtype="title">
        <text transform="matrix(0 -1 1 0 424.7773 368.5)" style="font-family:'Arial'; font-size:6px;">u2</text>
        <text transform="matrix(0 -1 1 0 431.8643 368.5)" style="font-family:'Arial'; font-size:6px;" ewd:textID="12">Rear Hammer Switch RH</text>
      </g>
    </g>
    <g ewd:figtype="conn" ewd:code="d4" ewd:figID="10">
      <path style="fill:none;stroke:#000000;stroke-width:0.85;" d="M 476.22,368.5 L 476.22, 364.25" />
      <path style="fill:none;stroke:#000000;stroke-width:0.85;" d="M 476.22,338.74 L 476.22, 334.49" />
      <path style="fill:none;stroke:#000000;stroke-width:1.417;" d="M 481.9,338.78 L 476.58, 361.46" />
      <path style="fill:none;stroke:#000000;stroke-width:0.85;stroke-linecap:round;stroke-linejoin:round;" d="M 476.22,341.57 C 477 341.57 477.64 340.94 477.64 340.15 C 477.640029296875 339.359987792969 477.01 338.73 476.22 338.73 C 475.44 338.73 474.8 339.36 474.8 340.15 C 474.799975585937 340.939987792969 475.44 341.57 476.22 341.57" />
      <path style="fill:none;stroke:#000000;stroke-width:0.85;stroke-linecap:round;stroke-linejoin:round;" d="M 476.22,364.25 C 477 364.25 477.64 363.62 477.64 362.83 C 477.64 362.05 477.01 361.41 476.22 361.41 C 475.44 361.41 474.8 362.04 474.8 362.83 C 474.8 363.61 475.44 364.25 476.22 364.25" />
      <path style="fill:none;stroke:#000000;stroke-width:1.417;stroke-linecap:round;stroke-linejoin:round;" d="M 484.72,368.5 L 484.72, 334.48 L 467.71, 334.48 L 467.71, 368.5 L 484.72, 368.5" />
      <text transform="matrix(1 0 0 1 467.9229 330.5225)" style="font-family:'Arial'; font-size:6px;">2</text>
      <text transform="matrix(1 0 0 1 467.9229 375.877)" style="font-family:'Arial'; font-size:6px;">1</text>
      <g ewd:figtype="title">
        <text transform="matrix(0 -1 1 0 492.8086 368.5)" style="font-family:'Arial'; font-size:6px;">d4</text>
        <text transform="matrix(0 -1 1 0 499.8955 368.5)" style="font-family:'Arial'; font-size:6px;" ewd:textID="10">Rear Hammer Switch<tspan x="0" dy="1em">(Back Door)</tspan></text>
      </g>
    </g>
    <g ewd:figtype="conn" ewd:code="U4" ewd:figID="11">
      <path style="fill:none;stroke:#000000;stroke-width:0.85;" d="M 238.11,521.57 L 238.11, 504.56" />
      <path style="fill:none;stroke:#000000;stroke-width:0.85;" d="M 323.15,504.56 L 323.15, 513.06 L 238.11, 513.06" />
      <path style="fill:none;stroke:#000000;stroke-width:0.85;" d="M 280.63,504.56 L 280.63, 513.06" />
      <path d="M 280.63,514.49 C 281.41 514.49 282.05 513.86 282.05 513.07 C 282.05 512.29 281.42 511.65 280.63 511.65 C 279.85 511.65 279.21 512.28 279.21 513.07 C 279.21 513.85 279.85 514.49 280.63 514.49" style="stroke-linecap:round;stroke-linejoin:round;" />
      <path d="M 238.11,514.49 C 238.89 514.49 239.53 513.86 239.53 513.07 C 239.53 512.29 238.9 511.65 238.11 511.65 C 237.320001220703 511.649987792969 236.69 512.28 236.69 513.07 C 236.69 513.85 237.33 514.49 238.11 514.49" style="stroke-linecap:round;stroke-linejoin:round;" />
      <path style="fill:none;stroke:#000000;stroke-width:1.417;stroke-linecap:round;stroke-linejoin:round;" d="M 331.65,521.57 L 331.65, 504.56 L 229.61, 504.56 L 229.61, 521.57 L 331.65, 521.57" />
      <text transform="matrix(1 0 0 1 314.8516 500.6016)" style="font-family:'Arial'; font-size:6px;">3</text>
      <text transform="matrix(1 0 0 1 272.332 500.6016)" style="font-family:'Arial'; font-size:6px;">2</text>
      <text transform="matrix(1 0 0 1 229.8125 528.9473)" style="font-family:'Arial'; font-size:6px;">4</text>
      <text transform="matrix(1 0 0 1 229.8125 500.6016)" style="font-family:'Arial'; font-size:6px;">1</text>
      <g ewd:figtype="title">
        <text transform="matrix(1 0 0 1 255.1182 536.7432)" style="font-family:'Arial'; font-size:6px;" ewd:textID="9">Junction Connector</text>
        <text transform="matrix(1 0 0 1 255.1182 529.6572)" style="font-family:'Arial'; font-size:6px;">U4</text>
      </g>
    </g>
    <g ewd:figtype="w2w" ewd:code="uU1" ewd:pin_no="9" ewd:figID="26">
      <path style="fill:#FFFFFF;stroke:#FFFFFF;stroke-width:0;stroke-linecap:round;stroke-linejoin:round;" d="M 367.63,262.19 L 371.88, 266.44 L 367.63, 270.69 L 374.18, 270.69 L 374.18, 262.19 L 367.63, 262.19" />
      <path style="fill:#FFFFFF;stroke:#FFFFFF;stroke-width:0;stroke-linecap:round;stroke-linejoin:round;" d="M 364.8,262.19 L 369.05, 266.44 L 364.8, 270.69 L 371.35, 270.69 L 371.35, 262.19 L 364.8, 262.19" />
      <path style="fill:none;stroke:#000000;stroke-width:0.85;" d="M 367.1,262.19 L 371.35, 266.44 L 367.1, 270.69" />
      <path style="fill:none;stroke:#000000;stroke-width:0.85;" d="M 369.93,262.19 L 374.18, 266.44 L 369.93, 270.69" />
      <path style="fill:none;stroke:#000000;stroke-width:0.85;stroke-linecap:round;stroke-linejoin:round;" d="M 374.18,270.7 L 374.18, 262.2 L 394.02, 262.2 L 394.02, 270.7 L 374.18, 270.7" />
      <text transform="matrix(1 0 0 1 382.4365 260.0005)" style="font-family:'Arial'; font-size:6px;">9</text>
    </g>
    <g ewd:figtype="w2w" ewd:code="uU1" ewd:pin_no="10" ewd:figID="27">
      <path style="fill:#FFFFFF;stroke:#FFFFFF;stroke-width:0;stroke-linecap:round;stroke-linejoin:round;" d="M 412.44,451.59 L 408.19, 447.34 L 403.94, 451.59 L 403.94, 445.04 L 412.44, 445.04 L 412.44, 451.59" />
      <path style="fill:#FFFFFF;stroke:#FFFFFF;stroke-width:0;stroke-linecap:round;stroke-linejoin:round;" d="M 412.44,454.42 L 408.19, 450.17 L 403.94, 454.42 L 403.94, 447.87 L 412.44, 447.87 L 412.44, 454.42" />
      <path style="fill:none;stroke:#000000;stroke-width:0.85;" d="M 412.44,452.12 L 408.19, 447.87 L 403.94, 452.12" />
      <path style="fill:none;stroke:#000000;stroke-width:0.85;" d="M 412.44,449.29 L 408.19, 445.04 L 403.94, 449.29" />
      <path style="fill:none;stroke:#000000;stroke-width:0.85;stroke-linecap:round;stroke-linejoin:round;" d="M 418.11,436.53 L 418.11, 445.03 L 398.27, 445.03 L 398.27, 436.53 L 418.11, 436.53" />
      <text transform="matrix(1 0 0 1 390.1768 442.4902)" style="font-family:'Arial'; font-size:6px;">10</text>
    </g>
    <g ewd:figtype="w2w" ewd:code="dT2" ewd:pin_no="4" ewd:figID="28">
      <path style="fill:#FFFFFF;stroke:#FFFFFF;stroke-width:0;stroke-linecap:round;stroke-linejoin:round;" d="M 480.47,259.9 L 476.22, 264.15 L 471.97, 259.9 L 471.97, 266.45 L 480.47, 266.45 L 480.47, 259.9" />
      <path style="fill:#FFFFFF;stroke:#FFFFFF;stroke-width:0;stroke-linecap:round;stroke-linejoin:round;" d="M 480.47,257.07 L 476.22, 261.32 L 471.97, 257.07 L 471.97, 263.62 L 480.47, 263.62 L 480.47, 257.07" />
      <path style="fill:none;stroke:#000000;stroke-width:0.85;" d="M 480.47,259.37 L 476.22, 263.62 L 471.97, 259.37" />
      <path style="fill:none;stroke:#000000;stroke-width:0.85;" d="M 480.47,262.2 L 476.22, 266.45 L 471.97, 262.2" />
      <path style="fill:none;stroke:#000000;stroke-width:0.85;stroke-linecap:round;stroke-linejoin:round;" d="M 486.14,274.96 L 486.14, 266.46 L 466.3, 266.46 L 466.3, 274.96 L 486.14, 274.96" />
      <text transform="matrix(1 0 0 1 461.5449 272.4116)" style="font-family:'Arial'; font-size:6px;">4</text>
    </g>
    <g ewd:figtype="comment" ewd:code="4" ewd:figID="1004">
      <text transform="matrix(1 0 0 1 170.0791 39.2251)" style="font-family:'Arial'; font-size:6px;" ewd:textID="4">*4 : Long Wheelbase Type w/ Option Connector (Back Monitor)</text>
    </g>
    <g ewd:figtype="comment" ewd:code="5" ewd:figID="1003">
      <text transform="matrix(1 0 0 1 170.0791 47.729)" style="font-family:'Arial'; font-size:6px;" ewd:textID="5">*5 : w/ 4 Hammers</text>
    </g>
    <g ewd:figtype="comment" ewd:code="3" ewd:figID="1002">
      <text transform="matrix(1 0 0 1 170.0791 30.7212)" style="font-family:'Arial'; font-size:6px;" ewd:textID="3">*3 : Long Wheelbase Type w/o Option Connector (Back Monitor)</text>
    </g>
    <g ewd:figtype="comment" ewd:code="2" ewd:figID="1001">
      <text transform="matrix(1 0 0 1 170.0791 22.2163)" style="font-family:'Arial'; font-size:6px;" ewd:textID="2">*2 : Long Wheelbase Type</text>
    </g>
    <g ewd:figtype="comment" ewd:code="1" ewd:figID="1000">
      <text transform="matrix(1 0 0 1 170.0791 13.7124)" style="font-family:'Arial'; font-size:6px;" ewd:textID="1">*1 : Short Wheelbase Type</text>
    </g>
    <text transform="matrix(0 -1 1 0 472.2568 557.5879)" style="font-family:'Arial'; font-size:6px;">B</text>
    <text transform="matrix(0 -1 1 0 472.2568 612.4424)" style="font-family:'Arial'; font-size:6px;">W-B</text>
    <text transform="matrix(0 -1 1 0 234.1475 612.4424)" style="font-family:'Arial'; font-size:6px;">W-B</text>
    <text transform="matrix(0 -1 1 0 234.1475 561.4189)" style="font-family:'Arial'; font-size:6px;">W-B</text>
    <text transform="matrix(1 0 0 1 79.208 619.6563)" style="font-family:'Arial'; font-size:6px;">W-B</text>
    <text transform="matrix(0 -1 1 0 472.2568 425.3564)" style="font-family:'Arial'; font-size:6px;">W-B</text>
    <text transform="matrix(0 -1 1 0 472.2568 303.3008)" style="font-family:'Arial'; font-size:6px;">W</text>
    <text transform="matrix(1 0 0 1 252.2861 245.4834)" style="font-family:'Arial'; font-size:6px;">W</text>
    <text transform="matrix(0 -1 1 0 123.5957 132.5576)" style="font-family:'Arial'; font-size:6px;">R</text>
    <text transform="matrix(0 -1 1 0 174.6196 132.3921)" style="font-family:'Arial'; font-size:6px;">B</text>
    <text transform="matrix(0 -1 1 0 174.6196 235.2695)" style="font-family:'Arial'; font-size:6px;">W</text>
    <text transform="matrix(0 -1 1 0 38.5562 132.5576)" style="font-family:'Arial'; font-size:6px;">R</text>
    <text transform="matrix(0 -1 1 0 106.5879 303.3008)" style="font-family:'Arial'; font-size:6px;">W</text>
    <text transform="matrix(0 -1 1 0 106.5879 476.3799)" style="font-family:'Arial'; font-size:6px;">W-B</text>
    <text transform="matrix(0 -1 1 0 38.5562 303.3008)" style="font-family:'Arial'; font-size:6px;">W</text>
    <text transform="matrix(0 -1 1 0 38.5562 476.3799)" style="font-family:'Arial'; font-size:6px;">W-B</text>
    <text transform="matrix(0 -1 1 0 174.6196 303.3008)" style="font-family:'Arial'; font-size:6px;">W</text>
    <text transform="matrix(0 -1 1 0 319.1855 303.3008)" style="font-family:'Arial'; font-size:6px;">W</text>
    <text transform="matrix(0 -1 1 0 404.2256 303.3008)" style="font-family:'Arial'; font-size:6px;">W</text>
    <text transform="matrix(1 0 0 1 226.7744 262.4912)" style="font-family:'Arial'; font-size:6px;">W</text>
    <text transform="matrix(1 0 0 1 345.8291 262.4912)" style="font-family:'Arial'; font-size:6px;">W</text>
    <text transform="matrix(0 -1 1 0 174.6196 476.3799)" style="font-family:'Arial'; font-size:6px;">W-B</text>
    <text transform="matrix(0 -1 1 0 234.1475 476.3799)" style="font-family:'Arial'; font-size:6px;">W-B</text>
    <text transform="matrix(0 -1 1 0 276.667 476.3799)" style="font-family:'Arial'; font-size:6px;">W-B</text>
    <text transform="matrix(0 -1 1 0 319.1865 476.3799)" style="font-family:'Arial'; font-size:6px;">W-B</text>
    <text transform="matrix(0 -1 1 0 234.1475 425.3564)" style="font-family:'Arial'; font-size:6px;">W-B</text>
    <text transform="matrix(0 -1 1 0 276.667 425.3564)" style="font-family:'Arial'; font-size:6px;">W-B</text>
    <text transform="matrix(0 -1 1 0 404.2256 476.3799)" style="font-family:'Arial'; font-size:6px;">W-B</text>
    <text transform="matrix(0 -1 1 0 404.2256 425.3564)" style="font-family:'Arial'; font-size:6px;">W-B</text>
    <text transform="matrix(0 -1 1 0 38.5562 680.4746)" style="font-family:'Arial'; font-size:6px;">W-B</text>
    <text transform="matrix(0 -1 1 0 472.2568 680.4746)" style="font-family:'Arial'; font-size:6px;">W-B</text>
    <text transform="matrix(0 -1 1 0 38.5562 612.4424)" style="font-family:'Arial'; font-size:6px;">W-B</text>
    <text transform="matrix(0 -1 1 0 38.5562 561.4189)" style="font-family:'Arial'; font-size:6px;">W-B</text>
    <text transform="matrix(1 0 0 1 80.2051 630.9951)" style="font-family:'Arial'; font-size:6px;">(*2)</text>
    <text transform="matrix(0 -1 1 0 245.4863 611.4453)" style="font-family:'Arial'; font-size:6px;">(*2)</text>
    <text transform="matrix(0 -1 1 0 245.4863 560.4219)" style="font-family:'Arial'; font-size:6px;">(*2)</text>
    <text transform="matrix(0 -1 1 0 245.4863 475.3828)" style="font-family:'Arial'; font-size:6px;">(*2)</text>
    <text transform="matrix(0 -1 1 0 245.4863 424.3584)" style="font-family:'Arial'; font-size:6px;">(*2)</text>
    <text transform="matrix(0 -1 1 0 330.5254 306.7207)" style="font-family:'Arial'; font-size:6px;">(*3)</text>
    <text transform="matrix(0 -1 1 0 330.5254 475.3828)" style="font-family:'Arial'; font-size:6px;">(*3)</text>
    <text transform="matrix(0 -1 1 0 288.0059 424.3584)" style="font-family:'Arial'; font-size:6px;">(*2)</text>
    <text transform="matrix(0 -1 1 0 288.0059 475.3828)" style="font-family:'Arial'; font-size:6px;">(*2)</text>
    <text transform="matrix(0 -1 1 0 49.895 611.4453)" style="font-family:'Arial'; font-size:6px;">(*1)</text>
    <text transform="matrix(0 -1 1 0 49.895 560.4219)" style="font-family:'Arial'; font-size:6px;">(*1)</text>
    <text transform="matrix(0 -1 1 0 49.895 475.3828)" style="font-family:'Arial'; font-size:6px;">(*1)</text>
    <text transform="matrix(0 -1 1 0 49.895 305.3027)" style="font-family:'Arial'; font-size:6px;">(*1)</text>
    <text transform="matrix(0 -1 1 0 483.5947 679.4766)" style="font-family:'Arial'; font-size:6px;">(*5)</text>
    <text transform="matrix(0 -1 1 0 483.5957 611.4453)" style="font-family:'Arial'; font-size:6px;">(*5)</text>
    <text transform="matrix(0 -1 1 0 483.5957 560.4219)" style="font-family:'Arial'; font-size:6px;">(*5)</text>
    <text transform="matrix(0 -1 1 0 483.5957 424.3584)" style="font-family:'Arial'; font-size:6px;">(*5)</text>
    <text transform="matrix(0 -1 1 0 483.5957 306.7207)" style="font-family:'Arial'; font-size:6px;">(*5)</text>
    <text transform="matrix(1 0 0 1 250.2842 256.8223)" style="font-family:'Arial'; font-size:6px;">(*5)</text>
    <text transform="matrix(0 -1 1 0 117.9268 475.3828)" style="font-family:'Arial'; font-size:6px;">(*1)</text>
    <text transform="matrix(1 0 0 1 224.7725 273.8301)" style="font-family:'Arial'; font-size:6px;">(*2)</text>
    <text transform="matrix(1 0 0 1 343.8262 273.8301)" style="font-family:'Arial'; font-size:6px;">(*4)</text>
    <text transform="matrix(0 -1 1 0 415.5645 306.7207)" style="font-family:'Arial'; font-size:6px;">(*4)</text>
    <text transform="matrix(0 -1 1 0 415.5645 424.3584)" style="font-family:'Arial'; font-size:6px;">(*4)</text>
    <text transform="matrix(0 -1 1 0 415.5645 475.3828)" style="font-family:'Arial'; font-size:6px;">(*4)</text>
    <text transform="matrix(0 -1 1 0 185.9585 475.3828)" style="font-family:'Arial'; font-size:6px;">(*1)</text>
    <a style="cursor:pointer;" ewd:figID="28" ewd:figtype="w2w" ewd:code="dT2" ewd:pin_no="4">
      <path style="fill:#FFFFFF;stroke:#000000;stroke-width:0.85;stroke-linecap:round;stroke-linejoin:round;" d="M 486.14,274.96 L 486.14, 266.46 L 466.3, 266.46 L 466.3, 274.96 L 486.14, 274.96" />
      <text transform="matrix(1 0 0 1 471.0498 272.7612)" style="font-family:'Arial'; font-size:6px;" ewd:textID="6">dT2</text>
    </a>
    <a style="cursor:pointer;" ewd:figID="27" ewd:figtype="w2w" ewd:code="uU1" ewd:pin_no="10">
      <path style="fill:#FFFFFF;stroke:#000000;stroke-width:0.85;stroke-linecap:round;stroke-linejoin:round;" d="M 418.11,436.53 L 418.11, 445.03 L 398.27, 445.03 L 398.27, 436.53 L 418.11, 436.53" />
      <text transform="matrix(1 0 0 1 402.6846 442.8398)" style="font-family:'Arial'; font-size:6px;" ewd:textID="13">uU1</text>
    </a>
    <a style="cursor:pointer;" ewd:figID="26" ewd:figtype="w2w" ewd:code="uU1" ewd:pin_no="9">
      <path style="fill:#FFFFFF;stroke:#000000;stroke-width:0.85;stroke-linecap:round;stroke-linejoin:round;" d="M 374.18,270.7 L 374.18, 262.2 L 394.02, 262.2 L 394.02, 270.7 L 374.18, 270.7" />
      <text transform="matrix(1 0 0 1 378.6025 268.4995)" style="font-family:'Arial'; font-size:6px;" ewd:textID="13">uU1</text>
    </a>
    <a style="cursor:pointer;" ewd:figID="25" ewd:figtype="gp" ewd:code="Y1">
      <path style="fill:#FFFFFF;stroke:#000000;stroke-width:0.85;stroke-linecap:round;stroke-linejoin:round;" d="M 463.46,691.65 L 488.97, 691.65 L 476.21, 708.66 L 463.46, 691.65" />
      <text transform="matrix(1 0 0 1 472.5498 698.5234)" style="font-family:'Arial'; font-size:6px;">Y1</text>
    </a>
    <a style="cursor:pointer;" ewd:figID="24" ewd:figtype="gp" ewd:code="Y1">
      <path style="fill:#FFFFFF;stroke:#000000;stroke-width:0.85;stroke-linecap:round;stroke-linejoin:round;" d="M 29.76,691.65 L 55.27, 691.65 L 42.51, 708.66 L 29.76, 691.65" />
      <text transform="matrix(1 0 0 1 38.8496 698.5234)" style="font-family:'Arial'; font-size:6px;">Y1</text>
    </a>
    <a style="cursor:pointer;" ewd:figID="23" ewd:figtype="w2w" ewd:code="TU5" ewd:pin_no="7">
      <path style="fill:#FFFFFF;stroke:#000000;stroke-width:0.85;stroke-linecap:round;stroke-linejoin:round;" d="M 147.4,627.87 L 147.4, 619.37 L 127.56, 619.37 L 127.56, 627.87 L 147.4, 627.87" />
      <text transform="matrix(1 0 0 1 131.8135 625.6738)" style="font-family:'Arial'; font-size:6px;">TU5</text>
    </a>
    <a style="cursor:pointer;" ewd:figID="22" ewd:figtype="w2w" ewd:code="TU5" ewd:pin_no="4">
      <path style="fill:#FFFFFF;stroke:#000000;stroke-width:0.85;stroke-linecap:round;stroke-linejoin:round;" d="M 290.55,436.53 L 290.55, 445.03 L 270.71, 445.03 L 270.71, 436.53 L 290.55, 436.53" />
      <text transform="matrix(1 0 0 1 274.9619 442.8389)" style="font-family:'Arial'; font-size:6px;">TU5</text>
    </a>
    <a style="cursor:pointer;" ewd:figID="21" ewd:figtype="w2w" ewd:code="TU5" ewd:pin_no="9">
      <path style="fill:#FFFFFF;stroke:#000000;stroke-width:0.85;stroke-linecap:round;stroke-linejoin:round;" d="M 248.03,436.53 L 248.03, 445.03 L 228.19, 445.03 L 228.19, 436.53 L 248.03, 436.53" />
      <text transform="matrix(1 0 0 1 232.4434 442.8389)" style="font-family:'Arial'; font-size:6px;">TU5</text>
    </a>
    <a style="cursor:pointer;" ewd:figID="20" ewd:figtype="w2w" ewd:code="dT2" ewd:pin_no="1">
      <path style="fill:#FFFFFF;stroke:#000000;stroke-width:0.85;stroke-linecap:round;stroke-linejoin:round;" d="M 486.14,572.6 L 486.14, 581.1 L 466.3, 581.1 L 466.3, 572.6 L 486.14, 572.6" />
      <text transform="matrix(1 0 0 1 471.0498 578.9033)" style="font-family:'Arial'; font-size:6px;" ewd:textID="6">dT2</text>
    </a>
    <a style="cursor:pointer;" ewd:figID="19" ewd:figtype="w2w" ewd:code="TY5" ewd:pin_no="12">
      <path style="fill:#FFFFFF;stroke:#000000;stroke-width:0.85;stroke-linecap:round;stroke-linejoin:round;" d="M 486.14,640.63 L 486.14, 649.13 L 466.3, 649.13 L 466.3, 640.63 L 486.14, 640.63" />
      <text transform="matrix(1 0 0 1 470.7178 646.9346)" style="font-family:'Arial'; font-size:6px;">TY5</text>
    </a>
    <a style="cursor:pointer;" ewd:figID="18" ewd:figtype="w2w" ewd:code="TY3" ewd:pin_no="6">
      <path style="fill:#FFFFFF;stroke:#000000;stroke-width:0.85;stroke-linecap:round;stroke-linejoin:round;" d="M 52.44,640.63 L 52.44, 649.13 L 32.6, 649.13 L 32.6, 640.63 L 52.44, 640.63" />
      <text transform="matrix(1 0 0 1 37.0171 646.9346)" style="font-family:'Arial'; font-size:6px;">TY3</text>
    </a>
    <a style="cursor:pointer;" ewd:figID="17" ewd:figtype="w2w" ewd:code="TU5" ewd:pin_no="1">
      <path style="fill:#FFFFFF;stroke:#000000;stroke-width:0.85;stroke-linecap:round;stroke-linejoin:round;" d="M 291.97,270.71 L 291.97, 262.21 L 272.13, 262.21 L 272.13, 270.71 L 291.97, 270.71" />
      <text transform="matrix(1 0 0 1 276.3799 268.5088)" style="font-family:'Arial'; font-size:6px;">TU5</text>
    </a>
  </g>
</svg>