﻿<?xml version="1.0" encoding="utf-8"?>
<!-- Generator: Adobe Illustrator 10.0, SVG Export Plug-In . SVG Version: 3.0.0 Build 77)  -->
<!DOCTYPE svg PUBLIC "-//W3C//DTD SVG 1.0//EN" "http://www.w3.org/TR/2001/REC-SVG-20010904/DTD/svg10.dtd"[
   <!ENTITY ns_flows "http://ns.adobe.com/Flows/1.0/">
   <!ENTITY ns_svg "http://www.w3.org/2000/svg">
   <!ENTITY ns_xlink "http://www.w3.org/1999/xlink">
   <!ENTITY st0 "font-size:7px;font-family:'MS-PGothic';adobe-font-script:japanese;">
   <!ENTITY st1 "font-size:6px;font-family:'ArialMT';">
   <!ENTITY st2 "fill:#FFFFFF;stroke:#000000; stroke-width:1.41;stroke-linecap:round;stroke-linejoin:round;">
   <!ENTITY st3 "fill:#FFFFCC;stroke:#FFFFCC; stroke-width:0.1;stroke-linecap:round;stroke-linejoin:round;">
   <!ENTITY st4 "fill:#CCCCCC;stroke:#CCCCCC; stroke-width:0.1;stroke-linecap:round;stroke-linejoin:round;">
   <!ENTITY st5 "fill:#CCECF4;stroke:#000000; stroke-width:1.133;stroke-linecap:round;stroke-linejoin:round;">
   <!ENTITY st6 "fill:none;stroke-linecap:butt; stroke-linejoin:round;">
   <!ENTITY st7 "fill:none;stroke:#000000;stroke-linecap:round;stroke-linejoin:round;">
   <!ENTITY st8 "enable-background:new;">
   <!ENTITY st9 "fill:#000000;stroke:#000000; stroke-linecap:round;stroke-linejoin:round;">
   <!ENTITY st10 "font-size:9px;font-family:'ArialMT';">
   <!ENTITY st11 "font-size:9px;font-family:'Svg Symbol';">
   <!ENTITY st12 "font-size:6px;font-family:'Svg Symbol';">
   <!ENTITY st13 "fill:none;stroke:#ff0000;stroke-linecap:round;stroke-linejoin:round;">
   <!ENTITY st14 "fill:#FFFF00;stroke:#FFFF00; stroke-width:0.1;stroke-linecap:round;stroke-linejoin:round;">
   <!ENTITY st15 "font-size:6px;font-family:'MS-PGothic';adobe-font-script:japanese;">
   <!ENTITY st16 "1.00 0.00 0.00 1.00">
   <!ENTITY st17 "0.00 -1.00 1.00 0.00">
   <!ENTITY st18 "font-size:6px;font-family:'Arial';">
   <!ENTITY st19 "font-size:9px;font-family:'Arial';">
   <!ENTITY st20 "font-size:6px;font-family:'MS-PGothic','MS PGothic';adobe-font-script:japanese;">
   <!ENTITY st21 "font-size:7px;font-family:'MS-PGothic','MS PGothic';adobe-font-script:japanese;">
   <!ATTLIST svg
       xmlns:ewd CDATA #FIXED "http://shcl.co.jp/ewd"
       xmlns:a CDATA #FIXED "http://ns.adobe.com/AdobeSVGViewerExtensions/3.0/"
       ewd:ver CDATA #IMPLIED >
   <!ATTLIST a
       ewd:lineID CDATA #IMPLIED
       ewd:groupID CDATA #IMPLIED
       ewd:figtype CDATA #IMPLIED
       ewd:code CDATA #IMPLIED
       ewd:figID CDATA #IMPLIED
       ewd:pinNo CDATA #IMPLIED
       ewd:comment CDATA #IMPLIED >
   <!ATTLIST g
       ewd:lineID CDATA #IMPLIED
       ewd:groupID CDATA #IMPLIED
       ewd:figtype CDATA #IMPLIED
       ewd:code CDATA #IMPLIED
       ewd:figID CDATA #IMPLIED
       ewd:pinNo CDATA #IMPLIED
       ewd:comment CDATA #IMPLIED >
   <!ATTLIST text
       ewd:textID CDATA #IMPLIED >
   <!ATTLIST title
       ewd:textID CDATA #IMPLIED >
]>
<svg xmlns="http://www.w3.org/2000/svg" xmlns:xlink="http://www.w3.org/1999/xlink" width="1051.67" height="721.01" viewBox="0 0 1051.67 721.01" xml:space="preserve" xmlns:ewd="http://shcl.co.jp/ewd" ewd:ver="2.0">
  
  <defs>
    <font horiz-adv-x="1229">
      <font-face font-family="Svg Symbol" units-per-em="2048" panose-1="5 5 1 2 1 7 6 2 5 7" ascent="2059" descent="450" alphabetic="0" />
      <missing-glyph d="M 103,0 l 0,1280 1024,0 0,-1280 -1024,0 z m 32,32 l 960,0 0,1216 -960,0 0,-1216 z" />
      <glyph d4p1:unicode="" horiz-adv-x="1573" d="M 1517,0 l -567,0 24,279 q 141,59 207.5,168 66.5,109 66.5,306 0,272 -132.5,417.5 -132.5,145.5 -333.5,145.5 -194,0 -328,-147.5 -134,-147.5 -134,-401.5 0,-200 68.5,-319 68.5,-119 206.5,-169 l 25,-279 -564,0 0,279 35,0 q 3,-61 32,-83 45,-35 137,-35 l 270,0 0,70 q -210,61 -324.5,209 -114.5,148 -114.5,349 0,252 186.5,425 186.5,173 504.5,173 195,0 358.5,-73.5 163.5,-73.5 252,-214.5 88.5,-141 88.5,-310 0,-207 -121.5,-360.5 -121.5,-153.5 -317.5,-197.5 l -8,-70 275,0 q 92,0 128,28 36,28 42,90 l 38,0 0,-279 z" xmlns:d4p1="def-glyph-attr-unicode" />
    </font>
  </defs>
  
<g ewd:lineID="709">
      <path style="fill:none;stroke:#000000;stroke-width:0.85;stroke-dasharray:3 1.5;" d="M 892.91,479.06 L 892.91, 487.56 L 754.01, 487.56 L 722.83, 518.74 L 722.83, 521.58" />
    </g><g ewd:lineID="712">
      <path style="fill:none;stroke:#000000;stroke-width:0.85;stroke-dasharray:3 1.5;" d="M 722.83,308.98 L 722.83, 266.46 L 722.83, 269.29 L 754.01, 300.47 L 892.91, 300.47 L 892.91, 308.97" />
    </g><g ewd:lineID="714">
      <path style="fill:none;stroke:#000000;stroke-width:0.85;stroke-dasharray:3 1.5;" d="M 722.83,343 L 722.83, 351.5" />
    </g><g ewd:lineID="715">
      <path style="fill:none;stroke:#000000;stroke-width:0.85;stroke-dasharray:3 1.5;" d="M 722.83,411.03 L 722.83, 428.04" />
    </g><g ewd:lineID="716">
      <path style="fill:none;stroke:#000000;stroke-width:0.85;stroke-dasharray:3 1.5;" d="M 722.83,360.01 L 722.83, 377.02" />
    </g><g ewd:lineID="717">
      <path style="fill:none;stroke:#000000;stroke-width:0.85;stroke-dasharray:3 1.5;" d="M 722.83,436.54 L 722.83, 445.04" />
    </g><g ewd:lineID="718">
      <path style="fill:none;stroke:#000000;stroke-width:0.85;stroke-dasharray:3 1.5;" d="M 722.83,530.09 L 722.83, 547.1" />
    </g><g ewd:lineID="719">
      <path style="fill:none;stroke:#000000;stroke-width:0.85;stroke-dasharray:3 1.5;" d="M 722.83,521.58 L 722.83, 479.06" />
    </g><g ewd:figtype="jb" ewd:code="6" ewd:figID="2">
      <path style="fill:none;stroke:#000000;stroke-width:0.85;" d="M 578.27,498.89 L 578.27, 527.24" />
      <path d="M 578.24,527.24 L 581.07, 524.4 L 581.07, 521.57 L 578.24, 524.4 L 575.41, 521.57 L 575.41, 524.4 L 578.24, 527.24" style="stroke-linecap:round;stroke-linejoin:round;" />
      <path style="fill:none;stroke:#000000;stroke-width:0.85;stroke-linecap:round;stroke-linejoin:round;" d="M 582.49,538.57 C 585.62 538.57 588.16 536.03 588.16 532.9 C 588.16 529.77 585.62 527.23 582.49 527.23 L 573.99, 527.23 C 570.86 527.23 568.32 529.77 568.32 532.9 C 568.32 536.03 570.86 538.57 573.99 538.57 L 582.49, 538.57" />
      <path d="M 578.24,498.89 L 581.07, 501.72 L 581.07, 504.55 L 578.24, 501.72 L 575.41, 504.55 L 575.41, 501.72 L 578.24, 498.89" style="stroke-linecap:round;stroke-linejoin:round;" />
      <path style="fill:none;stroke:#000000;stroke-width:0.85;stroke-linecap:round;stroke-linejoin:round;" d="M 582.49,498.89 C 585.62 498.89 588.16 496.35 588.16 493.22 C 588.16 490.09 585.62 487.55 582.49 487.55 L 573.99, 487.55 C 570.86 487.55 568.32 490.09 568.32 493.22 C 568.32 496.35 570.86 498.89 573.99 498.89 L 582.49, 498.89" />
      <text transform="matrix(1 0 0 1 574.7412 534.6113)" style="font-family:'Arial'; font-size:6px;">6F</text>
      <text transform="matrix(1 0 0 1 560.2305 534.6113)" style="font-family:'Arial'; font-size:6px;">10</text>
      <text transform="matrix(1 0 0 1 574.7412 494.9248)" style="font-family:'Arial'; font-size:6px;">6F</text>
      <text transform="matrix(1 0 0 1 560.2305 494.9248)" style="font-family:'Arial'; font-size:6px;">18</text>
    </g><g ewd:figtype="jb" ewd:code="6" ewd:figID="1">
      <path style="fill:none;stroke:#000000;stroke-width:0.85;" d="M 578.27,600.94 L 578.27, 629.29" />
      <path d="M 578.24,629.28 L 581.07, 626.45 L 581.07, 623.62 L 578.24, 626.45 L 575.41, 623.62 L 575.41, 626.45 L 578.24, 629.28" style="stroke-linecap:round;stroke-linejoin:round;" />
      <path style="fill:none;stroke:#000000;stroke-width:0.85;stroke-linecap:round;stroke-linejoin:round;" d="M 582.49,640.62 C 585.62 640.62 588.16 638.08 588.16 634.95 C 588.16 631.82 585.62 629.28 582.49 629.28 L 573.99, 629.28 C 570.86 629.28 568.32 631.82 568.32 634.95 C 568.32 638.08 570.86 640.62 573.99 640.62 L 582.49, 640.62" />
      <path d="M 578.24,600.94 L 581.07, 603.77 L 581.07, 606.6 L 578.24, 603.77 L 575.41, 606.6 L 575.41, 603.77 L 578.24, 600.94" style="stroke-linecap:round;stroke-linejoin:round;" />
      <path style="fill:none;stroke:#000000;stroke-width:0.85;stroke-linecap:round;stroke-linejoin:round;" d="M 582.49,600.94 C 585.62 600.94 588.16 598.4 588.16 595.27 C 588.16 592.14 585.62 589.6 582.49 589.6 L 573.99, 589.6 C 570.86 589.6 568.32 592.14 568.32 595.27 C 568.32 598.4 570.86 600.94 573.99 600.94 L 582.49, 600.94" />
      <text transform="matrix(1 0 0 1 574.7412 636.6592)" style="font-family:'Arial'; font-size:6px;">6F</text>
      <text transform="matrix(1 0 0 1 563.5674 636.6592)" style="font-family:'Arial'; font-size:6px;">1</text>
      <text transform="matrix(1 0 0 1 574.7412 596.9727)" style="font-family:'Arial'; font-size:6px;">6F</text>
      <text transform="matrix(1 0 0 1 563.5674 596.9727)" style="font-family:'Arial'; font-size:6px;">9</text>
    </g><g ewd:figID="31">
      <path style="fill:#FFFFFF;stroke:#FFFFFF;stroke-width:0;stroke-linecap:round;stroke-linejoin:round;" d="M 727.09,366.56 L 722.84, 362.31 L 718.59, 366.56 L 718.59, 360.01 L 727.09, 360.01 L 727.09, 366.56" />
      <path style="fill:#FFFFFF;stroke:#FFFFFF;stroke-width:0;stroke-linecap:round;stroke-linejoin:round;" d="M 727.09,369.39 L 722.84, 365.14 L 718.59, 369.39 L 718.59, 362.84 L 727.09, 362.84 L 727.09, 369.39" />
      <path style="fill:none;stroke:#000000;stroke-width:0.85;" d="M 727.09,367.09 L 722.84, 362.84 L 718.59, 367.09" />
      <path style="fill:none;stroke:#000000;stroke-width:0.85;" d="M 727.09,364.26 L 722.84, 360.01 L 718.59, 364.26" />
      <path style="fill:none;stroke:#000000;stroke-width:0.85;stroke-linecap:round;stroke-linejoin:round;" d="M 732.76,351.5 L 732.76, 360 L 712.92, 360 L 712.92, 351.5 L 732.76, 351.5" />
      <text transform="matrix(1 0 0 1 708.1602 357.4619)" style="font-family:'Arial'; font-size:6px;">6</text>
    </g><g ewd:figID="32">
      <path style="fill:#FFFFFF;stroke:#FFFFFF;stroke-width:0;stroke-linecap:round;stroke-linejoin:round;" d="M 727.09,536.64 L 722.84, 532.39 L 718.59, 536.64 L 718.59, 530.09 L 727.09, 530.09 L 727.09, 536.64" />
      <path style="fill:#FFFFFF;stroke:#FFFFFF;stroke-width:0;stroke-linecap:round;stroke-linejoin:round;" d="M 727.09,539.47 L 722.84, 535.22 L 718.59, 539.47 L 718.59, 532.92 L 727.09, 532.92 L 727.09, 539.47" />
      <path style="fill:none;stroke:#000000;stroke-width:0.85;" d="M 727.09,537.17 L 722.84, 532.92 L 718.59, 537.17" />
      <path style="fill:none;stroke:#000000;stroke-width:0.85;" d="M 727.09,534.34 L 722.84, 530.09 L 718.59, 534.34" />
      <path style="fill:none;stroke:#000000;stroke-width:0.85;stroke-linecap:round;stroke-linejoin:round;" d="M 732.76,521.58 L 732.76, 530.08 L 712.92, 530.08 L 712.92, 521.58 L 732.76, 521.58" />
      <text transform="matrix(1 0 0 1 704.8232 527.541)" style="font-family:'Arial'; font-size:6px;">10</text>
    </g><g ewd:figtype="w2w" ewd:code="Za4" ewd:pin_no="17" ewd:figID="16">
      <path style="fill:#FFFFFF;stroke:#FFFFFF;stroke-width:0;stroke-linecap:round;stroke-linejoin:round;" d="M 769.61,536.64 L 765.36, 532.39 L 761.11, 536.64 L 761.11, 530.09 L 769.61, 530.09 L 769.61, 536.64" />
      <path style="fill:#FFFFFF;stroke:#FFFFFF;stroke-width:0;stroke-linecap:round;stroke-linejoin:round;" d="M 769.61,539.47 L 765.36, 535.22 L 761.11, 539.47 L 761.11, 532.92 L 769.61, 532.92 L 769.61, 539.47" />
      <path style="fill:none;stroke:#000000;stroke-width:0.85;" d="M 769.61,537.17 L 765.36, 532.92 L 761.11, 537.17" />
      <path style="fill:none;stroke:#000000;stroke-width:0.85;" d="M 769.61,534.34 L 765.36, 530.09 L 761.11, 534.34" />
      <path style="fill:none;stroke:#000000;stroke-width:0.85;stroke-linecap:round;stroke-linejoin:round;" d="M 775.28,521.58 L 775.28, 530.08 L 755.44, 530.08 L 755.44, 521.58 L 775.28, 521.58" />
      <text transform="matrix(1 0 0 1 747.3428 527.541)" style="font-family:'Arial'; font-size:6px;">17</text>
    </g><g ewd:figtype="w2w" ewd:code="uT1" ewd:pin_no="11" ewd:figID="19">
      <path style="fill:#FFFFFF;stroke:#FFFFFF;stroke-width:0;stroke-linecap:round;stroke-linejoin:round;" d="M 769.61,366.56 L 765.36, 362.31 L 761.11, 366.56 L 761.11, 360.01 L 769.61, 360.01 L 769.61, 366.56" />
      <path style="fill:#FFFFFF;stroke:#FFFFFF;stroke-width:0;stroke-linecap:round;stroke-linejoin:round;" d="M 769.61,369.39 L 765.36, 365.14 L 761.11, 369.39 L 761.11, 362.84 L 769.61, 362.84 L 769.61, 369.39" />
      <path style="fill:none;stroke:#000000;stroke-width:0.85;" d="M 769.61,367.09 L 765.36, 362.84 L 761.11, 367.09" />
      <path style="fill:none;stroke:#000000;stroke-width:0.85;" d="M 769.61,364.26 L 765.36, 360.01 L 761.11, 364.26" />
      <path style="fill:none;stroke:#000000;stroke-width:0.85;stroke-linecap:round;stroke-linejoin:round;" d="M 775.28,351.5 L 775.28, 360 L 755.44, 360 L 755.44, 351.5 L 775.28, 351.5" />
      <text transform="matrix(1 0 0 1 747.3428 357.4619)" style="font-family:'Arial'; font-size:6px;">11</text>
    </g><g ewd:figtype="w2w" ewd:code="Hu1" ewd:pin_no="3" ewd:figID="22">
      <path style="fill:#FFFFFF;stroke:#FFFFFF;stroke-width:0;stroke-linecap:round;stroke-linejoin:round;" d="M 293.39,353.45 L 289.14, 357.7 L 284.89, 353.45 L 284.89, 360 L 293.39, 360 L 293.39, 353.45" />
      <path style="fill:#FFFFFF;stroke:#FFFFFF;stroke-width:0;stroke-linecap:round;stroke-linejoin:round;" d="M 293.39,350.62 L 289.14, 354.87 L 284.89, 350.62 L 284.89, 357.17 L 293.39, 357.17 L 293.39, 350.62" />
      <path style="fill:none;stroke:#000000;stroke-width:0.85;" d="M 293.39,352.92 L 289.14, 357.17 L 284.89, 352.92" />
      <path style="fill:none;stroke:#000000;stroke-width:0.85;" d="M 293.39,355.75 L 289.14, 360 L 284.89, 355.75" />
      <path style="fill:none;stroke:#000000;stroke-width:0.85;stroke-linecap:round;stroke-linejoin:round;" d="M 299.06,368.51 L 299.06, 360.01 L 279.22, 360.01 L 279.22, 368.51 L 299.06, 368.51" />
      <text transform="matrix(1 0 0 1 274.4585 365.9639)" style="font-family:'Arial'; font-size:6px;">3</text>
    </g><g ewd:figtype="w2w" ewd:code="Iu1" ewd:pin_no="3" ewd:figID="23">
      <path style="fill:#FFFFFF;stroke:#FFFFFF;stroke-width:0;stroke-linecap:round;stroke-linejoin:round;" d="M 335.91,353.45 L 331.66, 357.7 L 327.41, 353.45 L 327.41, 360 L 335.91, 360 L 335.91, 353.45" />
      <path style="fill:#FFFFFF;stroke:#FFFFFF;stroke-width:0;stroke-linecap:round;stroke-linejoin:round;" d="M 335.91,350.62 L 331.66, 354.87 L 327.41, 350.62 L 327.41, 357.17 L 335.91, 357.17 L 335.91, 350.62" />
      <path style="fill:none;stroke:#000000;stroke-width:0.85;" d="M 335.91,352.92 L 331.66, 357.17 L 327.41, 352.92" />
      <path style="fill:none;stroke:#000000;stroke-width:0.85;" d="M 335.91,355.75 L 331.66, 360 L 327.41, 355.75" />
      <path style="fill:none;stroke:#000000;stroke-width:0.85;stroke-linecap:round;stroke-linejoin:round;" d="M 341.57,368.51 L 341.57, 360.01 L 321.73, 360.01 L 321.73, 368.51 L 341.57, 368.51" />
      <text transform="matrix(1 0 0 1 316.978 365.9639)" style="font-family:'Arial'; font-size:6px;">3</text>
    </g><g ewd:figtype="w2w" ewd:code="IH6" ewd:pin_no="24" ewd:figID="24">
      <path style="fill:#FFFFFF;stroke:#FFFFFF;stroke-width:0;stroke-linecap:round;stroke-linejoin:round;" d="M 335.91,434.59 L 331.66, 430.34 L 327.41, 434.59 L 327.41, 428.04 L 335.91, 428.04 L 335.91, 434.59" />
      <path style="fill:#FFFFFF;stroke:#FFFFFF;stroke-width:0;stroke-linecap:round;stroke-linejoin:round;" d="M 335.91,437.42 L 331.66, 433.17 L 327.41, 437.42 L 327.41, 430.87 L 335.91, 430.87 L 335.91, 437.42" />
      <path style="fill:none;stroke:#000000;stroke-width:0.85;" d="M 335.91,435.13 L 331.66, 430.88 L 327.41, 435.13" />
      <path style="fill:none;stroke:#000000;stroke-width:0.85;" d="M 335.91,432.29 L 331.66, 428.04 L 327.41, 432.29" />
      <path style="fill:none;stroke:#000000;stroke-width:0.85;stroke-linecap:round;stroke-linejoin:round;" d="M 341.57,419.53 L 341.57, 428.03 L 321.73, 428.03 L 321.73, 419.53 L 341.57, 419.53" />
      <text transform="matrix(1 0 0 1 313.6421 425.4922)" style="font-family:'Arial'; font-size:6px;">24</text>
    </g><g ewd:figtype="w2w" ewd:code="Hu1" ewd:pin_no="10" ewd:figID="25">
      <path style="fill:#FFFFFF;stroke:#FFFFFF;stroke-width:0;stroke-linecap:round;stroke-linejoin:round;" d="M 386.93,353.45 L 382.68, 357.7 L 378.43, 353.45 L 378.43, 360 L 386.93, 360 L 386.93, 353.45" />
      <path style="fill:#FFFFFF;stroke:#FFFFFF;stroke-width:0;stroke-linecap:round;stroke-linejoin:round;" d="M 386.93,350.62 L 382.68, 354.87 L 378.43, 350.62 L 378.43, 357.17 L 386.93, 357.17 L 386.93, 350.62" />
      <path style="fill:none;stroke:#000000;stroke-width:0.85;" d="M 386.93,352.92 L 382.68, 357.17 L 378.43, 352.92" />
      <path style="fill:none;stroke:#000000;stroke-width:0.85;" d="M 386.93,355.75 L 382.68, 360 L 378.43, 355.75" />
      <path style="fill:none;stroke:#000000;stroke-width:0.85;stroke-linecap:round;stroke-linejoin:round;" d="M 392.6,368.51 L 392.6, 360.01 L 372.76, 360.01 L 372.76, 368.51 L 392.6, 368.51" />
      <text transform="matrix(1 0 0 1 364.665 365.9639)" style="font-family:'Arial'; font-size:6px;">10</text>
    </g><g ewd:figtype="w2w" ewd:code="Iu1" ewd:pin_no="10" ewd:figID="33">
      <path style="fill:#FFFFFF;stroke:#FFFFFF;stroke-width:0;stroke-linecap:round;stroke-linejoin:round;" d="M 429.45,353.45 L 425.2, 357.7 L 420.95, 353.45 L 420.95, 360 L 429.45, 360 L 429.45, 353.45" />
      <path style="fill:#FFFFFF;stroke:#FFFFFF;stroke-width:0;stroke-linecap:round;stroke-linejoin:round;" d="M 429.45,350.62 L 425.2, 354.87 L 420.95, 350.62 L 420.95, 357.17 L 429.45, 357.17 L 429.45, 350.62" />
      <path style="fill:none;stroke:#000000;stroke-width:0.85;" d="M 429.45,352.92 L 425.2, 357.17 L 420.95, 352.92" />
      <path style="fill:none;stroke:#000000;stroke-width:0.85;" d="M 429.45,355.75 L 425.2, 360 L 420.95, 355.75" />
      <path style="fill:none;stroke:#000000;stroke-width:0.85;stroke-linecap:round;stroke-linejoin:round;" d="M 435.12,368.51 L 435.12, 360.01 L 415.28, 360.01 L 415.28, 368.51 L 435.12, 368.51" />
      <text transform="matrix(1 0 0 1 407.1846 365.9639)" style="font-family:'Arial'; font-size:6px;">10</text>
    </g><g ewd:figtype="w2w" ewd:code="Hu1" ewd:pin_no="12" ewd:figID="34">
      <path style="fill:#FFFFFF;stroke:#FFFFFF;stroke-width:0;stroke-linecap:round;stroke-linejoin:round;" d="M 582.52,353.45 L 578.27, 357.7 L 574.02, 353.45 L 574.02, 360 L 582.52, 360 L 582.52, 353.45" />
      <path style="fill:#FFFFFF;stroke:#FFFFFF;stroke-width:0;stroke-linecap:round;stroke-linejoin:round;" d="M 582.52,350.62 L 578.27, 354.87 L 574.02, 350.62 L 574.02, 357.17 L 582.52, 357.17 L 582.52, 350.62" />
      <path style="fill:none;stroke:#000000;stroke-width:0.85;" d="M 582.52,352.92 L 578.27, 357.17 L 574.02, 352.92" />
      <path style="fill:none;stroke:#000000;stroke-width:0.85;" d="M 582.52,355.75 L 578.27, 360 L 574.02, 355.75" />
      <path style="fill:none;stroke:#000000;stroke-width:0.85;stroke-linecap:round;stroke-linejoin:round;" d="M 588.19,368.51 L 588.19, 360.01 L 568.35, 360.01 L 568.35, 368.51 L 588.19, 368.51" />
      <text transform="matrix(1 0 0 1 560.2559 365.9639)" style="font-family:'Arial'; font-size:6px;">12</text>
    </g><g ewd:figtype="w2w" ewd:code="Iu1" ewd:pin_no="12" ewd:figID="35">
      <path style="fill:#FFFFFF;stroke:#FFFFFF;stroke-width:0;stroke-linecap:round;stroke-linejoin:round;" d="M 642.05,353.45 L 637.8, 357.7 L 633.55, 353.45 L 633.55, 360 L 642.05, 360 L 642.05, 353.45" />
      <path style="fill:#FFFFFF;stroke:#FFFFFF;stroke-width:0;stroke-linecap:round;stroke-linejoin:round;" d="M 642.05,350.62 L 637.8, 354.87 L 633.55, 350.62 L 633.55, 357.17 L 642.05, 357.17 L 642.05, 350.62" />
      <path style="fill:none;stroke:#000000;stroke-width:0.85;" d="M 642.05,352.92 L 637.8, 357.17 L 633.55, 352.92" />
      <path style="fill:none;stroke:#000000;stroke-width:0.85;" d="M 642.05,355.75 L 637.8, 360 L 633.55, 355.75" />
      <path style="fill:none;stroke:#000000;stroke-width:0.85;stroke-linecap:round;stroke-linejoin:round;" d="M 647.72,368.51 L 647.72, 360.01 L 627.8799, 360.01 L 627.8799, 368.51 L 647.72, 368.51" />
      <text transform="matrix(1 0 0 1 619.7842 365.9639)" style="font-family:'Arial'; font-size:6px;">12</text>
    </g><g ewd:figtype="w2w" ewd:code="IH5" ewd:pin_no="9" ewd:figID="36">
      <path style="fill:#FFFFFF;stroke:#FFFFFF;stroke-width:0;stroke-linecap:round;stroke-linejoin:round;" d="M 429.45,434.59 L 425.2, 430.34 L 420.95, 434.59 L 420.95, 428.04 L 429.45, 428.04 L 429.45, 434.59" />
      <path style="fill:#FFFFFF;stroke:#FFFFFF;stroke-width:0;stroke-linecap:round;stroke-linejoin:round;" d="M 429.45,437.42 L 425.2, 433.17 L 420.95, 437.42 L 420.95, 430.87 L 429.45, 430.87 L 429.45, 437.42" />
      <path style="fill:none;stroke:#000000;stroke-width:0.85;" d="M 429.45,435.13 L 425.2, 430.88 L 420.95, 435.13" />
      <path style="fill:none;stroke:#000000;stroke-width:0.85;" d="M 429.45,432.29 L 425.2, 428.04 L 420.95, 432.29" />
      <path style="fill:none;stroke:#000000;stroke-width:0.85;stroke-linecap:round;stroke-linejoin:round;" d="M 435.12,419.53 L 435.12, 428.03 L 415.28, 428.03 L 415.28, 419.53 L 435.12, 419.53" />
      <text transform="matrix(1 0 0 1 410.522 425.4922)" style="font-family:'Arial'; font-size:6px;">9</text>
    </g><g ewd:figtype="conn" ewd:code="H88" ewd:figID="10">
      <path style="fill:none;stroke:#000000;stroke-width:0.85;" d="M 382.65,521.58 L 382.65, 504.57" />
      <path style="fill:none;stroke:#000000;stroke-width:1.417;stroke-linecap:round;stroke-linejoin:round;" d="M 391.18,521.58 L 391.18, 504.57 L 374.17, 504.57 L 374.17, 521.58 L 391.18, 521.58" />
      <text transform="matrix(1 0 0 1 371.0425 528.957)" style="font-family:'Arial'; font-size:6px;">15</text>
      <text transform="matrix(1 0 0 1 371.0425 500.6113)" style="font-family:'Arial'; font-size:6px;">18</text>
      <g ewd:figtype="title">
        <text transform="matrix(1 0 0 1 394.0161 518.3281)" style="font-family:'Arial'; font-size:6px;" ewd:textID="11">Junction Connector</text>
        <text transform="matrix(1 0 0 1 394.0161 511.2412)" style="font-family:'Arial'; font-size:6px;">H88</text>
      </g>
    </g><g ewd:figID="37">
      <path style="fill:#FFFFFF;stroke:#FFFFFF;stroke-width:0;stroke-linecap:round;stroke-linejoin:round;" d="M 727.09,421.49 L 722.84, 425.74 L 718.59, 421.49 L 718.59, 428.04 L 727.09, 428.04 L 727.09, 421.49" />
      <path style="fill:#FFFFFF;stroke:#FFFFFF;stroke-width:0;stroke-linecap:round;stroke-linejoin:round;" d="M 727.09,418.65 L 722.84, 422.9 L 718.59, 418.65 L 718.59, 425.2 L 727.09, 425.2 L 727.09, 418.65" />
      <path style="fill:none;stroke:#000000;stroke-width:0.85;" d="M 727.09,420.95 L 722.84, 425.2 L 718.59, 420.95" />
      <path style="fill:none;stroke:#000000;stroke-width:0.85;" d="M 727.09,423.79 L 722.84, 428.04 L 718.59, 423.79" />
      <path style="fill:none;stroke:#000000;stroke-width:0.85;stroke-linecap:round;stroke-linejoin:round;" d="M 732.76,436.54 L 732.76, 428.04 L 712.92, 428.04 L 712.92, 436.54 L 732.76, 436.54" />
      <text transform="matrix(1 0 0 1 704.8232 433.9961)" style="font-family:'Arial'; font-size:6px;">10</text>
    </g><g ewd:figtype="w2w" ewd:code="ZT1" ewd:pin_no="17" ewd:figID="38">
      <path style="fill:#FFFFFF;stroke:#FFFFFF;stroke-width:0;stroke-linecap:round;stroke-linejoin:round;" d="M 769.61,421.49 L 765.36, 425.74 L 761.11, 421.49 L 761.11, 428.04 L 769.61, 428.04 L 769.61, 421.49" />
      <path style="fill:#FFFFFF;stroke:#FFFFFF;stroke-width:0;stroke-linecap:round;stroke-linejoin:round;" d="M 769.61,418.65 L 765.36, 422.9 L 761.11, 418.65 L 761.11, 425.2 L 769.61, 425.2 L 769.61, 418.65" />
      <path style="fill:none;stroke:#000000;stroke-width:0.85;" d="M 769.61,420.95 L 765.36, 425.2 L 761.11, 420.95" />
      <path style="fill:none;stroke:#000000;stroke-width:0.85;" d="M 769.61,423.79 L 765.36, 428.04 L 761.11, 423.79" />
      <path style="fill:none;stroke:#000000;stroke-width:0.85;stroke-linecap:round;stroke-linejoin:round;" d="M 775.28,436.54 L 775.28, 428.04 L 755.44, 428.04 L 755.44, 436.54 L 775.28, 436.54" />
      <text transform="matrix(1 0 0 1 747.3428 433.9961)" style="font-family:'Arial'; font-size:6px;">17</text>
    </g><g ewd:figtype="gp" ewd:code="H1" ewd:figID="49">
      <path style="fill:none;stroke:#000000;stroke-width:0.85;" d="M 578.27,708.67 L 578.27, 711.5" />
      <path style="fill:none;stroke:#000000;stroke-width:0.85;" d="M 576.85,720.01 L 579.68, 720.01" />
      <path style="fill:none;stroke:#000000;stroke-width:0.85;" d="M 575.43,717.17 L 581.1, 717.17" />
      <path style="fill:none;stroke:#000000;stroke-width:0.85;" d="M 572.6,714.34 L 583.94, 714.34" />
      <path style="fill:none;stroke:#000000;stroke-width:0.85;" d="M 569.76,711.5 L 586.77, 711.5" />
    </g><g ewd:figtype="w2w" ewd:code="IH6" ewd:pin_no="17" ewd:figID="50">
      <path style="fill:#FFFFFF;stroke:#FFFFFF;stroke-width:0;stroke-linecap:round;stroke-linejoin:round;" d="M 642.05,621.68 L 637.8, 617.43 L 633.55, 621.68 L 633.55, 615.13 L 642.05, 615.13 L 642.05, 621.68" />
      <path style="fill:#FFFFFF;stroke:#FFFFFF;stroke-width:0;stroke-linecap:round;stroke-linejoin:round;" d="M 642.05,624.51 L 637.8, 620.26 L 633.55, 624.51 L 633.55, 617.96 L 642.05, 617.96 L 642.05, 624.51" />
      <path style="fill:none;stroke:#000000;stroke-width:0.85;" d="M 642.05,622.21 L 637.8, 617.96 L 633.55, 622.21" />
      <path style="fill:none;stroke:#000000;stroke-width:0.85;" d="M 642.05,619.38 L 637.8, 615.13 L 633.55, 619.38" />
      <path style="fill:none;stroke:#000000;stroke-width:0.85;stroke-linecap:round;stroke-linejoin:round;" d="M 647.72,606.62 L 647.72, 615.12 L 627.8799, 615.12 L 627.8799, 606.62 L 647.72, 606.62" />
      <text transform="matrix(1 0 0 1 619.7842 612.5791)" style="font-family:'Arial'; font-size:6px;">17</text>
    </g><g ewd:figtype="conn" ewd:code="I12,I13" ewd:figID="11">
      <path style="fill:#FFFFFF;stroke:#000000;stroke-width:0.85;stroke-linecap:round;stroke-linejoin:round;" d="M 637.8,532.92 C 640.93 532.92 643.47 530.38 643.47 527.25 C 643.46994140625 524.12 640.93 521.58 637.8 521.58 C 634.669975585938 521.580034179687 632.13 524.12 632.13 527.25 C 632.130009765625 530.38 634.67 532.92 637.8 532.92" />
      <path style="fill:#FFFFFF;stroke:#000000;stroke-width:0.85;stroke-linecap:round;stroke-linejoin:round;" d="M 637.8,496.07 C 640.93 496.07 643.47 493.53 643.47 490.4 C 643.47 487.27 640.93 484.73 637.8 484.73 C 634.669975585938 484.730021972656 632.13 487.27 632.13 490.4 C 632.13 493.53 634.67 496.07 637.8 496.07" />
      <path style="fill:none;stroke:#000000;stroke-width:0.85;" d="M 637.8,496.07 L 637.8, 521.58" />
      <path style="fill:none;stroke:#000000;stroke-width:1.417;stroke-dasharray:5 2;" d="M 629.29,504.57 L 646.3, 504.57" />
      <path style="fill:none;stroke:#000000;stroke-width:1.417;stroke-dasharray:5 2;" d="M 629.29,513.08 L 646.3, 513.08" />
      <path style="fill:none;stroke:#000000;stroke-width:1.417;stroke-linecap:round;stroke-linejoin:round;" d="M 646.3,521.58 L 646.3, 496.07 L 629.29, 496.07 L 629.29, 521.58 L 646.3, 521.58" />
      <text transform="matrix(1 0 0 1 623.8945 492.4609)" style="font-family:'Arial'; font-size:6px;">12</text>
      <text transform="matrix(1 0 0 1 635.7949 492.1064)" style="font-family:'Arial'; font-size:6px;">B</text>
      <text transform="matrix(1 0 0 1 627.2314 529.3115)" style="font-family:'Arial'; font-size:6px;">7</text>
      <text transform="matrix(1 0 0 1 635.7949 528.957)" style="font-family:'Arial'; font-size:6px;">A</text>
      <g ewd:figtype="title">
        <text transform="matrix(0 -1 1 0 654.3848 521.5801)" style="font-family:'Arial'; font-size:6px;">I12(A), I13(B)</text>
        <text transform="matrix(0 -1 1 0 661.4717 521.5801)" style="font-family:'Arial'; font-size:6px;" ewd:textID="11">Junction Connector</text>
      </g>
    </g><g ewd:figtype="conn" ewd:code="u3" ewd:figID="12">
      <path style="fill:none;stroke:#000000;stroke-width:1.417;stroke-linecap:round;stroke-linejoin:round;" d="M 867.4,266.46 L 867.4, 215.44 L 272.13, 215.44 L 272.13, 266.46 L 867.4, 266.46" />
      <g ewd:lineID="22,15">
        <text transform="matrix(1 0 0 1 285.9668 262.501)" style="font-family:'Arial'; font-size:6px;">IG</text>
        <text transform="matrix(1 0 0 1 280.8359 273.8394)" style="font-family:'Arial'; font-size:6px;">6</text>
      </g>
      <g ewd:lineID="39,31">
        <text transform="matrix(1 0 0 1 576.2676 262.501)" style="font-family:'Arial'; font-size:6px;">E</text>
        <text transform="matrix(1 0 0 1 569.9707 273.8394)" style="font-family:'Arial'; font-size:6px;">3</text>
      </g>
      <g ewd:lineID="46,14">
        <text transform="matrix(1 0 0 1 376.5088 262.501)" style="font-family:'Arial'; font-size:6px;">REV</text>
        <text transform="matrix(1 0 0 1 374.3794 273.8394)" style="font-family:'Arial'; font-size:6px;">5</text>
      </g>
      <g ewd:lineID="51,23">
        <text transform="matrix(1 0 0 1 845.2275 262.501)" style="font-family:'Arial'; font-size:6px;">CV-</text>
        <text transform="matrix(1 0 0 1 842.0967 273.8394)" style="font-family:'Arial'; font-size:6px;">1</text>
      </g>
      <g ewd:lineID="54,27">
        <text transform="matrix(1 0 0 1 801.9541 262.501)" style="font-family:'Arial'; font-size:6px;">CV+</text>
        <text transform="matrix(1 0 0 1 799.5762 273.8394)" style="font-family:'Arial'; font-size:6px;">2</text>
      </g>
      <g ewd:lineID="55,35">
        <text transform="matrix(1 0 0 1 759.4346 262.501)" style="font-family:'Arial'; font-size:6px;">CB+</text>
        <text transform="matrix(1 0 0 1 757.0566 273.8394)" style="font-family:'Arial'; font-size:6px;">7</text>
      </g>
      <g ewd:lineID="99999">
        <text transform="matrix(1 0 0 1 714.002 262.501)" style="font-family:'Arial'; font-size:6px;">CGND</text>
        <text transform="matrix(1 0 0 1 714.5371 273.8394)" style="font-family:'Arial'; font-size:6px;">8</text>
      </g>
      <g ewd:figtype="title">
        <text transform="matrix(1 0 0 1 323.1494 210.7681)" style="font-family:'Arial'; font-size:6px;" ewd:textID="9">Inner Rear View Mirror Assembly</text>
        <text transform="matrix(1 0 0 1 323.1494 203.6816)" style="font-family:'Arial'; font-size:6px;">u3</text>
      </g>
      <g ewd:figtype="title">
        <text transform="matrix(1 0 0 1 620.7871 210.7681)" style="font-family:'Arial'; font-size:6px;" ewd:textID="9">Inner Rear View Mirror Assembly</text>
        <text transform="matrix(1 0 0 1 620.7871 203.6816)" style="font-family:'Arial'; font-size:6px;">u3</text>
      </g>
    </g><g ewd:figtype="conn" ewd:code="a5" ewd:figID="13">
      <path style="fill:none;stroke:#000000;stroke-width:1.417;stroke-linecap:round;stroke-linejoin:round;" d="M 909.92,632.13 L 909.92, 598.11 L 748.35, 598.11 L 748.35, 632.13 L 909.92, 632.13" />
      <g ewd:lineID="26">
        <text transform="matrix(1 0 0 1 845.2275 605.4922)" style="font-family:'Arial'; font-size:6px;">CV-</text>
        <text transform="matrix(1 0 0 1 842.0967 594.1543)" style="font-family:'Arial'; font-size:6px;">2</text>
      </g>
      <g ewd:lineID="30">
        <text transform="matrix(1 0 0 1 801.9561 605.4922)" style="font-family:'Arial'; font-size:6px;">CV+</text>
        <text transform="matrix(1 0 0 1 799.5771 594.1543)" style="font-family:'Arial'; font-size:6px;">3</text>
      </g>
      <g ewd:lineID="38">
        <text transform="matrix(1 0 0 1 759.4365 605.4922)" style="font-family:'Arial'; font-size:6px;">CB+</text>
        <text transform="matrix(1 0 0 1 757.0576 594.1543)" style="font-family:'Arial'; font-size:6px;">6</text>
      </g>
      <g ewd:lineID="6">
        <text transform="matrix(1 0 0 1 884.0811 605.4922)" style="font-family:'Arial'; font-size:6px;">CGND</text>
        <text transform="matrix(1 0 0 1 884.6172 594.1543)" style="font-family:'Arial'; font-size:6px;">5</text>
      </g>
      <g ewd:figtype="title">
        <text transform="matrix(1 0 0 1 790.8672 647.3037)" style="font-family:'Arial'; font-size:6px;" ewd:textID="13">Television Camera Assembly</text>
        <text transform="matrix(1 0 0 1 790.8672 640.2168)" style="font-family:'Arial'; font-size:6px;">a5</text>
      </g>
    </g><g ewd:figtype="comment" ewd:code="8" ewd:figID="1013">
      <text transform="matrix(1 0 0 1 277.811 76.0747)" style="font-family:'Arial'; font-size:6px;">*8 : RHD</text>
    </g><g ewd:figtype="comment" ewd:code="11" ewd:figID="1012">
      <text transform="matrix(1 0 0 1 277.811 84.5781)" style="font-family:'Arial'; font-size:6px;">*11 : 1GD-FTV</text>
    </g><g ewd:figtype="comment" ewd:code="12" ewd:figID="1011">
      <text transform="matrix(1 0 0 1 277.811 93.0815)" style="font-family:'Arial'; font-size:6px;" ewd:textID="3">*12 : Except 1GD-FTV</text>
    </g><g ewd:figtype="comment" ewd:code="7" ewd:figID="1010">
      <text transform="matrix(1 0 0 1 277.811 67.5703)" style="font-family:'Arial'; font-size:6px;">*7 : LHD</text>
    </g><g ewd:figtype="comment" ewd:code="6" ewd:figID="1005">
      <text transform="matrix(1 0 0 1 277.811 59.0664)" style="font-family:'Arial'; font-size:6px;" ewd:textID="5">*6 : Halogen Headlight w/o Power Slide Door</text>
    </g><g ewd:figtype="comment" ewd:code="5" ewd:figID="1004">
      <text transform="matrix(1 0 0 1 277.811 50.5625)" style="font-family:'Arial'; font-size:6px;" ewd:textID="4">*5 : LED Headlight, w/ Power Slide Door</text>
    </g><g ewd:figtype="comment" ewd:code="4" ewd:figID="1003">
      <text transform="matrix(1 0 0 1 277.811 42.0586)" style="font-family:'Arial'; font-size:6px;">*4 : A/T</text>
    </g><g ewd:figtype="comment" ewd:code="3" ewd:figID="1002">
      <text transform="matrix(1 0 0 1 277.811 33.5547)" style="font-family:'Arial'; font-size:6px;">*3 : M/T</text>
    </g><g ewd:figtype="comment" ewd:code="2" ewd:figID="1001">
      <text transform="matrix(1 0 0 1 277.811 25.0508)" style="font-family:'Arial'; font-size:6px;">*2 : 5L-E</text>
    </g><g ewd:figtype="comment" ewd:code="1" ewd:figID="1000">
      <text transform="matrix(1 0 0 1 277.811 16.5464)" style="font-family:'Arial'; font-size:6px;">*1 : 1TR-FE, 2TR-FE, 1KD-FTV, 2KD-FTV</text>
    </g><text transform="matrix(0 -1 1 0 378.7139 463.7227)" style="font-family:'Arial'; font-size:6px;">L</text><text transform="matrix(0 -1 1 0 633.833 331.8228)" style="font-family:'Arial'; font-size:6px;">W-B</text><text transform="matrix(0 -1 1 0 574.3047 331.8228)" style="font-family:'Arial'; font-size:6px;">W-B</text><text transform="matrix(0 -1 1 0 574.3047 399.8545)" style="font-family:'Arial'; font-size:6px;">W-B</text><text transform="matrix(0 -1 1 0 574.3047 569.9326)" style="font-family:'Arial'; font-size:6px;">W-B</text><text transform="matrix(0 -1 1 0 574.3047 663.4766)" style="font-family:'Arial'; font-size:6px;">W-B</text><text transform="matrix(0 -1 1 0 633.833 399.8545)" style="font-family:'Arial'; font-size:6px;">W-B</text><text transform="matrix(0 -1 1 0 633.833 569.9326)" style="font-family:'Arial'; font-size:6px;">W-B</text><text transform="matrix(0 -1 1 0 633.833 663.4766)" style="font-family:'Arial'; font-size:6px;">W-B</text><text transform="matrix(0 -1 1 0 421.2334 395.6914)" style="font-family:'Arial'; font-size:6px;">L</text><text transform="matrix(0 -1 1 0 421.2334 463.7227)" style="font-family:'Arial'; font-size:6px;">L</text><text transform="matrix(0 -1 1 0 421.2334 327.6597)" style="font-family:'Arial'; font-size:6px;">L</text><text transform="matrix(0 -1 1 0 378.7139 327.6597)" style="font-family:'Arial'; font-size:6px;">L</text><text transform="matrix(0 -1 1 0 327.6899 328.3247)" style="font-family:'Arial'; font-size:6px;">G</text><text transform="matrix(0 -1 1 0 327.6899 396.0234)" style="font-family:'Arial'; font-size:6px;">B</text><text transform="matrix(0 -1 1 0 285.1704 328.3247)" style="font-family:'Arial'; font-size:6px;">G</text><text transform="matrix(0 -1 1 0 285.1704 396.0234)" style="font-family:'Arial'; font-size:6px;">B</text><text transform="matrix(0 -1 1 0 327.6899 464.0547)" style="font-family:'Arial'; font-size:6px;">B</text><text transform="matrix(0 -1 1 0 390.0527 466.8877)" style="font-family:'Arial'; font-size:6px;">(*7)</text><text transform="matrix(0 -1 1 0 390.0527 330.8252)" style="font-family:'Arial'; font-size:6px;">(*7)</text><text transform="matrix(0 -1 1 0 296.5098 330.8252)" style="font-family:'Arial'; font-size:6px;">(*7)</text><text transform="matrix(0 -1 1 0 296.5098 398.8564)" style="font-family:'Arial'; font-size:6px;">(*7)</text><text transform="matrix(0 -1 1 0 339.0288 466.8877)" style="font-family:'Arial'; font-size:6px;">(*8)</text><text transform="matrix(0 -1 1 0 339.0288 398.8564)" style="font-family:'Arial'; font-size:6px;">(*8)</text><text transform="matrix(0 -1 1 0 339.0288 330.8252)" style="font-family:'Arial'; font-size:6px;">(*8)</text><text transform="matrix(0 -1 1 0 585.6436 330.8252)" style="font-family:'Arial'; font-size:6px;">(*7)</text><text transform="matrix(0 -1 1 0 585.6436 398.8564)" style="font-family:'Arial'; font-size:6px;">(*7)</text><text transform="matrix(0 -1 1 0 585.6436 568.9355)" style="font-family:'Arial'; font-size:6px;">(*7)</text><text transform="matrix(0 -1 1 0 585.6436 662.4785)" style="font-family:'Arial'; font-size:6px;">(*7)</text><text transform="matrix(0 -1 1 0 645.1709 330.8252)" style="font-family:'Arial'; font-size:6px;">(*8)</text><text transform="matrix(0 -1 1 0 645.1709 398.8564)" style="font-family:'Arial'; font-size:6px;">(*8)</text><text transform="matrix(0 -1 1 0 645.1709 568.9355)" style="font-family:'Arial'; font-size:6px;">(*8)</text><text transform="matrix(0 -1 1 0 645.1709 662.4785)" style="font-family:'Arial'; font-size:6px;">(*8)</text><text transform="matrix(0 -1 1 0 432.5723 330.8252)" style="font-family:'Arial'; font-size:6px;">(*8)</text><text transform="matrix(0 -1 1 0 432.5723 398.8564)" style="font-family:'Arial'; font-size:6px;">(*8)</text><text transform="matrix(0 -1 1 0 432.5723 466.8877)" style="font-family:'Arial'; font-size:6px;">(*8)</text><text transform="matrix(0 -1 1 0 378.7139 565.7695)" style="font-family:'Arial'; font-size:6px;">L</text><g ewd:figID="1104">
      <path style="fill:none;stroke:#000000;stroke-width:0.85;stroke-dasharray:3 1.5;" d="M 722.83,343 L 722.83, 308.98 L 867.4, 308.98 L 867.4, 343 L 722.83, 343" />
      <path d="M 722.83,310.4 C 723.61 310.4 724.25 309.77 724.25 308.98 C 724.25 308.2 723.62 307.56 722.83 307.56 C 722.040034179688 307.559995117188 721.41 308.19 721.41 308.98 C 721.42 309.77 722.05 310.4 722.83 310.4" style="stroke-linecap:round;stroke-linejoin:round;" />
      <path d="M 722.83,344.42 C 723.61 344.42 724.25 343.79 724.25 343 C 724.25 342.22 723.62 341.58 722.83 341.58 C 722.040034179688 341.579973144531 721.41 342.21 721.41 343 C 721.42 343.78 722.05 344.42 722.83 344.42" style="stroke-linecap:round;stroke-linejoin:round;" />
      <g ewd:figtype="comment">
        <text transform="matrix(0 -1 1 0 718.8721 339.665)" style="font-family:'Arial'; font-size:6px;" ewd:textID="1">(Shielded)</text>
        <text transform="matrix(0 -1 1 0 730.2109 330.8252)" style="font-family:'Arial'; font-size:6px;">(*9)</text>
      </g>
    </g><g ewd:figID="1103">
      <path style="fill:none;stroke:#000000;stroke-width:0.85;stroke-dasharray:3 1.5;" d="M 722.83,411.03 L 722.83, 377.01 L 867.4, 377.01 L 867.4, 411.03 L 722.83, 411.03" />
      <path d="M 722.83,378.43 C 723.61 378.43 724.25 377.8 724.25 377.01 C 724.25 376.23 723.62 375.59 722.83 375.59 C 722.040034179688 375.589992675781 721.41 376.22 721.41 377.01 C 721.42 377.8 722.05 378.43 722.83 378.43" style="stroke-linecap:round;stroke-linejoin:round;" />
      <path d="M 722.83,412.45 C 723.61 412.45 724.25 411.82 724.25 411.03 C 724.25 410.25 723.62 409.61 722.83 409.61 C 722.040034179688 409.609970703125 721.41 410.24 721.41 411.03 C 721.42 411.81 722.05 412.45 722.83 412.45" style="stroke-linecap:round;stroke-linejoin:round;" />
      <g ewd:figtype="comment">
        <text transform="matrix(0 -1 1 0 718.8721 407.6973)" style="font-family:'Arial'; font-size:6px;" ewd:textID="1">(Shielded)</text>
        <text transform="matrix(0 -1 1 0 730.2109 398.8564)" style="font-family:'Arial'; font-size:6px;">(*9)</text>
      </g>
    </g><g ewd:figID="1102">
      <path style="fill:none;stroke:#000000;stroke-width:0.85;stroke-dasharray:3 1.5;" d="M 722.83,479.06 L 722.83, 445.04 L 867.4, 445.04 L 867.4, 479.05 L 722.83, 479.05" />
      <path d="M 722.83,446.46 C 723.61 446.46 724.25 445.83 724.25 445.04 C 724.25 444.26 723.62 443.62 722.83 443.62 C 722.040034179688 443.619990234375 721.41 444.25 721.41 445.04 C 721.42 445.83 722.05 446.46 722.83 446.46" style="stroke-linecap:round;stroke-linejoin:round;" />
      <path d="M 722.83,480.48 C 723.61 480.48 724.25 479.85 724.25 479.06 C 724.25 478.28 723.62 477.64 722.83 477.64 C 722.040034179688 477.640029296875 721.41 478.27 721.41 479.06 C 721.42 479.84 722.05 480.48 722.83 480.48" style="stroke-linecap:round;stroke-linejoin:round;" />
      <g ewd:figtype="comment">
        <text transform="matrix(0 -1 1 0 718.8721 475.7285)" style="font-family:'Arial'; font-size:6px;" ewd:textID="1">(Shielded)</text>
        <text transform="matrix(0 -1 1 0 730.2109 466.8877)" style="font-family:'Arial'; font-size:6px;">(*9)</text>
      </g>
    </g><g ewd:figID="1101">
      <path style="fill:none;stroke:#000000;stroke-width:0.85;stroke-dasharray:3 1.5;" d="M 867.4,555.6 L 867.4, 581.11 L 722.83, 581.11 L 722.83, 547.1 L 858.9, 547.1" />
      <path d="M 722.83,548.51 C 723.61 548.51 724.25 547.88 724.25 547.09 C 724.25 546.300053710938 723.62 545.67 722.83 545.67 C 722.040034179688 545.669965820313 721.41 546.3 721.41 547.09 C 721.409946289063 547.880053710938 722.05 548.51 722.83 548.51" style="stroke-linecap:round;stroke-linejoin:round;" />
      <g ewd:figtype="comment">
        <text transform="matrix(0 -1 1 0 718.8721 577.7754)" style="font-family:'Arial'; font-size:6px;" ewd:textID="1">(Shielded)</text>
      </g>
    </g></svg>