﻿<?xml version="1.0" encoding="utf-8"?>
<!-- Generator: Adobe Illustrator 10.0, SVG Export Plug-In . SVG Version: 3.0.0 Build 77)  -->
<!DOCTYPE svg PUBLIC "-//W3C//DTD SVG 1.0//EN" "http://www.w3.org/TR/2001/REC-SVG-20010904/DTD/svg10.dtd"[
   <!ENTITY ns_flows "http://ns.adobe.com/Flows/1.0/">
   <!ENTITY ns_svg "http://www.w3.org/2000/svg">
   <!ENTITY ns_xlink "http://www.w3.org/1999/xlink">
   <!ENTITY st0 "font-size:7px;font-family:'MS-PGothic';adobe-font-script:japanese;">
   <!ENTITY st1 "font-size:6px;font-family:'ArialMT';">
   <!ENTITY st2 "fill:#FFFFFF;stroke:#000000; stroke-width:1.41;stroke-linecap:round;stroke-linejoin:round;">
   <!ENTITY st3 "fill:#FFFFCC;stroke:#FFFFCC; stroke-width:0.1;stroke-linecap:round;stroke-linejoin:round;">
   <!ENTITY st4 "fill:#CCCCCC;stroke:#CCCCCC; stroke-width:0.1;stroke-linecap:round;stroke-linejoin:round;">
   <!ENTITY st5 "fill:#CCECF4;stroke:#000000; stroke-width:1.133;stroke-linecap:round;stroke-linejoin:round;">
   <!ENTITY st6 "fill:none;stroke-linecap:butt; stroke-linejoin:round;">
   <!ENTITY st7 "fill:none;stroke:#000000;stroke-linecap:round;stroke-linejoin:round;">
   <!ENTITY st8 "enable-background:new;">
   <!ENTITY st9 "fill:#000000;stroke:#000000; stroke-linecap:round;stroke-linejoin:round;">
   <!ENTITY st10 "font-size:9px;font-family:'ArialMT';">
   <!ENTITY st11 "font-size:9px;font-family:'Svg Symbol';">
   <!ENTITY st12 "font-size:6px;font-family:'Svg Symbol';">
   <!ENTITY st13 "fill:none;stroke:#ff0000;stroke-linecap:round;stroke-linejoin:round;">
   <!ENTITY st14 "fill:#FFFF00;stroke:#FFFF00; stroke-width:0.1;stroke-linecap:round;stroke-linejoin:round;">
   <!ENTITY st15 "font-size:6px;font-family:'MS-PGothic';adobe-font-script:japanese;">
   <!ENTITY st16 "1.00 0.00 0.00 1.00">
   <!ENTITY st17 "0.00 -1.00 1.00 0.00">
   <!ENTITY st18 "font-size:6px;font-family:'Arial';">
   <!ENTITY st19 "font-size:9px;font-family:'Arial';">
   <!ENTITY st20 "font-size:6px;font-family:'MS-PGothic','MS PGothic';adobe-font-script:japanese;">
   <!ENTITY st21 "font-size:7px;font-family:'MS-PGothic','MS PGothic';adobe-font-script:japanese;">
   <!ATTLIST svg
       xmlns:ewd CDATA #FIXED "http://shcl.co.jp/ewd"
       xmlns:a CDATA #FIXED "http://ns.adobe.com/AdobeSVGViewerExtensions/3.0/"
       ewd:ver CDATA #IMPLIED >
   <!ATTLIST a
       ewd:lineID CDATA #IMPLIED
       ewd:groupID CDATA #IMPLIED
       ewd:figtype CDATA #IMPLIED
       ewd:code CDATA #IMPLIED
       ewd:figID CDATA #IMPLIED
       ewd:pinNo CDATA #IMPLIED
       ewd:comment CDATA #IMPLIED >
   <!ATTLIST g
       ewd:lineID CDATA #IMPLIED
       ewd:groupID CDATA #IMPLIED
       ewd:figtype CDATA #IMPLIED
       ewd:code CDATA #IMPLIED
       ewd:figID CDATA #IMPLIED
       ewd:pinNo CDATA #IMPLIED
       ewd:comment CDATA #IMPLIED >
   <!ATTLIST text
       ewd:textID CDATA #IMPLIED >
   <!ATTLIST title
       ewd:textID CDATA #IMPLIED >
]>
<svg xmlns="http://www.w3.org/2000/svg" xmlns:xlink="http://www.w3.org/1999/xlink" width="1050.24" height="721" viewBox="0 0 1050.24 721" xml:space="preserve" xmlns:ewd="http://shcl.co.jp/ewd" ewd:ver="2.0">
  
  <defs>
    <font horiz-adv-x="1229">
      <font-face font-family="Svg Symbol" units-per-em="2048" panose-1="5 5 1 2 1 7 6 2 5 7" ascent="2059" descent="450" alphabetic="0" />
      <missing-glyph d="M 103,0 l 0,1280 1024,0 0,-1280 -1024,0 z m 32,32 l 960,0 0,1216 -960,0 0,-1216 z" />
      <glyph d4p1:unicode="" horiz-adv-x="1573" d="M 1517,0 l -567,0 24,279 q 141,59 207.5,168 66.5,109 66.5,306 0,272 -132.5,417.5 -132.5,145.5 -333.5,145.5 -194,0 -328,-147.5 -134,-147.5 -134,-401.5 0,-200 68.5,-319 68.5,-119 206.5,-169 l 25,-279 -564,0 0,279 35,0 q 3,-61 32,-83 45,-35 137,-35 l 270,0 0,70 q -210,61 -324.5,209 -114.5,148 -114.5,349 0,252 186.5,425 186.5,173 504.5,173 195,0 358.5,-73.5 163.5,-73.5 252,-214.5 88.5,-141 88.5,-310 0,-207 -121.5,-360.5 -121.5,-153.5 -317.5,-197.5 l -8,-70 275,0 q 92,0 128,28 36,28 42,90 l 38,0 0,-279 z" xmlns:d4p1="def-glyph-attr-unicode" />
    </font>
  </defs>
  
<g ewd:figtype="jb" ewd:code="13" ewd:figID="4">
      <path style="fill:none;stroke:#000000;stroke-width:0.85;" d="M 144.57,158.74 L 144.57, 172.91 L 68.03, 172.91 L 68.03, 189.92" />
      <path style="fill:none;stroke:#000000;stroke-width:0.85;" d="M 68.03,189.92 L 68.03, 194.17" />
      <path style="fill:none;stroke:#000000;stroke-width:0.85;" d="M 68.03,219.69 L 68.03, 223.94" />
      <path style="fill:none;stroke:#000000;stroke-width:0.85;" d="M 68.03,223.94 L 68.03, 240.95 L 102.05, 240.95 L 102.05, 257.96" />
      <path style="fill:none;stroke:#000000;stroke-width:0.85;" d="M 102.05,257.95 L 102.05, 265.04" />
      <path style="fill:none;stroke:#000000;stroke-width:0.85;" d="M 102.05,293.38 L 102.05, 300.47" />
      <path style="fill:none;stroke:#000000;stroke-width:0.85;" d="M 102.05,300.47 L 102.05, 323.15" />
      <path style="fill:none;stroke:#000000;stroke-width:0.85;" d="M 42.52,80.79 L 42.52, 87.88" />
      <path style="fill:none;stroke:#000000;stroke-width:0.85;" d="M 42.52,87.88 L 42.52, 189.93" />
      <path style="fill:none;stroke:#000000;stroke-width:0.85;" d="M 42.52,189.92 L 42.52, 197.43" />
      <path style="fill:none;stroke:#000000;stroke-width:0.85;" d="M 42.52,216.43 L 42.52, 223.94" />
      <path style="fill:none;stroke:#000000;stroke-width:0.85;" d="M 42.52,223.94 L 42.52, 323.15" />
      <path d="M 42.52,323.15 L 45.35, 320.32 L 45.35, 317.49 L 42.52, 320.32 L 39.69, 317.49 L 39.69, 320.32 L 42.52, 323.15" style="stroke-linecap:round;stroke-linejoin:round;" />
      <path style="fill:none;stroke:#000000;stroke-width:0.85;stroke-linecap:round;stroke-linejoin:round;" d="M 46.77,334.49 C 49.9 334.49 52.44 331.95 52.44 328.82 C 52.44 325.69 49.9 323.15 46.77 323.15 L 38.27, 323.15 C 35.14 323.15 32.6 325.69 32.6 328.82 C 32.6 331.95 35.14 334.49 38.27 334.49 L 46.77, 334.49" />
      <path d="M 102.05,323.15 L 104.88, 320.32 L 104.88, 317.49 L 102.05, 320.32 L 99.21001, 317.49 L 99.21001, 320.32 L 102.05, 323.15" style="stroke-linecap:round;stroke-linejoin:round;" />
      <path style="fill:none;stroke:#000000;stroke-width:0.85;stroke-linecap:round;stroke-linejoin:round;" d="M 106.3,334.49 C 109.43 334.49 111.97 331.95 111.97 328.82 C 111.97 325.69 109.43 323.15 106.3 323.15 L 97.8, 323.15 C 94.67001 323.15 92.13 325.69 92.13 328.82 C 92.13 331.95 94.67 334.49 97.8 334.49 L 106.3, 334.49" />
      <path style="fill:none;stroke:#000000;stroke-width:1.417;" d="M 103.05,290.96 C 103.05 290.96 112.55 284.83 102.17 275.66 C 97.99 271.97 101.04 267.45 101.04 267.45" />
      <path style="fill:none;stroke:#000000;stroke-width:1.417;" d="M 101.04,267.46 C 101.04 267.46 91.54 273.59 101.92 282.76 C 106.1 286.45 103.05 290.97 103.05 290.97" />
      <path style="fill:none;stroke:#000000;stroke-width:0.85;stroke-linecap:round;stroke-linejoin:round;" d="M 102.05,293.38 C 102.83 293.38 103.47 292.75 103.47 291.96 C 103.470002441406 291.169982910156 102.84 290.54 102.05 290.54 C 101.27 290.54 100.63 291.17 100.63 291.96 C 100.629994506836 292.749982910156 101.26 293.38 102.05 293.38" />
      <path style="fill:none;stroke:#000000;stroke-width:0.85;stroke-linecap:round;stroke-linejoin:round;" d="M 102.05,267.87 C 102.83 267.87 103.47 267.24 103.47 266.45 C 103.470002441406 265.660024414062 102.84 265.03 102.05 265.03 C 101.27 265.03 100.63 265.66 100.63 266.45 C 100.629994506836 267.240024414062 101.26 267.87 102.05 267.87" />
      <path style="fill:none;stroke:#000000;stroke-width:1.417;" d="M 101.04,267.46 C 101.04 267.46 94.97 272.14 102.04 279.21 C 109.11 286.28 103.04 290.96 103.04 290.96" />
      <path style="fill:none;stroke:#000000;stroke-width:1.417;stroke-linecap:round;stroke-linejoin:round;" d="M 114.8,300.47 L 114.8, 257.95 L 89.29, 257.95 L 89.29, 300.47 L 114.8, 300.47" />
      <path style="fill:none;stroke:#000000;stroke-width:0.85;stroke-linecap:round;stroke-linejoin:round;" d="M 68.03,219.69 C 68.81 219.69 69.45 219.06 69.45 218.27 C 69.4499938964844 217.480008544922 68.82 216.85 68.03 216.85 C 67.25 216.85 66.61 217.48 66.61 218.27 C 66.6100012207031 219.060008544922 67.25 219.69 68.03 219.69" />
      <path style="fill:none;stroke:#000000;stroke-width:1.417;" d="M 68.4,216.9 L 73.7, 194.17" />
      <path style="fill:none;stroke:#000000;stroke-width:0.85;stroke-linecap:round;stroke-linejoin:round;" d="M 68.03,197.01 C 68.81 197.01 69.45 196.38 69.45 195.59 C 69.4499938964844 194.799992675781 68.82 194.17 68.03 194.17 C 67.25 194.17 66.61 194.8 66.61 195.59 C 66.6100012207031 196.379992675781 67.25 197.01 68.03 197.01" />
      <path style="fill:none;stroke:#000000;stroke-width:0.85;stroke-linecap:round;" d="M 39.37,209.74 C 40.15 208.88 41.27 208.34 42.52 208.34 C 44.87 208.34 46.77 210.24 46.77 212.59 C 46.7700009155273 214.939992675781 44.87 216.84 42.52 216.84" />
      <path style="fill:none;stroke:#000000;stroke-width:0.85;stroke-linecap:round;" d="M 39.32,209.72 C 40.1 210.61 41.25 211.18 42.52 211.18 C 44.87 211.18 46.77 209.28 46.77 206.93 C 46.77 204.58 44.87 202.68 42.52 202.68 C 41.24 202.68 40.1 203.24 39.32 204.13" />
      <path style="fill:none;stroke:#000000;stroke-width:0.85;stroke-linecap:round;" d="M 39.34,204.08 C 40.12 204.96 41.26 205.51 42.52 205.51 C 44.87 205.51 46.77 203.61 46.77 201.26 C 46.7700009155273 198.909989013672 44.87 197.01 42.52 197.01" />
      <path style="fill:none;stroke:#000000;stroke-width:1.417;stroke-linecap:round;stroke-linejoin:round;" d="M 76.53,223.94 L 76.53, 189.92 L 34.02, 189.92 L 34.02, 223.94 L 76.53, 223.94" />
      <path d="M 144.57,158.74 L 147.4, 161.57 L 147.4, 164.4 L 144.57, 161.57 L 141.74, 164.4 L 141.74, 161.57 L 144.57, 158.74" style="stroke-linecap:round;stroke-linejoin:round;" />
      <path style="fill:none;stroke:#000000;stroke-width:0.85;stroke-linecap:round;stroke-linejoin:round;" d="M 148.82,158.74 C 151.95 158.74 154.49 156.2 154.49 153.07 C 154.49 149.94 151.95 147.4 148.82 147.4 L 140.32, 147.4 C 137.19 147.4 134.65 149.94 134.65 153.07 C 134.65 156.2 137.19 158.74 140.32 158.74 L 148.82, 158.74" />
      <path style="fill:none;stroke:#000000;stroke-width:0.85;stroke-linecap:round;stroke-linejoin:round;" d="M 42.52,80.79 C 43.3 80.79 43.94 80.15 43.94 79.37 C 43.94 78.59 43.3 77.95 42.52 77.95 C 41.7400009155273 77.9499938964844 41.1 78.59 41.1 79.37 C 41.1 80.15 41.74 80.79 42.52 80.79" />
      <path style="fill:none;stroke:#000000;stroke-width:0.85;stroke-linecap:round;stroke-linejoin:round;" d="M 42.52,55.28 C 43.3 55.28 43.94 54.65 43.94 53.86 C 43.94 53.08 43.3 52.44 42.52 52.44 C 41.7400009155273 52.439997253418 41.1 53.07 41.1 53.86 C 41.1 54.64 41.74 55.28 42.52 55.28" />
      <path style="fill:none;stroke:#000000;stroke-width:1.417;" d="M 41.52,54.86 C 41.52 54.86 35.45 59.54 42.52 66.61 C 49.5900009155273 73.6800012207031 43.52 78.36 43.52 78.36" />
      <path style="fill:none;stroke:#000000;stroke-width:1.417;stroke-linecap:round;stroke-linejoin:round;" d="M 55.27,87.88 L 55.27, 45.36 L 29.76, 45.36 L 29.76, 87.88 L 55.27, 87.88" />
      <text transform="matrix(1 0 0 1 36.6831 330.5254)" style="font-family:'Arial'; font-size:6px;">13M</text>
      <text transform="matrix(1 0 0 1 27.8442 330.5254)" style="font-family:'Arial'; font-size:6px;">7</text>
      <text transform="matrix(1 0 0 1 96.709 330.5254)" style="font-family:'Arial'; font-size:6px;">13B</text>
      <text transform="matrix(1 0 0 1 84.0352 330.5254)" style="font-family:'Arial'; font-size:6px;">36</text>
      <text transform="matrix(1 0 0 1 93.749 253.9902)" style="font-family:'Arial'; font-size:6px;">1</text>
      <text transform="matrix(1 0 0 1 93.749 307.8481)" style="font-family:'Arial'; font-size:6px;">2</text>
      <text transform="matrix(1 0 0 1 117.6372 277.3755)" style="font-family:'Arial'; font-size:6px;">30A<tspan x="0" dy="1em">POWER</tspan></text>
      <text transform="matrix(1 0 0 1 79.3691 205.0918)" style="font-family:'Arial'; font-size:6px;" ewd:textID="12">PWR <tspan x="0" dy="1em">Relay</tspan></text>
      <text transform="matrix(1 0 0 1 138.896 154.7769)" style="font-family:'Arial'; font-size:6px;">13G</text>
      <text transform="matrix(1 0 0 1 129.8916 154.7769)" style="font-family:'Arial'; font-size:6px;">1</text>
      <text transform="matrix(1 0 0 1 34.2217 95.251)" style="font-family:'Arial'; font-size:6px;">2</text>
      <text transform="matrix(1 0 0 1 37.3545 41.3921)" style="font-family:'Arial'; font-size:6px;">(IG)</text>
      <text transform="matrix(1 0 0 1 58.1099 64.7783)" style="font-family:'Arial'; font-size:6px;">10A<tspan x="0" dy="1em">GAUGE NO. 1</tspan></text>
    </g><g ewd:figtype="jb" ewd:code="13" ewd:figID="3">
      <path style="fill:none;stroke:#000000;stroke-width:0.85;" d="M 229.61,80.79 L 229.61, 87.88" />
      <path style="fill:none;stroke:#000000;stroke-width:0.85;" d="M 229.61,87.88 L 229.61, 102.05" />
      <path d="M 229.61,102.05 L 232.44, 99.22 L 232.44, 96.39 L 229.61, 99.22 L 226.78, 96.39 L 226.78, 99.22 L 229.61, 102.05" style="stroke-linecap:round;stroke-linejoin:round;" />
      <path style="fill:none;stroke:#000000;stroke-width:0.85;stroke-linecap:round;stroke-linejoin:round;" d="M 233.86,113.39 C 236.99 113.39 239.53 110.85 239.53 107.72 C 239.53 104.59 236.99 102.05 233.86 102.05 L 225.36, 102.05 C 222.23 102.05 219.69 104.59 219.69 107.72 C 219.69 110.85 222.23 113.39 225.36 113.39 L 233.86, 113.39" />
      <path style="fill:none;stroke:#000000;stroke-width:0.85;stroke-linecap:round;stroke-linejoin:round;" d="M 229.61,80.79 C 230.39 80.79 231.03 80.15 231.03 79.37 C 231.03 78.59 230.4 77.95 229.61 77.95 C 228.820001220703 77.9499938964844 228.19 78.59 228.19 79.37 C 228.19 80.15 228.82 80.79 229.61 80.79" />
      <path style="fill:none;stroke:#000000;stroke-width:0.85;stroke-linecap:round;stroke-linejoin:round;" d="M 229.61,55.28 C 230.39 55.28 231.03 54.65 231.03 53.86 C 231.03 53.08 230.4 52.44 229.61 52.44 C 228.820001220703 52.439997253418 228.19 53.07 228.19 53.86 C 228.19 54.64 228.82 55.28 229.61 55.28" />
      <path style="fill:none;stroke:#000000;stroke-width:1.417;" d="M 228.6,54.86 C 228.6 54.86 222.53 59.54 229.6 66.61 C 236.670012207031 73.6800012207031 230.6 78.36 230.6 78.36" />
      <path style="fill:none;stroke:#000000;stroke-width:1.417;stroke-linecap:round;stroke-linejoin:round;" d="M 242.36,87.88 L 242.36, 45.36 L 216.85, 45.36 L 216.85, 87.88 L 242.36, 87.88" />
      <text transform="matrix(1 0 0 1 224.1025 109.4233)" style="font-family:'Arial'; font-size:6px;">13H</text>
      <text transform="matrix(1 0 0 1 214.9312 109.4233)" style="font-family:'Arial'; font-size:6px;">1</text>
      <text transform="matrix(1 0 0 1 221.3081 95.251)" style="font-family:'Arial'; font-size:6px;">2</text>
      <text transform="matrix(1 0 0 1 221.7734 41.3921)" style="font-family:'Arial'; font-size:6px;">(BAT)</text>
      <text transform="matrix(1 0 0 1 245.1968 64.7783)" style="font-family:'Arial'; font-size:6px;">30A<tspan x="0" dy="1em">DOOR</tspan></text>
    </g><g ewd:figtype="rb" ewd:code="FUSE126,FUSE205" ewd:comment="3,4" ewd:figID="5">
      <path style="fill:none;stroke:#000000;stroke-width:0.85;" d="M 144.57,80.92 L 144.57, 88.00999" />
      <path style="fill:none;stroke:#000000;stroke-width:0.85;" d="M 144.57,88.01 L 144.57, 102.16" />
      <path style="fill:none;stroke:#000000;stroke-width:0.85;stroke-linecap:round;stroke-linejoin:round;" d="M 148.96,124.81 C 152.09 124.81 154.63 122.27 154.63 119.14 C 154.63 116.01 152.09 113.47 148.96 113.47 L 140.46, 113.47 C 137.33 113.47 134.79 116.01 134.79 119.14 C 134.79 122.27 137.33 124.81 140.46 124.81 L 148.96, 124.81" />
      <path style="fill:none;stroke:#000000;stroke-width:0.85;stroke-linecap:round;stroke-linejoin:round;" d="M 148.92,113.49 C 152.05 113.49 154.59 110.95 154.59 107.82 C 154.59 104.69 152.05 102.15 148.92 102.15 L 140.42, 102.15 C 137.29 102.15 134.75 104.69 134.75 107.82 C 134.75 110.95 137.29 113.49 140.42 113.49 L 148.92, 113.49" />
      <path d="M 144.69,102.18 L 147.52, 99.35 L 147.52, 96.52 L 144.69, 99.35 L 141.86, 96.52 L 141.86, 99.35 L 144.69, 102.18" style="stroke-linecap:round;stroke-linejoin:round;" />
      <path style="fill:none;stroke:#000000;stroke-width:1.417;" d="M 145.66,78.5 C 145.66 78.5 155.16 72.37 144.78 63.2 C 140.6 59.51 143.65 55 143.65 55" />
      <path style="fill:none;stroke:#000000;stroke-width:1.417;" d="M 143.66,55 C 143.66 55 134.16 61.13 144.54 70.3 C 148.72 73.99001 145.67 78.51 145.67 78.51" />
      <path style="fill:none;stroke:#000000;stroke-width:0.85;stroke-linecap:round;stroke-linejoin:round;" d="M 144.66,80.92 C 145.44 80.92 146.08 80.29 146.08 79.5 C 146.080003662109 78.71 145.44 78.08 144.66 78.08 C 143.88 78.08 143.24 78.71 143.24 79.5 C 143.240010986328 80.29 143.88 80.92 144.66 80.92" />
      <path style="fill:none;stroke:#000000;stroke-width:0.85;stroke-linecap:round;stroke-linejoin:round;" d="M 144.66,55.41 C 145.44 55.41 146.08 54.78 146.08 53.99 C 146.08 53.21 145.44 52.57 144.66 52.57 C 143.88 52.57 143.24 53.2 143.24 53.99 C 143.24 54.78 143.88 55.41 144.66 55.41" />
      <path style="fill:none;stroke:#000000;stroke-width:1.417;" d="M 143.66,55 C 143.66 55 137.59 59.68 144.66 66.75 C 151.73 73.82 145.66 78.5 145.66 78.5" />
      <path style="fill:none;stroke:#000000;stroke-width:1.417;stroke-linecap:round;stroke-linejoin:round;" d="M 157.42,88.01 L 157.42, 45.49 L 131.9, 45.49 L 131.9, 88.01 L 157.42, 88.01" />
      <text transform="matrix(1 0 0 1 156.0439 120.8442)" style="font-family:'Arial'; font-size:6px;">(*3)</text>
      <text transform="matrix(1 0 0 1 156.0439 109.5049)" style="font-family:'Arial'; font-size:6px;">(*4)</text>
      <text transform="matrix(1 0 0 1 141.3682 120.8438)" style="font-family:'Arial'; font-size:6px;">14</text>
      <text transform="matrix(1 0 0 1 141.332 109.5317)" style="font-family:'Arial'; font-size:6px;">11</text>
      <text transform="matrix(1 0 0 1 160.356 59.2046)" style="font-family:'Arial'; font-size:6px;">100A  <tspan x="0" dy="1em">J/B (*4)</tspan><tspan x="0" dy="1em">120A  </tspan><tspan x="0" dy="1em">J/B (*3)</tspan></text>
      <text transform="matrix(1 0 0 1 136.3623 95.3862)" style="font-family:'Arial'; font-size:6px;">2</text>
      <text transform="matrix(1 0 0 1 136.8262 41.5269)" style="font-family:'Arial'; font-size:6px;">(BAT)</text>
    </g><g ewd:figtype="w2w" ewd:code="HA2" ewd:pin_no="7" ewd:figID="16">
      <path style="fill:#FFFFFF;stroke:#FFFFFF;stroke-width:0;stroke-linecap:round;stroke-linejoin:round;" d="M 233.86,162.46 L 229.61, 158.21 L 225.36, 162.46 L 225.36, 155.91 L 233.86, 155.91 L 233.86, 162.46" />
      <path style="fill:#FFFFFF;stroke:#FFFFFF;stroke-width:0;stroke-linecap:round;stroke-linejoin:round;" d="M 233.86,165.29 L 229.61, 161.04 L 225.36, 165.29 L 225.36, 158.74 L 233.86, 158.74 L 233.86, 165.29" />
      <path style="fill:none;stroke:#000000;stroke-width:0.85;" d="M 233.86,162.99 L 229.61, 158.74 L 225.36, 162.99" />
      <path style="fill:none;stroke:#000000;stroke-width:0.85;" d="M 233.86,160.16 L 229.61, 155.91 L 225.36, 160.16" />
      <path style="fill:none;stroke:#000000;stroke-width:0.85;stroke-linecap:round;stroke-linejoin:round;" d="M 239.53,147.4 L 239.53, 155.9 L 219.69, 155.9 L 219.69, 147.4 L 239.53, 147.4" />
      <text transform="matrix(1 0 0 1 214.9316 153.3594)" style="font-family:'Arial'; font-size:6px;">7</text>
    </g><g ewd:figtype="gp" ewd:code="H1" ewd:figID="26">
      <path style="fill:none;stroke:#000000;stroke-width:0.85;" d="M 42.52,708.66 L 42.52, 711.49" />
      <path style="fill:none;stroke:#000000;stroke-width:0.85;" d="M 41.1,720 L 43.94, 720" />
      <path style="fill:none;stroke:#000000;stroke-width:0.85;" d="M 39.68,717.17 L 45.35, 717.17" />
      <path style="fill:none;stroke:#000000;stroke-width:0.85;" d="M 36.85,714.33 L 48.19, 714.33" />
      <path style="fill:none;stroke:#000000;stroke-width:0.85;" d="M 34.01,711.5 L 51.02, 711.5" />
    </g><text transform="matrix(0 -1 1 0 98.084 356.9961)" style="font-family:'Arial'; font-size:6px;">W-L</text><text transform="matrix(0 -1 1 0 38.5557 357.3281)" style="font-family:'Arial'; font-size:6px;">W-B</text><text transform="matrix(0 -1 1 0 140.6035 141.3965)" style="font-family:'Arial'; font-size:6px;">B-G</text><text transform="matrix(0 -1 1 0 225.6431 136.3906)" style="font-family:'Arial'; font-size:6px;">W-R</text><text transform="matrix(0 -1 1 0 225.6431 187.4146)" style="font-family:'Arial'; font-size:6px;">W-R</text><text transform="matrix(0 -1 1 0 38.5562 680.4775)" style="font-family:'Arial'; font-size:6px;">W-B</text></svg>