﻿<?xml version="1.0" encoding="utf-8"?>
<!-- Generator: Adobe Illustrator 10.0, SVG Export Plug-In . SVG Version: 3.0.0 Build 77)  -->
<!DOCTYPE svg PUBLIC "-//W3C//DTD SVG 1.0//EN" "http://www.w3.org/TR/2001/REC-SVG-20010904/DTD/svg10.dtd"[
   <!ENTITY ns_flows "http://ns.adobe.com/Flows/1.0/">
   <!ENTITY ns_svg "http://www.w3.org/2000/svg">
   <!ENTITY ns_xlink "http://www.w3.org/1999/xlink">
   <!ENTITY st0 "font-size:7px;font-family:'MS-PGothic';adobe-font-script:japanese;">
   <!ENTITY st1 "font-size:6px;font-family:'ArialMT';">
   <!ENTITY st2 "fill:#FFFFFF;stroke:#000000; stroke-width:1.41;stroke-linecap:round;stroke-linejoin:round;">
   <!ENTITY st3 "fill:#FFFFCC;stroke:#FFFFCC; stroke-width:0.1;stroke-linecap:round;stroke-linejoin:round;">
   <!ENTITY st4 "fill:#CCCCCC;stroke:#CCCCCC; stroke-width:0.1;stroke-linecap:round;stroke-linejoin:round;">
   <!ENTITY st5 "fill:#CCECF4;stroke:#000000; stroke-width:1.133;stroke-linecap:round;stroke-linejoin:round;">
   <!ENTITY st6 "fill:none;stroke-linecap:butt; stroke-linejoin:round;">
   <!ENTITY st7 "fill:none;stroke:#000000;stroke-linecap:round;stroke-linejoin:round;">
   <!ENTITY st8 "enable-background:new;">
   <!ENTITY st9 "fill:#000000;stroke:#000000; stroke-linecap:round;stroke-linejoin:round;">
   <!ENTITY st10 "font-size:9px;font-family:'ArialMT';">
   <!ENTITY st11 "font-size:9px;font-family:'Svg Symbol';">
   <!ENTITY st12 "font-size:6px;font-family:'Svg Symbol';">
   <!ENTITY st13 "fill:none;stroke:#ff0000;stroke-linecap:round;stroke-linejoin:round;">
   <!ENTITY st14 "fill:#FFFF00;stroke:#FFFF00; stroke-width:0.1;stroke-linecap:round;stroke-linejoin:round;">
   <!ENTITY st15 "font-size:6px;font-family:'MS-PGothic';adobe-font-script:japanese;">
   <!ENTITY st16 "1.00 0.00 0.00 1.00">
   <!ENTITY st17 "0.00 -1.00 1.00 0.00">
   <!ENTITY st18 "font-size:6px;font-family:'Arial';">
   <!ENTITY st19 "font-size:9px;font-family:'Arial';">
   <!ENTITY st20 "font-size:6px;font-family:'MS-PGothic','MS PGothic';adobe-font-script:japanese;">
   <!ENTITY st21 "font-size:7px;font-family:'MS-PGothic','MS PGothic';adobe-font-script:japanese;">
   <!ATTLIST svg
       xmlns:ewd CDATA #FIXED "http://shcl.co.jp/ewd"
       xmlns:a CDATA #FIXED "http://ns.adobe.com/AdobeSVGViewerExtensions/3.0/"
       ewd:ver CDATA #IMPLIED >
   <!ATTLIST a
       ewd:lineID CDATA #IMPLIED
       ewd:groupID CDATA #IMPLIED
       ewd:figtype CDATA #IMPLIED
       ewd:code CDATA #IMPLIED
       ewd:figID CDATA #IMPLIED
       ewd:pinNo CDATA #IMPLIED
       ewd:comment CDATA #IMPLIED >
   <!ATTLIST g
       ewd:lineID CDATA #IMPLIED
       ewd:groupID CDATA #IMPLIED
       ewd:figtype CDATA #IMPLIED
       ewd:code CDATA #IMPLIED
       ewd:figID CDATA #IMPLIED
       ewd:pinNo CDATA #IMPLIED
       ewd:comment CDATA #IMPLIED >
   <!ATTLIST text
       ewd:textID CDATA #IMPLIED >
   <!ATTLIST title
       ewd:textID CDATA #IMPLIED >
]>
<svg xmlns="http://www.w3.org/2000/svg" xmlns:xlink="http://www.w3.org/1999/xlink" width="518.72" height="721" viewBox="0 0 518.72 721" xml:space="preserve" xmlns:ewd="http://shcl.co.jp/ewd" ewd:ver="2.0">
  
  <defs>
    <font horiz-adv-x="1229">
      <font-face font-family="Svg Symbol" units-per-em="2048" panose-1="5 5 1 2 1 7 6 2 5 7" ascent="2059" descent="450" alphabetic="0" />
      <missing-glyph d="M 103,0 l 0,1280 1024,0 0,-1280 -1024,0 z m 32,32 l 960,0 0,1216 -960,0 0,-1216 z" />
      <glyph d4p1:unicode="" horiz-adv-x="1573" d="M 1517,0 l -567,0 24,279 q 141,59 207.5,168 66.5,109 66.5,306 0,272 -132.5,417.5 -132.5,145.5 -333.5,145.5 -194,0 -328,-147.5 -134,-147.5 -134,-401.5 0,-200 68.5,-319 68.5,-119 206.5,-169 l 25,-279 -564,0 0,279 35,0 q 3,-61 32,-83 45,-35 137,-35 l 270,0 0,70 q -210,61 -324.5,209 -114.5,148 -114.5,349 0,252 186.5,425 186.5,173 504.5,173 195,0 358.5,-73.5 163.5,-73.5 252,-214.5 88.5,-141 88.5,-310 0,-207 -121.5,-360.5 -121.5,-153.5 -317.5,-197.5 l -8,-70 275,0 q 92,0 128,28 36,28 42,90 l 38,0 0,-279 z" xmlns:d4p1="def-glyph-attr-unicode" />
    </font>
  </defs>
  
<g ewd:figtype="jb" ewd:code="6" ewd:figID="1">
      <path style="fill:none;stroke:#000000;stroke-width:0.85;" d="M 442.18,297.64 L 442.18, 269.29" />
      <path d="M 442.18,297.64 L 445.01, 294.81 L 445.01, 291.98 L 442.18, 294.81 L 439.35, 291.98 L 439.35, 294.81 L 442.18, 297.64" style="stroke-linecap:round;stroke-linejoin:round;" />
      <path style="fill:none;stroke:#000000;stroke-width:0.85;stroke-linecap:round;stroke-linejoin:round;" d="M 446.44,308.98 C 449.57 308.98 452.11 306.44 452.11 303.31 C 452.11 300.18 449.57 297.64 446.44 297.64 L 437.94, 297.64 C 434.81 297.64 432.27 300.18 432.27 303.31 C 432.27 306.44 434.81 308.98 437.94 308.98 L 446.44, 308.98" />
      <path d="M 442.18,269.29 L 445.01, 272.12 L 445.01, 274.95 L 442.18, 272.12 L 439.35, 274.95 L 439.35, 272.12 L 442.18, 269.29" style="stroke-linecap:round;stroke-linejoin:round;" />
      <path style="fill:none;stroke:#000000;stroke-width:0.85;stroke-linecap:round;stroke-linejoin:round;" d="M 446.44,269.29 C 449.57 269.29 452.11 266.75 452.11 263.62 C 452.11 260.49 449.57 257.95 446.44 257.95 L 437.94, 257.95 C 434.81 257.95 432.27 260.49 432.27 263.62 C 432.27 266.75 434.81 269.29 437.94 269.29 L 446.44, 269.29" />
      <text transform="matrix(1 0 0 1 438.3486 305.0142)" style="font-family:'Arial'; font-size:6px;">6D</text>
      <text transform="matrix(1 0 0 1 424.1709 305.0142)" style="font-family:'Arial'; font-size:6px;">13</text>
      <text transform="matrix(1 0 0 1 438.3486 265.3281)" style="font-family:'Arial'; font-size:6px;">6D</text>
      <text transform="matrix(1 0 0 1 424.1709 265.3281)" style="font-family:'Arial'; font-size:6px;">19</text>
    </g><g ewd:figtype="w2w" ewd:code="BT1" ewd:pin_no="15" ewd:figID="6">
      <path style="fill:#FFFFFF;stroke:#FFFFFF;stroke-width:0;stroke-linecap:round;stroke-linejoin:round;" d="M 344.39,377.89 L 340.14, 373.64 L 335.89, 377.89 L 335.89, 371.34 L 344.39, 371.34 L 344.39, 377.89" />
      <path style="fill:#FFFFFF;stroke:#FFFFFF;stroke-width:0;stroke-linecap:round;stroke-linejoin:round;" d="M 344.39,375.06 L 340.14, 370.81 L 335.89, 375.06 L 335.89, 368.51 L 344.39, 368.51 L 344.39, 375.06" />
      <path style="fill:none;stroke:#000000;stroke-width:0.85;" d="M 344.39,375.59 L 340.14, 371.34 L 335.89, 375.59" />
      <path style="fill:none;stroke:#000000;stroke-width:0.85;" d="M 344.39,372.76 L 340.14, 368.51 L 335.89, 372.76" />
      <path style="fill:none;stroke:#000000;stroke-width:0.85;stroke-linecap:round;stroke-linejoin:round;" d="M 350.06,360 L 350.06, 368.5 L 330.22, 368.5 L 330.22, 360 L 350.06, 360" />
      <text transform="matrix(1 0 0 1 322.124 365.959)" style="font-family:'Arial'; font-size:6px;">15</text>
    </g><g ewd:figtype="w2w" ewd:code="HB1" ewd:pin_no="22" ewd:figID="7">
      <path style="fill:#FFFFFF;stroke:#FFFFFF;stroke-width:0;stroke-linecap:round;stroke-linejoin:round;" d="M 344.39,326.87 L 340.14, 322.62 L 335.89, 326.87 L 335.89, 320.32 L 344.39, 320.32 L 344.39, 326.87" />
      <path style="fill:#FFFFFF;stroke:#FFFFFF;stroke-width:0;stroke-linecap:round;stroke-linejoin:round;" d="M 344.39,324.03 L 340.14, 319.78 L 335.89, 324.03 L 335.89, 317.48 L 344.39, 317.48 L 344.39, 324.03" />
      <path style="fill:none;stroke:#000000;stroke-width:0.85;" d="M 344.39,324.57 L 340.14, 320.32 L 335.89, 324.57" />
      <path style="fill:none;stroke:#000000;stroke-width:0.85;" d="M 344.39,321.73 L 340.14, 317.48 L 335.89, 321.73" />
      <path style="fill:none;stroke:#000000;stroke-width:0.85;stroke-linecap:round;stroke-linejoin:round;" d="M 350.06,308.98 L 350.06, 317.48 L 330.22, 317.48 L 330.22, 308.98 L 350.06, 308.98" />
      <text transform="matrix(1 0 0 1 322.124 314.9346)" style="font-family:'Arial'; font-size:6px;">22</text>
    </g><g ewd:figtype="w2w" ewd:code="BT1" ewd:pin_no="9" ewd:figID="8">
      <path style="fill:#FFFFFF;stroke:#FFFFFF;stroke-width:0;stroke-linecap:round;stroke-linejoin:round;" d="M 395.41,377.89 L 391.16, 373.64 L 386.91, 377.89 L 386.91, 371.34 L 395.41, 371.34 L 395.41, 377.89" />
      <path style="fill:#FFFFFF;stroke:#FFFFFF;stroke-width:0;stroke-linecap:round;stroke-linejoin:round;" d="M 395.41,375.06 L 391.16, 370.81 L 386.91, 375.06 L 386.91, 368.51 L 395.41, 368.51 L 395.41, 375.06" />
      <path style="fill:none;stroke:#000000;stroke-width:0.85;" d="M 395.41,375.59 L 391.16, 371.34 L 386.91, 375.59" />
      <path style="fill:none;stroke:#000000;stroke-width:0.85;" d="M 395.41,372.76 L 391.16, 368.51 L 386.91, 372.76" />
      <path style="fill:none;stroke:#000000;stroke-width:0.85;stroke-linecap:round;stroke-linejoin:round;" d="M 401.08,360 L 401.08, 368.5 L 381.24, 368.5 L 381.24, 360 L 401.08, 360" />
      <text transform="matrix(1 0 0 1 376.4844 365.959)" style="font-family:'Arial'; font-size:6px;">9</text>
    </g><g ewd:figtype="w2w" ewd:code="HB1" ewd:pin_no="38" ewd:figID="9">
      <path style="fill:#FFFFFF;stroke:#FFFFFF;stroke-width:0;stroke-linecap:round;stroke-linejoin:round;" d="M 395.41,326.87 L 391.16, 322.62 L 386.91, 326.87 L 386.91, 320.32 L 395.41, 320.32 L 395.41, 326.87" />
      <path style="fill:#FFFFFF;stroke:#FFFFFF;stroke-width:0;stroke-linecap:round;stroke-linejoin:round;" d="M 395.41,324.03 L 391.16, 319.78 L 386.91, 324.03 L 386.91, 317.48 L 395.41, 317.48 L 395.41, 324.03" />
      <path style="fill:none;stroke:#000000;stroke-width:0.85;" d="M 395.41,324.57 L 391.16, 320.32 L 386.91, 324.57" />
      <path style="fill:none;stroke:#000000;stroke-width:0.85;" d="M 395.41,321.73 L 391.16, 317.48 L 386.91, 321.73" />
      <path style="fill:none;stroke:#000000;stroke-width:0.85;stroke-linecap:round;stroke-linejoin:round;" d="M 401.08,308.98 L 401.08, 317.48 L 381.24, 317.48 L 381.24, 308.98 L 401.08, 308.98" />
      <text transform="matrix(1 0 0 1 373.1475 314.9346)" style="font-family:'Arial'; font-size:6px;">38</text>
    </g><g ewd:figtype="w2w" ewd:code="dT2" ewd:pin_no="5" ewd:figID="11">
      <path style="fill:#FFFFFF;stroke:#FFFFFF;stroke-width:0;stroke-linecap:round;stroke-linejoin:round;" d="M 344.39,410.14 L 340.14, 414.39 L 335.89, 410.14 L 335.89, 416.69 L 344.39, 416.69 L 344.39, 410.14" />
      <path style="fill:#FFFFFF;stroke:#FFFFFF;stroke-width:0;stroke-linecap:round;stroke-linejoin:round;" d="M 344.39,412.97 L 340.14, 417.22 L 335.89, 412.97 L 335.89, 419.52 L 344.39, 419.52 L 344.39, 412.97" />
      <path style="fill:none;stroke:#000000;stroke-width:0.85;" d="M 344.39,412.44 L 340.14, 416.69 L 335.89, 412.44" />
      <path style="fill:none;stroke:#000000;stroke-width:0.85;" d="M 344.39,415.27 L 340.14, 419.52 L 335.89, 415.27" />
      <path style="fill:none;stroke:#000000;stroke-width:0.85;stroke-linecap:round;stroke-linejoin:round;" d="M 350.06,428.03 L 350.06, 419.53 L 330.22, 419.53 L 330.22, 428.03 L 350.06, 428.03" />
      <text transform="matrix(1 0 0 1 325.4609 425.4844)" style="font-family:'Arial'; font-size:6px;">5</text>
    </g><g ewd:figtype="w2w" ewd:code="dT2" ewd:pin_no="6" ewd:figID="13">
      <path style="fill:#FFFFFF;stroke:#FFFFFF;stroke-width:0;stroke-linecap:round;stroke-linejoin:round;" d="M 395.41,410.14 L 391.16, 414.39 L 386.91, 410.14 L 386.91, 416.69 L 395.41, 416.69 L 395.41, 410.14" />
      <path style="fill:#FFFFFF;stroke:#FFFFFF;stroke-width:0;stroke-linecap:round;stroke-linejoin:round;" d="M 395.41,412.97 L 391.16, 417.22 L 386.91, 412.97 L 386.91, 419.52 L 395.41, 419.52 L 395.41, 412.97" />
      <path style="fill:none;stroke:#000000;stroke-width:0.85;" d="M 395.41,412.44 L 391.16, 416.69 L 386.91, 412.44" />
      <path style="fill:none;stroke:#000000;stroke-width:0.85;" d="M 395.41,415.27 L 391.16, 419.52 L 386.91, 415.27" />
      <path style="fill:none;stroke:#000000;stroke-width:0.85;stroke-linecap:round;stroke-linejoin:round;" d="M 401.08,428.03 L 401.08, 419.53 L 381.24, 419.53 L 381.24, 428.03 L 401.08, 428.03" />
      <text transform="matrix(1 0 0 1 376.4844 425.4844)" style="font-family:'Arial'; font-size:6px;">6</text>
    </g><g ewd:figtype="gp" ewd:code="H1" ewd:figID="14">
      <path style="fill:none;stroke:#000000;stroke-width:0.85;" d="M 442.18,708.66 L 442.18, 711.49" />
      <path style="fill:none;stroke:#000000;stroke-width:0.85;" d="M 440.76,720 L 443.6, 720" />
      <path style="fill:none;stroke:#000000;stroke-width:0.85;" d="M 439.35,717.17 L 445.02, 717.17" />
      <path style="fill:none;stroke:#000000;stroke-width:0.85;" d="M 436.51,714.33 L 447.85, 714.33" />
      <path style="fill:none;stroke:#000000;stroke-width:0.85;" d="M 433.68,711.5 L 450.69, 711.5" />
    </g><g ewd:figtype="comment" ewd:code="1" ewd:figID="1001">
      <text transform="matrix(1 0 0 1 493.2061 16.5464)" style="font-family:'Arial'; font-size:6px;">*1 : LHD</text>
    </g><g ewd:figtype="comment" ewd:code="2" ewd:figID="1000">
      <text transform="matrix(1 0 0 1 493.2061 25.0508)" style="font-family:'Arial'; font-size:6px;">*2 : RHD</text>
    </g><text transform="matrix(0 -1 1 0 336.1729 242.6143)" style="font-family:'Arial'; font-size:6px;">L</text><text transform="matrix(0 -1 1 0 336.1729 344.6616)" style="font-family:'Arial'; font-size:6px;">L</text><text transform="matrix(0 -1 1 0 336.1729 395.6846)" style="font-family:'Arial'; font-size:6px;">L</text><text transform="matrix(0 -1 1 0 387.1963 396.0176)" style="font-family:'Arial'; font-size:6px;">V</text><text transform="matrix(0 -1 1 0 387.1963 344.9941)" style="font-family:'Arial'; font-size:6px;">V</text><text transform="matrix(0 -1 1 0 387.1963 242.9468)" style="font-family:'Arial'; font-size:6px;">V</text><text transform="matrix(0 -1 1 0 438.2197 246.7773)" style="font-family:'Arial'; font-size:6px;">W-B</text><text transform="matrix(0 -1 1 0 438.2197 680.4775)" style="font-family:'Arial'; font-size:6px;">W-B</text><text transform="matrix(0 -1 1 0 336.1729 447.041)" style="font-family:'Arial'; font-size:6px;">P</text><text transform="matrix(0 -1 1 0 387.1963 449.043)" style="font-family:'Arial'; font-size:6px;">LG</text><text transform="matrix(0 -1 1 0 336.1729 293.6377)" style="font-family:'Arial'; font-size:6px;">L</text></svg>