﻿<?xml version="1.0" encoding="utf-8"?>
<!-- Generator: Adobe Illustrator 10.0, SVG Export Plug-In . SVG Version: 3.0.0 Build 77)  -->
<!DOCTYPE svg PUBLIC "-//W3C//DTD SVG 1.0//EN" "http://www.w3.org/TR/2001/REC-SVG-20010904/DTD/svg10.dtd"[
   <!ENTITY ns_flows "http://ns.adobe.com/Flows/1.0/">
   <!ENTITY ns_svg "http://www.w3.org/2000/svg">
   <!ENTITY ns_xlink "http://www.w3.org/1999/xlink">
   <!ENTITY st0 "font-size:7px;font-family:'MS-PGothic';adobe-font-script:japanese;">
   <!ENTITY st1 "font-size:6px;font-family:'ArialMT';">
   <!ENTITY st2 "fill:#FFFFFF;stroke:#000000; stroke-width:1.41;stroke-linecap:round;stroke-linejoin:round;">
   <!ENTITY st3 "fill:#FFFFCC;stroke:#FFFFCC; stroke-width:0.1;stroke-linecap:round;stroke-linejoin:round;">
   <!ENTITY st4 "fill:#CCCCCC;stroke:#CCCCCC; stroke-width:0.1;stroke-linecap:round;stroke-linejoin:round;">
   <!ENTITY st5 "fill:#CCECF4;stroke:#000000; stroke-width:1.133;stroke-linecap:round;stroke-linejoin:round;">
   <!ENTITY st6 "fill:none;stroke-linecap:butt; stroke-linejoin:round;">
   <!ENTITY st7 "fill:none;stroke:#000000;stroke-linecap:round;stroke-linejoin:round;">
   <!ENTITY st8 "enable-background:new;">
   <!ENTITY st9 "fill:#000000;stroke:#000000; stroke-linecap:round;stroke-linejoin:round;">
   <!ENTITY st10 "font-size:9px;font-family:'ArialMT';">
   <!ENTITY st11 "font-size:9px;font-family:'Svg Symbol';">
   <!ENTITY st12 "font-size:6px;font-family:'Svg Symbol';">
   <!ENTITY st13 "fill:none;stroke:#ff0000;stroke-linecap:round;stroke-linejoin:round;">
   <!ENTITY st14 "fill:#FFFF00;stroke:#FFFF00; stroke-width:0.1;stroke-linecap:round;stroke-linejoin:round;">
   <!ENTITY st15 "font-size:6px;font-family:'MS-PGothic';adobe-font-script:japanese;">
   <!ENTITY st16 "1.00 0.00 0.00 1.00">
   <!ENTITY st17 "0.00 -1.00 1.00 0.00">
   <!ENTITY st18 "font-size:6px;font-family:'Arial';">
   <!ENTITY st19 "font-size:9px;font-family:'Arial';">
   <!ENTITY st20 "font-size:6px;font-family:'MS-PGothic','MS PGothic';adobe-font-script:japanese;">
   <!ENTITY st21 "font-size:7px;font-family:'MS-PGothic','MS PGothic';adobe-font-script:japanese;">
   <!ATTLIST svg
       xmlns:ewd CDATA #FIXED "http://shcl.co.jp/ewd"
       xmlns:a CDATA #FIXED "http://ns.adobe.com/AdobeSVGViewerExtensions/3.0/"
       ewd:ver CDATA #IMPLIED >
   <!ATTLIST a
       ewd:lineID CDATA #IMPLIED
       ewd:groupID CDATA #IMPLIED
       ewd:figtype CDATA #IMPLIED
       ewd:code CDATA #IMPLIED
       ewd:figID CDATA #IMPLIED
       ewd:pinNo CDATA #IMPLIED
       ewd:comment CDATA #IMPLIED >
   <!ATTLIST g
       ewd:lineID CDATA #IMPLIED
       ewd:groupID CDATA #IMPLIED
       ewd:figtype CDATA #IMPLIED
       ewd:code CDATA #IMPLIED
       ewd:figID CDATA #IMPLIED
       ewd:pinNo CDATA #IMPLIED
       ewd:comment CDATA #IMPLIED >
   <!ATTLIST text
       ewd:textID CDATA #IMPLIED >
   <!ATTLIST title
       ewd:textID CDATA #IMPLIED >
]>
<svg xmlns="http://www.w3.org/2000/svg" xmlns:xlink="http://www.w3.org/1999/xlink" width="7874.22" height="720.98" viewBox="0 0 7874.22 720.98" xml:space="preserve" xmlns:ewd="http://shcl.co.jp/ewd" ewd:ver="2.0">
  
  <defs>
    <font horiz-adv-x="1229">
      <font-face font-family="Svg Symbol" units-per-em="2048" panose-1="5 5 1 2 1 7 6 2 5 7" ascent="2059" descent="450" alphabetic="0" />
      <missing-glyph d="M 103,0 l 0,1280 1024,0 0,-1280 -1024,0 z m 32,32 l 960,0 0,1216 -960,0 0,-1216 z" />
      <glyph d4p1:unicode="" horiz-adv-x="1573" d="M 1517,0 l -567,0 24,279 q 141,59 207.5,168 66.5,109 66.5,306 0,272 -132.5,417.5 -132.5,145.5 -333.5,145.5 -194,0 -328,-147.5 -134,-147.5 -134,-401.5 0,-200 68.5,-319 68.5,-119 206.5,-169 l 25,-279 -564,0 0,279 35,0 q 3,-61 32,-83 45,-35 137,-35 l 270,0 0,70 q -210,61 -324.5,209 -114.5,148 -114.5,349 0,252 186.5,425 186.5,173 504.5,173 195,0 358.5,-73.5 163.5,-73.5 252,-214.5 88.5,-141 88.5,-310 0,-207 -121.5,-360.5 -121.5,-153.5 -317.5,-197.5 l -8,-70 275,0 q 92,0 128,28 36,28 42,90 l 38,0 0,-279 z" xmlns:d4p1="def-glyph-attr-unicode" />
    </font>
  </defs>
  
<g ewd:figtype="rb" ewd:code="12" ewd:figID="25">
      <path style="fill:none;stroke:#000000;stroke-width:0.85;" d="M 161.58,218.23 L 161.58, 232.4" />
      <path style="fill:none;stroke:#000000;stroke-width:0.85;" d="M 161.58,232.41 L 161.58, 239.92" />
      <path style="fill:none;stroke:#000000;stroke-width:0.85;" d="M 161.58,258.91 L 161.58, 266.42" />
      <path style="fill:none;stroke:#000000;stroke-width:0.85;" d="M 161.58,266.42 L 161.58, 280.59" />
      <path style="fill:none;stroke:#000000;stroke-width:0.85;" d="M 136.06,218.23 L 136.06, 232.4" />
      <path style="fill:none;stroke:#000000;stroke-width:0.85;" d="M 136.06,232.41 L 136.06, 236.66" />
      <path style="fill:none;stroke:#000000;stroke-width:0.85;" d="M 136.06,262.17 L 136.06, 266.42" />
      <path style="fill:none;stroke:#000000;stroke-width:0.85;" d="M 136.06,266.42 L 136.06, 280.59" />
      <path style="fill:none;stroke:#000000;stroke-width:0.85;stroke-linecap:round;stroke-linejoin:round;" d="M 136.06,262.17 C 135.28 262.17 134.64 261.54 134.64 260.75 C 134.64 259.97 135.27 259.33 136.06 259.33 C 136.84 259.33 137.48 259.96 137.48 260.75 C 137.48 261.54 136.84 262.17 136.06 262.17" />
      <path style="fill:none;stroke:#000000;stroke-width:1.417;" d="M 135.7,259.38 L 130.4, 236.65" />
      <path style="fill:none;stroke:#000000;stroke-width:0.85;stroke-linecap:round;stroke-linejoin:round;" d="M 136.06,239.49 C 135.28 239.49 134.64 238.86 134.64 238.07 C 134.639998779297 237.280014648437 135.27 236.65 136.06 236.65 C 136.84 236.65 137.48 237.28 137.48 238.07 C 137.479991455078 238.860014648437 136.84 239.49 136.06 239.49" />
      <path style="fill:none;stroke:#000000;stroke-width:0.85;stroke-linecap:round;" d="M 158.42,252.23 C 159.2 251.37 160.32 250.83 161.57 250.83 C 163.92 250.83 165.82 252.73 165.82 255.08 C 165.820014648438 257.430003662109 163.92 259.33 161.57 259.33" />
      <path style="fill:none;stroke:#000000;stroke-width:0.85;stroke-linecap:round;" d="M 158.37,252.21 C 159.15 253.1 160.3 253.67 161.57 253.67 C 163.92 253.67 165.82 251.77 165.82 249.42 C 165.820014648438 247.069996337891 163.92 245.17 161.57 245.17 C 160.29 245.17 159.15 245.73 158.37 246.62" />
      <path style="fill:none;stroke:#000000;stroke-width:0.85;stroke-linecap:round;" d="M 158.39,246.56 C 159.17 247.44 160.31 247.99 161.57 247.99 C 163.92 247.99 165.82 246.09 165.82 243.74 C 165.820014648438 241.390010986328 163.92 239.49 161.57 239.49" />
      <path style="fill:none;stroke:#000000;stroke-width:1.417;stroke-linecap:round;stroke-linejoin:round;" d="M 170.08,266.42 L 170.08, 232.4 L 127.56, 232.4 L 127.56, 266.42 L 170.08, 266.42" />
      <path d="M 161.58,280.59 L 164.41, 277.76 L 164.41, 274.93 L 161.58, 277.76 L 158.75, 274.93 L 158.75, 277.76 L 161.58, 280.59" style="stroke-linecap:round;stroke-linejoin:round;" />
      <path style="fill:none;stroke:#000000;stroke-width:0.85;stroke-linecap:round;stroke-linejoin:round;" d="M 165.83,291.93 C 168.96 291.93 171.5 289.39 171.5 286.26 C 171.5 283.13 168.96 280.59 165.83 280.59 L 157.33, 280.59 C 154.2 280.59 151.66 283.13 151.66 286.26 C 151.66 289.39 154.2 291.93 157.33 291.93 L 165.83, 291.93" />
      <path d="M 161.58,218.23 L 164.41, 221.06 L 164.41, 223.89 L 161.58, 221.06 L 158.75, 223.89 L 158.75, 221.06 L 161.58, 218.23" style="stroke-linecap:round;stroke-linejoin:round;" />
      <path style="fill:none;stroke:#000000;stroke-width:0.85;stroke-linecap:round;stroke-linejoin:round;" d="M 165.83,218.23 C 168.96 218.23 171.5 215.69 171.5 212.56 C 171.5 209.43 168.96 206.89 165.83 206.89 L 157.33, 206.89 C 154.2 206.89 151.66 209.43 151.66 212.56 C 151.66 215.69 154.2 218.23 157.33 218.23 L 165.83, 218.23" />
      <path d="M 136.06,280.59 L 138.89, 277.76 L 138.89, 274.93 L 136.06, 277.76 L 133.23, 274.93 L 133.23, 277.76 L 136.06, 280.59" style="stroke-linecap:round;stroke-linejoin:round;" />
      <path style="fill:none;stroke:#000000;stroke-width:0.85;stroke-linecap:round;stroke-linejoin:round;" d="M 140.32,291.93 C 143.45 291.93 145.99 289.39 145.99 286.26 C 145.99 283.13 143.45 280.59 140.32 280.59 L 131.82, 280.59 C 128.69 280.59 126.15 283.13 126.15 286.26 C 126.15 289.39 128.69 291.93 131.82 291.93 L 140.32, 291.93" />
      <path d="M 136.06,218.23 L 138.89, 221.06 L 138.89, 223.89 L 136.06, 221.06 L 133.23, 223.89 L 133.23, 221.06 L 136.06, 218.23" style="stroke-linecap:round;stroke-linejoin:round;" />
      <path style="fill:none;stroke:#000000;stroke-width:0.85;stroke-linecap:round;stroke-linejoin:round;" d="M 140.32,218.23 C 143.45 218.23 145.99 215.69 145.99 212.56 C 145.99 209.43 143.45 206.89 140.32 206.89 L 131.82, 206.89 C 128.69 206.89 126.15 209.43 126.15 212.56 C 126.15 215.69 128.69 218.23 131.82 218.23 L 140.32, 218.23" />
      <text transform="matrix(1 0 0 1 172.9121 247.5762)" style="font-family:'Arial'; font-size:6px;" ewd:textID="68">ST<tspan x="0" dy="1em">Relay</tspan></text>
      <text transform="matrix(1 0 0 1 127.7646 273.7969)" style="font-family:'Arial'; font-size:6px;">3</text>
      <text transform="matrix(1 0 0 1 153.2764 273.7969)" style="font-family:'Arial'; font-size:6px;">1</text>
      <text transform="matrix(1 0 0 1 127.7646 228.4424)" style="font-family:'Arial'; font-size:6px;">5</text>
      <text transform="matrix(1 0 0 1 153.2764 228.4424)" style="font-family:'Arial'; font-size:6px;">2</text>
      <text transform="matrix(1 0 0 1 158.2388 287.9697)" style="font-family:'Arial'; font-size:6px;">12</text>
      <text transform="matrix(1 0 0 1 158.2388 214.2681)" style="font-family:'Arial'; font-size:6px;">12</text>
      <text transform="matrix(1 0 0 1 132.7271 287.9697)" style="font-family:'Arial'; font-size:6px;">12</text>
      <text transform="matrix(1 0 0 1 132.7271 214.2681)" style="font-family:'Arial'; font-size:6px;">12</text>
    </g><g ewd:figtype="rb" ewd:code="FUSE116" ewd:figID="36">
      <path style="fill:none;stroke:#000000;stroke-width:0.85;" d="M 136.06,80.74 L 136.06, 87.83" />
      <path style="fill:none;stroke:#000000;stroke-width:0.85;" d="M 136.06,87.83 L 136.06, 102" />
      <path d="M 136.06,102 L 138.89, 99.17 L 138.89, 96.34 L 136.06, 99.17 L 133.23, 96.34 L 133.23, 99.17 L 136.06, 102" style="stroke-linecap:round;stroke-linejoin:round;" />
      <path style="fill:none;stroke:#000000;stroke-width:0.85;stroke-linecap:round;stroke-linejoin:round;" d="M 140.32,113.34 C 143.45 113.34 145.99 110.8 145.99 107.67 C 145.99 104.54 143.45 102 140.32 102 L 131.82, 102 C 128.69 102 126.15 104.54 126.15 107.67 C 126.15 110.8 128.69 113.34 131.82 113.34 L 140.32, 113.34" />
      <path style="fill:none;stroke:#000000;stroke-width:0.85;stroke-linecap:round;stroke-linejoin:round;" d="M 136.06,80.74 C 136.84 80.74 137.48 80.11 137.48 79.32 C 137.479991455078 78.5299993896484 136.85 77.9 136.06 77.9 C 135.28 77.9 134.64 78.53 134.64 79.32 C 134.639998779297 80.1099993896484 135.28 80.74 136.06 80.74" />
      <path style="fill:none;stroke:#000000;stroke-width:0.85;stroke-linecap:round;stroke-linejoin:round;" d="M 136.06,55.23 C 136.84 55.23 137.48 54.6 137.48 53.81 C 137.479991455078 53.020002746582 136.85 52.39 136.06 52.39 C 135.28 52.39 134.64 53.02 134.64 53.81 C 134.639998779297 54.600002746582 135.28 55.23 136.06 55.23" />
      <path style="fill:none;stroke:#000000;stroke-width:1.417;" d="M 135.06,54.82 C 135.06 54.82 128.99 59.5 136.06 66.57 C 143.13 73.64 137.06 78.32 137.06 78.32" />
      <path style="fill:none;stroke:#000000;stroke-width:1.417;stroke-linecap:round;stroke-linejoin:round;" d="M 148.82,87.83 L 148.82, 45.31 L 123.31, 45.31 L 123.31, 87.83 L 148.82, 87.83" />
      <text transform="matrix(1 0 0 1 132.7271 109.3809)" style="font-family:'Arial'; font-size:6px;">10</text>
      <text transform="matrix(1 0 0 1 127.7656 95.2075)" style="font-family:'Arial'; font-size:6px;">2</text>
      <text transform="matrix(1 0 0 1 128.2305 41.3481)" style="font-family:'Arial'; font-size:6px;">(BAT)</text>
      <text transform="matrix(1 0 0 1 151.6533 64.7349)" style="font-family:'Arial'; font-size:6px;">40A<tspan x="0" dy="1em">ST</tspan></text>
    </g><g ewd:figtype="rb" ewd:code="FUSE129" ewd:figID="37">
      <path style="fill:none;stroke:#000000;stroke-width:0.85;" d="M 204.09,80.74 L 204.09, 87.83" />
      <path style="fill:none;stroke:#000000;stroke-width:0.85;" d="M 204.09,87.83 L 204.09, 102" />
      <path d="M 204.09,102 L 206.92, 99.17 L 206.92, 96.34 L 204.09, 99.17 L 201.26, 96.34 L 201.26, 99.17 L 204.09, 102" style="stroke-linecap:round;stroke-linejoin:round;" />
      <path style="fill:none;stroke:#000000;stroke-width:0.85;stroke-linecap:round;stroke-linejoin:round;" d="M 208.35,113.34 C 211.48 113.34 214.02 110.8 214.02 107.67 C 214.02 104.54 211.48 102 208.35 102 L 199.85, 102 C 196.72 102 194.18 104.54 194.18 107.67 C 194.18 110.8 196.72 113.34 199.85 113.34 L 208.35, 113.34" />
      <path style="fill:none;stroke:#000000;stroke-width:0.85;stroke-linecap:round;stroke-linejoin:round;" d="M 204.09,80.74 C 204.87 80.74 205.51 80.11 205.51 79.32 C 205.509989013672 78.5299993896484 204.88 77.9 204.09 77.9 C 203.299992675781 77.9000030517578 202.67 78.53 202.67 79.32 C 202.669996337891 80.1099993896484 203.31 80.74 204.09 80.74" />
      <path style="fill:none;stroke:#000000;stroke-width:0.85;stroke-linecap:round;stroke-linejoin:round;" d="M 204.09,55.23 C 204.87 55.23 205.51 54.6 205.51 53.81 C 205.509989013672 53.020002746582 204.88 52.39 204.09 52.39 C 203.299992675781 52.3899987792969 202.67 53.02 202.67 53.81 C 202.669996337891 54.600002746582 203.31 55.23 204.09 55.23" />
      <path style="fill:none;stroke:#000000;stroke-width:1.417;" d="M 203.09,54.82 C 203.09 54.82 197.02 59.5 204.09 66.57 C 211.159992675781 73.6399993896484 205.09 78.32 205.09 78.32" />
      <path style="fill:none;stroke:#000000;stroke-width:1.417;stroke-linecap:round;stroke-linejoin:round;" d="M 216.85,87.83 L 216.85, 45.31 L 191.34, 45.31 L 191.34, 87.83 L 216.85, 87.83" />
      <text transform="matrix(1 0 0 1 200.7583 109.3809)" style="font-family:'Arial'; font-size:6px;">11</text>
      <text transform="matrix(1 0 0 1 195.7979 95.2075)" style="font-family:'Arial'; font-size:6px;">2</text>
      <text transform="matrix(1 0 0 1 196.2627 41.3481)" style="font-family:'Arial'; font-size:6px;">(BAT)</text>
      <text transform="matrix(1 0 0 1 219.6855 64.7349)" style="font-family:'Arial'; font-size:6px;">7.5A<tspan x="0" dy="1em">AM2</tspan></text>
    </g><g ewd:figtype="jb" ewd:code="13" ewd:figID="24">
      <path style="fill:none;stroke:#000000;stroke-width:0.85;" d="M 51.02,80.75 L 51.02, 87.84" />
      <path style="fill:none;stroke:#000000;stroke-width:0.85;" d="M 51.02,87.84 L 51.02, 102.01" />
      <path style="fill:none;stroke:#000000;stroke-width:0.85;stroke-linecap:round;stroke-linejoin:round;" d="M 50.93,80.75 C 51.71 80.75 52.35 80.12 52.35 79.33 C 52.3499969482422 78.5400036621094 51.72 77.91 50.93 77.91 C 50.1400006103516 77.9100073242188 49.51 78.54 49.51 79.33 C 49.5099966430664 80.1200036621094 50.15 80.75 50.93 80.75" />
      <path style="fill:none;stroke:#000000;stroke-width:0.85;stroke-linecap:round;stroke-linejoin:round;" d="M 50.93,55.24 C 51.71 55.24 52.35 54.61 52.35 53.82 C 52.3499969482422 53.0299993896484 51.72 52.4 50.93 52.4 C 50.1400006103516 52.4000030517578 49.51 53.03 49.51 53.82 C 49.5099966430664 54.6099993896484 50.15 55.24 50.93 55.24" />
      <path style="fill:none;stroke:#000000;stroke-width:1.417;" d="M 49.93,54.82 C 49.93 54.82 43.86 59.5 50.93 66.57 C 58.0000006103516 73.6399993896484 51.93 78.32 51.93 78.32" />
      <path style="fill:none;stroke:#000000;stroke-width:1.417;stroke-linecap:round;stroke-linejoin:round;" d="M 63.69,87.84 L 63.69, 45.32 L 38.17, 45.32 L 38.17, 87.84 L 63.69, 87.84" />
      <path d="M 50.93,102.01 L 53.76, 99.18 L 53.76, 96.35 L 50.93, 99.18 L 48.1, 96.35 L 48.1, 99.18 L 50.93, 102.01" style="stroke-linecap:round;stroke-linejoin:round;" />
      <path style="fill:none;stroke:#000000;stroke-width:0.85;stroke-linecap:round;stroke-linejoin:round;" d="M 55.18,113.35 C 58.31 113.35 60.85 110.81 60.85 107.68 C 60.85 104.55 58.31 102.01 55.18 102.01 L 46.68, 102.01 C 43.55 102.01 41.01 104.55 41.01 107.68 C 41.01 110.81 43.55 113.35 46.68 113.35 L 55.18, 113.35" />
      <text transform="matrix(1 0 0 1 42.6318 95.2139)" style="font-family:'Arial'; font-size:6px;">2</text>
      <text transform="matrix(1 0 0 1 43.0972 41.3545)" style="font-family:'Arial'; font-size:6px;">(BAT)</text>
      <text transform="matrix(1 0 0 1 66.5195 61.1978)" style="font-family:'Arial'; font-size:6px;">10A<tspan x="0" dy="1em">STOP</tspan><tspan x="0" dy="1em">NO. 1</tspan></text>
      <text transform="matrix(1 0 0 1 46.0903 109.3877)" style="font-family:'Arial'; font-size:6px;">13J</text>
      <text transform="matrix(1 0 0 1 36.2529 109.3877)" style="font-family:'Arial'; font-size:6px;">3</text>
    </g><g ewd:figtype="jb" ewd:code="13" ewd:figID="23">
      <path style="fill:none;stroke:#000000;stroke-width:0.85;" d="M 51.02,371.31 L 51.02, 399.66" />
      <path d="M 51.03,399.66 L 53.86, 396.83 L 53.86, 394 L 51.03, 396.83 L 48.2, 394 L 48.2, 396.83 L 51.03, 399.66" style="stroke-linecap:round;stroke-linejoin:round;" />
      <path style="fill:none;stroke:#000000;stroke-width:0.85;stroke-linecap:round;stroke-linejoin:round;" d="M 55.28,411 C 58.41 411 60.95 408.46 60.95 405.33 C 60.95 402.2 58.41 399.66 55.28 399.66 L 46.78, 399.66 C 43.65 399.66 41.11 402.2 41.11 405.33 C 41.11 408.46 43.65 411 46.78 411 L 55.28, 411" />
      <path d="M 51.03,371.31 L 53.86, 374.14 L 53.86, 376.98 L 51.03, 374.14 L 48.2, 376.98 L 48.2, 374.14 L 51.03, 371.31" style="stroke-linecap:round;stroke-linejoin:round;" />
      <path style="fill:none;stroke:#000000;stroke-width:0.85;stroke-linecap:round;stroke-linejoin:round;" d="M 55.28,371.31 C 58.41 371.31 60.95 368.77 60.95 365.64 C 60.95 362.51 58.41 359.97 55.28 359.97 L 46.78, 359.97 C 43.65 359.97 41.11 362.51 41.11 365.64 C 41.11 368.77 43.65 371.31 46.78 371.31 L 55.28, 371.31" />
      <text transform="matrix(1 0 0 1 45.6934 407.0361)" style="font-family:'Arial'; font-size:6px;">13E</text>
      <text transform="matrix(1 0 0 1 36.3564 407.0361)" style="font-family:'Arial'; font-size:6px;">6</text>
      <text transform="matrix(1 0 0 1 46.1934 367.1729)" style="font-family:'Arial'; font-size:6px;">13J</text>
      <text transform="matrix(1 0 0 1 36.3564 367.3506)" style="font-family:'Arial'; font-size:6px;">4</text>
    </g><g ewd:figtype="gp" ewd:code="B5" ewd:figID="115">
      <path style="fill:none;stroke:#000000;stroke-width:0.85;" d="M 212.6,708.62 L 212.6, 711.45" />
      <path style="fill:none;stroke:#000000;stroke-width:0.85;" d="M 211.18,719.96 L 214.02, 719.96" />
      <path style="fill:none;stroke:#000000;stroke-width:0.85;" d="M 209.76,717.13 L 215.43, 717.13" />
      <path style="fill:none;stroke:#000000;stroke-width:0.85;" d="M 206.93,714.29 L 218.27, 714.29" />
      <path style="fill:none;stroke:#000000;stroke-width:0.85;" d="M 204.09,711.46 L 221.1, 711.46" />
    </g><g ewd:figtype="conn" ewd:code="E7,E9" ewd:figID="30">
      <path style="fill:#FFFFFF;stroke:#000000;stroke-width:0.85;stroke-linecap:round;stroke-linejoin:round;" d="M 85.04,521.54 C 88.17 521.54 90.71 519 90.71 515.87 C 90.7099981689453 512.739990234375 88.17 510.2 85.04 510.2 C 81.9100018310547 510.200024414063 79.37 512.74 79.37 515.87 C 79.3700054931641 518.999990234375 81.91 521.54 85.04 521.54" />
      <path style="fill:#FFFFFF;stroke:#000000;stroke-width:0.85;stroke-linecap:round;stroke-linejoin:round;" d="M 153.07,521.54 C 156.2 521.54 158.74 519 158.74 515.87 C 158.740010986328 512.739990234375 156.2 510.2 153.07 510.2 C 149.940014648438 510.200024414063 147.4 512.74 147.4 515.87 C 147.399987792969 518.999990234375 149.94 521.54 153.07 521.54" />
      <path style="fill:none;stroke:#000000;stroke-width:0.85;stroke-dasharray:4 2;" d="M 79.37,547.05 L 158.74, 547.05" />
      <path style="fill:none;stroke:#000000;stroke-width:0.85;" d="M 151.65,609.41 L 154.49, 609.41" />
      <path style="fill:none;stroke:#000000;stroke-width:0.85;" d="M 150.24,606.58 L 155.91, 606.58" />
      <path style="fill:none;stroke:#000000;stroke-width:0.85;" d="M 147.4,603.74 L 158.74, 603.74" />
      <path style="fill:none;stroke:#000000;stroke-width:0.85;" d="M 144.57,600.91 L 161.58, 600.91" />
      <path style="fill:none;stroke:#000000;stroke-width:0.85;" d="M 153.07,600.91 L 153.07, 556.97 C 155.42 556.97 157.32 555.0699 157.32 552.72 C 157.32 550.37 155.42 548.47 153.07 548.47 C 151.81 548.47 150.68 549.02 149.9 549.89 L 149.9, 549.89 C 150.68 550.76 151.81 551.3 153.07 551.3 C 155.42 551.3 157.32 549.4 157.32 547.05 C 157.32 544.7 155.42 542.8 153.07 542.8 C 151.81 542.8 150.68 543.35 149.9 544.22 L 149.9, 544.22 C 150.68 545.09 151.81 545.64 153.07 545.64 C 155.42 545.64 157.32 543.74 157.32 541.39 C 157.32 539.04 155.42 537.14 153.07 537.14 L 153.07, 521.55" />
      <path style="fill:none;stroke:#000000;stroke-width:0.85;" d="M 110.55,572.56 L 110.55, 556.97 C 112.9 556.97 114.8 555.0699 114.8 552.72 C 114.8 550.37 112.9 548.47 110.55 548.47 C 109.29 548.47 108.16 549.02 107.38 549.89 L 107.38, 549.89 C 108.16 550.76 109.29 551.3 110.55 551.3 C 112.9 551.3 114.8 549.4 114.8 547.05 C 114.8 544.7 112.9 542.8 110.55 542.8 C 109.29 542.8 108.16 543.35 107.38 544.22 L 107.38, 544.22 C 108.16 545.09 109.29 545.64 110.55 545.64 C 112.9 545.64 114.8 543.74 114.8 541.39 C 114.8 539.04 112.9 537.14 110.55 537.14 L 110.55, 530.05 L 153.07, 530.05" />
      <path style="fill:none;stroke:#000000;stroke-width:1.417;" d="M 79.36,534.33 L 84.68, 557.01" />
      <path style="fill:none;stroke:#000000;stroke-width:0.85;stroke-linecap:round;stroke-linejoin:round;" d="M 85.04,537.13 C 84.26 537.13 83.62 536.5 83.62 535.71 C 83.62 534.93 84.25 534.29 85.04 534.29 C 85.8300018310547 534.289956054688 86.46 534.93 86.46 535.71 C 86.46 536.49 85.82 537.13 85.04 537.13" />
      <path style="fill:none;stroke:#000000;stroke-width:0.85;stroke-linecap:round;stroke-linejoin:round;" d="M 85.04,559.81 C 84.26 559.81 83.62 559.18 83.62 558.39 C 83.6200054931641 557.600029296875 84.25 556.97 85.04 556.97 C 85.8300018310547 556.96994140625 86.46 557.6 86.46 558.39 C 86.4599981689453 559.180029296875 85.82 559.81 85.04 559.81" />
      <path style="fill:none;stroke:#000000;stroke-width:1.417;" d="M 139.18,568.31 C 139.92 569.57 140.31 571 140.31 572.56 C 140.31 574.12 139.91 575.56 139.18 576.81" />
      <path style="fill:none;stroke:#000000;stroke-width:1.417;" d="M 124.44,568.31 C 123.7 569.57 123.31 571 123.31 572.56 C 123.31 574.12 123.71 575.56 124.44 576.81" />
      <path style="fill:none;stroke:#000000;stroke-width:1.417;stroke-linecap:round;stroke-linejoin:round;" d="M 119.05,576.81 L 119.05, 568.31 L 124.44, 568.31 C 125.91 565.78 128.67 564.06 131.81 564.06 C 134.949995117188 564.059995117188 137.71 565.78 139.18 568.31 L 144.57, 568.31 L 144.57, 576.81 L 139.18, 576.81 C 137.71 579.34 134.95 581.06 131.81 581.06 C 128.669995117188 581.059995117188 125.91 579.34 124.44 576.81 L 119.05, 576.81" />
      <path style="fill:none;stroke:#000000;stroke-width:0.85;" d="M 144.57,572.56 L 153.07, 572.56" />
      <path style="fill:none;stroke:#000000;stroke-width:0.85;" d="M 85.04,559.81 L 85.04, 572.57 L 119.06, 572.57" />
      <path style="fill:none;stroke:#000000;stroke-width:0.85;" d="M 85.04,521.54 L 85.04, 534.29" />
      <path d="M 153.07,531.46 C 153.85 531.46 154.49 530.83 154.49 530.04 C 154.49 529.2599 153.86 528.62 153.07 528.62 C 152.280014648437 528.619990234375 151.65 529.25 151.65 530.04 C 151.65 530.82 152.29 531.46 153.07 531.46" style="stroke-linecap:round;stroke-linejoin:round;" />
      <path d="M 153.07,573.98 C 153.85 573.98 154.49 573.35 154.49 572.56 C 154.490010986328 571.769995117187 153.86 571.14 153.07 571.14 C 152.280014648437 571.140029296875 151.65 571.77 151.65 572.56 C 151.649987792969 573.349995117188 152.29 573.98 153.07 573.98" style="stroke-linecap:round;stroke-linejoin:round;" />
      <path d="M 110.55,573.98 C 111.33 573.98 111.97 573.35 111.97 572.56 C 111.970002441406 571.769995117187 111.33 571.14 110.55 571.14 C 109.77 571.14 109.13 571.77 109.13 572.56 C 109.129994506836 573.349995117188 109.77 573.98 110.55 573.98" style="stroke-linecap:round;stroke-linejoin:round;" />
      <path style="fill:none;stroke:#000000;stroke-width:1.417;stroke-linecap:round;stroke-linejoin:round;" d="M 170.08,589.57 L 170.08, 521.54 L 68.03, 521.54 L 68.03, 589.5699 L 170.08, 589.5699" />
      <text transform="matrix(1 0 0 1 142.5059 517.5752)" style="font-family:'Arial'; font-size:6px;">1</text>
      <text transform="matrix(1 0 0 1 150.7378 517.5752)" style="font-family:'Arial'; font-size:6px;">G</text>
      <text transform="matrix(1 0 0 1 74.4746 517.5752)" style="font-family:'Arial'; font-size:6px;">1</text>
      <text transform="matrix(1 0 0 1 83.0386 517.5752)" style="font-family:'Arial'; font-size:6px;">E</text>
      <text transform="matrix(1 0 0 1 129.312 574.2666)" style="font-family:'Arial'; font-size:6px;">M</text>
      <g ewd:figtype="title">
        <text transform="matrix(0 -1 1 0 178.1641 589.5693)" style="font-family:'Arial'; font-size:6px;">E7(E), E9(G)</text>
        <text transform="matrix(0 -1 1 0 185.251 589.5693)" style="font-family:'Arial'; font-size:6px;" ewd:textID="69">Starter</text>
      </g>
    </g><g ewd:figtype="w2w" ewd:code="BE1" ewd:pin_no="1" ewd:figID="116">
      <path style="fill:#FFFFFF;stroke:#FFFFFF;stroke-width:0;stroke-linecap:round;stroke-linejoin:round;" d="M 140.32,349.51 L 136.07, 345.26 L 131.82, 349.51 L 131.82, 342.96 L 140.32, 342.96 L 140.32, 349.51" />
      <path style="fill:#FFFFFF;stroke:#FFFFFF;stroke-width:0;stroke-linecap:round;stroke-linejoin:round;" d="M 140.32,352.34 L 136.07, 348.09 L 131.82, 352.34 L 131.82, 345.79 L 140.32, 345.79 L 140.32, 352.34" />
      <path style="fill:none;stroke:#000000;stroke-width:0.85;" d="M 140.32,350.04 L 136.07, 345.79 L 131.82, 350.04" />
      <path style="fill:none;stroke:#000000;stroke-width:0.85;" d="M 140.32,347.21 L 136.07, 342.96 L 131.82, 347.21" />
      <path style="fill:none;stroke:#000000;stroke-width:0.85;stroke-linecap:round;stroke-linejoin:round;" d="M 145.98,334.45 L 145.98, 342.95 L 126.14, 342.95 L 126.14, 334.45 L 145.98, 334.45" />
      <text transform="matrix(1 0 0 1 121.3887 340.4102)" style="font-family:'Arial'; font-size:6px;">1</text>
    </g><g ewd:figtype="w2w" ewd:code="HB6" ewd:pin_no="18" ewd:figID="159">
      <path style="fill:#FFFFFF;stroke:#FFFFFF;stroke-width:0;stroke-linecap:round;stroke-linejoin:round;" d="M 55.26,170.93 L 51.01, 166.68 L 46.76, 170.93 L 46.76, 164.38 L 55.26, 164.38 L 55.26, 170.93" />
      <path style="fill:#FFFFFF;stroke:#FFFFFF;stroke-width:0;stroke-linecap:round;stroke-linejoin:round;" d="M 55.26,173.76 L 51.01, 169.51 L 46.76, 173.76 L 46.76, 167.21 L 55.26, 167.21 L 55.26, 173.76" />
      <path style="fill:none;stroke:#000000;stroke-width:0.85;" d="M 55.26,171.46 L 51.01, 167.21 L 46.76, 171.46" />
      <path style="fill:none;stroke:#000000;stroke-width:0.85;" d="M 55.26,168.63 L 51.01, 164.38 L 46.76, 168.63" />
      <path style="fill:none;stroke:#000000;stroke-width:0.85;stroke-linecap:round;stroke-linejoin:round;" d="M 60.93,155.87 L 60.93, 164.37 L 41.09, 164.37 L 41.09, 155.87 L 60.93, 155.87" />
      <text transform="matrix(1 0 0 1 33.001 161.8276)" style="font-family:'Arial'; font-size:6px;">18</text>
    </g><g ewd:figtype="w2w" ewd:code="HB6" ewd:pin_no="19" ewd:figID="160">
      <path style="fill:#FFFFFF;stroke:#FFFFFF;stroke-width:0;stroke-linecap:round;stroke-linejoin:round;" d="M 55.23,302.4 L 50.98, 306.65 L 46.73, 302.4 L 46.73, 308.95 L 55.23, 308.95 L 55.23, 302.4" />
      <path style="fill:#FFFFFF;stroke:#FFFFFF;stroke-width:0;stroke-linecap:round;stroke-linejoin:round;" d="M 55.23,299.56 L 50.98, 303.81 L 46.73, 299.56 L 46.73, 306.11 L 55.23, 306.11 L 55.23, 299.56" />
      <path style="fill:none;stroke:#000000;stroke-width:0.85;" d="M 55.23,301.86 L 50.98, 306.11 L 46.73, 301.86" />
      <path style="fill:none;stroke:#000000;stroke-width:0.85;" d="M 55.23,304.7 L 50.98, 308.95 L 46.73, 304.7" />
      <path style="fill:none;stroke:#000000;stroke-width:0.85;stroke-linecap:round;stroke-linejoin:round;" d="M 60.9,317.45 L 60.9, 308.95 L 41.05, 308.95 L 41.05, 317.45 L 60.9, 317.45" />
      <text transform="matrix(1 0 0 1 32.9619 314.9063)" style="font-family:'Arial'; font-size:6px;">19</text>
    </g><g ewd:figtype="conn" ewd:code="B2" ewd:figID="42">
      <path style="fill:none;stroke:#000000;stroke-width:0.85;" d="M 51.02,215.4 L 51.02, 219.65" />
      <path style="fill:none;stroke:#000000;stroke-width:0.85;" d="M 51.02,245.16 L 51.02, 249.41" />
      <path style="fill:none;stroke:#000000;stroke-width:1.417;" d="M 56.71,219.69 L 51.39, 242.37" />
      <path style="fill:none;stroke:#000000;stroke-width:0.85;stroke-linecap:round;stroke-linejoin:round;" d="M 51.03,222.49 C 51.81 222.49 52.45 221.86 52.45 221.07 C 52.4500015258789 220.280014648437 51.82 219.65 51.03 219.65 C 50.2399975585938 219.649987792969 49.61 220.28 49.61 221.07 C 49.6100012207031 221.860014648437 50.25 222.49 51.03 222.49" />
      <path style="fill:none;stroke:#000000;stroke-width:0.85;stroke-linecap:round;stroke-linejoin:round;" d="M 51.03,245.16 C 51.81 245.16 52.45 244.53 52.45 243.74 C 52.45 242.96 51.82 242.32 51.03 242.32 C 50.2399975585938 242.320014648438 49.61 242.95 49.61 243.74 C 49.61 244.53 50.25 245.16 51.03 245.16" />
      <path style="fill:none;stroke:#000000;stroke-width:1.417;stroke-linecap:round;stroke-linejoin:round;" d="M 59.53,249.42 L 59.53, 215.4 L 42.52, 215.4 L 42.52, 249.42 L 59.53, 249.42" />
      <text transform="matrix(1 0 0 1 42.7305 211.4375)" style="font-family:'Arial'; font-size:6px;">2</text>
      <text transform="matrix(1 0 0 1 42.7305 256.792)" style="font-family:'Arial'; font-size:6px;">1</text>
      <g ewd:figtype="title">
        <text transform="matrix(0 -1 1 0 67.6992 249.4077)" style="font-family:'Arial'; font-size:6px;">B2</text>
        <text transform="matrix(0 -1 1 0 74.7861 249.4077)" style="font-family:'Arial'; font-size:6px;" ewd:textID="71">Stop Lamp SW</text>
      </g>
    </g><g ewd:figtype="annex" ewd:code="" ewd:figID="1300">
      <path style="fill:#CCECF4;stroke:#000000;stroke-width:1.133;stroke-linecap:round;stroke-linejoin:round;" d="M 51.02,649.12 L 51.02, 589.59 L 17, 589.59 L 17, 649.12 L 51.02, 649.12" />
      <path style="fill:none;stroke:#000000;stroke-width:0.85;" d="M 34.01,632.11 L 34.01, 657.62" />
      <path style="fill:none;stroke:#000000;stroke-width:0.85;" d="M 32.59,666.13 L 35.43, 666.13" />
      <path style="fill:none;stroke:#000000;stroke-width:0.85;" d="M 31.17,663.29 L 36.84, 663.29" />
      <path style="fill:none;stroke:#000000;stroke-width:0.85;" d="M 28.33,660.46 L 39.67, 660.46" />
      <path style="fill:none;stroke:#000000;stroke-width:0.85;" d="M 25.5,657.63 L 42.51, 657.63" />
      <path style="fill:none;stroke:#000000;stroke-width:0.85;" d="M 34.01,623.61 L 34.01, 626.44" />
      <path style="fill:none;stroke:#000000;stroke-width:0.85;" d="M 34.01,617.94 L 34.01, 620.77" />
      <path style="fill:none;stroke:#000000;stroke-width:0.85;" d="M 34.01,612.27 L 34.01, 615.11" />
      <path style="fill:none;stroke:#000000;stroke-width:2.835;" d="M 28.34,632.11 L 39.68, 632.11" />
      <path style="fill:none;stroke:#000000;stroke-width:0.85;" d="M 25.5,626.44 L 42.51, 626.44" />
      <path style="fill:none;stroke:#000000;stroke-width:2.835;" d="M 28.34,612.27 L 39.68, 612.27" />
      <path style="fill:none;stroke:#000000;stroke-width:0.85;" d="M 25.5,606.6 L 42.51, 606.6" />
      <path style="fill:none;stroke:#000000;stroke-width:1.417;stroke-linecap:round;stroke-linejoin:round;" d="M 51.02,649.12 L 51.02, 589.59 L 17, 589.59 L 17, 649.12 L 51.02, 649.12" />
      <path style="fill:none;stroke:#000000;stroke-width:0.85;" d="M 34.02,606.6 L 34.02, 589.59" />
      <text transform="matrix(0 -1 1 0 59.1016 629.2734)" style="font-family:'Arial'; font-size:6px;" ewd:textID="11">Battery</text>
    </g><text transform="matrix(0 -1 1 0 208.6123 671.2422)" style="font-family:'Arial'; font-size:6px;">W-B</text><text transform="matrix(0 -1 1 0 81.0771 492.6885)" style="font-family:'Arial'; font-size:6px;">B-R</text><text transform="matrix(0 -1 1 0 149.1084 489.5234)" style="font-family:'Arial'; font-size:6px;">B</text><text transform="matrix(0 -1 1 0 132.1006 319.4458)" style="font-family:'Arial'; font-size:6px;">B</text><text transform="matrix(0 -1 1 0 157.6123 320.2764)" style="font-family:'Arial'; font-size:6px;">W</text><text transform="matrix(0 -1 1 0 132.0996 141.022)" style="font-family:'Arial'; font-size:6px;">R</text><text transform="matrix(0 -1 1 0 46.9561 134.8589)" style="font-family:'Arial'; font-size:6px;">GR</text><text transform="matrix(0 -1 1 0 47.0498 194.3853)" style="font-family:'Arial'; font-size:6px;">GR</text><text transform="matrix(0 -1 1 0 47.0107 277.0991)" style="font-family:'Arial'; font-size:6px;">R</text><text transform="matrix(0 -1 1 0 47.0107 336.6265)" style="font-family:'Arial'; font-size:6px;">R</text><text transform="matrix(0 -1 1 0 47.0107 430.1699)" style="font-family:'Arial'; font-size:6px;">R</text></svg>