﻿<?xml version="1.0" encoding="utf-8"?>
<!-- Generator: Adobe Illustrator 10.0, SVG Export Plug-In . SVG Version: 3.0.0 Build 77)  -->
<!DOCTYPE svg PUBLIC "-//W3C//DTD SVG 1.0//EN" "http://www.w3.org/TR/2001/REC-SVG-20010904/DTD/svg10.dtd"[
   <!ENTITY ns_flows "http://ns.adobe.com/Flows/1.0/">
   <!ENTITY ns_svg "http://www.w3.org/2000/svg">
   <!ENTITY ns_xlink "http://www.w3.org/1999/xlink">
   <!ENTITY st0 "font-size:7px;font-family:'MS-PGothic';adobe-font-script:japanese;">
   <!ENTITY st1 "font-size:6px;font-family:'ArialMT';">
   <!ENTITY st2 "fill:#FFFFFF;stroke:#000000; stroke-width:1.41;stroke-linecap:round;stroke-linejoin:round;">
   <!ENTITY st3 "fill:#FFFFCC;stroke:#FFFFCC; stroke-width:0.1;stroke-linecap:round;stroke-linejoin:round;">
   <!ENTITY st4 "fill:#CCCCCC;stroke:#CCCCCC; stroke-width:0.1;stroke-linecap:round;stroke-linejoin:round;">
   <!ENTITY st5 "fill:#CCECF4;stroke:#000000; stroke-width:1.133;stroke-linecap:round;stroke-linejoin:round;">
   <!ENTITY st6 "fill:none;stroke-linecap:butt; stroke-linejoin:round;">
   <!ENTITY st7 "fill:none;stroke:#000000;stroke-linecap:round;stroke-linejoin:round;">
   <!ENTITY st8 "enable-background:new;">
   <!ENTITY st9 "fill:#000000;stroke:#000000; stroke-linecap:round;stroke-linejoin:round;">
   <!ENTITY st10 "font-size:9px;font-family:'ArialMT';">
   <!ENTITY st11 "font-size:9px;font-family:'Svg Symbol';">
   <!ENTITY st12 "font-size:6px;font-family:'Svg Symbol';">
   <!ENTITY st13 "fill:none;stroke:#ff0000;stroke-linecap:round;stroke-linejoin:round;">
   <!ENTITY st14 "fill:#FFFF00;stroke:#FFFF00; stroke-width:0.1;stroke-linecap:round;stroke-linejoin:round;">
   <!ENTITY st15 "font-size:6px;font-family:'MS-PGothic';adobe-font-script:japanese;">
   <!ENTITY st16 "1.00 0.00 0.00 1.00">
   <!ENTITY st17 "0.00 -1.00 1.00 0.00">
   <!ENTITY st18 "font-size:6px;font-family:'Arial';">
   <!ENTITY st19 "font-size:9px;font-family:'Arial';">
   <!ENTITY st20 "font-size:6px;font-family:'MS-PGothic','MS PGothic';adobe-font-script:japanese;">
   <!ENTITY st21 "font-size:7px;font-family:'MS-PGothic','MS PGothic';adobe-font-script:japanese;">
   <!ATTLIST svg
       xmlns:ewd CDATA #FIXED "http://shcl.co.jp/ewd"
       xmlns:a CDATA #FIXED "http://ns.adobe.com/AdobeSVGViewerExtensions/3.0/"
       ewd:ver CDATA #IMPLIED >
   <!ATTLIST a
       ewd:lineID CDATA #IMPLIED
       ewd:groupID CDATA #IMPLIED
       ewd:figtype CDATA #IMPLIED
       ewd:code CDATA #IMPLIED
       ewd:figID CDATA #IMPLIED
       ewd:pinNo CDATA #IMPLIED
       ewd:comment CDATA #IMPLIED >
   <!ATTLIST g
       ewd:lineID CDATA #IMPLIED
       ewd:groupID CDATA #IMPLIED
       ewd:figtype CDATA #IMPLIED
       ewd:code CDATA #IMPLIED
       ewd:figID CDATA #IMPLIED
       ewd:pinNo CDATA #IMPLIED
       ewd:comment CDATA #IMPLIED >
   <!ATTLIST text
       ewd:textID CDATA #IMPLIED >
   <!ATTLIST title
       ewd:textID CDATA #IMPLIED >
]>
<svg xmlns="http://www.w3.org/2000/svg" xmlns:xlink="http://www.w3.org/1999/xlink" width="773.45" height="721" viewBox="0 0 773.45 721" xml:space="preserve" xmlns:ewd="http://shcl.co.jp/ewd" ewd:ver="2.0">
  
  <defs>
    <font horiz-adv-x="1229">
      <font-face font-family="Svg Symbol" units-per-em="2048" panose-1="5 5 1 2 1 7 6 2 5 7" ascent="2059" descent="450" alphabetic="0" />
      <missing-glyph d="M 103,0 l 0,1280 1024,0 0,-1280 -1024,0 z m 32,32 l 960,0 0,1216 -960,0 0,-1216 z" />
      <glyph d4p1:unicode="" horiz-adv-x="1573" d="M 1517,0 l -567,0 24,279 q 141,59 207.5,168 66.5,109 66.5,306 0,272 -132.5,417.5 -132.5,145.5 -333.5,145.5 -194,0 -328,-147.5 -134,-147.5 -134,-401.5 0,-200 68.5,-319 68.5,-119 206.5,-169 l 25,-279 -564,0 0,279 35,0 q 3,-61 32,-83 45,-35 137,-35 l 270,0 0,70 q -210,61 -324.5,209 -114.5,148 -114.5,349 0,252 186.5,425 186.5,173 504.5,173 195,0 358.5,-73.5 163.5,-73.5 252,-214.5 88.5,-141 88.5,-310 0,-207 -121.5,-360.5 -121.5,-153.5 -317.5,-197.5 l -8,-70 275,0 q 92,0 128,28 36,28 42,90 l 38,0 0,-279 z" xmlns:d4p1="def-glyph-attr-unicode" />
    </font>
  </defs>
  
<g ewd:figtype="rb" ewd:code="12" ewd:figID="4">
      <path style="fill:none;stroke:#000000;stroke-width:0.85;" d="M 306.16,345.8 L 306.16, 368.48" />
      <path style="fill:none;stroke:#000000;stroke-width:0.85;" d="M 306.16,368.48 L 306.16, 375.99" />
      <path style="fill:none;stroke:#000000;stroke-width:0.85;" d="M 306.16,394.99 L 306.16, 402.5" />
      <path style="fill:none;stroke:#000000;stroke-width:0.85;" d="M 306.16,402.5 L 306.16, 411.01 L 391.21, 411.01 L 391.21, 425.18" />
      <path style="fill:none;stroke:#000000;stroke-width:0.85;" d="M 280.65,345.8 L 280.65, 368.48" />
      <path style="fill:none;stroke:#000000;stroke-width:0.85;" d="M 280.65,368.48 L 280.65, 372.73" />
      <path style="fill:none;stroke:#000000;stroke-width:0.85;" d="M 280.65,398.25 L 280.65, 402.5" />
      <path style="fill:none;stroke:#000000;stroke-width:0.85;" d="M 280.65,402.5 L 280.65, 425.18" />
      <path d="M 391.2,425.18 L 394.03, 422.35 L 394.03, 419.52 L 391.2, 422.35 L 388.37, 419.52 L 388.37, 422.35 L 391.2, 425.18" style="stroke-linecap:round;stroke-linejoin:round;" />
      <path style="fill:none;stroke:#000000;stroke-width:0.85;stroke-linecap:round;stroke-linejoin:round;" d="M 395.45,436.52 C 398.58 436.52 401.12 433.98 401.12 430.85 C 401.12 427.72 398.58 425.18 395.45 425.18 L 386.95, 425.18 C 383.82 425.18 381.28 427.72 381.28 430.85 C 381.28 433.98 383.82 436.52 386.95 436.52 L 395.45, 436.52" />
      <path d="M 280.65,425.18 L 283.48, 422.35 L 283.48, 419.52 L 280.65, 422.35 L 277.82, 419.52 L 277.82, 422.35 L 280.65, 425.18" style="stroke-linecap:round;stroke-linejoin:round;" />
      <path style="fill:none;stroke:#000000;stroke-width:0.85;stroke-linecap:round;stroke-linejoin:round;" d="M 284.9,436.52 C 288.03 436.52 290.57 433.98 290.57 430.85 C 290.57 427.72 288.03 425.18 284.9 425.18 L 276.4, 425.18 C 273.27 425.18 270.73 427.72 270.73 430.85 C 270.73 433.98 273.27 436.52 276.4 436.52 L 284.9, 436.52" />
      <path d="M 280.65,345.8 L 283.48, 348.63 L 283.48, 351.46 L 280.65, 348.63 L 277.82, 351.46 L 277.82, 348.63 L 280.65, 345.8" style="stroke-linecap:round;stroke-linejoin:round;" />
      <path style="fill:none;stroke:#000000;stroke-width:0.85;stroke-linecap:round;stroke-linejoin:round;" d="M 284.9,345.8 C 288.03 345.8 290.57 343.26 290.57 340.13 C 290.57 337 288.03 334.46 284.9 334.46 L 276.4, 334.46 C 273.27 334.46 270.73 337 270.73 340.13 C 270.73 343.26 273.27 345.8 276.4 345.8 L 284.9, 345.8" />
      <path d="M 306.16,345.8 L 308.99, 348.63 L 308.99, 351.46 L 306.16, 348.63 L 303.33, 351.46 L 303.33, 348.63 L 306.16, 345.8" style="stroke-linecap:round;stroke-linejoin:round;" />
      <path style="fill:none;stroke:#000000;stroke-width:0.85;stroke-linecap:round;stroke-linejoin:round;" d="M 310.41,345.8 C 313.54 345.8 316.08 343.26 316.08 340.13 C 316.08 337 313.54 334.46 310.41 334.46 L 301.91, 334.46 C 298.78 334.46 296.24 337 296.24 340.13 C 296.24 343.26 298.78 345.8 301.91 345.8 L 310.41, 345.8" />
      <path style="fill:none;stroke:#000000;stroke-width:0.85;stroke-linecap:round;stroke-linejoin:round;" d="M 280.64,398.25 C 279.86 398.25 279.22 397.62 279.22 396.83 C 279.220002441406 396.039973144531 279.85 395.41 280.64 395.41 C 281.430029296875 395.410007324219 282.06 396.04 282.06 396.83 C 282.059995117188 397.619973144531 281.43 398.25 280.64 398.25" />
      <path style="fill:none;stroke:#000000;stroke-width:1.417;" d="M 280.28,395.46 L 274.98, 372.73" />
      <path style="fill:none;stroke:#000000;stroke-width:0.85;stroke-linecap:round;stroke-linejoin:round;" d="M 280.64,375.57 C 279.86 375.57 279.22 374.94 279.22 374.15 C 279.220002441406 373.359987792969 279.85 372.73 280.64 372.73 C 281.430029296875 372.730021972656 282.06 373.36 282.06 374.15 C 282.059995117188 374.939987792969 281.43 375.57 280.64 375.57" />
      <path style="fill:none;stroke:#000000;stroke-width:0.85;stroke-linecap:round;" d="M 303.01,388.3 C 303.79 387.44 304.91 386.9 306.16 386.9 C 308.51 386.9 310.41 388.8 310.41 391.15 C 310.410007324219 393.499987792969 308.51 395.4 306.16 395.4" />
      <path style="fill:none;stroke:#000000;stroke-width:0.85;stroke-linecap:round;" d="M 302.95,388.29 C 303.73 389.18 304.88 389.75 306.15 389.75 C 308.5 389.75 310.4 387.85 310.4 385.5 C 310.4 383.15 308.5 381.25 306.15 381.25 C 304.87 381.25 303.73 381.81 302.95 382.7" />
      <path style="fill:none;stroke:#000000;stroke-width:0.85;stroke-linecap:round;" d="M 302.98,382.64 C 303.76 383.52 304.9 384.07 306.16 384.07 C 308.51 384.07 310.41 382.17 310.41 379.82 C 310.41 377.47 308.51 375.57 306.16 375.57" />
      <path style="fill:none;stroke:#000000;stroke-width:1.417;stroke-linecap:round;stroke-linejoin:round;" d="M 314.66,402.5 L 314.66, 368.48 L 272.14, 368.48 L 272.14, 402.5 L 314.66, 402.5" />
      <text transform="matrix(1 0 0 1 387.8599 432.5547)" style="font-family:'Arial'; font-size:6px;">12</text>
      <text transform="matrix(1 0 0 1 277.3101 432.5547)" style="font-family:'Arial'; font-size:6px;">12</text>
      <text transform="matrix(1 0 0 1 277.3101 341.8408)" style="font-family:'Arial'; font-size:6px;">12</text>
      <text transform="matrix(1 0 0 1 302.8203 341.8408)" style="font-family:'Arial'; font-size:6px;">12</text>
      <text transform="matrix(1 0 0 1 317.4961 383.6973)" style="font-family:'Arial'; font-size:6px;" ewd:textID="8">ST <tspan x="0" dy="1em">Relay</tspan></text>
      <text transform="matrix(1 0 0 1 272.3477 409.875)" style="font-family:'Arial'; font-size:6px;">3</text>
      <text transform="matrix(1 0 0 1 297.8594 409.875)" style="font-family:'Arial'; font-size:6px;">1</text>
      <text transform="matrix(1 0 0 1 272.3477 364.5195)" style="font-family:'Arial'; font-size:6px;">5</text>
      <text transform="matrix(1 0 0 1 297.8594 364.5195)" style="font-family:'Arial'; font-size:6px;">2</text>
    </g><g ewd:figtype="rb" ewd:code="FUSE148" ewd:figID="5">
      <path style="fill:none;stroke:#000000;stroke-width:0.85;" d="M 731.35,170.05 L 731.35, 147.37" />
      <path style="fill:none;stroke:#000000;stroke-width:0.85;" d="M 731.35,147.37 L 731.35, 140.28" />
      <path style="fill:none;stroke:#000000;stroke-width:0.85;" d="M 731.35,111.93 L 731.35, 104.84" />
      <path style="fill:none;stroke:#000000;stroke-width:0.85;" d="M 731.35,104.85 L 731.35, 82.18" />
      <path style="fill:none;stroke:#000000;stroke-width:0.85;stroke-linecap:round;stroke-linejoin:round;" d="M 731.35,140.28 C 732.13 140.28 732.77 139.65 732.77 138.86 C 732.7700390625 138.070001220703 732.14 137.44 731.35 137.44 C 730.5699 137.44 729.93 138.07 729.93 138.86 C 729.929985351563 139.650001220703 730.57 140.28 731.35 140.28" />
      <path style="fill:none;stroke:#000000;stroke-width:0.85;stroke-linecap:round;stroke-linejoin:round;" d="M 731.35,114.77 C 732.13 114.77 732.77 114.14 732.77 113.35 C 732.7700390625 112.559996948242 732.14 111.93 731.35 111.93 C 730.5699 111.93 729.93 112.56 729.93 113.35 C 729.929985351563 114.139996948242 730.57 114.77 731.35 114.77" />
      <path style="fill:none;stroke:#000000;stroke-width:1.417;" d="M 730.35,114.35 C 730.35 114.35 724.28 119.03 731.35 126.1 C 738.42 133.17 732.35 137.85 732.35 137.85" />
      <path style="fill:none;stroke:#000000;stroke-width:1.417;stroke-linecap:round;stroke-linejoin:round;" d="M 744.11,147.37 L 744.11, 104.85 L 718.6, 104.85 L 718.6, 147.37 L 744.11, 147.37" />
      <path d="M 731.35,170.05 L 734.18, 167.22 L 734.18, 164.39 L 731.35, 167.22 L 728.52, 164.39 L 728.52, 167.22 L 731.35, 170.05" style="stroke-linecap:round;stroke-linejoin:round;" />
      <path style="fill:none;stroke:#000000;stroke-width:0.85;stroke-linecap:round;stroke-linejoin:round;" d="M 735.6,181.39 C 738.73 181.39 741.27 178.85 741.27 175.72 C 741.27 172.59 738.73 170.05 735.6 170.05 L 727.1, 170.05 C 723.97 170.05 721.43 172.59 721.43 175.72 C 721.43 178.85 723.97 181.39 727.1 181.39 L 735.6, 181.39" />
      <path d="M 731.35,82.18 L 734.18, 85.01 L 734.18, 87.84 L 731.35, 85.00999 L 728.52, 87.83999 L 728.52, 85.00999 L 731.35, 82.18" style="stroke-linecap:round;stroke-linejoin:round;" />
      <path style="fill:none;stroke:#000000;stroke-width:0.85;stroke-linecap:round;stroke-linejoin:round;" d="M 735.6,82.18 C 738.73 82.18 741.27 79.64 741.27 76.51 C 741.27 73.38 738.73 70.84 735.6 70.84 L 727.1, 70.84 C 723.97 70.84 721.43 73.38 721.43 76.50999 C 721.43 79.63998 723.97 82.17999 727.1 82.17999 L 735.6, 82.17999" />
      <text transform="matrix(1 0 0 1 723.0532 100.8853)" style="font-family:'Arial'; font-size:6px;">1</text>
      <text transform="matrix(1 0 0 1 723.0532 154.7427)" style="font-family:'Arial'; font-size:6px;">2</text>
      <text transform="matrix(1 0 0 1 746.9419 124.27)" style="font-family:'Arial'; font-size:6px;">7.5A<tspan x="0" dy="1em">ST</tspan></text>
      <text transform="matrix(1 0 0 1 728.0142 177.4224)" style="font-family:'Arial'; font-size:6px;">12</text>
      <text transform="matrix(1 0 0 1 728.0142 78.0347)" style="font-family:'Arial'; font-size:6px;">12</text>
    </g><g ewd:figtype="w2w" ewd:code="HB2" ewd:pin_no="4" ewd:figID="15">
      <path style="fill:#FFFFFF;stroke:#FFFFFF;stroke-width:0;stroke-linecap:round;stroke-linejoin:round;" d="M 284.9,64.28 L 280.65, 68.53 L 276.4, 64.28 L 276.4, 70.83 L 284.9, 70.83 L 284.9, 64.28" />
      <path style="fill:#FFFFFF;stroke:#FFFFFF;stroke-width:0;stroke-linecap:round;stroke-linejoin:round;" d="M 284.9,61.44 L 280.65, 65.69 L 276.4, 61.44 L 276.4, 67.99 L 284.9, 67.99 L 284.9, 61.44" />
      <path style="fill:none;stroke:#000000;stroke-width:0.85;" d="M 284.9,63.74 L 280.65, 67.99001 L 276.4, 63.74001" />
      <path style="fill:none;stroke:#000000;stroke-width:0.85;" d="M 284.9,66.58 L 280.65, 70.83 L 276.4, 66.58" />
      <path style="fill:none;stroke:#000000;stroke-width:0.85;stroke-linecap:round;stroke-linejoin:round;" d="M 290.57,79.33 L 290.57, 70.83 L 270.73, 70.83 L 270.73, 79.33 L 290.57, 79.33" />
      <text transform="matrix(1 0 0 1 265.9712 76.7861)" style="font-family:'Arial'; font-size:6px;">4</text>
    </g><g ewd:figtype="w2w" ewd:code="HB2" ewd:pin_no="12" ewd:figID="17">
      <path style="fill:#FFFFFF;stroke:#FFFFFF;stroke-width:0;stroke-linecap:round;stroke-linejoin:round;" d="M 284.9,255.97 L 280.65, 251.72 L 276.4, 255.97 L 276.4, 249.42 L 284.9, 249.42 L 284.9, 255.97" />
      <path style="fill:#FFFFFF;stroke:#FFFFFF;stroke-width:0;stroke-linecap:round;stroke-linejoin:round;" d="M 284.9,258.81 L 280.65, 254.56 L 276.4, 258.81 L 276.4, 252.26 L 284.9, 252.26 L 284.9, 258.81" />
      <path style="fill:none;stroke:#000000;stroke-width:0.85;" d="M 284.9,256.51 L 280.65, 252.26 L 276.4, 256.51" />
      <path style="fill:none;stroke:#000000;stroke-width:0.85;" d="M 284.9,253.67 L 280.65, 249.42 L 276.4, 253.67" />
      <path style="fill:none;stroke:#000000;stroke-width:0.85;stroke-linecap:round;stroke-linejoin:round;" d="M 290.57,240.92 L 290.57, 249.42 L 270.73, 249.42 L 270.73, 240.92 L 290.57, 240.92" />
      <text transform="matrix(1 0 0 1 262.6343 246.876)" style="font-family:'Arial'; font-size:6px;">12</text>
    </g><g ewd:figtype="w2w" ewd:code="yE1" ewd:pin_no="1" ewd:figID="18">
      <path style="fill:#FFFFFF;stroke:#FFFFFF;stroke-width:0;stroke-linecap:round;stroke-linejoin:round;" d="M 284.92,562.13 L 280.67, 557.88 L 276.42, 562.13 L 276.42, 555.58 L 284.92, 555.58 L 284.92, 562.13" />
      <path style="fill:#FFFFFF;stroke:#FFFFFF;stroke-width:0;stroke-linecap:round;stroke-linejoin:round;" d="M 284.92,564.96 L 280.67, 560.71 L 276.42, 564.96 L 276.42, 558.41 L 284.92, 558.41 L 284.92, 564.96" />
      <path style="fill:none;stroke:#000000;stroke-width:0.85;" d="M 284.92,562.66 L 280.67, 558.41 L 276.42, 562.66" />
      <path style="fill:none;stroke:#000000;stroke-width:0.85;" d="M 284.92,559.83 L 280.67, 555.58 L 276.42, 559.83" />
      <path style="fill:none;stroke:#000000;stroke-width:0.85;stroke-linecap:round;stroke-linejoin:round;" d="M 290.59,547.07 L 290.59, 555.57 L 270.75, 555.57 L 270.75, 547.07 L 290.59, 547.07" />
      <text transform="matrix(1 0 0 1 265.9946 553.0313)" style="font-family:'Arial'; font-size:6px;">1</text>
    </g><g ewd:figtype="gp" ewd:code="B5" ewd:figID="19">
      <path style="fill:none;stroke:#000000;stroke-width:0.85;" d="M 391.21,708.66 L 391.21, 711.49" />
      <path style="fill:none;stroke:#000000;stroke-width:0.85;" d="M 389.79,720 L 392.63, 720" />
      <path style="fill:none;stroke:#000000;stroke-width:0.85;" d="M 388.37,717.17 L 394.04, 717.17" />
      <path style="fill:none;stroke:#000000;stroke-width:0.85;" d="M 385.53,714.33 L 396.87, 714.33" />
      <path style="fill:none;stroke:#000000;stroke-width:0.85;" d="M 382.7,711.5 L 399.71, 711.5" />
    </g><g ewd:figtype="conn" ewd:code="D37" ewd:figID="10">
      <path style="fill:none;stroke:#000000;stroke-width:1.417;" d="M 650.57,104.85 L 676.08, 104.85" />
      <path style="fill:none;stroke:#000000;stroke-width:0.85;stroke-linecap:round;stroke-linejoin:round;" d="M 646.32,109.1 C 648.67 109.1 650.57 107.2 650.57 104.85 C 650.57 102.5 648.67 100.6 646.32 100.6 C 643.97 100.6 642.07 102.5 642.07 104.85 C 642.07 107.2 643.97 109.1 646.32 109.1" />
      <path style="fill:none;stroke:#000000;stroke-width:0.85;stroke-linecap:round;stroke-linejoin:round;" d="M 680.34,109.1 C 682.69 109.1 684.59 107.2 684.59 104.85 C 684.59 102.5 682.69 100.6 680.34 100.6 C 677.9901 100.6 676.09 102.5 676.09 104.85 C 676.09 107.2 677.99 109.1 680.34 109.1" />
      <path style="fill:none;stroke:#000000;stroke-width:1.417;" d="M 650.57,87.84 L 676.08, 87.84" />
      <path style="fill:none;stroke:#000000;stroke-width:0.85;stroke-linecap:round;stroke-linejoin:round;" d="M 646.32,92.09 C 648.67 92.09 650.57 90.18999 650.57 87.84 C 650.57 85.49 648.67 83.59 646.32 83.59 C 643.97 83.59 642.07 85.49 642.07 87.84 C 642.07 90.19 643.97 92.09 646.32 92.09" />
      <path style="fill:none;stroke:#000000;stroke-width:0.85;stroke-linecap:round;stroke-linejoin:round;" d="M 680.34,92.09 C 682.69 92.09 684.59 90.18999 684.59 87.84 C 684.59 85.49 682.69 83.59 680.34 83.59 C 677.9901 83.59 676.09 85.49 676.09 87.84 C 676.09 90.19 677.99 92.09 680.34 92.09" />
      <path style="fill:none;stroke:#000000;stroke-width:1.417;stroke-linecap:round;stroke-linejoin:round;" d="M 697.34,62.33 L 697.34, 113.35 L 612.3, 113.35 L 612.3, 62.33 L 697.34, 62.33" />
      <path style="fill:none;stroke:#000000;stroke-width:0.85;" d="M 663.32,62.33 L 663.32, 113.35" />
      <path style="fill:none;stroke:#000000;stroke-width:0.85;" d="M 629.3,62.33 L 629.3, 113.35" />
      <path style="fill:none;stroke:#000000;stroke-width:0.85;" d="M 612.29,96.34 L 697.33, 96.34" />
      <path style="fill:none;stroke:#000000;stroke-width:0.85;" d="M 612.29,79.33 L 697.33, 79.33" />
      <text transform="matrix(1 0 0 1 678.3481 72.5381)" style="font-family:'Arial'; font-size:6px;">B</text>
      <text transform="matrix(1 0 0 1 644.6411 72.5381)" style="font-family:'Arial'; font-size:6px;">L</text>
      <text transform="matrix(1 0 0 1 618.6294 106.5557)" style="font-family:'Arial'; font-size:6px;">N</text>
      <text transform="matrix(1 0 0 1 618.7954 89.5459)" style="font-family:'Arial'; font-size:6px;">P</text>
      <text transform="matrix(1 0 0 1 672.0464 120.7261)" style="font-family:'Arial'; font-size:6px;">4</text>
      <text transform="matrix(1 0 0 1 638.0005 120.7295)" style="font-family:'Arial'; font-size:6px;">5</text>
      <g ewd:figtype="title">
        <text transform="matrix(0 -1 1 0 593.4468 116.1738)" style="font-family:'Arial'; font-size:6px;">D37</text>
        <text transform="matrix(0 -1 1 0 600.5337 116.1738)" style="font-family:'Arial'; font-size:6px;" ewd:textID="6">Park/Neutral  <tspan x="0" dy="1em">Position SW</tspan></text>
      </g>
    </g><g ewd:figtype="conn" ewd:code="B97" ewd:figID="11">
      <path style="fill:#FFFFFF;stroke:#000000;stroke-width:0.85;stroke-linecap:round;stroke-linejoin:round;" d="M 731.36,558.41 C 734.49 558.41 737.03 555.87 737.03 552.74 C 737.03005859375 549.60998046875 734.4901 547.07 731.36 547.07 C 728.229870703125 547.070014648437 725.69 549.61 725.69 552.74 C 725.690004882812 555.86998046875 728.23 558.41 731.36 558.41" />
      <path style="fill:#FFFFFF;stroke:#000000;stroke-width:0.85;stroke-linecap:round;stroke-linejoin:round;" d="M 731.36,513.05 C 734.49 513.05 737.03 510.51 737.03 507.38 C 737.03005859375 504.250009765625 734.4901 501.71 731.36 501.71 C 728.229870703125 501.709982910156 725.69 504.25 725.69 507.38 C 725.690004882812 510.510009765625 728.23 513.05 731.36 513.05" />
      <path style="fill:none;stroke:#000000;stroke-width:1.417;stroke-linecap:round;stroke-linejoin:round;" d="M 748.36,547.07 L 748.36, 513.06 L 714.35, 513.06 L 714.35, 547.07 L 748.36, 547.07" />
      <text transform="matrix(1 0 0 1 717.4556 509.0928)" style="font-family:'Arial'; font-size:6px;">57</text>
      <text transform="matrix(1 0 0 1 729.355 509.0928)" style="font-family:'Arial'; font-size:6px;">A</text>
      <text transform="matrix(1 0 0 1 717.4556 554.4521)" style="font-family:'Arial'; font-size:6px;">29</text>
      <text transform="matrix(1 0 0 1 729.355 554.4521)" style="font-family:'Arial'; font-size:6px;">A</text>
      <text transform="matrix(1 0 0 1 725.5181 543.1182)" style="font-family:'Arial'; font-size:6px;">STA</text>
      <text transform="matrix(1 0 0 1 724.353 520.4404)" style="font-family:'Arial'; font-size:6px;">NSW</text>
      <g ewd:figtype="title">
        <text transform="matrix(0 -1 1 0 756.4429 549.9053)" style="font-family:'Arial'; font-size:6px;">B97(A)</text>
        <text transform="matrix(0 -1 1 0 764.9478 549.9053)" style="font-family:'Arial'; font-size:6px;" ewd:textID="2">Engine ECU</text>
      </g>
    </g><g ewd:figtype="conn" ewd:code="B83" ewd:figID="13">
      <path style="fill:none;stroke:#000000;stroke-width:0.85;" d="M 561.25,300.45 L 561.25, 291.96" />
      <path style="fill:none;stroke:#000000;stroke-width:0.85;" d="M 680.33,274.93 L 680.33, 283.43 L 731.35, 283.43" />
      <path style="fill:none;stroke:#000000;stroke-width:0.85;" d="M 595.27,274.93 L 595.27, 291.94 L 374.16, 291.94 L 374.16, 274.93" />
      <path style="fill:none;stroke:#000000;stroke-width:0.85;" d="M 731.35,300.45 L 731.35, 274.94" />
      <path d="M 562.69,291.94 C 562.69 292.72 562.06 293.36 561.27 293.36 C 560.49 293.36 559.85 292.73 559.85 291.94 C 559.849951171875 291.150004882812 560.48 290.52 561.27 290.52 C 562.05 290.53 562.69 291.16 562.69 291.94" style="stroke-linecap:round;stroke-linejoin:round;" />
      <path d="M 731.35,284.86 C 732.13 284.86 732.77 284.23 732.77 283.44 C 732.7700390625 282.650004882812 732.14 282.02 731.35 282.02 C 730.559951171875 282.019978027344 729.93 282.65 729.93 283.44 C 729.929985351563 284.230004882813 730.57 284.86 731.35 284.86" style="stroke-linecap:round;stroke-linejoin:round;" />
      <path style="fill:none;stroke:#000000;stroke-width:1.417;stroke-linecap:round;stroke-linejoin:round;" d="M 739.86,300.45 L 739.86, 274.94 L 365.67, 274.94 L 365.67, 300.45 L 739.86, 300.45" />
      <text transform="matrix(1 0 0 1 549.6392 307.8213)" style="font-family:'Arial'; font-size:6px;">19</text>
      <text transform="matrix(1 0 0 1 583.6548 270.9707)" style="font-family:'Arial'; font-size:6px;">18</text>
      <text transform="matrix(1 0 0 1 362.5522 270.9717)" style="font-family:'Arial'; font-size:6px;">16</text>
      <text transform="matrix(1 0 0 1 719.7173 307.8213)" style="font-family:'Arial'; font-size:6px;">10</text>
      <text transform="matrix(1 0 0 1 672.0308 270.9707)" style="font-family:'Arial'; font-size:6px;">9</text>
      <text transform="matrix(1 0 0 1 723.0542 270.9717)" style="font-family:'Arial'; font-size:6px;">7</text>
      <g ewd:figtype="title">
        <text transform="matrix(1 0 0 1 450.7124 308.5317)" style="font-family:'Arial'; font-size:6px;">B83</text>
        <text transform="matrix(1 0 0 1 450.7124 315.6187)" style="font-family:'Arial'; font-size:6px;" ewd:textID="4">Junction  <tspan x="0" dy="1em">Connector</tspan></text>
      </g>
      <g ewd:figtype="title">
        <text transform="matrix(1 0 0 1 620.853 308.5317)" style="font-family:'Arial'; font-size:6px;">B83</text>
        <text transform="matrix(1 0 0 1 620.853 315.6187)" style="font-family:'Arial'; font-size:6px;" ewd:textID="4">Junction  <tspan x="0" dy="1em">Connector</tspan></text>
      </g>
    </g><g ewd:figtype="w2w" ewd:code="yB1" ewd:pin_no="17" ewd:figID="20">
      <path style="fill:#FFFFFF;stroke:#FFFFFF;stroke-width:0;stroke-linecap:round;stroke-linejoin:round;" d="M 284.93,489.5 L 280.68, 493.75 L 276.43, 489.5 L 276.43, 496.05 L 284.93, 496.05 L 284.93, 489.5" />
      <path style="fill:#FFFFFF;stroke:#FFFFFF;stroke-width:0;stroke-linecap:round;stroke-linejoin:round;" d="M 284.93,486.67 L 280.68, 490.92 L 276.43, 486.67 L 276.43, 493.22 L 284.93, 493.22 L 284.93, 486.67" />
      <path style="fill:none;stroke:#000000;stroke-width:0.85;" d="M 284.93,488.97 L 280.68, 493.22 L 276.43, 488.97" />
      <path style="fill:none;stroke:#000000;stroke-width:0.85;" d="M 284.93,491.8 L 280.68, 496.05 L 276.43, 491.8" />
      <path style="fill:none;stroke:#000000;stroke-width:0.85;stroke-linecap:round;stroke-linejoin:round;" d="M 290.6,504.56 L 290.6, 496.06 L 270.76, 496.06 L 270.76, 504.56 L 290.6, 504.56" />
      <text transform="matrix(1 0 0 1 262.6621 502.0127)" style="font-family:'Arial'; font-size:6px;">17</text>
    </g><g ewd:figtype="w2w" ewd:code="BD7" ewd:pin_no="10" ewd:figID="21">
      <path style="fill:#FFFFFF;stroke:#FFFFFF;stroke-width:0;stroke-linecap:round;stroke-linejoin:round;" d="M 684.58,187.59 L 680.33, 191.84 L 676.08, 187.59 L 676.08, 194.14 L 684.58, 194.14 L 684.58, 187.59" />
      <path style="fill:#FFFFFF;stroke:#FFFFFF;stroke-width:0;stroke-linecap:round;stroke-linejoin:round;" d="M 684.58,184.76 L 680.33, 189.01 L 676.08, 184.76 L 676.08, 191.31 L 684.58, 191.31 L 684.58, 184.76" />
      <path style="fill:none;stroke:#000000;stroke-width:0.85;" d="M 684.58,187.06 L 680.33, 191.31 L 676.08, 187.06" />
      <path style="fill:none;stroke:#000000;stroke-width:0.85;" d="M 684.58,189.89 L 680.33, 194.14 L 676.08, 189.89" />
      <path style="fill:none;stroke:#000000;stroke-width:0.85;stroke-linecap:round;stroke-linejoin:round;" d="M 690.25,202.65 L 690.25, 194.15 L 670.41, 194.15 L 670.41, 202.65 L 690.25, 202.65" />
      <text transform="matrix(1 0 0 1 662.3198 200.1021)" style="font-family:'Arial'; font-size:6px;">10</text>
    </g><g ewd:figtype="w2w" ewd:code="BD7" ewd:pin_no="9" ewd:figID="22">
      <path style="fill:#FFFFFF;stroke:#FFFFFF;stroke-width:0;stroke-linecap:round;stroke-linejoin:round;" d="M 599.62,187.59 L 595.37, 191.84 L 591.12, 187.59 L 591.12, 194.14 L 599.62, 194.14 L 599.62, 187.59" />
      <path style="fill:#FFFFFF;stroke:#FFFFFF;stroke-width:0;stroke-linecap:round;stroke-linejoin:round;" d="M 599.62,184.76 L 595.37, 189.01 L 591.12, 184.76 L 591.12, 191.31 L 599.62, 191.31 L 599.62, 184.76" />
      <path style="fill:none;stroke:#000000;stroke-width:0.85;" d="M 599.62,187.06 L 595.37, 191.31 L 591.12, 187.06" />
      <path style="fill:none;stroke:#000000;stroke-width:0.85;" d="M 599.62,189.89 L 595.37, 194.14 L 591.12, 189.89" />
      <path style="fill:none;stroke:#000000;stroke-width:0.85;stroke-linecap:round;stroke-linejoin:round;" d="M 605.29,202.65 L 605.29, 194.15 L 585.45, 194.15 L 585.45, 202.65 L 605.29, 202.65" />
      <text transform="matrix(1 0 0 1 580.6968 200.1021)" style="font-family:'Arial'; font-size:6px;">9</text>
    </g><text transform="matrix(1 0 0 1 253.1265 92.3838)" style="font-family:'Arial'; font-size:6px;">P</text><text transform="matrix(0 -1 1 0 276.6748 226.0747)" style="font-family:'Arial'; font-size:6px;">R</text><text transform="matrix(0 -1 1 0 276.6748 294.1064)" style="font-family:'Arial'; font-size:6px;">R</text><text transform="matrix(0 -1 1 0 302.1865 294.1064)" style="font-family:'Arial'; font-size:6px;">R</text><text transform="matrix(0 -1 1 0 387.2349 472.1162)" style="font-family:'Arial'; font-size:6px;">W-B</text><text transform="matrix(0 -1 1 0 276.6855 468.2852)" style="font-family:'Arial'; font-size:6px;">B</text><text transform="matrix(0 -1 1 0 276.6855 527.8125)" style="font-family:'Arial'; font-size:6px;">B</text><text transform="matrix(0 -1 1 0 276.6855 587.3398)" style="font-family:'Arial'; font-size:6px;">B</text><text transform="matrix(0 -1 1 0 387.2427 591.1709)" style="font-family:'Arial'; font-size:6px;">W-B</text><text transform="matrix(0 -1 1 0 727.3804 55.7959)" style="font-family:'Arial'; font-size:6px;">P</text><text transform="matrix(0 -1 1 0 591.3257 234.5791)" style="font-family:'Arial'; font-size:6px;">R</text><text transform="matrix(0 -1 1 0 676.3384 234.5791)" style="font-family:'Arial'; font-size:6px;">R</text><text transform="matrix(0 -1 1 0 727.3618 234.5791)" style="font-family:'Arial'; font-size:6px;">R</text><text transform="matrix(0 -1 1 0 676.3647 166.3867)" style="font-family:'Arial'; font-size:6px;">B</text><text transform="matrix(0 -1 1 0 591.3257 166.5522)" style="font-family:'Arial'; font-size:6px;">R</text><text transform="matrix(0 -1 1 0 727.3853 591.7617)" style="font-family:'Arial'; font-size:6px;">R</text><text transform="matrix(0 -1 1 0 726.8833 402.9258)" style="font-family:'Arial'; font-size:6px;">B</text><text transform="matrix(0 -1 1 0 276.6826 47.3159)" style="font-family:'Arial'; font-size:6px;">P</text><text transform="matrix(1 0 0 1 499.7603 24.3433)" style="font-family:'Arial'; font-size:6px;">P</text><text transform="matrix(1 0 0 1 550.7817 24.3433)" style="font-family:'Arial'; font-size:6px;">P</text><text transform="matrix(0 -1 1 0 556.8042 403.0918)" style="font-family:'Arial'; font-size:6px;">R</text></svg>