﻿<?xml version="1.0" encoding="utf-8"?>
<!-- Generator: Adobe Illustrator 10.0, SVG Export Plug-In . SVG Version: 3.0.0 Build 77)  -->
<!DOCTYPE svg PUBLIC "-//W3C//DTD SVG 1.0//EN" "http://www.w3.org/TR/2001/REC-SVG-20010904/DTD/svg10.dtd"[
   <!ENTITY ns_flows "http://ns.adobe.com/Flows/1.0/">
   <!ENTITY ns_svg "http://www.w3.org/2000/svg">
   <!ENTITY ns_xlink "http://www.w3.org/1999/xlink">
   <!ENTITY st0 "font-size:7px;font-family:'MS-PGothic';adobe-font-script:japanese;">
   <!ENTITY st1 "font-size:6px;font-family:'ArialMT';">
   <!ENTITY st2 "fill:#FFFFFF;stroke:#000000; stroke-width:1.41;stroke-linecap:round;stroke-linejoin:round;">
   <!ENTITY st3 "fill:#FFFFCC;stroke:#FFFFCC; stroke-width:0.1;stroke-linecap:round;stroke-linejoin:round;">
   <!ENTITY st4 "fill:#CCCCCC;stroke:#CCCCCC; stroke-width:0.1;stroke-linecap:round;stroke-linejoin:round;">
   <!ENTITY st5 "fill:#CCECF4;stroke:#000000; stroke-width:1.133;stroke-linecap:round;stroke-linejoin:round;">
   <!ENTITY st6 "fill:none;stroke-linecap:butt; stroke-linejoin:round;">
   <!ENTITY st7 "fill:none;stroke:#000000;stroke-linecap:round;stroke-linejoin:round;">
   <!ENTITY st8 "enable-background:new;">
   <!ENTITY st9 "fill:#000000;stroke:#000000; stroke-linecap:round;stroke-linejoin:round;">
   <!ENTITY st10 "font-size:9px;font-family:'ArialMT';">
   <!ENTITY st11 "font-size:9px;font-family:'Svg Symbol';">
   <!ENTITY st12 "font-size:6px;font-family:'Svg Symbol';">
   <!ENTITY st13 "fill:none;stroke:#ff0000;stroke-linecap:round;stroke-linejoin:round;">
   <!ENTITY st14 "fill:#FFFF00;stroke:#FFFF00; stroke-width:0.1;stroke-linecap:round;stroke-linejoin:round;">
   <!ENTITY st15 "font-size:6px;font-family:'MS-PGothic';adobe-font-script:japanese;">
   <!ENTITY st16 "1.00 0.00 0.00 1.00">
   <!ENTITY st17 "0.00 -1.00 1.00 0.00">
   <!ENTITY st18 "font-size:6px;font-family:'Arial';">
   <!ENTITY st19 "font-size:9px;font-family:'Arial';">
   <!ENTITY st20 "font-size:6px;font-family:'MS-PGothic','MS PGothic';adobe-font-script:japanese;">
   <!ENTITY st21 "font-size:7px;font-family:'MS-PGothic','MS PGothic';adobe-font-script:japanese;">
   <!ATTLIST svg
       xmlns:ewd CDATA #FIXED "http://shcl.co.jp/ewd"
       xmlns:a CDATA #FIXED "http://ns.adobe.com/AdobeSVGViewerExtensions/3.0/"
       ewd:ver CDATA #IMPLIED >
   <!ATTLIST a
       ewd:lineID CDATA #IMPLIED
       ewd:groupID CDATA #IMPLIED
       ewd:figtype CDATA #IMPLIED
       ewd:code CDATA #IMPLIED
       ewd:figID CDATA #IMPLIED
       ewd:pinNo CDATA #IMPLIED
       ewd:comment CDATA #IMPLIED >
   <!ATTLIST g
       ewd:lineID CDATA #IMPLIED
       ewd:groupID CDATA #IMPLIED
       ewd:figtype CDATA #IMPLIED
       ewd:code CDATA #IMPLIED
       ewd:figID CDATA #IMPLIED
       ewd:pinNo CDATA #IMPLIED
       ewd:comment CDATA #IMPLIED >
   <!ATTLIST text
       ewd:textID CDATA #IMPLIED >
   <!ATTLIST title
       ewd:textID CDATA #IMPLIED >
]>
<svg xmlns="http://www.w3.org/2000/svg" xmlns:xlink="http://www.w3.org/1999/xlink" width="3136.96" height="721.17" viewBox="0 0 3136.96 721.17" xml:space="preserve" xmlns:ewd="http://shcl.co.jp/ewd" ewd:ver="2.0">
  
  <defs>
    <font horiz-adv-x="1229">
      <font-face font-family="Svg Symbol" units-per-em="2048" panose-1="5 5 1 2 1 7 6 2 5 7" ascent="2059" descent="450" alphabetic="0" />
      <missing-glyph d="M 103,0 l 0,1280 1024,0 0,-1280 -1024,0 z m 32,32 l 960,0 0,1216 -960,0 0,-1216 z" />
      <glyph d4p1:unicode="" horiz-adv-x="1573" d="M 1517,0 l -567,0 24,279 q 141,59 207.5,168 66.5,109 66.5,306 0,272 -132.5,417.5 -132.5,145.5 -333.5,145.5 -194,0 -328,-147.5 -134,-147.5 -134,-401.5 0,-200 68.5,-319 68.5,-119 206.5,-169 l 25,-279 -564,0 0,279 35,0 q 3,-61 32,-83 45,-35 137,-35 l 270,0 0,70 q -210,61 -324.5,209 -114.5,148 -114.5,349 0,252 186.5,425 186.5,173 504.5,173 195,0 358.5,-73.5 163.5,-73.5 252,-214.5 88.5,-141 88.5,-310 0,-207 -121.5,-360.5 -121.5,-153.5 -317.5,-197.5 l -8,-70 275,0 q 92,0 128,28 36,28 42,90 l 38,0 0,-279 z" xmlns:d4p1="def-glyph-attr-unicode" />
    </font>
  </defs>
  
<g ewd:figtype="rb" ewd:code="FUSE208" ewd:figID="1">
      <path style="fill:none;stroke:#000000;stroke-width:0.85;" d="M 3073.71,76.5 L 3073.71, 83.59" />
      <path style="fill:none;stroke:#000000;stroke-width:0.85;" d="M 3073.71,83.58 L 3073.71, 97.75" />
      <path style="fill:none;stroke:#000000;stroke-width:0.85;stroke-linecap:round;stroke-linejoin:round;" d="M 3073.62,76.5 C 3074.4 76.5 3075.04 75.87 3075.04 75.08 C 3075.040078125 74.2900036621094 3074.41 73.66 3073.62 73.66 C 3072.84 73.66 3072.2 74.29 3072.2 75.08 C 3072.19990234375 75.8700036621094 3072.84 76.5 3073.62 76.5" />
      <path style="fill:none;stroke:#000000;stroke-width:0.85;stroke-linecap:round;stroke-linejoin:round;" d="M 3073.62,50.99 C 3074.4 50.99 3075.04 50.36 3075.04 49.57 C 3075.040078125 48.7799993896484 3074.41 48.15 3073.62 48.15 C 3072.84 48.15 3072.2 48.78 3072.2 49.57 C 3072.19990234375 50.3599993896484 3072.84 50.99 3073.62 50.99" />
      <path style="fill:none;stroke:#000000;stroke-width:1.417;" d="M 3072.62,50.57 C 3072.62 50.57 3066.55 55.25 3073.62 62.32 C 3080.690234375 69.3899993896484 3074.62 74.07 3074.62 74.07" />
      <path style="fill:none;stroke:#000000;stroke-width:1.417;stroke-linecap:round;stroke-linejoin:round;" d="M 3086.38,83.58 L 3086.38, 41.07 L 3060.87, 41.07 L 3060.87, 83.59 L 3086.38, 83.59" />
      <path d="M 3073.63,97.76 L 3076.46, 94.93 L 3076.46, 92.1 L 3073.63, 94.93 L 3070.79, 92.1 L 3070.79, 94.93 L 3073.63, 97.76" style="stroke-linecap:round;stroke-linejoin:round;" />
      <path style="fill:none;stroke:#000000;stroke-width:0.85;stroke-linecap:round;stroke-linejoin:round;" d="M 3077.88,109.1 C 3081.01 109.1 3083.55 106.56 3083.55 103.43 C 3083.55 100.3 3081.01 97.76 3077.88 97.76 L 3069.37, 97.76 C 3066.24 97.76 3063.7 100.3 3063.7 103.43 C 3063.7 106.56 3066.24 109.1 3069.37 109.1 L 3077.88, 109.1" />
      <text transform="matrix(1 0 0 1 3065.3252 90.9609)" style="font-family:'Arial'; font-size:6px;">2</text>
      <text transform="matrix(1 0 0 1 3065.792 37.1016)" style="font-family:'Arial'; font-size:6px;">(BAT)</text>
      <text transform="matrix(1 0 0 1 3089.2148 60.4883)" style="font-family:'Arial'; font-size:6px;">10A<tspan x="0" dy="1em">EFI </tspan><tspan x="0" dy="1em">NO. 2</tspan></text>
      <text transform="matrix(1 0 0 1 3070.2871 105.1348)" style="font-family:'Arial'; font-size:6px;">15</text>
    </g><g ewd:figtype="w2w" ewd:code="rB1" ewd:pin_no="2" ewd:figID="54">
      <path style="fill:#FFFFFF;stroke:#FFFFFF;stroke-width:0;stroke-linecap:round;stroke-linejoin:round;" d="M 2791.45,431.72 L 2787.2, 427.47 L 2782.95, 431.72 L 2782.95, 425.17 L 2791.45, 425.17 L 2791.45, 431.72" />
      <path style="fill:#FFFFFF;stroke:#FFFFFF;stroke-width:0;stroke-linecap:round;stroke-linejoin:round;" d="M 2791.45,434.55 L 2787.2, 430.3 L 2782.95, 434.55 L 2782.95, 428 L 2791.45, 428 L 2791.45, 434.55" />
      <path style="fill:none;stroke:#000000;stroke-width:0.85;" d="M 2791.45,432.25 L 2787.2, 428 L 2782.95, 432.25" />
      <path style="fill:none;stroke:#000000;stroke-width:0.85;" d="M 2791.45,429.42 L 2787.2, 425.17 L 2782.95, 429.42" />
      <path style="fill:none;stroke:#000000;stroke-width:0.85;stroke-linecap:round;stroke-linejoin:round;" d="M 2797.12,416.66 L 2797.12, 425.16 L 2777.28, 425.16 L 2777.28, 416.66 L 2797.12, 416.66" />
      <text transform="matrix(1 0 0 1 2772.5186 422.6221)" style="font-family:'Arial'; font-size:6px;">2</text>
    </g><g ewd:figtype="gp" ewd:code="r1" ewd:figID="55">
      <path style="fill:none;stroke:#000000;stroke-width:0.85;" d="M 2846.82,708.66 L 2846.82, 711.49" />
      <path style="fill:none;stroke:#000000;stroke-width:0.85;" d="M 2845.4,720 L 2848.24, 720" />
      <path style="fill:none;stroke:#000000;stroke-width:0.85;" d="M 2843.98,717.17 L 2849.65, 717.17" />
      <path style="fill:none;stroke:#000000;stroke-width:0.85;" d="M 2841.15,714.33 L 2852.49, 714.33" />
      <path style="fill:none;stroke:#000000;stroke-width:0.85;" d="M 2838.31,711.5 L 2855.32, 711.5" />
    </g><g ewd:figtype="gp" ewd:code="B4" ewd:figID="56">
      <path style="fill:none;stroke:#000000;stroke-width:0.85;" d="M 3118.97,708.66 L 3118.97, 711.49" />
      <path style="fill:none;stroke:#000000;stroke-width:0.85;" d="M 3117.55,720 L 3120.39, 720" />
      <path style="fill:none;stroke:#000000;stroke-width:0.85;" d="M 3116.14,717.17 L 3121.81, 717.17" />
      <path style="fill:none;stroke:#000000;stroke-width:0.85;" d="M 3113.3,714.33 L 3124.64, 714.33" />
      <path style="fill:none;stroke:#000000;stroke-width:0.85;" d="M 3110.47,711.5 L 3127.48, 711.5" />
    </g><g ewd:figtype="conn" ewd:code="B97,D134" ewd:figID="20">
      <path style="fill:none;stroke:#000000;stroke-width:1.417;stroke-linecap:round;stroke-linejoin:round;" d="M 3135.96,218.24 L 3135.96, 175.73 L 2897.85, 175.73 L 2897.85, 218.24 L 3135.96, 218.24" />
      <g ewd:lineID="25">
        <path style="fill:#FFFFFF;stroke:#000000;stroke-width:0.85;stroke-linecap:round;stroke-linejoin:round;" d="M 2957.38,175.72 C 2960.51 175.72 2963.05 173.18 2963.05 170.05 C 2963.05009765625 166.920006103516 2960.51 164.38 2957.38 164.38 C 2954.25 164.38 2951.71 166.92 2951.71 170.05 C 2951.709921875 173.180006103516 2954.24 175.72 2957.38 175.72" />
        <text transform="matrix(1 0 0 1 2948.874 183.1074)" style="font-family:'Arial'; font-size:6px;">CANU</text>
        <text transform="matrix(1 0 0 1 2955.375 171.7603)" style="font-family:'Arial'; font-size:6px;">A</text>
        <text transform="matrix(1 0 0 1 2943.4727 171.7603)" style="font-family:'Arial'; font-size:6px;">41</text>
      </g>
      <g ewd:lineID="28">
        <path style="fill:#FFFFFF;stroke:#000000;stroke-width:0.85;stroke-linecap:round;stroke-linejoin:round;" d="M 2914.86,175.72 C 2917.99 175.72 2920.53 173.18 2920.53 170.05 C 2920.53005859375 166.920006103516 2917.99 164.38 2914.86 164.38 C 2911.73021484375 164.380009765625 2909.19 166.92 2909.19 170.05 C 2909.1898828125 173.180006103516 2911.72 175.72 2914.86 175.72" />
        <text transform="matrix(1 0 0 1 2906.3564 183.1074)" style="font-family:'Arial'; font-size:6px;">CAND</text>
        <text transform="matrix(1 0 0 1 2912.8535 171.7603)" style="font-family:'Arial'; font-size:6px;">A</text>
        <text transform="matrix(1 0 0 1 2900.9531 171.7603)" style="font-family:'Arial'; font-size:6px;">56</text>
      </g>
      <g ewd:lineID="3">
        <path style="fill:#FFFFFF;stroke:#000000;stroke-width:0.85;stroke-linecap:round;stroke-linejoin:round;" d="M 3050.92,229.58 C 3054.05 229.58 3056.59 227.04 3056.59 223.91 C 3056.59017578125 220.780007324219 3054.05 218.24 3050.92 218.24 C 3047.78984375 218.240010986328 3045.25 220.78 3045.25 223.91 C 3045.25 227.040007324219 3047.79 229.58 3050.92 229.58" />
        <text transform="matrix(1 0 0 1 3045.499 214.2861)" style="font-family:'Arial'; font-size:6px;">+B2</text>
        <text transform="matrix(1 0 0 1 3048.916 225.6152)" style="font-family:'Arial'; font-size:6px;">A</text>
        <text transform="matrix(1 0 0 1 3040.3525 225.6152)" style="font-family:'Arial'; font-size:6px;">3</text>
      </g>
      <g ewd:lineID="31">
        <path style="fill:#FFFFFF;stroke:#000000;stroke-width:0.85;stroke-linecap:round;stroke-linejoin:round;" d="M 3084.93,229.58 C 3088.06 229.58 3090.6 227.04 3090.6 223.91 C 3090.6001953125 220.780007324219 3088.06 218.24 3084.93 218.24 C 3081.79986328125 218.240010986328 3079.26 220.78 3079.26 223.91 C 3079.26001953125 227.040007324219 3081.8 229.58 3084.93 229.58" />
        <text transform="matrix(1 0 0 1 3079.5146 214.2861)" style="font-family:'Arial'; font-size:6px;">+B3</text>
        <text transform="matrix(1 0 0 1 3082.9316 225.6152)" style="font-family:'Arial'; font-size:6px;">A</text>
        <text transform="matrix(1 0 0 1 3074.3682 225.6152)" style="font-family:'Arial'; font-size:6px;">4</text>
      </g>
      <g ewd:lineID="32">
        <path style="fill:#FFFFFF;stroke:#000000;stroke-width:0.85;stroke-linecap:round;stroke-linejoin:round;" d="M 3016.9,229.58 C 3020.03 229.58 3022.57 227.04 3022.57 223.91 C 3022.57013671875 220.780007324219 3020.03 218.24 3016.9 218.24 C 3013.7698046875 218.240010986328 3011.23 220.78 3011.23 223.91 C 3011.2299609375 227.040007324219 3013.77 229.58 3016.9 229.58" />
        <text transform="matrix(1 0 0 1 3013.1514 214.2861)" style="font-family:'Arial'; font-size:6px;">+B</text>
        <text transform="matrix(1 0 0 1 3014.9004 225.6152)" style="font-family:'Arial'; font-size:6px;">A</text>
        <text transform="matrix(1 0 0 1 3006.3369 225.6152)" style="font-family:'Arial'; font-size:6px;">2</text>
      </g>
      <g ewd:lineID="33">
        <path style="fill:#FFFFFF;stroke:#000000;stroke-width:0.85;stroke-linecap:round;stroke-linejoin:round;" d="M 2982.89,229.58 C 2986.02 229.58 2988.56 227.04 2988.56 223.91 C 2988.5601171875 220.780007324219 2986.02 218.24 2982.89 218.24 C 2979.75978515625 218.240010986328 2977.22 220.78 2977.22 223.91 C 2977.21994140625 227.040007324219 2979.76 229.58 2982.89 229.58" />
        <text transform="matrix(1 0 0 1 2975.3008 214.2861)" style="font-family:'Arial'; font-size:6px;">+BD2</text>
        <text transform="matrix(1 0 0 1 2980.8848 225.6152)" style="font-family:'Arial'; font-size:6px;">B</text>
        <text transform="matrix(1 0 0 1 2968.9844 225.6152)" style="font-family:'Arial'; font-size:6px;">16</text>
      </g>
      <g ewd:lineID="34">
        <path style="fill:#FFFFFF;stroke:#000000;stroke-width:0.85;stroke-linecap:round;stroke-linejoin:round;" d="M 3075.1,175.56 C 3078.23 175.56 3080.77 173.02 3080.77 169.89 C 3080.7700390625 166.759998779297 3078.23 164.22 3075.1 164.22 C 3071.97 164.22 3069.43 166.76 3069.43 169.89 C 3069.42986328125 173.019998779297 3071.96 175.56 3075.1 175.56" />
        <text transform="matrix(1 0 0 1 3065.9268 183.1074)" style="font-family:'Arial'; font-size:6px;">BATT</text>
        <text transform="matrix(1 0 0 1 3073.0957 171.5947)" style="font-family:'Arial'; font-size:6px;">A</text>
        <text transform="matrix(1 0 0 1 3064.5303 171.5947)" style="font-family:'Arial'; font-size:6px;">1</text>
      </g>
      <g ewd:lineID="41">
        <path style="fill:#FFFFFF;stroke:#000000;stroke-width:0.85;stroke-linecap:round;stroke-linejoin:round;" d="M 3118.95,229.58 C 3122.08 229.58 3124.62 227.04 3124.62 223.91 C 3124.620234375 220.780007324219 3122.08 218.24 3118.95 218.24 C 3115.81990234375 218.240010986328 3113.28 220.78 3113.28 223.91 C 3113.28005859375 227.040007324219 3115.82 229.58 3118.95 229.58" />
        <text transform="matrix(1 0 0 1 3114.7842 214.2861)" style="font-family:'Arial'; font-size:6px;">EC</text>
        <text transform="matrix(1 0 0 1 3116.9512 225.6152)" style="font-family:'Arial'; font-size:6px;">A</text>
        <text transform="matrix(1 0 0 1 3105.0508 225.6152)" style="font-family:'Arial'; font-size:6px;">14</text>
      </g>
      <g ewd:lineID="5">
        <path style="fill:#FFFFFF;stroke:#000000;stroke-width:0.85;stroke-linecap:round;stroke-linejoin:round;" d="M 2914.86,229.58 C 2917.99 229.58 2920.53 227.04 2920.53 223.91 C 2920.53005859375 220.780007324219 2917.99 218.24 2914.86 218.24 C 2911.73021484375 218.240010986328 2909.19 220.78 2909.19 223.91 C 2909.1898828125 227.040007324219 2911.72 229.58 2914.86 229.58" />
        <text transform="matrix(1 0 0 1 2906.5225 214.2861)" style="font-family:'Arial'; font-size:6px;">MREL</text>
        <text transform="matrix(1 0 0 1 2912.8535 225.6152)" style="font-family:'Arial'; font-size:6px;">A</text>
        <text transform="matrix(1 0 0 1 2900.9531 225.6152)" style="font-family:'Arial'; font-size:6px;">46</text>
      </g>
      <g ewd:lineID="9">
        <path style="fill:#FFFFFF;stroke:#000000;stroke-width:0.85;stroke-linecap:round;stroke-linejoin:round;" d="M 2948.87,229.58 C 2952 229.58 2954.54 227.04 2954.54 223.91 C 2954.540078125 220.780007324219 2952 218.24 2948.87 218.24 C 2945.740234375 218.240010986328 2943.2 220.78 2943.2 223.91 C 2943.19990234375 227.040007324219 2945.74 229.58 2948.87 229.58" />
        <text transform="matrix(1 0 0 1 2941.2852 214.2861)" style="font-family:'Arial'; font-size:6px;">+BD1</text>
        <text transform="matrix(1 0 0 1 2946.8691 225.6152)" style="font-family:'Arial'; font-size:6px;">B</text>
        <text transform="matrix(1 0 0 1 2934.9688 225.6152)" style="font-family:'Arial'; font-size:6px;">17</text>
      </g>
      <g ewd:figtype="title">
        <text transform="matrix(1 0 0 1 2988.5547 195.1523)" style="font-family:'Arial'; font-size:6px;">B97(A), D134(B)</text>
        <text transform="matrix(1 0 0 1 2988.5547 202.2383)" style="font-family:'Arial'; font-size:6px;" ewd:textID="6">Engine ECU</text>
      </g>
    </g><text transform="matrix(0 -1 1 0 2910.9023 151.876)" style="font-family:'Arial'; font-size:6px;">L</text><text transform="matrix(0 -1 1 0 2953.4199 152.209)" style="font-family:'Arial'; font-size:6px;">Y</text><text transform="matrix(0 -1 1 0 2842.748 388.4736)" style="font-family:'Arial'; font-size:6px;">W-B</text><text transform="matrix(0 -1 1 0 2783.2344 384.6504)" style="font-family:'Arial'; font-size:6px;">B</text><text transform="matrix(0 -1 1 0 2944.8984 254.2573)" style="font-family:'Arial'; font-size:6px;">B</text><text transform="matrix(0 -1 1 0 2978.9141 254.2573)" style="font-family:'Arial'; font-size:6px;">B</text><text transform="matrix(0 -1 1 0 3012.9297 253.9248)" style="font-family:'Arial'; font-size:6px;">L</text><text transform="matrix(0 -1 1 0 3046.9453 253.9248)" style="font-family:'Arial'; font-size:6px;">L</text><text transform="matrix(0 -1 1 0 3080.9609 253.9248)" style="font-family:'Arial'; font-size:6px;">L</text><text transform="matrix(0 -1 1 0 3114.9805 258.0879)" style="font-family:'Arial'; font-size:6px;">W-B</text><text transform="matrix(0 -1 1 0 3069.6504 145.9497)" style="font-family:'Arial'; font-size:6px;">W</text><text transform="matrix(0 -1 1 0 2783.2285 472.5283)" style="font-family:'Arial'; font-size:6px;">B</text><text transform="matrix(0 -1 1 0 2910.8828 254.5898)" style="font-family:'Arial'; font-size:6px;">G</text><text transform="matrix(0 -1 1 0 2910.8828 384.9775)" style="font-family:'Arial'; font-size:6px;">G</text><text transform="matrix(0 -1 1 0 2944.8984 384.6455)" style="font-family:'Arial'; font-size:6px;">B</text><text transform="matrix(0 -1 1 0 3114.9805 388.4756)" style="font-family:'Arial'; font-size:6px;">W-B</text><text transform="matrix(0 -1 1 0 3046.9453 384.3115)" style="font-family:'Arial'; font-size:6px;">L</text></svg>