﻿<?xml version="1.0" encoding="utf-8"?>
<!-- Generator: Adobe Illustrator 10.0, SVG Export Plug-In . SVG Version: 3.0.0 Build 77)  -->
<!DOCTYPE svg PUBLIC "-//W3C//DTD SVG 1.0//EN" "http://www.w3.org/TR/2001/REC-SVG-20010904/DTD/svg10.dtd"[
   <!ENTITY ns_flows "http://ns.adobe.com/Flows/1.0/">
   <!ENTITY ns_svg "http://www.w3.org/2000/svg">
   <!ENTITY ns_xlink "http://www.w3.org/1999/xlink">
   <!ENTITY st0 "font-size:7px;font-family:'MS-PGothic';adobe-font-script:japanese;">
   <!ENTITY st1 "font-size:6px;font-family:'ArialMT';">
   <!ENTITY st2 "fill:#FFFFFF;stroke:#000000; stroke-width:1.41;stroke-linecap:round;stroke-linejoin:round;">
   <!ENTITY st3 "fill:#FFFFCC;stroke:#FFFFCC; stroke-width:0.1;stroke-linecap:round;stroke-linejoin:round;">
   <!ENTITY st4 "fill:#CCCCCC;stroke:#CCCCCC; stroke-width:0.1;stroke-linecap:round;stroke-linejoin:round;">
   <!ENTITY st5 "fill:#CCECF4;stroke:#000000; stroke-width:1.133;stroke-linecap:round;stroke-linejoin:round;">
   <!ENTITY st6 "fill:none;stroke-linecap:butt; stroke-linejoin:round;">
   <!ENTITY st7 "fill:none;stroke:#000000;stroke-linecap:round;stroke-linejoin:round;">
   <!ENTITY st8 "enable-background:new;">
   <!ENTITY st9 "fill:#000000;stroke:#000000; stroke-linecap:round;stroke-linejoin:round;">
   <!ENTITY st10 "font-size:9px;font-family:'ArialMT';">
   <!ENTITY st11 "font-size:9px;font-family:'Svg Symbol';">
   <!ENTITY st12 "font-size:6px;font-family:'Svg Symbol';">
   <!ENTITY st13 "fill:none;stroke:#ff0000;stroke-linecap:round;stroke-linejoin:round;">
   <!ENTITY st14 "fill:#FFFF00;stroke:#FFFF00; stroke-width:0.1;stroke-linecap:round;stroke-linejoin:round;">
   <!ENTITY st15 "font-size:6px;font-family:'MS-PGothic';adobe-font-script:japanese;">
   <!ENTITY st16 "1.00 0.00 0.00 1.00">
   <!ENTITY st17 "0.00 -1.00 1.00 0.00">
   <!ENTITY st18 "font-size:6px;font-family:'Arial';">
   <!ENTITY st19 "font-size:9px;font-family:'Arial';">
   <!ENTITY st20 "font-size:6px;font-family:'MS-PGothic','MS PGothic';adobe-font-script:japanese;">
   <!ENTITY st21 "font-size:7px;font-family:'MS-PGothic','MS PGothic';adobe-font-script:japanese;">
   <!ATTLIST svg
       xmlns:ewd CDATA #FIXED "http://shcl.co.jp/ewd"
       xmlns:a CDATA #FIXED "http://ns.adobe.com/AdobeSVGViewerExtensions/3.0/"
       ewd:ver CDATA #IMPLIED >
   <!ATTLIST a
       ewd:lineID CDATA #IMPLIED
       ewd:groupID CDATA #IMPLIED
       ewd:figtype CDATA #IMPLIED
       ewd:code CDATA #IMPLIED
       ewd:figID CDATA #IMPLIED
       ewd:pinNo CDATA #IMPLIED
       ewd:comment CDATA #IMPLIED >
   <!ATTLIST g
       ewd:lineID CDATA #IMPLIED
       ewd:groupID CDATA #IMPLIED
       ewd:figtype CDATA #IMPLIED
       ewd:code CDATA #IMPLIED
       ewd:figID CDATA #IMPLIED
       ewd:pinNo CDATA #IMPLIED
       ewd:comment CDATA #IMPLIED >
   <!ATTLIST text
       ewd:textID CDATA #IMPLIED >
   <!ATTLIST title
       ewd:textID CDATA #IMPLIED >
]>
<svg xmlns="http://www.w3.org/2000/svg" xmlns:xlink="http://www.w3.org/1999/xlink" width="1048.88" height="720.98" viewBox="0 0 1048.88 720.98" xml:space="preserve" xmlns:ewd="http://shcl.co.jp/ewd" onload="call_execInitLoadProc_svg('system')" ewd:ver="2.0">
  <script type="text/javascript" xlink:href="../../../../../system/js/ewd/fig/svgfig.js" />
  <defs>
    <font horiz-adv-x="1229">
      <font-face font-family="Svg Symbol" units-per-em="2048" panose-1="5 5 1 2 1 7 6 2 5 7" ascent="2059" descent="450" alphabetic="0" />
      <missing-glyph d="M 103,0 l 0,1280 1024,0 0,-1280 -1024,0 z m 32,32 l 960,0 0,1216 -960,0 0,-1216 z" />
      <glyph d4p1:unicode="" horiz-adv-x="1573" d="M 1517,0 l -567,0 24,279 q 141,59 207.5,168 66.5,109 66.5,306 0,272 -132.5,417.5 -132.5,145.5 -333.5,145.5 -194,0 -328,-147.5 -134,-147.5 -134,-401.5 0,-200 68.5,-319 68.5,-119 206.5,-169 l 25,-279 -564,0 0,279 35,0 q 3,-61 32,-83 45,-35 137,-35 l 270,0 0,70 q -210,61 -324.5,209 -114.5,148 -114.5,349 0,252 186.5,425 186.5,173 504.5,173 195,0 358.5,-73.5 163.5,-73.5 252,-214.5 88.5,-141 88.5,-310 0,-207 -121.5,-360.5 -121.5,-153.5 -317.5,-197.5 l -8,-70 275,0 q 92,0 128,28 36,28 42,90 l 38,0 0,-279 z" xmlns:d4p1="def-glyph-attr-unicode" />
    </font>
  </defs>
  <g id="ewd_top">
    <a ewd:lineID="36" style="cursor:pointer;">
      <path style="fill:none;stroke:#000000;stroke-width:5;" d="M 25.49,548.51 L 25.49, 589.61 L 59.49, 589.61 L 67.99001, 598.11 L 67.99001, 606.61" />
      <path style="fill:none;stroke:#FFFFFF;stroke-width:3.6;" d="M 25.49,548.51 L 25.49, 589.61 L 59.49, 589.61 L 67.99001, 598.11 L 67.99001, 606.61" />
    </a>
    <a ewd:lineID="35" style="cursor:pointer;">
      <path style="fill:none;stroke:#000000;stroke-width:5;" d="M 67.99,470.51 L 67.99, 473.41 L 62.29, 479.01 L 25.49, 479.01 L 25.49, 520.11" />
      <path style="fill:none;stroke:#FFFFFF;stroke-width:3.6;" d="M 67.99,470.51 L 67.99, 473.41 L 62.29, 479.01 L 25.49, 479.01 L 25.49, 520.11" />
    </a>
    <a ewd:lineID="2" style="cursor:pointer;">
      <path style="fill:none;stroke:#000000;stroke-width:5;" d="M 629.19,130.41 L 629.19, 229.61" />
      <path style="fill:none;stroke:#FFFFFF;stroke-width:3.6;" d="M 629.19,130.41 L 629.19, 229.61" />
    </a>
    <a ewd:lineID="3" style="cursor:pointer;">
      <path style="fill:none;stroke:#FF0000;stroke-width:5;" d="M 586.69,130.41 L 586.69, 229.61" />
    </a>
    <a ewd:lineID="4" style="cursor:pointer;">
      <path style="fill:none;stroke:#000000;stroke-width:5;" d="M 714.29,691.61 L 714.29, 640.61" />
      <path style="fill:none;stroke:#FFFFFF;stroke-width:3.6;" d="M 714.29,691.61 L 714.29, 640.61" />
      <path style="fill:none;stroke:#000000;" d="M 714.29,691.61 L 714.29, 640.61" />
    </a>
    <a ewd:lineID="5" style="cursor:pointer;">
      <path style="fill:none;stroke:#000000;stroke-width:5;" d="M 714.29,589.61 L 714.29, 541.41" />
      <path style="fill:none;stroke:#FFFFFF;stroke-width:3.6;" d="M 714.29,589.61 L 714.29, 541.41" />
      <path style="fill:none;stroke:#000000;" d="M 714.29,589.61 L 714.29, 541.41" />
    </a>
    <a ewd:lineID="6" style="cursor:pointer;">
      <path style="fill:none;stroke:#000000;stroke-width:5;" d="M 935.39,323.11 L 935.39, 113.31" />
    </a>
    <a ewd:lineID="7" style="cursor:pointer;">
      <path style="fill:none;stroke:#FF0000;stroke-width:5;" d="M 850.39,323.11 L 850.39, 274.91" />
    </a>
    <a ewd:lineID="8" style="cursor:pointer;">
      <path style="fill:none;stroke:#FF0000;stroke-width:5;" d="M 850.39,223.91 L 850.39, 172.91" />
    </a>
    <a ewd:lineID="9" style="cursor:pointer;">
      <path style="fill:none;stroke:#FF0000;stroke-width:5;" d="M 850.39,155.91 L 850.39, 113.41" />
    </a>
    <a ewd:lineID="10" style="cursor:pointer;">
      <path style="fill:none;stroke:#000000;stroke-width:5;" d="M 714.29,323.11 L 714.29, 277.81" />
    </a>
    <a ewd:lineID="11" style="cursor:pointer;">
      <path style="fill:none;stroke:#000000;stroke-width:5;" d="M 586.69,277.81 L 586.69, 578.21" />
      <path style="fill:none;stroke:#FFFFFF;stroke-width:3.6;" d="M 586.69,277.81 L 586.69, 578.21" />
    </a>
    <a ewd:lineID="12" style="cursor:pointer;">
      <path style="fill:none;stroke:#000000;stroke-width:5;" d="M 433.59,578.21 L 433.59, 487.51" />
    </a>
    <a ewd:lineID="13" style="cursor:pointer;">
      <path style="fill:none;stroke:#000000;stroke-width:5;" d="M 433.59,479.01 L 433.59, 396.81" />
    </a>
    <a ewd:lineID="14" style="cursor:pointer;">
      <path style="fill:none;stroke:#000000;stroke-width:5;" d="M 756.79,323.11 L 756.79, 277.81" />
      <path style="fill:none;stroke:#FFFFFF;stroke-width:3.6;" d="M 756.79,323.11 L 756.79, 277.81" />
    </a>
    <a ewd:lineID="15" style="cursor:pointer;">
      <path style="fill:none;stroke:#000000;stroke-width:5;" d="M 629.19,277.81 L 629.19, 578.21" />
    </a>
    <a ewd:lineID="16" style="cursor:pointer;">
      <path style="fill:none;stroke:#000000;stroke-width:5;" d="M 476.19,578.21 L 476.19, 487.51" />
      <path style="fill:none;stroke:#FFFFFF;stroke-width:3.6;" d="M 476.19,578.21 L 476.19, 487.51" />
    </a>
    <a ewd:lineID="17" style="cursor:pointer;">
      <path style="fill:none;stroke:#000000;stroke-width:5;" d="M 476.19,479.01 L 476.19, 396.81" />
      <path style="fill:none;stroke:#FFFFFF;stroke-width:3.6;" d="M 476.19,479.01 L 476.19, 396.81" />
    </a>
    <a ewd:lineID="18" style="cursor:pointer;">
      <path style="fill:none;stroke:#0A50A1;stroke-width:5;" d="M 255.09,340.11 L 255.09, 291.91" />
    </a>
    <a ewd:lineID="19" style="cursor:pointer;">
      <path style="fill:none;stroke:#0A50A1;stroke-width:5;" d="M 255.09,283.41 L 255.09, 223.91" />
    </a>
    <a ewd:lineID="20" style="cursor:pointer;">
      <path style="fill:none;stroke:#0A50A1;stroke-width:5;" d="M 255.09,172.91 L 255.09, 136.01" />
    </a>
    <a ewd:lineID="21" style="cursor:pointer;">
      <path style="fill:none;stroke:#7FC31C;stroke-width:5;" d="M 67.99,113.31 L 67.99, 155.91" />
    </a>
    <a ewd:lineID="22" style="cursor:pointer;">
      <path style="fill:none;stroke:#7FC31C;stroke-width:5;" d="M 67.99,206.91 L 67.99, 240.91 L 203.99, 240.91 L 203.99, 136.01" />
    </a>
    <a ewd:lineID="23" style="cursor:pointer;">
      <path style="fill:none;stroke:#FF0000;stroke-width:5;" d="M 476.19,340.11 L 476.19, 291.91" />
    </a>
    <a ewd:lineID="24" style="cursor:pointer;">
      <path style="fill:none;stroke:#FF0000;stroke-width:5;" d="M 476.19,283.41 L 476.19, 215.41" />
    </a>
    <a ewd:lineID="25" style="cursor:pointer;">
      <path style="fill:none;stroke:#000000;stroke-width:5;" d="M 408.09,340.11 L 408.09, 291.91" />
      <path style="fill:none;stroke:#FFFFFF;stroke-width:3.6;" d="M 408.09,340.11 L 408.09, 291.91" />
    </a>
    <a ewd:lineID="26" style="cursor:pointer;">
      <path style="fill:none;stroke:#000000;stroke-width:5;" d="M 408.09,283.41 L 408.09, 215.41" />
      <path style="fill:none;stroke:#FFFFFF;stroke-width:3.6;" d="M 408.09,283.41 L 408.09, 215.41" />
    </a>
    <a ewd:lineID="27" style="cursor:pointer;">
      <path style="fill:none;stroke:#FFF200;stroke-width:5;" d="M 365.59,215.41 L 365.59, 283.41" />
    </a>
    <a ewd:lineID="28" style="cursor:pointer;">
      <path style="fill:none;stroke:#FFF200;stroke-width:5;" d="M 365.59,291.91 L 365.59, 340.11" />
    </a>
    <a ewd:lineID="29" style="cursor:pointer;">
      <path style="fill:none;stroke:#FFF200;stroke-width:5;" d="M 323.09,215.41 L 323.09, 283.41" />
    </a>
    <a ewd:lineID="30" style="cursor:pointer;">
      <path style="fill:none;stroke:#FFF200;stroke-width:5;" d="M 323.09,291.91 L 323.09, 340.11" />
    </a>
    <a ewd:lineID="31" style="cursor:pointer;">
      <path style="fill:none;stroke:#FF0000;stroke-width:5;" d="M 323.09,396.81 L 323.09, 510.21" />
    </a>
    <a ewd:lineID="32" style="cursor:pointer;">
      <path style="fill:none;stroke:#000000;stroke-width:5;" d="M 67.99,606.61 L 67.99, 470.51" />
      <path style="fill:none;stroke:#FFFFFF;stroke-width:3.6;" d="M 67.99,606.61 L 67.99, 470.51" />
    </a>
    <a ewd:lineID="33" style="cursor:pointer;">
      <path style="fill:none;stroke:#000000;stroke-width:5;" d="M 67.99,377.01 L 67.99, 274.91 L 152.99, 274.91 L 152.99, 391.11" />
      <path style="fill:none;stroke:#FFFFFF;stroke-width:3.6;" d="M 67.99,377.01 L 67.99, 274.91 L 152.99, 274.91 L 152.99, 391.11" />
    </a>
    <a ewd:lineID="34" style="cursor:pointer;">
      <path style="fill:none;stroke:#000000;stroke-width:5;" d="M 152.99,430.81 L 152.99, 510.21" />
      <path style="fill:none;stroke:#FFFFFF;stroke-width:3.6;" d="M 152.99,430.81 L 152.99, 510.21" />
    </a>
    <a ewd:figtype="jb" ewd:code="6" style="cursor:pointer;" ewd:figID="6">
      <path style="fill:#CCCCCC;stroke-linecap:round;stroke-linejoin:round;" d="M 79.36,206.9 L 79.36, 155.88 L 48.18, 155.88 L 48.18, 206.9 L 79.36, 206.9" />
    </a>
    <a ewd:figtype="jb" ewd:code="6" style="cursor:pointer;" ewd:figID="5">
      <path style="fill:#CCCCCC;stroke-linecap:round;stroke-linejoin:round;" d="M 266.46,223.9 L 266.46, 172.88 L 235.28, 172.88 L 235.28, 223.9 L 266.46, 223.9" />
    </a>
    <a ewd:figtype="jb" ewd:code="13" style="cursor:pointer;" ewd:figID="4">
      <path style="fill:#CCCCCC;stroke-linecap:round;stroke-linejoin:round;" d="M 113.38,113.35 L 113.38, 45.32 L 48.18, 45.32 L 48.18, 113.35 L 113.38, 113.35" />
    </a>
    <a ewd:figtype="jb" ewd:code="13" style="cursor:pointer;" ewd:figID="3">
      <path style="fill:#CCCCCC;stroke-linecap:round;stroke-linejoin:round;" d="M 980.8,113.35 L 980.8, 45.32 L 915.6, 45.32 L 915.6, 113.35 L 980.8, 113.35" />
    </a>
    <a ewd:figtype="jb" ewd:code="6" style="cursor:pointer;" ewd:figID="2">
      <path style="fill:#CCCCCC;stroke-linecap:round;stroke-linejoin:round;" d="M 725.68,640.62 L 725.68, 589.6 L 694.5, 589.6 L 694.5, 640.62 L 725.68, 640.62" />
    </a>
    <a ewd:figtype="jb" ewd:code="13" style="cursor:pointer;" ewd:figID="1">
      <path style="fill:#CCCCCC;stroke-linecap:round;stroke-linejoin:round;" d="M 861.68,274.93 L 861.68, 223.91 L 830.5, 223.91 L 830.5, 274.93 L 861.68, 274.93" />
    </a>
    <a ewd:figtype="conn" ewd:code="H18" style="cursor:pointer;" ewd:figID="17">
      <path style="fill:#CCECF4;stroke:#000000;stroke-width:1.133;stroke-linecap:round;stroke-linejoin:round;" d="M 646.24,130.37 L 646.24, 96.36 L 569.7, 96.36 L 569.7, 130.37 L 646.24, 130.37" />
      <title ewd:textID="3">A/C Amplifier</title>
    </a>
    <a ewd:figtype="conn" ewd:code="H63,H96" style="cursor:pointer;" ewd:figID="16">
      <path style="fill:#CCECF4;stroke:#000000;stroke-width:1.133;stroke-linecap:round;stroke-linejoin:round;" d="M 637.73,615.09 L 637.73, 589.58 L 425.13, 589.58 L 425.13, 615.09 L 637.73, 615.09" />
      <title ewd:textID="11">Junction Connector</title>
    </a>
    <a ewd:figtype="conn" ewd:code="H97,H99,H100" style="cursor:pointer;" ewd:figID="15">
      <path style="fill:#CCECF4;stroke:#000000;stroke-width:1.133;stroke-linecap:round;stroke-linejoin:round;" d="M 765.29,266.44 L 765.29, 240.93 L 578.2, 240.93 L 578.2, 266.44 L 765.29, 266.44" />
      <title ewd:textID="11">Junction Connector</title>
    </a>
    <a ewd:figtype="conn" ewd:code="H20" style="cursor:pointer;" ewd:figID="14">
      <path style="fill:#CCECF4;stroke:#000000;stroke-width:1.133;stroke-linecap:round;stroke-linejoin:round;" d="M 960.88,530.06 L 688.76, 530.06 L 688.76, 334.47 L 960.88, 334.47 L 960.88, 530.06" />
      <title ewd:textID="7">Combination Meter</title>
    </a>
    <a ewd:figtype="conn" ewd:code="B94,D116" style="cursor:pointer;" ewd:figID="13">
      <path style="fill:#CCECF4;stroke:#000000;stroke-width:1.133;stroke-linecap:round;stroke-linejoin:round;" d="M 493.17,385.49 L 493.17, 351.48 L 238.05, 351.48 L 238.05, 385.49 L 493.17, 385.49" />
      <title ewd:textID="9">Engine ECU</title>
    </a>
    <a ewd:figtype="conn" ewd:code="H75" style="cursor:pointer;" ewd:figID="12">
      <path style="fill:#CCECF4;stroke:#000000;stroke-width:1.133;stroke-linecap:round;stroke-linejoin:round;" d="M 272.07,113.35 L 272.07, 70.83 L 187.03, 70.83 L 187.03, 113.35 L 272.07, 113.35" />
      <title ewd:textID="13">Windshield Wiper Switch</title>
    </a>
    <a ewd:figtype="conn" ewd:code="B95" style="cursor:pointer;" ewd:figID="11">
      <path style="fill:#CCECF4;stroke:#000000;stroke-width:1.133;stroke-linecap:round;stroke-linejoin:round;" d="M 501.67,215.41 L 501.67, 130.37 L 306.08, 130.37 L 306.08, 215.41 L 501.67, 215.41" />
      <title ewd:textID="6">Battery Current Sensor</title>
    </a>
    <a ewd:figtype="rb" ewd:code="FUSE127" style="cursor:pointer;" ewd:figID="10">
      <path style="fill:#CCECF4;stroke:#000000;stroke-width:1.133;stroke-linecap:round;stroke-linejoin:round;" d="M 80.72,445.02 L 80.72, 402.5 L 55.21, 402.5 L 55.21, 445.02 L 80.72, 445.02" />
    </a>
    <a ewd:figtype="conn" ewd:code="B70,D86" style="cursor:pointer;" ewd:figID="9">
      <path style="fill:#CCECF4;stroke:#000000;stroke-width:1.133;stroke-linecap:round;stroke-linejoin:round;" d="M 161.51,419.5 L 161.51, 402.5 L 144.5, 402.5 L 144.5, 419.51 L 161.51, 419.51" />
      <title ewd:textID="8">Connector Holder NO.2</title>
    </a>
    <a ewd:figtype="conn" ewd:code="D107,D108" style="cursor:pointer;" ewd:figID="8">
      <path style="fill:#CCECF4;stroke:#000000;stroke-width:1.133;stroke-linecap:round;stroke-linejoin:round;" d="M 374.11,666.12 L 374.11, 521.55 L 127.5, 521.55 L 127.5, 666.12 L 374.11, 666.12" />
      <title ewd:textID="4">Alternator</title>
    </a>
    <a ewd:figtype="rb" ewd:code="FUSE130" style="cursor:pointer;" ewd:figID="7">
      <path style="fill:#CCECF4;stroke:#000000;stroke-width:1.133;stroke-linecap:round;stroke-linejoin:round;" d="M 863.11,87.85 L 863.11, 45.33 L 837.6, 45.33 L 837.6, 87.85001 L 863.11, 87.85001" />
    </a>
    <a ewd:figtype="sp" ewd:code="110467" style="cursor:pointer;" ewd:figID="18">
      <path style="fill:#FFFFFF;stroke:#000000;stroke-width:0.85;stroke-linecap:round;stroke-linejoin:round;" d="M 853.89,155.89 L 846.8, 155.89 L 841.84, 160.85 L 841.84, 167.94 L 846.8, 172.9 L 853.89, 172.9 L 858.85, 167.94 L 858.85, 160.85 L 853.89, 155.89" />
    </a>
    <a ewd:figtype="fuse" ewd:code="FUSE185" style="cursor:pointer;" ewd:figID="30">
      <path style="fill:none;stroke:#000000;stroke-width:0.5;stroke-linecap:round;stroke-linejoin:round;" d="M 80.73,87.83 L 80.73, 45.31 L 55.22, 45.31 L 55.22, 87.83 L 80.73, 87.83" />
    </a>
    <a ewd:figtype="fuse" ewd:code="FUSE127" style="cursor:pointer;" ewd:figID="29">
      <path style="fill:none;stroke:#000000;stroke-width:0.5;stroke-linecap:round;stroke-linejoin:round;" d="M 80.72,445.02 L 80.72, 402.5 L 55.21, 402.5 L 55.21, 445.02 L 80.72, 445.02" />
    </a>
    <a ewd:figtype="fuse" ewd:code="FUSE130" style="cursor:pointer;" ewd:figID="28">
      <path style="fill:none;stroke:#000000;stroke-width:0.5;stroke-linecap:round;stroke-linejoin:round;" d="M 863.11,87.85 L 863.11, 45.33 L 837.6, 45.33 L 837.6, 87.85001 L 863.11, 87.85001" />
    </a>
    <a ewd:figtype="fuse" ewd:code="FUSE173" style="cursor:pointer;" ewd:figID="27">
      <path style="fill:none;stroke:#000000;stroke-width:0.5;stroke-linecap:round;stroke-linejoin:round;" d="M 948.15,87.85 L 948.15, 45.33 L 922.64, 45.33 L 922.64, 87.85001 L 948.15, 87.85001" />
    </a>
    
    
    
    
    
    
    
    
    
    
    
    
    
    
    
    
    
    
    
    
    
    
    
    
    
    
    
    
    
    
    
    
    
    
    
    
    
    
    
    
    
    
    
    
    
    
    
    
    
    
    
    
    
    
    
    
    
    
    
    
    
    
    
    
    
    
    
    
    
    
    
    
    
    
    
    <a style="cursor:pointer;" ewd:figID="26" ewd:figtype="gp" ewd:code="H1">
      <path style="fill:#FFFFFF;stroke:#000000;stroke-width:0.85;stroke-linecap:round;stroke-linejoin:round;" d="M 701.56,691.63 L 727.07, 691.63 L 714.32, 708.64 L 701.56, 691.63" />
      <text transform="matrix(1 0 0 1 710.4829 698.5068)" style="font-family:'Arial'; font-size:6px;">H1</text>
    </a>
    <a style="cursor:pointer;" ewd:figID="25" ewd:figtype="w2w" ewd:code="HB1" ewd:pin_no="3">
      <path style="fill:#FFFFFF;stroke:#000000;stroke-width:0.85;stroke-linecap:round;stroke-linejoin:round;" d="M 264.98,283.44 L 264.98, 291.94 L 245.14, 291.94 L 245.14, 283.44 L 264.98, 283.44" />
      <text transform="matrix(1 0 0 1 249.2227 289.7466)" style="font-family:'Arial'; font-size:6px;">HB1</text>
    </a>
    <a style="cursor:pointer;" ewd:figID="24" ewd:figtype="w2w" ewd:code="HB1" ewd:pin_no="15">
      <path style="fill:#FFFFFF;stroke:#000000;stroke-width:0.85;stroke-linecap:round;stroke-linejoin:round;" d="M 443.56,487.55 L 443.56, 479.04 L 423.72, 479.04 L 423.72, 487.55 L 443.56, 487.55" />
      <text transform="matrix(1 0 0 1 427.8022 485.3506)" style="font-family:'Arial'; font-size:6px;">HB1</text>
    </a>
    <a style="cursor:pointer;" ewd:figID="23" ewd:figtype="w2w" ewd:code="HB1" ewd:pin_no="31">
      <path style="fill:#FFFFFF;stroke:#000000;stroke-width:0.85;stroke-linecap:round;stroke-linejoin:round;" d="M 486.08,487.55 L 486.08, 479.04 L 466.24, 479.04 L 466.24, 487.55 L 486.08, 487.55" />
      <text transform="matrix(1 0 0 1 470.3218 485.3506)" style="font-family:'Arial'; font-size:6px;">HB1</text>
    </a>
    <a style="cursor:pointer;" ewd:figID="22" ewd:figtype="w2w" ewd:code="DB1" ewd:pin_no="6">
      <path style="fill:#FFFFFF;stroke:#000000;stroke-width:0.85;stroke-linecap:round;stroke-linejoin:round;" d="M 486.08,291.96 L 486.08, 283.46 L 466.24, 283.46 L 466.24, 291.96 L 486.08, 291.96" />
      <text transform="matrix(1 0 0 1 470.3218 289.7598)" style="font-family:'Arial'; font-size:6px;">DB1</text>
    </a>
    <a style="cursor:pointer;" ewd:figID="21" ewd:figtype="w2w" ewd:code="DB1" ewd:pin_no="11">
      <path style="fill:#FFFFFF;stroke:#000000;stroke-width:0.85;stroke-linecap:round;stroke-linejoin:round;" d="M 418.05,291.96 L 418.05, 283.46 L 398.21, 283.46 L 398.21, 291.96 L 418.05, 291.96" />
      <text transform="matrix(1 0 0 1 402.2905 289.7598)" style="font-family:'Arial'; font-size:6px;">DB1</text>
    </a>
    <a style="cursor:pointer;" ewd:figID="20" ewd:figtype="w2w" ewd:code="DB1" ewd:pin_no="10">
      <path style="fill:#FFFFFF;stroke:#000000;stroke-width:0.85;stroke-linecap:round;stroke-linejoin:round;" d="M 375.53,291.96 L 375.53, 283.46 L 355.69, 283.46 L 355.69, 291.96 L 375.53, 291.96" />
      <text transform="matrix(1 0 0 1 359.771 289.7598)" style="font-family:'Arial'; font-size:6px;">DB1</text>
    </a>
    <a style="cursor:pointer;" ewd:figID="19" ewd:figtype="w2w" ewd:code="DB3" ewd:pin_no="4">
      <path style="fill:#FFFFFF;stroke:#000000;stroke-width:0.85;stroke-linecap:round;stroke-linejoin:round;" d="M 333.01,291.96 L 333.01, 283.46 L 313.17, 283.46 L 313.17, 291.96 L 333.01, 291.96" />
      <text transform="matrix(1 0 0 1 317.2505 289.7598)" style="font-family:'Arial'; font-size:6px;">DB3</text>
    </a>
  </g>
</svg>