﻿<?xml version="1.0" encoding="utf-8"?>
<!-- Generator: Adobe Illustrator 10.0, SVG Export Plug-In . SVG Version: 3.0.0 Build 77)  -->
<!DOCTYPE svg PUBLIC "-//W3C//DTD SVG 1.0//EN" "http://www.w3.org/TR/2001/REC-SVG-20010904/DTD/svg10.dtd"[
   <!ENTITY ns_flows "http://ns.adobe.com/Flows/1.0/">
   <!ENTITY ns_svg "http://www.w3.org/2000/svg">
   <!ENTITY ns_xlink "http://www.w3.org/1999/xlink">
   <!ENTITY st0 "font-size:7px;font-family:'MS-PGothic';adobe-font-script:japanese;">
   <!ENTITY st1 "font-size:6px;font-family:'ArialMT';">
   <!ENTITY st2 "fill:#FFFFFF;stroke:#000000; stroke-width:1.41;stroke-linecap:round;stroke-linejoin:round;">
   <!ENTITY st3 "fill:#FFFFCC;stroke:#FFFFCC; stroke-width:0.1;stroke-linecap:round;stroke-linejoin:round;">
   <!ENTITY st4 "fill:#CCCCCC;stroke:#CCCCCC; stroke-width:0.1;stroke-linecap:round;stroke-linejoin:round;">
   <!ENTITY st5 "fill:#CCECF4;stroke:#000000; stroke-width:1.133;stroke-linecap:round;stroke-linejoin:round;">
   <!ENTITY st6 "fill:none;stroke-linecap:butt; stroke-linejoin:round;">
   <!ENTITY st7 "fill:none;stroke:#000000;stroke-linecap:round;stroke-linejoin:round;">
   <!ENTITY st8 "enable-background:new;">
   <!ENTITY st9 "fill:#000000;stroke:#000000; stroke-linecap:round;stroke-linejoin:round;">
   <!ENTITY st10 "font-size:9px;font-family:'ArialMT';">
   <!ENTITY st11 "font-size:9px;font-family:'Svg Symbol';">
   <!ENTITY st12 "font-size:6px;font-family:'Svg Symbol';">
   <!ENTITY st13 "fill:none;stroke:#ff0000;stroke-linecap:round;stroke-linejoin:round;">
   <!ENTITY st14 "fill:#FFFF00;stroke:#FFFF00; stroke-width:0.1;stroke-linecap:round;stroke-linejoin:round;">
   <!ENTITY st15 "font-size:6px;font-family:'MS-PGothic';adobe-font-script:japanese;">
   <!ENTITY st16 "1.00 0.00 0.00 1.00">
   <!ENTITY st17 "0.00 -1.00 1.00 0.00">
   <!ENTITY st18 "font-size:6px;font-family:'Arial';">
   <!ENTITY st19 "font-size:9px;font-family:'Arial';">
   <!ENTITY st20 "font-size:6px;font-family:'MS-PGothic','MS PGothic';adobe-font-script:japanese;">
   <!ENTITY st21 "font-size:7px;font-family:'MS-PGothic','MS PGothic';adobe-font-script:japanese;">
   <!ATTLIST svg
       xmlns:ewd CDATA #FIXED "http://shcl.co.jp/ewd"
       xmlns:a CDATA #FIXED "http://ns.adobe.com/AdobeSVGViewerExtensions/3.0/"
       ewd:ver CDATA #IMPLIED >
   <!ATTLIST a
       ewd:lineID CDATA #IMPLIED
       ewd:groupID CDATA #IMPLIED
       ewd:figtype CDATA #IMPLIED
       ewd:code CDATA #IMPLIED
       ewd:figID CDATA #IMPLIED
       ewd:pinNo CDATA #IMPLIED
       ewd:comment CDATA #IMPLIED >
   <!ATTLIST g
       ewd:lineID CDATA #IMPLIED
       ewd:groupID CDATA #IMPLIED
       ewd:figtype CDATA #IMPLIED
       ewd:code CDATA #IMPLIED
       ewd:figID CDATA #IMPLIED
       ewd:pinNo CDATA #IMPLIED
       ewd:comment CDATA #IMPLIED >
   <!ATTLIST text
       ewd:textID CDATA #IMPLIED >
   <!ATTLIST title
       ewd:textID CDATA #IMPLIED >
]>
<svg xmlns="http://www.w3.org/2000/svg" xmlns:xlink="http://www.w3.org/1999/xlink" width="2958.94" height="720.99" viewBox="0 0 2958.94 720.99" xml:space="preserve" xmlns:ewd="http://shcl.co.jp/ewd" ewd:ver="2.0">
  
  <defs>
    <font horiz-adv-x="1229">
      <font-face font-family="Svg Symbol" units-per-em="2048" panose-1="5 5 1 2 1 7 6 2 5 7" ascent="2059" descent="450" alphabetic="0" />
      <missing-glyph d="M 103,0 l 0,1280 1024,0 0,-1280 -1024,0 z m 32,32 l 960,0 0,1216 -960,0 0,-1216 z" />
      <glyph d4p1:unicode="" horiz-adv-x="1573" d="M 1517,0 l -567,0 24,279 q 141,59 207.5,168 66.5,109 66.5,306 0,272 -132.5,417.5 -132.5,145.5 -333.5,145.5 -194,0 -328,-147.5 -134,-147.5 -134,-401.5 0,-200 68.5,-319 68.5,-119 206.5,-169 l 25,-279 -564,0 0,279 35,0 q 3,-61 32,-83 45,-35 137,-35 l 270,0 0,70 q -210,61 -324.5,209 -114.5,148 -114.5,349 0,252 186.5,425 186.5,173 504.5,173 195,0 358.5,-73.5 163.5,-73.5 252,-214.5 88.5,-141 88.5,-310 0,-207 -121.5,-360.5 -121.5,-153.5 -317.5,-197.5 l -8,-70 275,0 q 92,0 128,28 36,28 42,90 l 38,0 0,-279 z" xmlns:d4p1="def-glyph-attr-unicode" />
    </font>
  </defs>
  
<g ewd:figtype="jb" ewd:code="13" ewd:figID="9">
      <path d="M 579.7,113.35 C 579.7 114.13 579.07 114.77 578.28 114.77 C 577.5 114.77 576.86 114.14 576.86 113.35 C 576.859970703125 112.559996948242 577.49 111.93 578.28 111.93 C 579.07 111.93 579.7 112.56 579.7 113.35" style="stroke-linecap:round;stroke-linejoin:round;" />
      <path d="M 630.73,104.84 C 630.73 105.62 630.1 106.26 629.31 106.26 C 628.53 106.26 627.89 105.63 627.89 104.84 C 627.890029296875 104.049992675781 628.52 103.42 629.31 103.42 C 630.09 103.42 630.73 104.06 630.73 104.84" style="stroke-linecap:round;stroke-linejoin:round;" />
      <path style="fill:none;stroke:#000000;stroke-width:0.85;" d="M 841.98,87.84 L 841.98, 127.53" />
      <path style="fill:none;stroke:#000000;stroke-width:0.85;" d="M 578.29,113.35 L 705.83, 113.35 L 705.83, 127.52" />
      <path style="fill:none;stroke:#000000;stroke-width:0.85;" d="M 756.88,127.52 L 756.88, 104.84 L 629.31, 104.84" />
      <path style="fill:none;stroke:#000000;stroke-width:0.85;" d="M 629.29,87.84 L 629.29, 127.52" />
      <path style="fill:none;stroke:#000000;stroke-width:0.85;" d="M 578.26,127.52 L 578.26, 87.84" />
      <path d="M 841.98,127.52 L 844.81, 124.69 L 844.81, 121.86 L 841.98, 124.69 L 839.15, 121.86 L 839.15, 124.69 L 841.98, 127.52" style="stroke-linecap:round;stroke-linejoin:round;" />
      <path style="fill:none;stroke:#000000;stroke-width:0.85;stroke-linecap:round;stroke-linejoin:round;" d="M 846.23,138.86 C 849.36 138.86 851.9 136.32 851.9 133.19 C 851.9 130.06 849.36 127.52 846.23 127.52 L 837.73, 127.52 C 834.6 127.52 832.06 130.06 832.06 133.19 C 832.06 136.32 834.6 138.86 837.73 138.86 L 846.23, 138.86" />
      <path d="M 756.85,127.52 L 759.68, 124.69 L 759.68, 121.86 L 756.85, 124.69 L 754.02, 121.86 L 754.02, 124.69 L 756.85, 127.52" style="stroke-linecap:round;stroke-linejoin:round;" />
      <path style="fill:none;stroke:#000000;stroke-width:0.85;stroke-linecap:round;stroke-linejoin:round;" d="M 761.1,138.86 C 764.23 138.86 766.77 136.32 766.77 133.19 C 766.77 130.06 764.23 127.52 761.1 127.52 L 752.6, 127.52 C 749.47 127.52 746.93 130.06 746.93 133.19 C 746.93 136.32 749.47 138.86 752.6 138.86 L 761.1, 138.86" />
      <path d="M 705.82,127.52 L 708.65, 124.69 L 708.65, 121.86 L 705.82, 124.69 L 702.99, 121.86 L 702.99, 124.69 L 705.82, 127.52" style="stroke-linecap:round;stroke-linejoin:round;" />
      <path style="fill:none;stroke:#000000;stroke-width:0.85;stroke-linecap:round;stroke-linejoin:round;" d="M 710.07,138.86 C 713.2 138.86 715.74 136.32 715.74 133.19 C 715.74 130.06 713.2 127.52 710.07 127.52 L 701.57, 127.52 C 698.44 127.52 695.9 130.06 695.9 133.19 C 695.9 136.32 698.44 138.86 701.57 138.86 L 710.07, 138.86" />
      <path d="M 629.29,127.52 L 632.12, 124.69 L 632.12, 121.86 L 629.29, 124.69 L 626.46, 121.86 L 626.46, 124.69 L 629.29, 127.52" style="stroke-linecap:round;stroke-linejoin:round;" />
      <path style="fill:none;stroke:#000000;stroke-width:0.85;stroke-linecap:round;stroke-linejoin:round;" d="M 633.54,138.86 C 636.67 138.86 639.21 136.32 639.21 133.19 C 639.21 130.06 636.67 127.52 633.54 127.52 L 625.04, 127.52 C 621.91 127.52 619.37 130.06 619.37 133.19 C 619.37 136.32 621.91 138.86 625.04 138.86 L 633.54, 138.86" />
      <path d="M 578.26,127.52 L 581.09, 124.69 L 581.09, 121.86 L 578.26, 124.69 L 575.43, 121.86 L 575.43, 124.69 L 578.26, 127.52" style="stroke-linecap:round;stroke-linejoin:round;" />
      <path style="fill:none;stroke:#000000;stroke-width:0.85;stroke-linecap:round;stroke-linejoin:round;" d="M 582.52,138.86 C 585.65 138.86 588.19 136.32 588.19 133.19 C 588.19 130.06 585.65 127.52 582.52 127.52 L 574.02, 127.52 C 570.89 127.52 568.35 130.06 568.35 133.19 C 568.35 136.32 570.89 138.86 574.02 138.86 L 582.52, 138.86" />
      <text transform="matrix(1 0 0 1 830.3442 95.2129)" style="font-family:'Arial'; font-size:6px;">11</text>
      <text transform="matrix(1 0 0 1 566.6304 95.21)" style="font-family:'Arial'; font-size:6px;">12</text>
      <text transform="matrix(1 0 0 1 617.6538 95.21)" style="font-family:'Arial'; font-size:6px;">10</text>
      <text transform="matrix(1 0 0 1 836.4746 134.8979)" style="font-family:'Arial'; font-size:6px;">13H</text>
      <text transform="matrix(1 0 0 1 823.9663 134.8979)" style="font-family:'Arial'; font-size:6px;">13</text>
      <text transform="matrix(1 0 0 1 751.3428 134.895)" style="font-family:'Arial'; font-size:6px;">13H</text>
      <text transform="matrix(1 0 0 1 742.1714 134.895)" style="font-family:'Arial'; font-size:6px;">7</text>
      <text transform="matrix(1 0 0 1 700.3193 134.895)" style="font-family:'Arial'; font-size:6px;">13H</text>
      <text transform="matrix(1 0 0 1 691.1479 134.895)" style="font-family:'Arial'; font-size:6px;">6</text>
      <text transform="matrix(1 0 0 1 623.9497 134.895)" style="font-family:'Arial'; font-size:6px;">13B</text>
      <text transform="matrix(1 0 0 1 611.2759 134.895)" style="font-family:'Arial'; font-size:6px;">24</text>
      <text transform="matrix(1 0 0 1 572.9263 134.895)" style="font-family:'Arial'; font-size:6px;">13B</text>
      <text transform="matrix(1 0 0 1 560.2524 134.895)" style="font-family:'Arial'; font-size:6px;">23</text>
    </g><g ewd:figtype="gp" ewd:code="A1" ewd:figID="46">
      <path style="fill:none;stroke:#000000;stroke-width:0.85;" d="M 603.78,708.63 L 603.78, 711.46" />
      <path style="fill:none;stroke:#000000;stroke-width:0.85;" d="M 602.36,719.97 L 605.2, 719.97" />
      <path style="fill:none;stroke:#000000;stroke-width:0.85;" d="M 600.94,717.13 L 606.61, 717.13" />
      <path style="fill:none;stroke:#000000;stroke-width:0.85;" d="M 598.1,714.3 L 609.44, 714.3" />
      <path style="fill:none;stroke:#000000;stroke-width:0.85;" d="M 595.27,711.46 L 612.28, 711.46" />
    </g><g ewd:figtype="w2w" ewd:code="LA3" ewd:pin_no="3" ewd:figID="47">
      <path style="fill:#FFFFFF;stroke:#FFFFFF;stroke-width:0;stroke-linecap:round;stroke-linejoin:round;" d="M 582.52,259.87 L 578.27, 264.12 L 574.02, 259.87 L 574.02, 266.42 L 582.52, 266.42 L 582.52, 259.87" />
      <path style="fill:#FFFFFF;stroke:#FFFFFF;stroke-width:0;stroke-linecap:round;stroke-linejoin:round;" d="M 582.52,257.03 L 578.27, 261.28 L 574.02, 257.03 L 574.02, 263.58 L 582.52, 263.58 L 582.52, 257.03" />
      <path style="fill:none;stroke:#000000;stroke-width:0.85;" d="M 582.52,259.33 L 578.27, 263.58 L 574.02, 259.33" />
      <path style="fill:none;stroke:#000000;stroke-width:0.85;" d="M 582.52,262.17 L 578.27, 266.42 L 574.02, 262.17" />
      <path style="fill:none;stroke:#000000;stroke-width:0.85;stroke-linecap:round;stroke-linejoin:round;" d="M 588.19,274.92 L 588.19, 266.42 L 568.35, 266.42 L 568.35, 274.92 L 588.19, 274.92" />
      <text transform="matrix(1 0 0 1 563.5884 272.3755)" style="font-family:'Arial'; font-size:6px;">3</text>
    </g><g ewd:figtype="w2w" ewd:code="LA3" ewd:pin_no="7" ewd:figID="48">
      <path style="fill:#FFFFFF;stroke:#FFFFFF;stroke-width:0;stroke-linecap:round;stroke-linejoin:round;" d="M 633.54,259.87 L 629.29, 264.12 L 625.04, 259.87 L 625.04, 266.42 L 633.54, 266.42 L 633.54, 259.87" />
      <path style="fill:#FFFFFF;stroke:#FFFFFF;stroke-width:0;stroke-linecap:round;stroke-linejoin:round;" d="M 633.54,257.03 L 629.29, 261.28 L 625.04, 257.03 L 625.04, 263.58 L 633.54, 263.58 L 633.54, 257.03" />
      <path style="fill:none;stroke:#000000;stroke-width:0.85;" d="M 633.54,259.33 L 629.29, 263.58 L 625.04, 259.33" />
      <path style="fill:none;stroke:#000000;stroke-width:0.85;" d="M 633.54,262.17 L 629.29, 266.42 L 625.04, 262.17" />
      <path style="fill:none;stroke:#000000;stroke-width:0.85;stroke-linecap:round;stroke-linejoin:round;" d="M 639.21,274.92 L 639.21, 266.42 L 619.37, 266.42 L 619.37, 274.92 L 639.21, 274.92" />
      <text transform="matrix(1 0 0 1 614.6118 272.3755)" style="font-family:'Arial'; font-size:6px;">7</text>
    </g><g ewd:figtype="w2w" ewd:code="LA2" ewd:pin_no="1" ewd:figID="49">
      <path style="fill:#FFFFFF;stroke:#FFFFFF;stroke-width:0;stroke-linecap:round;stroke-linejoin:round;" d="M 608.03,485.57 L 603.78, 481.32 L 599.53, 485.57 L 599.53, 479.02 L 608.03, 479.02 L 608.03, 485.57" />
      <path style="fill:#FFFFFF;stroke:#FFFFFF;stroke-width:0;stroke-linecap:round;stroke-linejoin:round;" d="M 608.03,488.4 L 603.78, 484.15 L 599.53, 488.4 L 599.53, 481.85 L 608.03, 481.85 L 608.03, 488.4" />
      <path style="fill:none;stroke:#000000;stroke-width:0.85;" d="M 608.03,486.1 L 603.78, 481.85 L 599.53, 486.1" />
      <path style="fill:none;stroke:#000000;stroke-width:0.85;" d="M 608.03,483.27 L 603.78, 479.02 L 599.53, 483.27" />
      <path style="fill:none;stroke:#000000;stroke-width:0.85;stroke-linecap:round;stroke-linejoin:round;" d="M 613.7,470.51 L 613.7, 479.01 L 593.86, 479.01 L 593.86, 470.51 L 613.7, 470.51" />
      <text transform="matrix(1 0 0 1 589.1001 476.4697)" style="font-family:'Arial'; font-size:6px;">1</text>
    </g><g ewd:figtype="w2w" ewd:code="IH3" ewd:pin_no="10" ewd:figID="50">
      <path style="fill:#FFFFFF;stroke:#FFFFFF;stroke-width:0;stroke-linecap:round;stroke-linejoin:round;" d="M 735.59,630.13 L 731.34, 625.88 L 727.09, 630.13 L 727.09, 623.58 L 735.59, 623.58 L 735.59, 630.13" />
      <path style="fill:#FFFFFF;stroke:#FFFFFF;stroke-width:0;stroke-linecap:round;stroke-linejoin:round;" d="M 735.59,632.97 L 731.34, 628.72 L 727.09, 632.97 L 727.09, 626.42 L 735.59, 626.42 L 735.59, 632.97" />
      <path style="fill:none;stroke:#000000;stroke-width:0.85;" d="M 735.59,630.67 L 731.34, 626.42 L 727.09, 630.67" />
      <path style="fill:none;stroke:#000000;stroke-width:0.85;" d="M 735.59,627.83 L 731.34, 623.58 L 727.09, 627.83" />
      <path style="fill:none;stroke:#000000;stroke-width:0.85;stroke-linecap:round;stroke-linejoin:round;" d="M 741.26,615.08 L 741.26, 623.58 L 721.42, 623.58 L 721.42, 615.08 L 741.26, 615.08" />
      <text transform="matrix(1 0 0 1 713.3228 621.0361)" style="font-family:'Arial'; font-size:6px;">10</text>
    </g><g ewd:figtype="gp" ewd:code="H1" ewd:figID="64">
      <path style="fill:none;stroke:#000000;stroke-width:0.85;" d="M 731.33,708.63 L 731.33, 711.46" />
      <path style="fill:none;stroke:#000000;stroke-width:0.85;" d="M 729.91,719.97 L 732.75, 719.97" />
      <path style="fill:none;stroke:#000000;stroke-width:0.85;" d="M 728.5,717.13 L 734.17, 717.13" />
      <path style="fill:none;stroke:#000000;stroke-width:0.85;" d="M 725.66,714.3 L 737, 714.3" />
      <path style="fill:none;stroke:#000000;stroke-width:0.85;" d="M 722.83,711.46 L 739.84, 711.46" />
    </g><g ewd:figtype="w2w" ewd:code="IH2" ewd:pin_no="14" ewd:figID="65">
      <path style="fill:#FFFFFF;stroke:#FFFFFF;stroke-width:0;stroke-linecap:round;stroke-linejoin:round;" d="M 710.07,259.87 L 705.82, 264.12 L 701.57, 259.87 L 701.57, 266.42 L 710.07, 266.42 L 710.07, 259.87" />
      <path style="fill:#FFFFFF;stroke:#FFFFFF;stroke-width:0;stroke-linecap:round;stroke-linejoin:round;" d="M 710.07,257.03 L 705.82, 261.28 L 701.57, 257.03 L 701.57, 263.58 L 710.07, 263.58 L 710.07, 257.03" />
      <path style="fill:none;stroke:#000000;stroke-width:0.85;" d="M 710.07,259.33 L 705.82, 263.58 L 701.57, 259.33" />
      <path style="fill:none;stroke:#000000;stroke-width:0.85;" d="M 710.07,262.17 L 705.82, 266.42 L 701.57, 262.17" />
      <path style="fill:none;stroke:#000000;stroke-width:0.85;stroke-linecap:round;stroke-linejoin:round;" d="M 715.74,274.92 L 715.74, 266.42 L 695.9, 266.42 L 695.9, 274.92 L 715.74, 274.92" />
      <text transform="matrix(1 0 0 1 687.8101 272.3755)" style="font-family:'Arial'; font-size:6px;">14</text>
    </g><g ewd:figtype="w2w" ewd:code="IH2" ewd:pin_no="4" ewd:figID="66">
      <path style="fill:#FFFFFF;stroke:#FFFFFF;stroke-width:0;stroke-linecap:round;stroke-linejoin:round;" d="M 761.1,259.87 L 756.85, 264.12 L 752.6, 259.87 L 752.6, 266.42 L 761.1, 266.42 L 761.1, 259.87" />
      <path style="fill:#FFFFFF;stroke:#FFFFFF;stroke-width:0;stroke-linecap:round;stroke-linejoin:round;" d="M 761.1,257.03 L 756.85, 261.28 L 752.6, 257.03 L 752.6, 263.58 L 761.1, 263.58 L 761.1, 257.03" />
      <path style="fill:none;stroke:#000000;stroke-width:0.85;" d="M 761.1,259.33 L 756.85, 263.58 L 752.6, 259.33" />
      <path style="fill:none;stroke:#000000;stroke-width:0.85;" d="M 761.1,262.17 L 756.85, 266.42 L 752.6, 262.17" />
      <path style="fill:none;stroke:#000000;stroke-width:0.85;stroke-linecap:round;stroke-linejoin:round;" d="M 766.77,274.92 L 766.77, 266.42 L 746.93, 266.42 L 746.93, 274.92 L 766.77, 274.92" />
      <text transform="matrix(1 0 0 1 742.1704 272.3755)" style="font-family:'Arial'; font-size:6px;">4</text>
    </g><g ewd:figtype="w2w" ewd:code="TU5" ewd:pin_no="13" ewd:figID="67">
      <path style="fill:#FFFFFF;stroke:#FFFFFF;stroke-width:0;stroke-linecap:round;stroke-linejoin:round;" d="M 412.44,332.51 L 408.19, 328.26 L 403.94, 332.51 L 403.94, 325.96 L 412.44, 325.96 L 412.44, 332.51" />
      <path style="fill:#FFFFFF;stroke:#FFFFFF;stroke-width:0;stroke-linecap:round;stroke-linejoin:round;" d="M 412.44,335.34 L 408.19, 331.09 L 403.94, 335.34 L 403.94, 328.79 L 412.44, 328.79 L 412.44, 335.34" />
      <path style="fill:none;stroke:#000000;stroke-width:0.85;" d="M 412.44,333.04 L 408.19, 328.79 L 403.94, 333.04" />
      <path style="fill:none;stroke:#000000;stroke-width:0.85;" d="M 412.44,330.21 L 408.19, 325.96 L 403.94, 330.21" />
      <path style="fill:none;stroke:#000000;stroke-width:0.85;stroke-linecap:round;stroke-linejoin:round;" d="M 418.11,317.45 L 418.11, 325.95 L 398.27, 325.95 L 398.27, 317.45 L 418.11, 317.45" />
      <text transform="matrix(1 0 0 1 390.1729 323.4102)" style="font-family:'Arial'; font-size:6px;">13</text>
    </g><g ewd:figtype="w2w" ewd:code="Za4" ewd:pin_no="2" ewd:figID="68">
      <path style="fill:#FFFFFF;stroke:#FFFFFF;stroke-width:0;stroke-linecap:round;stroke-linejoin:round;" d="M 412.44,443.06 L 408.19, 438.81 L 403.94, 443.06 L 403.94, 436.51 L 412.44, 436.51 L 412.44, 443.06" />
      <path style="fill:#FFFFFF;stroke:#FFFFFF;stroke-width:0;stroke-linecap:round;stroke-linejoin:round;" d="M 412.44,445.89 L 408.19, 441.64 L 403.94, 445.89 L 403.94, 439.34 L 412.44, 439.34 L 412.44, 445.89" />
      <path style="fill:none;stroke:#000000;stroke-width:0.85;" d="M 412.44,443.59 L 408.19, 439.34 L 403.94, 443.59" />
      <path style="fill:none;stroke:#000000;stroke-width:0.85;" d="M 412.44,440.76 L 408.19, 436.51 L 403.94, 440.76" />
      <path style="fill:none;stroke:#000000;stroke-width:0.85;stroke-linecap:round;stroke-linejoin:round;" d="M 418.11,428 L 418.11, 436.5 L 398.27, 436.5 L 398.27, 428 L 418.11, 428" />
      <text transform="matrix(1 0 0 1 393.5098 433.9609)" style="font-family:'Arial'; font-size:6px;">2</text>
    </g><g ewd:figtype="w2w" ewd:code="UX1" ewd:pin_no="3" ewd:figID="69">
      <path style="fill:#FFFFFF;stroke:#FFFFFF;stroke-width:0;stroke-linecap:round;stroke-linejoin:round;" d="M 318.9,323.99 L 314.65, 319.74 L 310.4, 323.99 L 310.4, 317.44 L 318.91, 317.44 L 318.91, 323.99" />
      <path style="fill:#FFFFFF;stroke:#FFFFFF;stroke-width:0;stroke-linecap:round;stroke-linejoin:round;" d="M 318.9,326.83 L 314.65, 322.58 L 310.4, 326.83 L 310.4, 320.28 L 318.91, 320.28 L 318.91, 326.83" />
      <path style="fill:none;stroke:#000000;stroke-width:0.85;" d="M 318.9,324.53 L 314.65, 320.28 L 310.4, 324.53" />
      <path style="fill:none;stroke:#000000;stroke-width:0.85;" d="M 318.9,321.69 L 314.65, 317.44 L 310.4, 321.69" />
      <path style="fill:none;stroke:#000000;stroke-width:0.85;stroke-linecap:round;stroke-linejoin:round;" d="M 324.57,308.94 L 324.57, 317.44 L 304.73, 317.44 L 304.73, 308.94 L 324.57, 308.94" />
      <text transform="matrix(1 0 0 1 299.9697 314.8965)" style="font-family:'Arial'; font-size:6px;">3</text>
    </g><g ewd:figtype="w2w" ewd:code="TX1" ewd:pin_no="3" ewd:figID="70">
      <path style="fill:#FFFFFF;stroke:#FFFFFF;stroke-width:0;stroke-linecap:round;stroke-linejoin:round;" d="M 276.38,323.99 L 272.13, 319.74 L 267.88, 323.99 L 267.88, 317.44 L 276.38, 317.44 L 276.38, 323.99" />
      <path style="fill:#FFFFFF;stroke:#FFFFFF;stroke-width:0;stroke-linecap:round;stroke-linejoin:round;" d="M 276.38,326.83 L 272.13, 322.58 L 267.88, 326.83 L 267.88, 320.28 L 276.38, 320.28 L 276.38, 326.83" />
      <path style="fill:none;stroke:#000000;stroke-width:0.85;" d="M 276.38,324.53 L 272.13, 320.28 L 267.88, 324.53" />
      <path style="fill:none;stroke:#000000;stroke-width:0.85;" d="M 276.38,321.69 L 272.13, 317.44 L 267.88, 321.69" />
      <path style="fill:none;stroke:#000000;stroke-width:0.85;stroke-linecap:round;stroke-linejoin:round;" d="M 282.05,308.94 L 282.05, 317.44 L 262.21, 317.44 L 262.21, 308.94 L 282.05, 308.94" />
      <text transform="matrix(1 0 0 1 257.4521 314.8965)" style="font-family:'Arial'; font-size:6px;">3</text>
    </g><g ewd:figtype="gp" ewd:code="a1" ewd:figID="72">
      <path style="fill:none;stroke:#000000;stroke-width:0.85;" d="M 408.18,708.65 L 408.18, 711.48" />
      <path style="fill:none;stroke:#000000;stroke-width:0.85;" d="M 406.76,719.99 L 409.6, 719.99" />
      <path style="fill:none;stroke:#000000;stroke-width:0.85;" d="M 405.35,717.15 L 411.02, 717.15" />
      <path style="fill:none;stroke:#000000;stroke-width:0.85;" d="M 402.51,714.32 L 413.85, 714.32" />
      <path style="fill:none;stroke:#000000;stroke-width:0.85;" d="M 399.68,711.48 L 416.69, 711.48" />
    </g><g ewd:figtype="w2w" ewd:code="ZU2" ewd:pin_no="2" ewd:figID="73">
      <path style="fill:#FFFFFF;stroke:#FFFFFF;stroke-width:0;stroke-linecap:round;stroke-linejoin:round;" d="M 412.44,370.43 L 408.19, 374.68 L 403.94, 370.43 L 403.94, 376.98 L 412.44, 376.98 L 412.44, 370.43" />
      <path style="fill:#FFFFFF;stroke:#FFFFFF;stroke-width:0;stroke-linecap:round;stroke-linejoin:round;" d="M 412.44,367.59 L 408.19, 371.84 L 403.94, 367.59 L 403.94, 374.14 L 412.44, 374.14 L 412.44, 367.59" />
      <path style="fill:none;stroke:#000000;stroke-width:0.85;" d="M 412.44,369.89 L 408.19, 374.14 L 403.94, 369.89" />
      <path style="fill:none;stroke:#000000;stroke-width:0.85;" d="M 412.44,372.73 L 408.19, 376.98 L 403.94, 372.73" />
      <path style="fill:none;stroke:#000000;stroke-width:0.85;stroke-linecap:round;stroke-linejoin:round;" d="M 418.11,385.48 L 418.11, 376.98 L 398.27, 376.98 L 398.27, 385.48 L 418.11, 385.48" />
      <text transform="matrix(1 0 0 1 393.5088 382.9365)" style="font-family:'Arial'; font-size:6px;">2</text>
    </g><g ewd:figtype="w2w" ewd:code="ZT1" ewd:pin_no="2" ewd:figID="74">
      <path style="fill:#FFFFFF;stroke:#FFFFFF;stroke-width:0;stroke-linecap:round;stroke-linejoin:round;" d="M 369.92,268.38 L 365.67, 272.63 L 361.42, 268.38 L 361.42, 274.93 L 369.92, 274.93 L 369.92, 268.38" />
      <path style="fill:#FFFFFF;stroke:#FFFFFF;stroke-width:0;stroke-linecap:round;stroke-linejoin:round;" d="M 369.92,265.54 L 365.67, 269.79 L 361.42, 265.54 L 361.42, 272.09 L 369.92, 272.09 L 369.92, 265.54" />
      <path style="fill:none;stroke:#000000;stroke-width:0.85;" d="M 369.92,267.84 L 365.67, 272.09 L 361.42, 267.84" />
      <path style="fill:none;stroke:#000000;stroke-width:0.85;" d="M 369.92,270.68 L 365.67, 274.93 L 361.42, 270.68" />
      <path style="fill:none;stroke:#000000;stroke-width:0.85;stroke-linecap:round;stroke-linejoin:round;" d="M 375.59,283.44 L 375.59, 274.94 L 355.75, 274.94 L 355.75, 283.44 L 375.59, 283.44" />
      <text transform="matrix(1 0 0 1 350.9883 280.8892)" style="font-family:'Arial'; font-size:6px;">2</text>
    </g><g ewd:figtype="w2w" ewd:code="TU5" ewd:pin_no="8" ewd:figID="75">
      <path style="fill:#FFFFFF;stroke:#FFFFFF;stroke-width:0;stroke-linecap:round;stroke-linejoin:round;" d="M 318.9,259.87 L 314.65, 264.12 L 310.4, 259.87 L 310.4, 266.42 L 318.9, 266.42 L 318.9, 259.87" />
      <path style="fill:#FFFFFF;stroke:#FFFFFF;stroke-width:0;stroke-linecap:round;stroke-linejoin:round;" d="M 318.9,257.03 L 314.65, 261.28 L 310.4, 257.03 L 310.4, 263.58 L 318.91, 263.58 L 318.91, 257.03" />
      <path style="fill:none;stroke:#000000;stroke-width:0.85;" d="M 318.9,259.33 L 314.65, 263.58 L 310.4, 259.33" />
      <path style="fill:none;stroke:#000000;stroke-width:0.85;" d="M 318.9,262.17 L 314.65, 266.42 L 310.4, 262.17" />
      <path style="fill:none;stroke:#000000;stroke-width:0.85;stroke-linecap:round;stroke-linejoin:round;" d="M 324.57,274.92 L 324.57, 266.42 L 304.73, 266.42 L 304.73, 274.92 L 324.57, 274.92" />
      <text transform="matrix(1 0 0 1 299.9697 272.376)" style="font-family:'Arial'; font-size:6px;">8</text>
    </g><g ewd:figtype="conn" ewd:code="T9" ewd:figID="20">
      <path style="fill:none;stroke:#000000;stroke-width:0.85;" d="M 272.13,206.9 L 297.64, 206.9" />
      <path style="fill:none;stroke:#000000;stroke-width:0.85;" d="M 272.13,181.39 L 272.13, 215.41" />
      <path d="M 289.13,212.57 L 289.13, 201.23 L 280.63, 206.9 L 289.13, 212.57" style="stroke-linecap:round;stroke-linejoin:round;" />
      <path style="fill:none;stroke:#000000;stroke-width:0.85;" d="M 280.63,212.57 L 280.63, 201.23" />
      <path d="M 266.46,189.9 L 277.8, 189.9 L 272.13, 198.4 L 266.46, 189.9" style="stroke-linecap:round;stroke-linejoin:round;" />
      <path style="fill:none;stroke:#000000;stroke-width:0.85;" d="M 266.46,198.4 L 277.8, 198.4" />
      <path d="M 272.13,208.32 C 272.91 208.32 273.55 207.69 273.55 206.9 C 273.55 206.12 272.92 205.48 272.13 205.48 C 271.35 205.48 270.71 206.11 270.71 206.9 C 270.71 207.69 271.34 208.32 272.13 208.32" style="stroke-linecap:round;stroke-linejoin:round;" />
      <path style="fill:none;stroke:#000000;stroke-width:1.417;stroke-linecap:round;stroke-linejoin:round;" d="M 297.64,215.41 L 297.64, 181.39 L 263.62, 181.39 L 263.62, 215.41 L 297.64, 215.41" />
      <text transform="matrix(1 0 0 1 263.8301 222.7842)" style="font-family:'Arial'; font-size:6px;">2</text>
      <text transform="matrix(1 0 0 1 263.8301 177.4297)" style="font-family:'Arial'; font-size:6px;">1</text>
      <g ewd:figtype="title">
        <text transform="matrix(0 -1 1 0 305.7227 215.4077)" style="font-family:'Arial'; font-size:6px;">T9</text>
        <text transform="matrix(0 -1 1 0 312.8086 215.4077)" style="font-family:'Arial'; font-size:6px;" ewd:textID="22">Diode (Door Courtesy No.5)</text>
      </g>
    </g><g ewd:figtype="conn" ewd:code="a2" ewd:figID="22">
      <path style="fill:none;stroke:#000000;stroke-width:0.85;" d="M 348.66,555.56 L 348.66, 559.81" />
      <path style="fill:none;stroke:#000000;stroke-width:0.85;" d="M 348.66,585.33 L 348.66, 589.58" />
      <path style="fill:none;stroke:#000000;stroke-width:1.417;" d="M 354.34,559.86 L 349.02, 582.54" />
      <path style="fill:none;stroke:#000000;stroke-width:0.85;stroke-linecap:round;stroke-linejoin:round;" d="M 348.66,562.65 C 349.44 562.65 350.08 562.02 350.08 561.23 C 350.08 560.45 349.45 559.81 348.66 559.81 C 347.870007324219 559.809995117188 347.24 560.44 347.24 561.23 C 347.24 562.01 347.87 562.65 348.66 562.65" />
      <path style="fill:none;stroke:#000000;stroke-width:0.85;stroke-linecap:round;stroke-linejoin:round;" d="M 348.66,585.33 C 349.44 585.33 350.08 584.7 350.08 583.91 C 350.079973144531 583.119946289062 349.45 582.49 348.66 582.49 C 347.870007324219 582.48998046875 347.24 583.12 347.24 583.91 C 347.23998046875 584.699946289063 347.87 585.33 348.66 585.33" />
      <path style="fill:none;stroke:#000000;stroke-width:1.417;stroke-linecap:round;stroke-linejoin:round;" d="M 357.16,589.58 L 357.16, 555.56 L 340.15, 555.56 L 340.15, 589.58 L 357.16, 589.58" />
      <text transform="matrix(1 0 0 1 340.3574 551.6006)" style="font-family:'Arial'; font-size:6px;">1</text>
      <text transform="matrix(1 0 0 1 340.3574 596.9541)" style="font-family:'Arial'; font-size:6px;">2</text>
      <g ewd:figtype="title">
        <text transform="matrix(0 -1 1 0 365.2432 589.5781)" style="font-family:'Arial'; font-size:6px;">a2</text>
        <text transform="matrix(0 -1 1 0 372.3311 589.5781)" style="font-family:'Arial'; font-size:6px;" ewd:textID="17">Back Door Courtesy SW</text>
      </g>
    </g><g ewd:figtype="conn" ewd:code="T17" ewd:figID="23">
      <path style="fill:none;stroke:#000000;stroke-width:0.85;" d="M 459.21,206.92 L 459.21, 181.41" />
      <path d="M 453.5,189.91 L 464.84, 189.91 L 459.17, 198.41 L 453.5, 189.91" style="stroke-linecap:round;stroke-linejoin:round;" />
      <path style="fill:none;stroke:#000000;stroke-width:0.85;" d="M 453.5,198.42 L 464.84, 198.42" />
      <path style="fill:none;stroke:#000000;stroke-width:1.417;stroke-linecap:round;stroke-linejoin:round;" d="M 467.67,206.92 L 467.67, 181.41 L 450.66, 181.41 L 450.66, 206.92 L 467.67, 206.92" />
      <text transform="matrix(1 0 0 1 450.8716 214.2983)" style="font-family:'Arial'; font-size:6px;">2</text>
      <text transform="matrix(1 0 0 1 450.8716 177.4478)" style="font-family:'Arial'; font-size:6px;">1</text>
      <g ewd:figtype="title">
        <text transform="matrix(0 -1 1 0 475.7583 206.9219)" style="font-family:'Arial'; font-size:6px;">T17</text>
        <text transform="matrix(0 -1 1 0 482.8452 206.9219)" style="font-family:'Arial'; font-size:6px;" ewd:textID="23">Diode <tspan x="0" dy="1em">(Door Courtesy No.6)</tspan></text>
      </g>
    </g><g ewd:figtype="conn" ewd:code="I12,I13" ewd:figID="26">
      <path style="fill:#FFFFFF;stroke:#000000;stroke-width:0.85;stroke-linecap:round;stroke-linejoin:round;" d="M 731.32,575.42 C 734.45 575.42 736.99 572.88 736.99 569.75 C 736.98998046875 566.62 734.45 564.08 731.32 564.08 C 728.190014648437 564.080034179687 725.65 566.62 725.65 569.75 C 725.650048828125 572.88 728.19 575.42 731.32 575.42" />
      <path style="fill:#FFFFFF;stroke:#000000;stroke-width:0.85;stroke-linecap:round;stroke-linejoin:round;" d="M 731.32,538.57 C 734.45 538.57 736.99 536.03 736.99 532.9 C 736.99 529.77 734.45 527.23 731.32 527.23 C 728.190014648437 527.2299609375 725.65 529.77 725.65 532.9 C 725.65 536.03 728.19 538.57 731.32 538.57" />
      <path style="fill:none;stroke:#000000;stroke-width:0.85;" d="M 731.33,538.57 L 731.33, 564.08" />
      <path style="fill:none;stroke:#000000;stroke-width:1.417;stroke-dasharray:5 2;" d="M 722.82,547.08 L 739.83, 547.08" />
      <path style="fill:none;stroke:#000000;stroke-width:1.417;stroke-dasharray:5 2;" d="M 722.82,555.58 L 739.83, 555.58" />
      <path style="fill:none;stroke:#000000;stroke-width:1.417;stroke-linecap:round;stroke-linejoin:round;" d="M 739.83,564.08 L 739.83, 538.57 L 722.82, 538.57 L 722.82, 564.08 L 739.83, 564.08" />
      <text transform="matrix(1 0 0 1 720.7583 534.9629)" style="font-family:'Arial'; font-size:6px;">7</text>
      <text transform="matrix(1 0 0 1 729.3223 534.6094)" style="font-family:'Arial'; font-size:6px;">B</text>
      <text transform="matrix(1 0 0 1 720.7583 571.8125)" style="font-family:'Arial'; font-size:6px;">7</text>
      <text transform="matrix(1 0 0 1 729.3223 571.459)" style="font-family:'Arial'; font-size:6px;">A</text>
      <g ewd:figtype="title">
        <text transform="matrix(0 -1 1 0 747.9517 564.084)" style="font-family:'Arial'; font-size:6px;">I12(A), I13(B)</text>
        <text transform="matrix(0 -1 1 0 755.0386 564.084)" style="font-family:'Arial'; font-size:6px;" ewd:textID="35">Junction Connector </text>
      </g>
    </g><g ewd:figtype="conn" ewd:code="A31" ewd:figID="27">
      <path style="fill:none;stroke:#000000;stroke-width:0.85;" d="M 603.78,555.58 L 603.78, 572.59" />
      <path style="fill:none;stroke:#000000;stroke-width:1.417;stroke-linecap:round;stroke-linejoin:round;" d="M 612.29,572.59 L 612.29, 555.58 L 595.28, 555.58 L 595.28, 572.59 L 612.29, 572.59" />
      <text transform="matrix(1 0 0 1 595.4907 579.9619)" style="font-family:'Arial'; font-size:6px;">1</text>
      <text transform="matrix(1 0 0 1 595.4907 551.6152)" style="font-family:'Arial'; font-size:6px;">2</text>
      <g ewd:figtype="title">
        <text transform="matrix(0 -1 1 0 620.3755 572.5918)" style="font-family:'Arial'; font-size:6px;">A31</text>
        <text transform="matrix(0 -1 1 0 627.4624 572.5918)" style="font-family:'Arial'; font-size:6px;" ewd:textID="35">Junction Connector </text>
      </g>
    </g><g ewd:figtype="conn" ewd:code="L5" ewd:figID="30">
      <path style="fill:none;stroke:#000000;stroke-width:0.85;" d="M 603.78,406.73 L 603.78, 419.49" />
      <path style="fill:none;stroke:#000000;stroke-width:0.85;" d="M 629.29,368.46 L 629.29, 391.14 L 613.7, 391.14" />
      <path style="fill:none;stroke:#000000;stroke-width:0.85;" d="M 593.85,391.14 L 578.2599, 391.14 L 578.2599, 368.46" />
      <path style="fill:none;stroke:#000000;stroke-width:1.417;" d="M 609.46,389.77 L 604.14, 403.95" />
      <path style="fill:none;stroke:#000000;stroke-width:0.85;stroke-linecap:round;stroke-linejoin:round;" d="M 612.28,392.56 C 613.0601 392.56 613.7 391.93 613.7 391.14 C 613.7 390.36 613.07 389.72 612.28 389.72 C 611.49005859375 389.720002441406 610.86 390.35 610.86 391.14 C 610.86 391.92 611.5 392.56 612.28 392.56" />
      <path style="fill:none;stroke:#000000;stroke-width:0.85;stroke-linecap:round;stroke-linejoin:round;" d="M 595.27,392.56 C 596.05 392.56 596.69 391.93 596.69 391.14 C 596.69 390.36 596.06 389.72 595.27 389.72 C 594.4800390625 389.720002441406 593.85 390.35 593.85 391.14 C 593.85 391.92 594.49 392.56 595.27 392.56" />
      <path style="fill:none;stroke:#000000;stroke-width:0.85;stroke-linecap:round;stroke-linejoin:round;" d="M 603.78,406.73 C 604.5601 406.73 605.2 406.1 605.2 405.31 C 605.2 404.53 604.57 403.89 603.78 403.89 C 602.99005859375 403.890029296875 602.36 404.52 602.36 405.31 C 602.36 406.1 602.99 406.73 603.78 406.73" />
      <path style="fill:none;stroke:#000000;stroke-width:1.417;stroke-linecap:round;stroke-linejoin:round;" d="M 646.3,419.49 L 646.3, 368.47 L 561.26, 368.47 L 561.26, 419.49 L 646.3, 419.49" />
      <text transform="matrix(1 0 0 1 620.9907 364.501)" style="font-family:'Arial'; font-size:6px;">8</text>
      <text transform="matrix(1 0 0 1 569.9673 364.501)" style="font-family:'Arial'; font-size:6px;">5</text>
      <text transform="matrix(1 0 0 1 595.479 426.8633)" style="font-family:'Arial'; font-size:6px;">1</text>
      <text transform="matrix(1 0 0 1 605.1978 415.5469)" style="font-family:'Arial'; font-size:6px;">GND</text>
      <text transform="matrix(1 0 0 1 630.5591 375.8594)" style="font-family:'Arial'; font-size:6px;">UL</text>
      <text transform="matrix(1 0 0 1 579.6831 375.8594)" style="font-family:'Arial'; font-size:6px;">L</text>
      <text transform="matrix(0 -1 1 0 636.6626 406.4785)" style="font-family:'Arial'; font-size:6px;">UNLOCK</text>
      <text transform="matrix(0 -1 1 0 574.3013 402.1445)" style="font-family:'Arial'; font-size:6px;">LOCK</text>
      <g ewd:figtype="title">
        <text transform="matrix(0 -1 1 0 654.3794 419.4893)" style="font-family:'Arial'; font-size:6px;">L5</text>
        <text transform="matrix(0 -1 1 0 661.4663 419.4893)" style="font-family:'Arial'; font-size:6px;" ewd:textID="39">Power Window Master SW</text>
      </g>
    </g><g ewd:figtype="conn" ewd:code="I25" ewd:figID="12">
      <path style="fill:none;stroke:#000000;stroke-width:0.85;" d="M 731.33,406.73 L 731.33, 419.49" />
      <path style="fill:none;stroke:#000000;stroke-width:0.85;" d="M 705.82,368.46 L 705.82, 391.14 L 721.41, 391.14" />
      <path style="fill:none;stroke:#000000;stroke-width:0.85;" d="M 741.26,391.14 L 756.88, 391.14 L 756.88, 368.46" />
      <path style="fill:none;stroke:#000000;stroke-width:1.417;" d="M 737.02,389.77 L 731.7, 403.95" />
      <path style="fill:none;stroke:#000000;stroke-width:0.85;stroke-linecap:round;stroke-linejoin:round;" d="M 739.84,392.56 C 740.6201 392.56 741.26 391.93 741.26 391.14 C 741.26 390.36 740.63 389.72 739.84 389.72 C 739.050053710938 389.720002441406 738.42 390.35 738.42 391.14 C 738.42 391.92 739.06 392.56 739.84 392.56" />
      <path style="fill:none;stroke:#000000;stroke-width:0.85;stroke-linecap:round;stroke-linejoin:round;" d="M 722.83,392.56 C 723.61 392.56 724.25 391.93 724.25 391.14 C 724.25 390.36 723.62 389.72 722.83 389.72 C 722.040034179688 389.720002441406 721.41 390.35 721.41 391.14 C 721.41 391.92 722.05 392.56 722.83 392.56" />
      <path style="fill:none;stroke:#000000;stroke-width:0.85;stroke-linecap:round;stroke-linejoin:round;" d="M 731.33,406.73 C 732.11 406.73 732.75 406.1 732.75 405.31 C 732.75 404.53 732.12 403.89 731.33 403.89 C 730.540034179688 403.890029296875 729.91 404.52 729.91 405.31 C 729.92 406.1 730.55 406.73 731.33 406.73" />
      <path style="fill:none;stroke:#000000;stroke-width:1.417;stroke-linecap:round;stroke-linejoin:round;" d="M 773.85,419.49 L 773.85, 368.47 L 688.81, 368.47 L 688.81, 419.49 L 773.85, 419.49" />
      <text transform="matrix(1 0 0 1 748.5493 364.501)" style="font-family:'Arial'; font-size:6px;">4</text>
      <text transform="matrix(1 0 0 1 697.5259 364.501)" style="font-family:'Arial'; font-size:6px;">5</text>
      <text transform="matrix(1 0 0 1 723.0376 426.8633)" style="font-family:'Arial'; font-size:6px;">6</text>
      <text transform="matrix(1 0 0 1 732.7563 415.5469)" style="font-family:'Arial'; font-size:6px;">E</text>
      <text transform="matrix(1 0 0 1 758.1177 375.8594)" style="font-family:'Arial'; font-size:6px;">UL</text>
      <text transform="matrix(1 0 0 1 707.2417 375.8594)" style="font-family:'Arial'; font-size:6px;">L</text>
      <text transform="matrix(0 -1 1 0 764.2212 410.7305)" style="font-family:'Arial'; font-size:6px;">UNLOCK</text>
      <text transform="matrix(0 -1 1 0 701.8599 406.3965)" style="font-family:'Arial'; font-size:6px;">LOCK</text>
      <g ewd:figtype="title">
        <text transform="matrix(0 -1 1 0 781.938 419.4893)" style="font-family:'Arial'; font-size:6px;">I25</text>
        <text transform="matrix(0 -1 1 0 789.0249 419.4893)" style="font-family:'Arial'; font-size:6px;" ewd:textID="30">Door Lock Control SW</text>
      </g>
    </g><g ewd:figtype="conn" ewd:code="a7" ewd:figID="13">
      <path style="fill:none;stroke:#000000;stroke-width:0.85;" d="M 408.2,496.05 L 408.2, 534.32" />
      <path style="fill:none;stroke:#000000;stroke-width:5;" d="M 408.2,496.05 L 408.2, 530.07" />
      <path style="fill:none;stroke:#FFFFFF;stroke-width:4;" d="M 408.2,496.05 L 408.2, 530.07" />
      <path style="fill:none;stroke:#000000;" d="M 408.2,496.05 L 408.2, 530.07" />
      <path style="fill:none;stroke:#000000;stroke-width:0.85;" d="M 408.2,559.83 L 408.2, 598.08" />
      <path style="fill:none;stroke:#FF0000;stroke-width:5;" d="M 408.2,564.08 L 408.2, 598.08" />
      <path style="fill:none;stroke:#000000;stroke-width:1.417;" d="M 413.89,534.36 L 408.57, 557.04" />
      <path style="fill:none;stroke:#000000;stroke-width:0.85;stroke-linecap:round;stroke-linejoin:round;" d="M 408.2,537.16 C 408.98 537.16 409.62 536.53 409.62 535.74 C 409.619990234375 534.94998046875 408.99 534.32 408.2 534.32 C 407.410024414062 534.320014648437 406.78 534.95 406.78 535.74 C 406.779997558594 536.52998046875 407.42 537.16 408.2 537.16" />
      <path style="fill:none;stroke:#000000;stroke-width:0.85;stroke-linecap:round;stroke-linejoin:round;" d="M 408.2,559.83 C 408.98 559.83 409.62 559.2 409.62 558.41 C 409.62 557.6299 408.99 556.99 408.2 556.99 C 407.410024414062 556.98998046875 406.78 557.62 406.78 558.41 C 406.78 559.2 407.42 559.83 408.2 559.83" />
      <path style="fill:none;stroke:#000000;stroke-width:1.417;stroke-linecap:round;stroke-linejoin:round;" d="M 416.71,564.08 L 416.71, 530.06 L 399.7, 530.06 L 399.7, 564.08 L 416.71, 564.08" />
      <path style="fill:none;stroke:#000000;stroke-width:1.417;stroke-linecap:round;stroke-linejoin:round;" d="M 425.19,598.08 L 425.19, 496.03 L 391.17, 496.03 L 391.17, 598.08 L 425.19, 598.08" />
      <text transform="matrix(1 0 0 1 399.8848 492.0723)" style="font-family:'Arial'; font-size:6px;">1</text>
      <text transform="matrix(1 0 0 1 399.8848 605.458)" style="font-family:'Arial'; font-size:6px;">2</text>
      <text transform="matrix(1 0 0 1 411.0171 503.4111)" style="font-family:'Arial'; font-size:6px;">D+</text>
      <text transform="matrix(1 0 0 1 411.0171 594.1201)" style="font-family:'Arial'; font-size:6px;">E</text>
      <text transform="matrix(0 -1 1 0 404.249 580.4238)" style="font-family:'Arial'; font-size:6px;">R</text>
      <text transform="matrix(0 -1 1 0 404.249 521.7246)" style="font-family:'Arial'; font-size:6px;">W-B</text>
      <g ewd:figtype="title">
        <text transform="matrix(0 -1 1 0 433.3062 598.1025)" style="font-family:'Arial'; font-size:6px;">a7</text>
        <text transform="matrix(0 -1 1 0 440.3936 598.1025)" style="font-family:'Arial'; font-size:6px;" ewd:textID="19">Back Door Lock Assembly <tspan x="0" dy="1em">(Door Control Switch)</tspan></text>
      </g>
    </g><text transform="matrix(0 -1 1 0 574.3003 201.2168)" style="font-family:'Arial'; font-size:6px;">W</text><text transform="matrix(0 -1 1 0 625.3237 200.3862)" style="font-family:'Arial'; font-size:6px;">Y</text><text transform="matrix(0 -1 1 0 574.3003 320.272)" style="font-family:'Arial'; font-size:6px;">W</text><text transform="matrix(0 -1 1 0 625.3237 319.4414)" style="font-family:'Arial'; font-size:6px;">Y</text><text transform="matrix(0 -1 1 0 599.812 527.3662)" style="font-family:'Arial'; font-size:6px;">W-B</text><text transform="matrix(0 -1 1 0 701.8589 201.2261)" style="font-family:'Arial'; font-size:6px;">W</text><text transform="matrix(0 -1 1 0 701.8589 320.272)" style="font-family:'Arial'; font-size:6px;">W</text><text transform="matrix(0 -1 1 0 727.3706 603.9014)" style="font-family:'Arial'; font-size:6px;">W-B</text><text transform="matrix(0 -1 1 0 727.3706 663.4287)" style="font-family:'Arial'; font-size:6px;">W-B</text><text transform="matrix(0 -1 1 0 599.812 450.8311)" style="font-family:'Arial'; font-size:6px;">W-B</text><text transform="matrix(0 -1 1 0 268.165 158.6992)" style="font-family:'Arial'; font-size:6px;">W</text><text transform="matrix(0 -1 1 0 404.2197 158.7085)" style="font-family:'Arial'; font-size:6px;">W</text><text transform="matrix(0 -1 1 0 404.2217 354.2988)" style="font-family:'Arial'; font-size:6px;">W</text><text transform="matrix(0 -1 1 0 455.2441 285.769)" style="font-family:'Arial'; font-size:6px;">G</text><text transform="matrix(0 -1 1 0 404.2217 405.3223)" style="font-family:'Arial'; font-size:6px;">W</text><text transform="matrix(0 -1 1 0 404.2197 680.4492)" style="font-family:'Arial'; font-size:6px;">W-B</text><text transform="matrix(0 -1 1 0 404.2197 629.4258)" style="font-family:'Arial'; font-size:6px;">W-B</text><text transform="matrix(0 -1 1 0 404.2217 473.3535)" style="font-family:'Arial'; font-size:6px;">W</text><text transform="matrix(0 -1 1 0 344.6924 629.4258)" style="font-family:'Arial'; font-size:6px;">W-B</text><text transform="matrix(0 -1 1 0 344.6943 473.3535)" style="font-family:'Arial'; font-size:6px;">W</text><text transform="matrix(0 -1 1 0 268.165 242.9082)" style="font-family:'Arial'; font-size:6px;">B</text><text transform="matrix(0 -1 1 0 361.7002 158.7085)" style="font-family:'Arial'; font-size:6px;">W</text><text transform="matrix(0 -1 1 0 361.7021 405.3232)" style="font-family:'Arial'; font-size:6px;">W</text><text transform="matrix(1 0 0 1 388.8042 253.9829)" style="font-family:'Arial'; font-size:6px;">G</text><text transform="matrix(0 -1 1 0 268.165 344.9556)" style="font-family:'Arial'; font-size:6px;">B</text><text transform="matrix(0 -1 1 0 310.6836 242.9082)" style="font-family:'Arial'; font-size:6px;">B</text><text transform="matrix(0 -1 1 0 310.6836 293.9321)" style="font-family:'Arial'; font-size:6px;">B</text><text transform="matrix(0 -1 1 0 310.6836 344.9556)" style="font-family:'Arial'; font-size:6px;">B</text><text transform="matrix(0 -1 1 0 455.2075 158.73)" style="font-family:'Arial'; font-size:6px;">W</text><text transform="matrix(0 -1 1 0 455.2075 234.7671)" style="font-family:'Arial'; font-size:6px;">G</text><text transform="matrix(0 -1 1 0 727.3706 450.8311)" style="font-family:'Arial'; font-size:6px;">W-B</text><text transform="matrix(0 -1 1 0 599.812 612.4053)" style="font-family:'Arial'; font-size:6px;">W-B</text><text transform="matrix(0 -1 1 0 599.812 663.4287)" style="font-family:'Arial'; font-size:6px;">W-B</text><text transform="matrix(0 -1 1 0 727.3706 510.3584)" style="font-family:'Arial'; font-size:6px;">W-B</text><text transform="matrix(1 0 0 1 384.6353 265.3232)" style="font-family:'Arial'; font-size:6px;">(*16)</text><text transform="matrix(0 -1 1 0 279.5039 245.7412)" style="font-family:'Arial'; font-size:6px;">(*1)</text><text transform="matrix(0 -1 1 0 279.5039 347.7886)" style="font-family:'Arial'; font-size:6px;">(*1)</text><text transform="matrix(0 -1 1 0 415.5596 160.7109)" style="font-family:'Arial'; font-size:6px;">(*3)</text><text transform="matrix(0 -1 1 0 415.5615 356.3013)" style="font-family:'Arial'; font-size:6px;">(*2)</text><text transform="matrix(0 -1 1 0 415.5615 407.3262)" style="font-family:'Arial'; font-size:6px;">(*2)</text><text transform="matrix(0 -1 1 0 415.5615 475.3574)" style="font-family:'Arial'; font-size:6px;">(*6)</text><text transform="matrix(0 -1 1 0 415.5596 628.4277)" style="font-family:'Arial'; font-size:6px;">(*6)</text><text transform="matrix(0 -1 1 0 466.5845 289.938)" style="font-family:'Arial'; font-size:6px;">(*17)</text><text transform="matrix(0 -1 1 0 466.5464 237.2676)" style="font-family:'Arial'; font-size:6px;">(*4)</text><text transform="matrix(0 -1 1 0 466.5464 160.7324)" style="font-family:'Arial'; font-size:6px;">(*4)</text><text transform="matrix(0 -1 1 0 356.0332 475.3574)" style="font-family:'Arial'; font-size:6px;">(*5)</text><text transform="matrix(0 -1 1 0 356.0313 628.4277)" style="font-family:'Arial'; font-size:6px;">(*5)</text><text transform="matrix(0 -1 1 0 373.042 407.3262)" style="font-family:'Arial'; font-size:6px;">(*1)</text><text transform="matrix(0 -1 1 0 373.04 162.3794)" style="font-family:'Arial'; font-size:6px;">(*15)</text><text transform="matrix(0 -1 1 0 322.0215 347.7886)" style="font-family:'Arial'; font-size:6px;">(*2)</text><text transform="matrix(0 -1 1 0 322.0215 296.7651)" style="font-family:'Arial'; font-size:6px;">(*2)</text><text transform="matrix(0 -1 1 0 322.0215 245.7412)" style="font-family:'Arial'; font-size:6px;">(*2)</text><text transform="matrix(0 -1 1 0 738.731 449.8633)" style="font-family:'Arial'; font-size:6px;">(*8)</text><text transform="matrix(0 -1 1 0 738.731 509.3906)" style="font-family:'Arial'; font-size:6px;">(*8)</text><text transform="matrix(0 -1 1 0 738.731 602.9336)" style="font-family:'Arial'; font-size:6px;">(*8)</text><text transform="matrix(0 -1 1 0 738.731 662.4609)" style="font-family:'Arial'; font-size:6px;">(*8)</text><text transform="matrix(0 -1 1 0 713.2261 203.2285)" style="font-family:'Arial'; font-size:6px;">(*8)</text><text transform="matrix(0 -1 1 0 713.2261 322.2837)" style="font-family:'Arial'; font-size:6px;">(*8)</text><text transform="matrix(0 -1 1 0 611.1704 449.8633)" style="font-family:'Arial'; font-size:6px;">(*7)</text><text transform="matrix(0 -1 1 0 611.1704 526.3984)" style="font-family:'Arial'; font-size:6px;">(*7)</text><text transform="matrix(0 -1 1 0 611.1704 611.4375)" style="font-family:'Arial'; font-size:6px;">(*7)</text><text transform="matrix(0 -1 1 0 611.1704 662.4609)" style="font-family:'Arial'; font-size:6px;">(*7)</text><text transform="matrix(0 -1 1 0 636.6733 203.2261)" style="font-family:'Arial'; font-size:6px;">(*7)</text><text transform="matrix(0 -1 1 0 636.6733 322.2813)" style="font-family:'Arial'; font-size:6px;">(*7)</text><text transform="matrix(0 -1 1 0 585.6499 322.2813)" style="font-family:'Arial'; font-size:6px;">(*7)</text><text transform="matrix(0 -1 1 0 585.6499 203.2261)" style="font-family:'Arial'; font-size:6px;">(*7)</text></svg>