﻿<?xml version="1.0" encoding="utf-8"?>
<!-- Generator: Adobe Illustrator 10.0, SVG Export Plug-In . SVG Version: 3.0.0 Build 77)  -->
<!DOCTYPE svg PUBLIC "-//W3C//DTD SVG 1.0//EN" "http://www.w3.org/TR/2001/REC-SVG-20010904/DTD/svg10.dtd"[
   <!ENTITY ns_flows "http://ns.adobe.com/Flows/1.0/">
   <!ENTITY ns_svg "http://www.w3.org/2000/svg">
   <!ENTITY ns_xlink "http://www.w3.org/1999/xlink">
   <!ENTITY st0 "font-size:7px;font-family:'MS-PGothic';adobe-font-script:japanese;">
   <!ENTITY st1 "font-size:6px;font-family:'ArialMT';">
   <!ENTITY st2 "fill:#FFFFFF;stroke:#000000; stroke-width:1.41;stroke-linecap:round;stroke-linejoin:round;">
   <!ENTITY st3 "fill:#FFFFCC;stroke:#FFFFCC; stroke-width:0.1;stroke-linecap:round;stroke-linejoin:round;">
   <!ENTITY st4 "fill:#CCCCCC;stroke:#CCCCCC; stroke-width:0.1;stroke-linecap:round;stroke-linejoin:round;">
   <!ENTITY st5 "fill:#CCECF4;stroke:#000000; stroke-width:1.133;stroke-linecap:round;stroke-linejoin:round;">
   <!ENTITY st6 "fill:none;stroke-linecap:butt; stroke-linejoin:round;">
   <!ENTITY st7 "fill:none;stroke:#000000;stroke-linecap:round;stroke-linejoin:round;">
   <!ENTITY st8 "enable-background:new;">
   <!ENTITY st9 "fill:#000000;stroke:#000000; stroke-linecap:round;stroke-linejoin:round;">
   <!ENTITY st10 "font-size:9px;font-family:'ArialMT';">
   <!ENTITY st11 "font-size:9px;font-family:'Svg Symbol';">
   <!ENTITY st12 "font-size:6px;font-family:'Svg Symbol';">
   <!ENTITY st13 "fill:none;stroke:#ff0000;stroke-linecap:round;stroke-linejoin:round;">
   <!ENTITY st14 "fill:#FFFF00;stroke:#FFFF00; stroke-width:0.1;stroke-linecap:round;stroke-linejoin:round;">
   <!ENTITY st15 "font-size:6px;font-family:'MS-PGothic';adobe-font-script:japanese;">
   <!ENTITY st16 "1.00 0.00 0.00 1.00">
   <!ENTITY st17 "0.00 -1.00 1.00 0.00">
   <!ENTITY st18 "font-size:6px;font-family:'Arial';">
   <!ENTITY st19 "font-size:9px;font-family:'Arial';">
   <!ENTITY st20 "font-size:6px;font-family:'MS-PGothic','MS PGothic';adobe-font-script:japanese;">
   <!ENTITY st21 "font-size:7px;font-family:'MS-PGothic','MS PGothic';adobe-font-script:japanese;">
   <!ATTLIST svg
       xmlns:ewd CDATA #FIXED "http://shcl.co.jp/ewd"
       xmlns:a CDATA #FIXED "http://ns.adobe.com/AdobeSVGViewerExtensions/3.0/"
       ewd:ver CDATA #IMPLIED >
   <!ATTLIST a
       ewd:lineID CDATA #IMPLIED
       ewd:groupID CDATA #IMPLIED
       ewd:figtype CDATA #IMPLIED
       ewd:code CDATA #IMPLIED
       ewd:figID CDATA #IMPLIED
       ewd:pinNo CDATA #IMPLIED
       ewd:comment CDATA #IMPLIED >
   <!ATTLIST g
       ewd:lineID CDATA #IMPLIED
       ewd:groupID CDATA #IMPLIED
       ewd:figtype CDATA #IMPLIED
       ewd:code CDATA #IMPLIED
       ewd:figID CDATA #IMPLIED
       ewd:pinNo CDATA #IMPLIED
       ewd:comment CDATA #IMPLIED >
   <!ATTLIST text
       ewd:textID CDATA #IMPLIED >
   <!ATTLIST title
       ewd:textID CDATA #IMPLIED >
]>
<svg xmlns="http://www.w3.org/2000/svg" xmlns:xlink="http://www.w3.org/1999/xlink" width="3933.96" height="721.1" viewBox="0 0 3933.96 721.1" xml:space="preserve" xmlns:ewd="http://shcl.co.jp/ewd" ewd:ver="2.0">
  
  <defs>
    <font horiz-adv-x="1229">
      <font-face font-family="Svg Symbol" units-per-em="2048" panose-1="5 5 1 2 1 7 6 2 5 7" ascent="2059" descent="450" alphabetic="0" />
      <missing-glyph d="M 103,0 l 0,1280 1024,0 0,-1280 -1024,0 z m 32,32 l 960,0 0,1216 -960,0 0,-1216 z" />
      <glyph d4p1:unicode="" horiz-adv-x="1573" d="M 1517,0 l -567,0 24,279 q 141,59 207.5,168 66.5,109 66.5,306 0,272 -132.5,417.5 -132.5,145.5 -333.5,145.5 -194,0 -328,-147.5 -134,-147.5 -134,-401.5 0,-200 68.5,-319 68.5,-119 206.5,-169 l 25,-279 -564,0 0,279 35,0 q 3,-61 32,-83 45,-35 137,-35 l 270,0 0,70 q -210,61 -324.5,209 -114.5,148 -114.5,349 0,252 186.5,425 186.5,173 504.5,173 195,0 358.5,-73.5 163.5,-73.5 252,-214.5 88.5,-141 88.5,-310 0,-207 -121.5,-360.5 -121.5,-153.5 -317.5,-197.5 l -8,-70 275,0 q 92,0 128,28 36,28 42,90 l 38,0 0,-279 z" xmlns:d4p1="def-glyph-attr-unicode" />
    </font>
  </defs>
  
<g ewd:figtype="rb" ewd:code="FUSE148" ewd:figID="38">
      <path style="fill:none;stroke:#000000;stroke-width:0.85;" d="M 2788.31,80.74 L 2788.31, 87.83" />
      <path style="fill:none;stroke:#000000;stroke-width:0.85;" d="M 2788.31,87.82 L 2788.31, 102" />
      <path style="fill:none;stroke:#000000;stroke-width:0.85;stroke-linecap:round;stroke-linejoin:round;" d="M 2788.31,80.74 C 2789.09 80.74 2789.73 80.11 2789.73 79.32 C 2789.7299609375 78.5299993896484 2789.1 77.9 2788.31 77.9 C 2787.53 77.9 2786.89 78.53 2786.89 79.32 C 2786.88978515625 80.1099993896484 2787.52 80.74 2788.31 80.74" />
      <path style="fill:none;stroke:#000000;stroke-width:0.85;stroke-linecap:round;stroke-linejoin:round;" d="M 2788.31,55.22 C 2789.09 55.22 2789.73 54.59 2789.73 53.8 C 2789.7299609375 53.0099984741211 2789.1 52.38 2788.31 52.38 C 2787.53 52.38 2786.89 53.01 2786.89 53.8 C 2786.88978515625 54.5899984741211 2787.52 55.22 2788.31 55.22" />
      <path style="fill:none;stroke:#000000;stroke-width:1.417;" d="M 2787.3,54.81 C 2787.3 54.81 2781.23 59.49 2788.3 66.56 C 2795.37009765625 73.6299951171875 2789.3 78.31 2789.3 78.31" />
      <path style="fill:none;stroke:#000000;stroke-width:1.417;stroke-linecap:round;stroke-linejoin:round;" d="M 2801.06,87.82 L 2801.06, 45.3 L 2775.55, 45.3 L 2775.55, 87.82 L 2801.06, 87.82" />
      <path d="M 2788.31,102 L 2791.15, 99.17 L 2791.15, 96.34 L 2788.31, 99.17 L 2785.48, 96.34 L 2785.48, 99.17 L 2788.31, 102" style="stroke-linecap:round;stroke-linejoin:round;" />
      <path style="fill:none;stroke:#000000;stroke-width:0.85;stroke-linecap:round;stroke-linejoin:round;" d="M 2792.56,113.34 C 2795.69 113.34 2798.23 110.8 2798.23 107.67 C 2798.23 104.54 2795.69 102 2792.56 102 L 2784.05, 102 C 2780.92 102 2778.38 104.54 2778.38 107.67 C 2778.38 110.8 2780.92 113.34 2784.05 113.34 L 2792.56, 113.34" />
      <text transform="matrix(1 0 0 1 2780.0078 95.1992)" style="font-family:'Arial'; font-size:6px;">2</text>
      <text transform="matrix(1 0 0 1 2782.4756 41.3398)" style="font-family:'Arial'; font-size:6px;">(ST)</text>
      <text transform="matrix(1 0 0 1 2803.8975 64.7266)" style="font-family:'Arial'; font-size:6px;">7.5A <tspan x="0" dy="1em">ST</tspan></text>
      <text transform="matrix(1 0 0 1 2784.9697 109.373)" style="font-family:'Arial'; font-size:6px;">12</text>
    </g><g ewd:figtype="jb" ewd:code="13" ewd:figID="8">
      <path style="fill:none;stroke:#000000;stroke-width:0.85;" d="M 2873.33,80.75 L 2873.33, 87.84" />
      <path style="fill:none;stroke:#000000;stroke-width:0.85;" d="M 2873.33,87.84 L 2873.33, 102.01" />
      <path style="fill:none;stroke:#000000;stroke-width:0.85;stroke-linecap:round;stroke-linejoin:round;" d="M 2873.33,80.75 C 2874.11 80.75 2874.75 80.12 2874.75 79.33 C 2874.75 78.5400036621094 2874.12 77.91 2873.33 77.91 C 2872.55 77.91 2871.91 78.54 2871.91 79.33 C 2871.90982421875 80.1200036621094 2872.55 80.75 2873.33 80.75" />
      <path style="fill:none;stroke:#000000;stroke-width:0.85;stroke-linecap:round;stroke-linejoin:round;" d="M 2873.33,55.24 C 2874.11 55.24 2874.75 54.61 2874.75 53.82 C 2874.75 53.0299993896484 2874.12 52.4 2873.33 52.4 C 2872.55 52.4 2871.91 53.03 2871.91 53.82 C 2871.90982421875 54.6099993896484 2872.55 55.24 2873.33 55.24" />
      <path style="fill:none;stroke:#000000;stroke-width:1.417;" d="M 2872.33,54.82 C 2872.33 54.82 2866.26 59.5 2873.33 66.57 C 2880.40015625 73.6399993896484 2874.33 78.32 2874.33 78.32" />
      <path style="fill:none;stroke:#000000;stroke-width:1.417;stroke-linecap:round;stroke-linejoin:round;" d="M 2886.09,87.84 L 2886.09, 45.32 L 2860.58, 45.32 L 2860.58, 87.84 L 2886.09, 87.84" />
      <path d="M 2873.33,102.01 L 2876.16, 99.18 L 2876.16, 96.35 L 2873.33, 99.18 L 2870.5, 96.35 L 2870.5, 99.18 L 2873.33, 102.01" style="stroke-linecap:round;stroke-linejoin:round;" />
      <path style="fill:none;stroke:#000000;stroke-width:0.85;stroke-linecap:round;stroke-linejoin:round;" d="M 2877.58,113.35 C 2880.71 113.35 2883.25 110.81 2883.25 107.68 C 2883.25 104.55 2880.71 102.01 2877.58 102.01 L 2869.08, 102.01 C 2865.95 102.01 2863.41 104.55 2863.41 107.68 C 2863.41 110.81 2865.95 113.35 2869.08 113.35 L 2877.58, 113.35" />
      <text transform="matrix(1 0 0 1 2865.0332 95.2134)" style="font-family:'Arial'; font-size:6px;">2</text>
      <text transform="matrix(1 0 0 1 2865.499 41.354)" style="font-family:'Arial'; font-size:6px;">(BAT)</text>
      <text transform="matrix(1 0 0 1 2888.9229 64.7407)" style="font-family:'Arial'; font-size:6px;">7.5A<tspan x="0" dy="1em">OBDII</tspan></text>
      <text transform="matrix(1 0 0 1 2867.9932 109.3872)" style="font-family:'Arial'; font-size:6px;">13S</text>
      <text transform="matrix(1 0 0 1 2858.6563 109.3872)" style="font-family:'Arial'; font-size:6px;">5</text>
    </g><g ewd:figtype="jb" ewd:code="6" ewd:figID="5">
      <path style="fill:none;stroke:#000000;stroke-width:0.85;" d="M 3255.03,473.37 L 3255.03, 501.72" />
      <path d="M 3254.96,501.72 L 3257.79, 498.89 L 3257.79, 496.06 L 3254.96, 498.89 L 3252.13, 496.06 L 3252.13, 498.89 L 3254.96, 501.72" style="stroke-linecap:round;stroke-linejoin:round;" />
      <path style="fill:none;stroke:#000000;stroke-width:0.85;stroke-linecap:round;stroke-linejoin:round;" d="M 3259.21,513.06 C 3262.34 513.06 3264.88 510.52 3264.88 507.39 C 3264.88 504.26 3262.34 501.72 3259.21 501.72 L 3250.71, 501.72 C 3247.58 501.72 3245.04 504.26 3245.04 507.39 C 3245.04 510.52 3247.58 513.06 3250.71 513.06 L 3259.21, 513.06" />
      <path d="M 3254.96,473.37 L 3257.79, 476.2 L 3257.79, 479.04 L 3254.96, 476.2 L 3252.13, 479.04 L 3252.13, 476.2 L 3254.96, 473.37" style="stroke-linecap:round;stroke-linejoin:round;" />
      <path style="fill:none;stroke:#000000;stroke-width:0.85;stroke-linecap:round;stroke-linejoin:round;" d="M 3259.21,473.37 C 3262.34 473.37 3264.88 470.83 3264.88 467.7 C 3264.88 464.57 3262.34 462.03 3259.21 462.03 L 3250.71, 462.03 C 3247.58 462.03 3245.04 464.57 3245.04 467.7 C 3245.04 470.83 3247.58 473.37 3250.71 473.37 L 3259.21, 473.37" />
      <text transform="matrix(1 0 0 1 3251.126 509.0928)" style="font-family:'Arial'; font-size:6px;">6D</text>
      <text transform="matrix(1 0 0 1 3240.2861 509.0928)" style="font-family:'Arial'; font-size:6px;">1</text>
      <text transform="matrix(1 0 0 1 3251.124 469.2295)" style="font-family:'Arial'; font-size:6px;">6D</text>
      <text transform="matrix(1 0 0 1 3240.2861 469.4072)" style="font-family:'Arial'; font-size:6px;">2</text>
    </g><g ewd:figtype="jb" ewd:code="13" ewd:figID="4">
      <path style="fill:none;stroke:#000000;stroke-width:0.85;" d="M 3255.03,566.91 L 3255.03, 595.2599" />
      <path d="M 3254.96,595.26 L 3257.79, 592.43 L 3257.79, 589.6 L 3254.96, 592.43 L 3252.13, 589.6 L 3252.13, 592.43 L 3254.96, 595.26" style="stroke-linecap:round;stroke-linejoin:round;" />
      <path style="fill:none;stroke:#000000;stroke-width:0.85;stroke-linecap:round;stroke-linejoin:round;" d="M 3259.21,606.6 C 3262.34 606.6 3264.88 604.06 3264.88 600.93 C 3264.88 597.8 3262.34 595.26 3259.21 595.26 L 3250.71, 595.26 C 3247.58 595.26 3245.04 597.8 3245.04 600.93 C 3245.04 604.06 3247.58 606.6 3250.71 606.6 L 3259.21, 606.6" />
      <path d="M 3254.96,566.91 L 3257.79, 569.74 L 3257.79, 572.58 L 3254.96, 569.74 L 3252.13, 572.58 L 3252.13, 569.74 L 3254.96, 566.91" style="stroke-linecap:round;stroke-linejoin:round;" />
      <path style="fill:none;stroke:#000000;stroke-width:0.85;stroke-linecap:round;stroke-linejoin:round;" d="M 3259.21,566.91 C 3262.34 566.91 3264.88 564.37 3264.88 561.24 C 3264.88 558.11 3262.34 555.57 3259.21 555.57 L 3250.71, 555.57 C 3247.58 555.57 3245.04 558.11 3245.04 561.24 C 3245.04 564.37 3247.58 566.91 3250.71 566.91 L 3259.21, 566.91" />
      <text transform="matrix(1 0 0 1 3249.6221 602.6357)" style="font-family:'Arial'; font-size:6px;">13E</text>
      <text transform="matrix(1 0 0 1 3240.2861 602.6357)" style="font-family:'Arial'; font-size:6px;">7</text>
      <text transform="matrix(1 0 0 1 3249.4561 562.7725)" style="font-family:'Arial'; font-size:6px;">13H</text>
      <text transform="matrix(1 0 0 1 3240.2861 562.9502)" style="font-family:'Arial'; font-size:6px;">4</text>
    </g><g ewd:figtype="conn" ewd:code="H23" ewd:figID="32">
      <path style="fill:none;stroke:#000000;stroke-width:1.417;stroke-linecap:round;stroke-linejoin:round;" d="M 3025.73,232.42 L 3025.73, 189.9 L 2856.33, 189.9 L 2856.33, 232.42 L 3025.73, 232.42" />
      <g ewd:lineID="49">
        <text transform="matrix(1 0 0 1 2910.6748 228.4595)" style="font-family:'Arial'; font-size:6px;">CG</text>
        <text transform="matrix(1 0 0 1 2906.877 239.7954)" style="font-family:'Arial'; font-size:6px;">4</text>
      </g>
      <g ewd:lineID="50">
        <text transform="matrix(1 0 0 1 2867.5088 197.2759)" style="font-family:'Arial'; font-size:6px;">BAT</text>
        <text transform="matrix(1 0 0 1 2861.708 185.937)" style="font-family:'Arial'; font-size:6px;">16</text>
      </g>
      <g ewd:lineID="54">
        <text transform="matrix(1 0 0 1 2997.7764 239.7954)" style="font-family:'Arial'; font-size:6px;">14</text>
        <text transform="matrix(1 0 0 1 3001.4072 228.4595)" style="font-family:'Arial'; font-size:6px;">CANL</text>
      </g>
      <g ewd:lineID="58">
        <text transform="matrix(1 0 0 1 2958.5938 239.7954)" style="font-family:'Arial'; font-size:6px;">6</text>
        <text transform="matrix(1 0 0 1 2958.3916 228.4595)" style="font-family:'Arial'; font-size:6px;">CANH</text>
      </g>
      <g ewd:lineID="59">
        <text transform="matrix(1 0 0 1 2869.3496 228.4595)" style="font-family:'Arial'; font-size:6px;">TC</text>
        <text transform="matrix(1 0 0 1 2861.7139 239.7954)" style="font-family:'Arial'; font-size:6px;">13</text>
      </g>
      <g ewd:figtype="title">
        <text transform="matrix(1 0 0 1 2915.8506 209.3237)" style="font-family:'Arial'; font-size:6px;">H23</text>
        <text transform="matrix(1 0 0 1 2915.8506 216.4106)" style="font-family:'Arial'; font-size:6px;">DLC3</text>
      </g>
    </g><g ewd:figtype="conn" ewd:code="H97,H98,H99,H100" ewd:figID="42">
      <path style="fill:#FFFFFF;stroke:#000000;stroke-width:0.85;stroke-linecap:round;stroke-linejoin:round;" d="M 3060.44,340.15 C 3063.57 340.15 3066.11 337.61 3066.11 334.48 C 3066.11021484375 331.350021972656 3063.57 328.81 3060.44 328.81 C 3057.3098828125 328.809995117188 3054.77 331.35 3054.77 334.48 C 3054.7700390625 337.610021972656 3057.31 340.15 3060.44 340.15" />
      <path style="fill:#FFFFFF;stroke:#000000;stroke-width:0.85;stroke-linecap:round;stroke-linejoin:round;" d="M 2966.87,340.14 C 2970 340.14 2972.54 337.6 2972.54 334.47 C 2972.540078125 331.340002441406 2970 328.8 2966.87 328.8 C 2963.740234375 328.799975585937 2961.2 331.34 2961.2 334.47 C 2961.19990234375 337.600002441406 2963.74 340.14 2966.87 340.14" />
      <path style="fill:#FFFFFF;stroke:#000000;stroke-width:0.85;stroke-linecap:round;stroke-linejoin:round;" d="M 3102.96,340.15 C 3106.09 340.15 3108.63 337.61 3108.63 334.48 C 3108.629765625 331.350021972656 3106.09 328.81 3102.96 328.81 C 3099.829921875 328.809995117188 3097.29 331.35 3097.29 334.48 C 3097.290078125 337.610021972656 3099.83 340.15 3102.96 340.15" />
      <path style="fill:#FFFFFF;stroke:#000000;stroke-width:0.85;stroke-linecap:round;stroke-linejoin:round;" d="M 3009.39,340.14 C 3012.52 340.14 3015.06 337.6 3015.06 334.47 C 3015.0601171875 331.340002441406 3012.52 328.8 3009.39 328.8 C 3006.25978515625 328.799975585937 3003.72 331.34 3003.72 334.47 C 3003.71994140625 337.600002441406 3006.26 340.14 3009.39 340.14" />
      <path style="fill:#FFFFFF;stroke:#000000;stroke-width:0.85;stroke-linecap:round;stroke-linejoin:round;" d="M 2966.87,303.29 C 2970 303.29 2972.54 300.75 2972.54 297.62 C 2972.540078125 294.489990234375 2970 291.95 2966.87 291.95 C 2963.740234375 291.950024414063 2961.2 294.49 2961.2 297.62 C 2961.19990234375 300.749990234375 2963.74 303.29 2966.87 303.29" />
      <path style="fill:#FFFFFF;stroke:#000000;stroke-width:0.85;stroke-linecap:round;stroke-linejoin:round;" d="M 3009.39,303.29 C 3012.52 303.29 3015.06 300.75 3015.06 297.62 C 3015.0601171875 294.489990234375 3012.52 291.95 3009.39 291.95 C 3006.25978515625 291.950024414063 3003.72 294.49 3003.72 297.62 C 3003.71994140625 300.749990234375 3006.26 303.29 3009.39 303.29" />
      <path style="fill:#FFFFFF;stroke:#000000;stroke-width:0.85;stroke-linecap:round;stroke-linejoin:round;" d="M 3060.4,303.29 C 3063.53 303.29 3066.07 300.75 3066.07 297.62 C 3066.07013671875 294.489990234375 3063.53 291.95 3060.4 291.95 C 3057.2698046875 291.950024414063 3054.73 294.49 3054.73 297.62 C 3054.7299609375 300.749990234375 3057.27 303.29 3060.4 303.29" />
      <path style="fill:#FFFFFF;stroke:#000000;stroke-width:0.85;stroke-linecap:round;stroke-linejoin:round;" d="M 3102.92,303.29 C 3106.05 303.29 3108.59 300.75 3108.59 297.62 C 3108.59017578125 294.489990234375 3106.05 291.95 3102.92 291.95 C 3099.78984375 291.950024414063 3097.25 294.49 3097.25 297.62 C 3097.25 300.749990234375 3099.79 303.29 3102.92 303.29" />
      <path style="fill:none;stroke:#000000;stroke-width:0.85;" d="M 3102.93,303.3 L 3102.93, 328.81" />
      <path style="fill:none;stroke:#000000;stroke-width:0.85;" d="M 3060.41,303.3 L 3060.41, 328.81" />
      <path style="fill:none;stroke:#000000;stroke-width:0.85;" d="M 3009.41,320.29 L 3102.95, 320.29" />
      <path style="fill:none;stroke:#000000;stroke-width:0.85;" d="M 2966.89,311.79 L 3060.43, 311.79" />
      <path style="fill:none;stroke:#000000;stroke-width:0.85;" d="M 3009.45,328.8 L 3009.45, 303.3" />
      <path style="fill:none;stroke:#000000;stroke-width:0.85;" d="M 2966.87,328.8 L 2966.87, 303.3" />
      <path style="fill:none;stroke:#000000;stroke-width:1.417;stroke-linecap:round;stroke-linejoin:round;" d="M 3111.43,328.81 L 3111.43, 303.3 L 2949.86, 303.3 L 2949.86, 328.81 L 3111.43, 328.81" />
      <path d="M 3060.41,310.39 C 3061.19 310.39 3061.83 311.02 3061.83 311.81 C 3061.83 312.59 3061.2 313.23 3060.41 313.23 C 3059.61982421875 313.230021972656 3058.99 312.6 3058.99 311.81 C 3058.99 311.02 3059.62 310.39 3060.41 310.39" style="stroke-linecap:round;stroke-linejoin:round;" />
      <path d="M 3102.92,318.89 C 3103.7 318.89 3104.34 319.52 3104.34 320.31 C 3104.34017578125 321.099995117188 3103.71 321.73 3102.92 321.73 C 3102.12984375 321.730021972656 3101.5 321.1 3101.5 320.31 C 3101.5 319.519995117187 3102.14 318.89 3102.92 318.89" style="stroke-linecap:round;stroke-linejoin:round;" />
      <path d="M 2966.88,310.39 C 2967.66 310.39 2968.3 311.02 2968.3 311.81 C 2968.3 312.59 2967.67 313.23 2966.88 313.23 C 2966.089765625 313.230021972656 2965.46 312.6 2965.46 311.81 C 2965.46 311.02 2966.09 310.39 2966.88 310.39" style="stroke-linecap:round;stroke-linejoin:round;" />
      <path d="M 3009.39,318.89 C 3010.17 318.89 3010.81 319.52 3010.81 320.31 C 3010.8101171875 321.099995117188 3010.18 321.73 3009.39 321.73 C 3008.61 321.73 3007.97 321.1 3007.97 320.31 C 3007.96994140625 319.519995117187 3008.61 318.89 3009.39 318.89" style="stroke-linecap:round;stroke-linejoin:round;" />
      <text transform="matrix(1 0 0 1 3092.3594 299.3276)" style="font-family:'Arial'; font-size:6px;">2</text>
      <text transform="matrix(1 0 0 1 3100.7568 299.3276)" style="font-family:'Arial'; font-size:6px;">C</text>
      <text transform="matrix(1 0 0 1 3049.8398 299.3276)" style="font-family:'Arial'; font-size:6px;">1</text>
      <text transform="matrix(1 0 0 1 3058.2373 299.3276)" style="font-family:'Arial'; font-size:6px;">C</text>
      <text transform="matrix(1 0 0 1 2998.8301 299.3286)" style="font-family:'Arial'; font-size:6px;">2</text>
      <text transform="matrix(1 0 0 1 3007.3926 299.3286)" style="font-family:'Arial'; font-size:6px;">B</text>
      <text transform="matrix(1 0 0 1 2956.3105 299.3286)" style="font-family:'Arial'; font-size:6px;">1</text>
      <text transform="matrix(1 0 0 1 2964.873 299.3286)" style="font-family:'Arial'; font-size:6px;">B</text>
      <text transform="matrix(1 0 0 1 2998.8281 336.1792)" style="font-family:'Arial'; font-size:6px;">2</text>
      <text transform="matrix(1 0 0 1 3007.2256 336.1792)" style="font-family:'Arial'; font-size:6px;">D</text>
      <text transform="matrix(1 0 0 1 3092.3945 336.187)" style="font-family:'Arial'; font-size:6px;">2</text>
      <text transform="matrix(1 0 0 1 3100.958 336.187)" style="font-family:'Arial'; font-size:6px;">A</text>
      <text transform="matrix(1 0 0 1 2956.3086 336.1792)" style="font-family:'Arial'; font-size:6px;">1</text>
      <text transform="matrix(1 0 0 1 2964.7061 336.1792)" style="font-family:'Arial'; font-size:6px;">D</text>
      <text transform="matrix(1 0 0 1 3049.875 336.187)" style="font-family:'Arial'; font-size:6px;">1</text>
      <text transform="matrix(1 0 0 1 3058.4385 336.187)" style="font-family:'Arial'; font-size:6px;">A</text>
      <g ewd:figtype="title">
        <text transform="matrix(0 -1 1 0 3119.542 331.6382)" style="font-family:'Arial'; font-size:6px;">H97(A), H98(B), H99(C), H100(D)</text>
        <text transform="matrix(0 -1 1 0 3126.6279 331.6382)" style="font-family:'Arial'; font-size:6px;" ewd:textID="16">Junction Connector</text>
      </g>
    </g><g ewd:figtype="conn" ewd:code="H63,H96" ewd:figID="43">
      <path style="fill:#FFFFFF;stroke:#000000;stroke-width:0.85;stroke-linecap:round;stroke-linejoin:round;" d="M 2966.87,544.23 C 2970 544.23 2972.54 541.69 2972.54 538.56 C 2972.540078125 535.429995117187 2970 532.89 2966.87 532.89 C 2963.740234375 532.890029296875 2961.2 535.43 2961.2 538.56 C 2961.19990234375 541.689995117188 2963.74 544.23 2966.87 544.23" />
      <path style="fill:#FFFFFF;stroke:#000000;stroke-width:0.85;stroke-linecap:round;stroke-linejoin:round;" d="M 3009.39,544.23 C 3012.52 544.23 3015.06 541.69 3015.06 538.56 C 3015.0601171875 535.429995117187 3012.52 532.89 3009.39 532.89 C 3006.25978515625 532.890029296875 3003.72 535.43 3003.72 538.56 C 3003.71994140625 541.689995117188 3006.26 544.23 3009.39 544.23" />
      <path style="fill:#FFFFFF;stroke:#000000;stroke-width:0.85;stroke-linecap:round;stroke-linejoin:round;" d="M 2966.87,507.38 C 2970 507.38 2972.54 504.84 2972.54 501.71 C 2972.540078125 498.579982910156 2970 496.04 2966.87 496.04 C 2963.740234375 496.040017089844 2961.2 498.58 2961.2 501.71 C 2961.19990234375 504.839982910156 2963.74 507.38 2966.87 507.38" />
      <path style="fill:#FFFFFF;stroke:#000000;stroke-width:0.85;stroke-linecap:round;stroke-linejoin:round;" d="M 3009.39,507.38 C 3012.52 507.38 3015.06 504.84 3015.06 501.71 C 3015.0601171875 498.579982910156 3012.52 496.04 3009.39 496.04 C 3006.25978515625 496.040017089844 3003.72 498.58 3003.72 501.71 C 3003.71994140625 504.839982910156 3006.26 507.38 3009.39 507.38" />
      <path style="fill:none;stroke:#000000;stroke-width:0.85;" d="M 3009.45,532.9 L 3009.45, 507.39" />
      <path style="fill:none;stroke:#000000;stroke-width:0.85;" d="M 2966.87,532.9 L 2966.87, 507.39" />
      <path style="fill:none;stroke:#000000;stroke-width:1.417;stroke-linecap:round;stroke-linejoin:round;" d="M 3026.4,532.9 L 3026.4, 507.39 L 2949.87, 507.39 L 2949.87, 532.9 L 3026.4, 532.9" />
      <text transform="matrix(1 0 0 1 2998.8301 503.4229)" style="font-family:'Arial'; font-size:6px;">2</text>
      <text transform="matrix(1 0 0 1 3007.8936 503.4229)" style="font-family:'Arial'; font-size:6px;">J</text>
      <text transform="matrix(1 0 0 1 2956.3105 503.4229)" style="font-family:'Arial'; font-size:6px;">1</text>
      <text transform="matrix(1 0 0 1 2965.374 503.4229)" style="font-family:'Arial'; font-size:6px;">J</text>
      <text transform="matrix(1 0 0 1 2998.8281 540.2734)" style="font-family:'Arial'; font-size:6px;">2</text>
      <text transform="matrix(1 0 0 1 3007.3916 540.2734)" style="font-family:'Arial'; font-size:6px;">B</text>
      <text transform="matrix(1 0 0 1 2956.3086 540.2734)" style="font-family:'Arial'; font-size:6px;">1</text>
      <text transform="matrix(1 0 0 1 2964.8721 540.2734)" style="font-family:'Arial'; font-size:6px;">B</text>
      <g ewd:figtype="title">
        <text transform="matrix(1 0 0 1 3029.2295 512.6416)" style="font-family:'Arial'; font-size:6px;">H63(B), H96(J)</text>
        <text transform="matrix(1 0 0 1 3029.2295 519.7275)" style="font-family:'Arial'; font-size:6px;" ewd:textID="16">Junction Connector</text>
      </g>
    </g><g ewd:figtype="conn" ewd:code="H18" ewd:figID="44">
      <path style="fill:none;stroke:#000000;stroke-width:1.417;stroke-linecap:round;stroke-linejoin:round;" d="M 3119.97,442.2 L 3119.97, 408.18 L 3043.43, 408.18 L 3043.43, 442.2 L 3119.97, 442.2" />
      <text transform="matrix(1 0 0 1 3094.958 415.5576)" style="font-family:'Arial'; font-size:6px;">CANL</text>
      <text transform="matrix(1 0 0 1 3051.9404 415.5576)" style="font-family:'Arial'; font-size:6px;">CANH</text>
      <text transform="matrix(1 0 0 1 3091.3252 404.2178)" style="font-family:'Arial'; font-size:6px;">11</text>
      <text transform="matrix(1 0 0 1 3048.8057 404.2178)" style="font-family:'Arial'; font-size:6px;">10</text>
      <g ewd:figtype="title">
        <text transform="matrix(1 0 0 1 3043.4404 450.2822)" style="font-family:'Arial'; font-size:6px;">H18</text>
        <text transform="matrix(1 0 0 1 3043.4404 457.3691)" style="font-family:'Arial'; font-size:6px;" ewd:textID="7">A/C Amplifier</text>
      </g>
    </g><g ewd:figtype="gp" ewd:code="H1" ewd:figID="101">
      <path style="fill:none;stroke:#000000;stroke-width:0.85;" d="M 2915.85,708.66 L 2915.85, 711.49" />
      <path style="fill:none;stroke:#000000;stroke-width:0.85;" d="M 2914.43,720 L 2917.27, 720" />
      <path style="fill:none;stroke:#000000;stroke-width:0.85;" d="M 2913.01,717.17 L 2918.68, 717.17" />
      <path style="fill:none;stroke:#000000;stroke-width:0.85;" d="M 2910.18,714.33 L 2921.52, 714.33" />
      <path style="fill:none;stroke:#000000;stroke-width:0.85;" d="M 2907.34,711.5 L 2924.35, 711.5" />
    </g><g ewd:figtype="conn" ewd:code="H20" ewd:figID="33">
      <path style="fill:#FFFFFF;stroke:#000000;stroke-width:0.85;stroke-linecap:round;stroke-linejoin:round;" d="M 3595.19,249.42 C 3598.32 249.42 3600.86 246.88 3600.86 243.75 C 3600.86021484375 240.62 3598.32 238.08 3595.19 238.08 C 3592.0598828125 238.080003662109 3589.52 240.62 3589.52 243.75 C 3589.5200390625 246.88 3592.06 249.42 3595.19 249.42" />
      <path style="fill:#FFFFFF;stroke:#000000;stroke-width:0.85;stroke-linecap:round;stroke-linejoin:round;" d="M 3306.06,249.42 C 3309.19 249.42 3311.73 246.88 3311.73 243.75 C 3311.7299609375 240.62 3309.19 238.08 3306.06 238.08 C 3302.9301171875 238.080003662109 3300.39 240.62 3300.39 243.75 C 3300.38978515625 246.88 3302.92 249.42 3306.06 249.42" />
      <path style="fill:#FFFFFF;stroke:#000000;stroke-width:0.85;stroke-linecap:round;stroke-linejoin:round;" d="M 3510.15,249.42 C 3513.28 249.42 3515.82 246.88 3515.82 243.75 C 3515.82013671875 240.62 3513.28 238.08 3510.15 238.08 C 3507.0198046875 238.080003662109 3504.48 240.62 3504.48 243.75 C 3504.4799609375 246.88 3507.02 249.42 3510.15 249.42" />
      <path style="fill:#FFFFFF;stroke:#000000;stroke-width:0.85;stroke-linecap:round;stroke-linejoin:round;" d="M 3348.58,249.42 C 3351.71 249.42 3354.25 246.88 3354.25 243.75 C 3354.25 240.62 3351.71 238.08 3348.58 238.08 C 3345.45015625 238.080003662109 3342.91 240.62 3342.91 243.75 C 3342.90982421875 246.88 3345.44 249.42 3348.58 249.42" />
      <path style="fill:#FFFFFF;stroke:#000000;stroke-width:0.85;stroke-linecap:round;stroke-linejoin:round;" d="M 3323.06,422.33 C 3326.19 422.33 3328.73 419.79 3328.73 416.66 C 3328.7299609375 413.530007324219 3326.19 410.99 3323.06 410.99 C 3319.9301171875 410.98998046875 3317.39 413.53 3317.39 416.66 C 3317.38978515625 419.790007324219 3319.93 422.33 3323.06 422.33" />
      <path style="fill:#FFFFFF;stroke:#000000;stroke-width:0.85;stroke-linecap:round;stroke-linejoin:round;" d="M 3408.1,422.33 C 3411.23 422.33 3413.77 419.79 3413.77 416.66 C 3413.7700390625 413.530007324219 3411.23 410.99 3408.1 410.99 C 3404.9701953125 410.98998046875 3402.43 413.53 3402.43 416.66 C 3402.42986328125 419.790007324219 3404.97 422.33 3408.1 422.33" />
      <path style="fill:#FFFFFF;stroke:#000000;stroke-width:0.85;stroke-linecap:round;stroke-linejoin:round;" d="M 3255.03,422.33 C 3258.16 422.33 3260.7 419.79 3260.7 416.66 C 3260.69990234375 413.530007324219 3258.16 410.99 3255.03 410.99 C 3251.90005859375 410.98998046875 3249.36 413.53 3249.36 416.66 C 3249.36021484375 419.790007324219 3251.9 422.33 3255.03 422.33" />
      <path style="fill:none;stroke:#000000;stroke-width:0.85;" d="M 3289.02,308.94 L 3289.02, 300.44 L 3280.52, 300.44" />
      <path style="fill:none;stroke:#000000;stroke-width:0.85;" d="M 3284.2,308.94 L 3293.84, 308.94" />
      <path style="fill:none;stroke:#000000;stroke-width:0.85;" d="M 3286.19,310.78 L 3291.86, 310.78" />
      <path style="fill:none;stroke:#000000;stroke-width:0.85;" d="M 3287.04,312.62 L 3291.01, 312.62" />
      <path style="fill:none;stroke:#000000;stroke-width:0.85;" d="M 3287.89,314.47 L 3290.16, 314.47" />
      <path d="M 3478.97,274.92 L 3490.31, 274.92 L 3484.64, 283.42 L 3478.97, 274.92" style="stroke-linecap:round;stroke-linejoin:round;" />
      <path style="fill:none;stroke:#000000;stroke-width:0.85;" d="M 3478.97,283.43 L 3490.31, 283.43" />
      <path d="M 3504.48,274.92 L 3515.82, 274.92 L 3510.15, 283.42 L 3504.48, 274.92" style="stroke-linecap:round;stroke-linejoin:round;" />
      <path style="fill:none;stroke:#000000;stroke-width:0.85;" d="M 3504.48,283.43 L 3515.82, 283.43" />
      <path d="M 3589.52,274.92 L 3600.86, 274.92 L 3595.19, 283.42 L 3589.52, 274.92" style="stroke-linecap:round;stroke-linejoin:round;" />
      <path style="fill:none;stroke:#000000;stroke-width:0.85;" d="M 3589.52,283.43 L 3600.86, 283.43" />
      <path d="M 3564.01,274.92 L 3575.35, 274.92 L 3569.68, 283.42 L 3564.01, 274.92" style="stroke-linecap:round;stroke-linejoin:round;" />
      <path style="fill:none;stroke:#000000;stroke-width:0.85;" d="M 3564.01,283.43 L 3575.35, 283.43" />
      <path style="fill:none;stroke:#000000;stroke-width:1.417;stroke-linecap:round;stroke-linejoin:round;" d="M 3280.52,325.94 L 3246.5, 325.94 L 3246.5, 342.95 L 3280.52, 342.95 L 3280.52, 325.94" />
      <path style="fill:none;stroke:#000000;stroke-width:0.85;" d="M 3263.51,325.94 L 3263.51, 317.44" />
      <path style="fill:none;stroke:#000000;stroke-width:1.417;stroke-linecap:round;stroke-linejoin:round;" d="M 3280.52,300.43 C 3280.52 309.82 3272.91 317.44 3263.51 317.44 C 3254.11001953125 317.440004882813 3246.5 309.83 3246.5 300.43 C 3246.5 291.029985351563 3254.11 283.42 3263.51 283.42 C 3272.91001953125 283.420026855469 3280.52 291.04 3280.52 300.43" />
      <path style="fill:none;stroke:#000000;stroke-width:0.85;" d="M 3263.51,342.95 L 3263.51, 351.45" />
      <path style="fill:none;stroke:#000000;stroke-width:1.417;stroke-linecap:round;stroke-linejoin:round;" d="M 3442.12,393.99 L 3374.09, 393.99 L 3374.09, 376.97 L 3442.12, 376.97 L 3442.12, 393.99" />
      <path style="fill:none;stroke:#000000;stroke-width:0.85;" d="M 3408.1,410.99 L 3408.1, 393.98" />
      <path style="fill:none;stroke:#000000;stroke-width:0.85;" d="M 3408.1,376.97 L 3408.1, 368.47" />
      <path style="fill:none;stroke:#000000;stroke-width:1.417;stroke-linecap:round;stroke-linejoin:round;" d="M 3314.56,393.98 L 3246.53, 393.98 L 3246.53, 376.97 L 3314.56, 376.97 L 3314.56, 393.98" />
      <path style="fill:none;stroke:#000000;stroke-width:1.417;stroke-linecap:round;stroke-linejoin:round;" d="M 3629.2,410.99 L 3221.01, 410.99 L 3221.01, 249.42 L 3629.2, 249.42 L 3629.2, 410.99" />
      <path style="fill:none;stroke:#000000;stroke-width:1.417;stroke-linecap:round;stroke-linejoin:round;" d="M 3442.12,368.47 L 3246.53, 368.47 L 3246.53, 351.46 L 3442.12, 351.46 L 3442.12, 368.47" />
      <path style="fill:none;stroke:#000000;stroke-width:1.417;stroke-linecap:round;stroke-linejoin:round;" d="M 3527.16,368.47 L 3450.7, 368.47 L 3450.7, 351.46 L 3527.16, 351.46 L 3527.16, 368.47" />
      <path style="fill:none;stroke:#000000;stroke-width:1.417;stroke-linecap:round;stroke-linejoin:round;" d="M 3603.69,342.96 L 3493.14, 342.96 L 3493.14, 325.95 L 3603.69, 325.95 L 3603.69, 342.96" />
      <path style="fill:none;stroke:#000000;stroke-width:1.417;stroke-linecap:round;stroke-linejoin:round;" d="M 3408.1,342.96 L 3374.08, 342.96 L 3374.08, 325.95 L 3408.1, 325.95 L 3408.1, 342.96" />
      <path d="M 3367,334.45 C 3367 335.23 3366.37 335.87 3365.58 335.87 C 3364.79015625 335.869990234375 3364.16 335.24 3364.16 334.45 C 3364.16 333.67 3364.79 333.03 3365.58 333.03 C 3366.37015625 333.029997558594 3367 333.67 3367 334.45" style="stroke-linecap:round;stroke-linejoin:round;" />
      <path d="M 3486.05,308.94 C 3486.05 309.72 3485.42 310.36 3484.63 310.36 C 3483.839765625 310.359970703125 3483.21 309.73 3483.21 308.94 C 3483.21 308.16 3483.84 307.52 3484.63 307.52 C 3485.419765625 307.519978027344 3486.05 308.16 3486.05 308.94" style="stroke-linecap:round;stroke-linejoin:round;" />
      <path d="M 3511.57,266.42 C 3511.57 267.2 3510.94 267.84 3510.15 267.84 C 3509.3598046875 267.839992675781 3508.73 267.21 3508.73 266.42 C 3508.73 265.64 3509.36 265 3510.15 265 C 3510.9398046875 265 3511.57 265.64 3511.57 266.42" style="stroke-linecap:round;stroke-linejoin:round;" />
      <path d="M 3596.6,266.42 C 3596.6 267.2 3595.97 267.84 3595.18 267.84 C 3594.38986328125 267.839992675781 3593.76 267.21 3593.76 266.42 C 3593.76 265.64 3594.39 265 3595.18 265 C 3595.96986328125 265 3596.6 265.64 3596.6 266.42" style="stroke-linecap:round;stroke-linejoin:round;" />
      <path style="fill:none;stroke:#000000;stroke-width:0.85;" d="M 3348.55,325.95 L 3348.55, 249.41" />
      <path style="fill:none;stroke:#000000;stroke-width:0.85;" d="M 3306.04,325.95 L 3306.04, 249.41" />
      <path style="fill:none;stroke:#000000;stroke-width:0.85;" d="M 3518.67,342.96 L 3518.67, 351.46" />
      <path style="fill:none;stroke:#000000;stroke-width:0.85;" d="M 3510.17,342.96 L 3510.17, 351.46" />
      <path style="fill:none;stroke:#000000;stroke-width:0.85;" d="M 3501.66,342.96 L 3501.66, 351.46" />
      <path style="fill:none;stroke:#000000;stroke-width:0.85;" d="M 3391.09,325.95 L 3391.09, 308.94 L 3569.68, 308.94 L 3569.68, 266.42 L 3595.19, 266.42" />
      <path style="fill:none;stroke:#000000;stroke-width:0.85;" d="M 3484.64,308.94 L 3484.64, 266.42 L 3510.15, 266.42" />
      <path style="fill:none;stroke:#000000;stroke-width:0.85;" d="M 3510.15,325.95 L 3510.15, 249.42" />
      <path style="fill:none;stroke:#000000;stroke-width:0.85;" d="M 3357.09,334.46 L 3374.08, 334.45" />
      <path style="fill:none;stroke:#000000;stroke-width:0.85;" d="M 3433.63,351.47 L 3433.63, 342.97 L 3459.13, 342.96 L 3459.13, 351.46" />
      <path style="fill:none;stroke:#000000;stroke-width:0.85;" d="M 3425.13,351.47 L 3425.13, 334.46 L 3467.65, 334.46 L 3467.63, 351.46" />
      <path style="fill:none;stroke:#000000;stroke-width:0.85;" d="M 3416.62,351.47 L 3416.62, 325.96 L 3476.13, 325.95 L 3476.13, 351.46" />
      <path style="fill:none;stroke:#000000;stroke-width:0.85;" d="M 3323.06,410.99 L 3323.06, 368.47" />
      <path style="fill:none;stroke:#000000;stroke-width:0.85;" d="M 3348.58,351.46 L 3348.58, 342.95" />
      <path style="fill:none;stroke:#000000;stroke-width:0.85;" d="M 3365.58,351.46 L 3365.58, 334.45" />
      <path style="fill:none;stroke:#000000;stroke-width:0.85;" d="M 3306.06,351.46 L 3306.06, 342.96" />
      <path style="fill:none;stroke:#000000;stroke-width:0.85;" d="M 3306.06,368.47 L 3306.06, 376.97" />
      <path style="fill:none;stroke:#000000;stroke-width:0.85;" d="M 3297.55,368.47 L 3297.55, 376.97" />
      <path style="fill:none;stroke:#000000;stroke-width:0.85;" d="M 3289.05,368.47 L 3289.05, 376.97" />
      <path style="fill:none;stroke:#000000;stroke-width:0.85;" d="M 3255.03,368.47 L 3255.03, 376.97" />
      <path style="fill:none;stroke:#000000;stroke-width:0.85;" d="M 3263.54,368.47 L 3263.54, 376.97" />
      <path style="fill:none;stroke:#000000;stroke-width:0.85;" d="M 3272.04,368.47 L 3272.04, 376.97" />
      <path style="fill:none;stroke:#000000;stroke-width:0.85;" d="M 3280.54,368.47 L 3280.54, 376.97" />
      <path style="fill:none;stroke:#000000;stroke-width:1.417;stroke-linecap:round;stroke-linejoin:round;" d="M 3357.06,342.96 L 3297.53, 342.96 L 3297.53, 325.95 L 3357.06, 325.95 L 3357.06, 342.96" />
      <path style="fill:none;stroke:#000000;stroke-width:0.85;" d="M 3595.19,325.95 L 3595.19, 249.42" />
      <text transform="matrix(1 0 0 1 3244.4688 418.3643)" style="font-family:'Arial'; font-size:6px;">6</text>
      <text transform="matrix(1 0 0 1 3253.0322 418.3643)" style="font-family:'Arial'; font-size:6px;">A</text>
      <text transform="matrix(1 0 0 1 3397.5391 418.3662)" style="font-family:'Arial'; font-size:6px;">7</text>
      <text transform="matrix(1 0 0 1 3406.1025 418.3662)" style="font-family:'Arial'; font-size:6px;">A</text>
      <text transform="matrix(1 0 0 1 3309.1631 418.3662)" style="font-family:'Arial'; font-size:6px;">21</text>
      <text transform="matrix(1 0 0 1 3321.0635 418.3662)" style="font-family:'Arial'; font-size:6px;">A</text>
      <text transform="matrix(1 0 0 1 3334.6729 245.4536)" style="font-family:'Arial'; font-size:6px;">22</text>
      <text transform="matrix(1 0 0 1 3346.5732 245.4536)" style="font-family:'Arial'; font-size:6px;">A</text>
      <text transform="matrix(1 0 0 1 3499.584 245.4526)" style="font-family:'Arial'; font-size:6px;">1</text>
      <text transform="matrix(1 0 0 1 3508.1475 245.4526)" style="font-family:'Arial'; font-size:6px;">A</text>
      <text transform="matrix(1 0 0 1 3292.1543 245.4536)" style="font-family:'Arial'; font-size:6px;">23</text>
      <text transform="matrix(1 0 0 1 3304.0537 245.4536)" style="font-family:'Arial'; font-size:6px;">A</text>
      <text transform="matrix(1 0 0 1 3584.623 245.4526)" style="font-family:'Arial'; font-size:6px;">2</text>
      <text transform="matrix(1 0 0 1 3593.1865 245.4526)" style="font-family:'Arial'; font-size:6px;">A</text>
      <text transform="matrix(1 0 0 1 3252.335 278.7852)" style="font-family:'Arial'; font-size:6px;" ewd:textID="20">Speaker</text>
      <text transform="matrix(1 0 0 1 3260.0107 336.1553)" style="font-family:'Arial'; font-size:6px;">I/F</text>
      <text transform="matrix(1 0 0 1 3404.2412 387.1816)" style="font-family:'Arial'; font-size:6px;">I/F</text>
      <text transform="matrix(1 0 0 1 3410.9365 407.0273)" style="font-family:'Arial'; font-size:6px;">SI</text>
      <text transform="matrix(1 0 0 1 3251.2803 407.0264)" style="font-family:'Arial'; font-size:6px;">+S</text>
      <text transform="matrix(1 0 0 1 3255.7031 387.1816)" style="font-family:'Arial'; font-size:6px;">DISPLAY DRIVER</text>
      <text transform="matrix(1 0 0 1 3316.6328 336.1636)" style="font-family:'Arial'; font-size:6px;">CAN I/F</text>
      <text transform="matrix(1 0 0 1 3319.6865 361.6704)" style="font-family:'Arial'; font-size:6px;">CPU</text>
      <text transform="matrix(1 0 0 1 3464.0732 361.6704)" style="font-family:'Arial'; font-size:6px;">LED/LCD DRIVER</text>
      <text transform="matrix(1 0 0 1 3528.6582 336.1587)" style="font-family:'Arial'; font-size:6px;">TELLTAILS</text>
      <text transform="matrix(1 0 0 1 3383.5918 336.1587)" style="font-family:'Arial'; font-size:6px;">5V IC</text>
      <text transform="matrix(1 0 0 1 3325.8975 407.0273)" style="font-family:'Arial'; font-size:6px;">E1</text>
      <text transform="matrix(1 0 0 1 3351.4092 256.7925)" style="font-family:'Arial'; font-size:6px;">CANL</text>
      <text transform="matrix(1 0 0 1 3308.8896 256.7925)" style="font-family:'Arial'; font-size:6px;">CANH</text>
      <text transform="matrix(1 0 0 1 3512.9834 256.7915)" style="font-family:'Arial'; font-size:6px;">L</text>
      <text transform="matrix(1 0 0 1 3598.0225 256.7915)" style="font-family:'Arial'; font-size:6px;">IG+</text>
      <g ewd:figtype="title">
        <text transform="matrix(1 0 0 1 3374.1094 237.6582)" style="font-family:'Arial'; font-size:6px;">H20(A)</text>
        <text transform="matrix(1 0 0 1 3374.1094 244.7461)" style="font-family:'Arial'; font-size:6px;" ewd:textID="11">Combination Meter</text>
      </g>
    </g><g ewd:figtype="comment" ewd:code="5" ewd:figID="1001">
      <text transform="matrix(1 0 0 1 3169.9707 25.0503)" style="font-family:'Arial'; font-size:6px;">*5 : 1TR-FE</text>
    </g><g ewd:figtype="comment" ewd:code="6" ewd:figID="1000">
      <text transform="matrix(1 0 0 1 3169.9707 33.5537)" style="font-family:'Arial'; font-size:6px;" ewd:textID="4">*6 : w/ VSC</text>
    </g><text transform="matrix(0 -1 1 0 2911.8877 671.9707)" style="font-family:'Arial'; font-size:6px;">W-B</text><text transform="matrix(0 -1 1 0 2784.3447 225.8916)" style="font-family:'Arial'; font-size:6px;">B</text><text transform="matrix(0 -1 1 0 2784.3428 135.1948)" style="font-family:'Arial'; font-size:6px;">B</text><text transform="matrix(0 -1 1 0 2869.3779 268.7739)" style="font-family:'Arial'; font-size:6px;">G</text><text transform="matrix(1 0 0 1 3126.4502 168.9175)" style="font-family:'Arial'; font-size:6px;">B</text><text transform="matrix(1 0 0 1 3125.6201 185.9263)" style="font-family:'Arial'; font-size:6px;">W</text><text transform="matrix(0 -1 1 0 2962.9092 271.2529)" style="font-family:'Arial'; font-size:6px;">Y</text><text transform="matrix(0 -1 1 0 3005.4287 272.0835)" style="font-family:'Arial'; font-size:6px;">W</text><text transform="matrix(0 -1 1 0 3056.4756 373.5088)" style="font-family:'Arial'; font-size:6px;">R</text><text transform="matrix(0 -1 1 0 3098.9951 374.1738)" style="font-family:'Arial'; font-size:6px;">W</text><text transform="matrix(0 -1 1 0 2962.9326 374.1738)" style="font-family:'Arial'; font-size:6px;">W</text><text transform="matrix(0 -1 1 0 3005.4521 373.3428)" style="font-family:'Arial'; font-size:6px;">B</text><text transform="matrix(0 -1 1 0 2869.3682 132.3623)" style="font-family:'Arial'; font-size:6px;">B</text><text transform="matrix(0 -1 1 0 3056.4385 271.3145)" style="font-family:'Arial'; font-size:6px;">B</text><text transform="matrix(0 -1 1 0 3098.958 272.145)" style="font-family:'Arial'; font-size:6px;">W</text><text transform="matrix(0 -1 1 0 2911.8877 272.272)" style="font-family:'Arial'; font-size:6px;">W-B</text><text transform="matrix(1 0 0 1 3126.4502 645.165)" style="font-family:'Arial'; font-size:6px;">P</text><text transform="matrix(1 0 0 1 2947.0342 577.1357)" style="font-family:'Arial'; font-size:6px;">W</text><text transform="matrix(1 0 0 1 2947.8652 560.1279)" style="font-family:'Arial'; font-size:6px;">B</text><text transform="matrix(1 0 0 1 3193.4814 168.9175)" style="font-family:'Arial'; font-size:6px;">B</text><text transform="matrix(1 0 0 1 3192.6514 185.9263)" style="font-family:'Arial'; font-size:6px;">W</text><text transform="matrix(1 0 0 1 3193.4814 645.165)" style="font-family:'Arial'; font-size:6px;">P</text></svg>