﻿<?xml version="1.0" encoding="utf-8"?>
<!-- Generator: Adobe Illustrator 10.0, SVG Export Plug-In . SVG Version: 3.0.0 Build 77)  -->
<!DOCTYPE svg PUBLIC "-//W3C//DTD SVG 1.0//EN" "http://www.w3.org/TR/2001/REC-SVG-20010904/DTD/svg10.dtd"[
   <!ENTITY ns_flows "http://ns.adobe.com/Flows/1.0/">
   <!ENTITY ns_svg "http://www.w3.org/2000/svg">
   <!ENTITY ns_xlink "http://www.w3.org/1999/xlink">
   <!ENTITY st0 "font-size:7px;font-family:'MS-PGothic';adobe-font-script:japanese;">
   <!ENTITY st1 "font-size:6px;font-family:'ArialMT';">
   <!ENTITY st2 "fill:#FFFFFF;stroke:#000000; stroke-width:1.41;stroke-linecap:round;stroke-linejoin:round;">
   <!ENTITY st3 "fill:#FFFFCC;stroke:#FFFFCC; stroke-width:0.1;stroke-linecap:round;stroke-linejoin:round;">
   <!ENTITY st4 "fill:#CCCCCC;stroke:#CCCCCC; stroke-width:0.1;stroke-linecap:round;stroke-linejoin:round;">
   <!ENTITY st5 "fill:#CCECF4;stroke:#000000; stroke-width:1.133;stroke-linecap:round;stroke-linejoin:round;">
   <!ENTITY st6 "fill:none;stroke-linecap:butt; stroke-linejoin:round;">
   <!ENTITY st7 "fill:none;stroke:#000000;stroke-linecap:round;stroke-linejoin:round;">
   <!ENTITY st8 "enable-background:new;">
   <!ENTITY st9 "fill:#000000;stroke:#000000; stroke-linecap:round;stroke-linejoin:round;">
   <!ENTITY st10 "font-size:9px;font-family:'ArialMT';">
   <!ENTITY st11 "font-size:9px;font-family:'Svg Symbol';">
   <!ENTITY st12 "font-size:6px;font-family:'Svg Symbol';">
   <!ENTITY st13 "fill:none;stroke:#ff0000;stroke-linecap:round;stroke-linejoin:round;">
   <!ENTITY st14 "fill:#FFFF00;stroke:#FFFF00; stroke-width:0.1;stroke-linecap:round;stroke-linejoin:round;">
   <!ENTITY st15 "font-size:6px;font-family:'MS-PGothic';adobe-font-script:japanese;">
   <!ENTITY st16 "1.00 0.00 0.00 1.00">
   <!ENTITY st17 "0.00 -1.00 1.00 0.00">
   <!ENTITY st18 "font-size:6px;font-family:'Arial';">
   <!ENTITY st19 "font-size:9px;font-family:'Arial';">
   <!ENTITY st20 "font-size:6px;font-family:'MS-PGothic','MS PGothic';adobe-font-script:japanese;">
   <!ENTITY st21 "font-size:7px;font-family:'MS-PGothic','MS PGothic';adobe-font-script:japanese;">
   <!ATTLIST svg
       xmlns:ewd CDATA #FIXED "http://shcl.co.jp/ewd"
       xmlns:a CDATA #FIXED "http://ns.adobe.com/AdobeSVGViewerExtensions/3.0/"
       ewd:ver CDATA #IMPLIED >
   <!ATTLIST a
       ewd:lineID CDATA #IMPLIED
       ewd:groupID CDATA #IMPLIED
       ewd:figtype CDATA #IMPLIED
       ewd:code CDATA #IMPLIED
       ewd:figID CDATA #IMPLIED
       ewd:pinNo CDATA #IMPLIED
       ewd:comment CDATA #IMPLIED >
   <!ATTLIST g
       ewd:lineID CDATA #IMPLIED
       ewd:groupID CDATA #IMPLIED
       ewd:figtype CDATA #IMPLIED
       ewd:code CDATA #IMPLIED
       ewd:figID CDATA #IMPLIED
       ewd:pinNo CDATA #IMPLIED
       ewd:comment CDATA #IMPLIED >
   <!ATTLIST text
       ewd:textID CDATA #IMPLIED >
   <!ATTLIST title
       ewd:textID CDATA #IMPLIED >
]>
<svg xmlns="http://www.w3.org/2000/svg" xmlns:xlink="http://www.w3.org/1999/xlink" width="6326.51" height="721" viewBox="0 0 6326.51 721" xml:space="preserve" xmlns:ewd="http://shcl.co.jp/ewd" ewd:ver="2.0">
  
  <defs>
    <font horiz-adv-x="1229">
      <font-face font-family="Svg Symbol" units-per-em="2048" panose-1="5 5 1 2 1 7 6 2 5 7" ascent="2059" descent="450" alphabetic="0" />
      <missing-glyph d="M 103,0 l 0,1280 1024,0 0,-1280 -1024,0 z m 32,32 l 960,0 0,1216 -960,0 0,-1216 z" />
      <glyph d4p1:unicode="" horiz-adv-x="1573" d="M 1517,0 l -567,0 24,279 q 141,59 207.5,168 66.5,109 66.5,306 0,272 -132.5,417.5 -132.5,145.5 -333.5,145.5 -194,0 -328,-147.5 -134,-147.5 -134,-401.5 0,-200 68.5,-319 68.5,-119 206.5,-169 l 25,-279 -564,0 0,279 35,0 q 3,-61 32,-83 45,-35 137,-35 l 270,0 0,70 q -210,61 -324.5,209 -114.5,148 -114.5,349 0,252 186.5,425 186.5,173 504.5,173 195,0 358.5,-73.5 163.5,-73.5 252,-214.5 88.5,-141 88.5,-310 0,-207 -121.5,-360.5 -121.5,-153.5 -317.5,-197.5 l -8,-70 275,0 q 92,0 128,28 36,28 42,90 l 38,0 0,-279 z" xmlns:d4p1="def-glyph-attr-unicode" />
    </font>
  </defs>
  
<g ewd:figtype="w2w" ewd:code="fc1" ewd:pin_no="11" ewd:figID="198">
      <path style="fill:#FFFFFF;stroke:#FFFFFF;stroke-width:0;stroke-linecap:round;stroke-linejoin:round;" d="M 4789.98,251.37 L 4785.73, 255.62 L 4781.48, 251.37 L 4781.48, 257.92 L 4789.98, 257.92 L 4789.98, 251.37" />
      <path style="fill:#FFFFFF;stroke:#FFFFFF;stroke-width:0;stroke-linecap:round;stroke-linejoin:round;" d="M 4789.98,248.53 L 4785.73, 252.78 L 4781.48, 248.53 L 4781.48, 255.08 L 4789.98, 255.08 L 4789.98, 248.53" />
      <path style="fill:none;stroke:#000000;stroke-width:0.85;" d="M 4789.98,250.83 L 4785.73, 255.08 L 4781.48, 250.83" />
      <path style="fill:none;stroke:#000000;stroke-width:0.85;" d="M 4789.98,253.67 L 4785.73, 257.92 L 4781.48, 253.67" />
      <path style="fill:none;stroke:#000000;stroke-width:0.85;stroke-linecap:round;stroke-linejoin:round;" d="M 4795.65,266.42 L 4795.65, 257.92 L 4775.81, 257.92 L 4775.81, 266.42 L 4795.65, 266.42" />
      <text transform="matrix(1 0 0 1 4767.7197 263.875)" style="font-family:'Arial'; font-size:6px;">11</text>
    </g><g ewd:figtype="w2w" ewd:code="ci1" ewd:pin_no="8" ewd:figID="199">
      <path style="fill:#FFFFFF;stroke:#FFFFFF;stroke-width:0;stroke-linecap:round;stroke-linejoin:round;" d="M 4789.98,166.33 L 4785.73, 170.58 L 4781.48, 166.33 L 4781.48, 172.88 L 4789.98, 172.88 L 4789.98, 166.33" />
      <path style="fill:#FFFFFF;stroke:#FFFFFF;stroke-width:0;stroke-linecap:round;stroke-linejoin:round;" d="M 4789.98,163.49 L 4785.73, 167.74 L 4781.48, 163.49 L 4781.48, 170.04 L 4789.98, 170.04 L 4789.98, 163.49" />
      <path style="fill:none;stroke:#000000;stroke-width:0.85;" d="M 4789.98,165.79 L 4785.73, 170.04 L 4781.48, 165.79" />
      <path style="fill:none;stroke:#000000;stroke-width:0.85;" d="M 4789.98,168.63 L 4785.73, 172.88 L 4781.48, 168.63" />
      <path style="fill:none;stroke:#000000;stroke-width:0.85;stroke-linecap:round;stroke-linejoin:round;" d="M 4795.65,181.38 L 4795.65, 172.88 L 4775.81, 172.88 L 4775.81, 181.38 L 4795.65, 181.38" />
      <text transform="matrix(1 0 0 1 4771.0566 178.8359)" style="font-family:'Arial'; font-size:6px;">8</text>
    </g><g ewd:figtype="w2w" ewd:code="fc1" ewd:pin_no="17" ewd:figID="200">
      <path style="fill:#FFFFFF;stroke:#FFFFFF;stroke-width:0;stroke-linecap:round;stroke-linejoin:round;" d="M 4832.5,251.37 L 4828.25, 255.62 L 4824, 251.37 L 4824, 257.92 L 4832.5, 257.92 L 4832.5, 251.37" />
      <path style="fill:#FFFFFF;stroke:#FFFFFF;stroke-width:0;stroke-linecap:round;stroke-linejoin:round;" d="M 4832.5,248.53 L 4828.25, 252.78 L 4824, 248.53 L 4824, 255.08 L 4832.5, 255.08 L 4832.5, 248.53" />
      <path style="fill:none;stroke:#000000;stroke-width:0.85;" d="M 4832.5,250.83 L 4828.25, 255.08 L 4824, 250.83" />
      <path style="fill:none;stroke:#000000;stroke-width:0.85;" d="M 4832.5,253.67 L 4828.25, 257.92 L 4824, 253.67" />
      <path style="fill:none;stroke:#000000;stroke-width:0.85;stroke-linecap:round;stroke-linejoin:round;" d="M 4838.17,266.42 L 4838.17, 257.92 L 4818.33, 257.92 L 4818.33, 266.42 L 4838.17, 266.42" />
      <text transform="matrix(1 0 0 1 4810.2393 263.875)" style="font-family:'Arial'; font-size:6px;">17</text>
    </g><g ewd:figtype="w2w" ewd:code="ci1" ewd:pin_no="12" ewd:figID="218">
      <path style="fill:#FFFFFF;stroke:#FFFFFF;stroke-width:0;stroke-linecap:round;stroke-linejoin:round;" d="M 4832.5,166.33 L 4828.25, 170.58 L 4824, 166.33 L 4824, 172.88 L 4832.5, 172.88 L 4832.5, 166.33" />
      <path style="fill:#FFFFFF;stroke:#FFFFFF;stroke-width:0;stroke-linecap:round;stroke-linejoin:round;" d="M 4832.5,163.49 L 4828.25, 167.74 L 4824, 163.49 L 4824, 170.04 L 4832.5, 170.04 L 4832.5, 163.49" />
      <path style="fill:none;stroke:#000000;stroke-width:0.85;" d="M 4832.5,165.79 L 4828.25, 170.04 L 4824, 165.79" />
      <path style="fill:none;stroke:#000000;stroke-width:0.85;" d="M 4832.5,168.63 L 4828.25, 172.88 L 4824, 168.63" />
      <path style="fill:none;stroke:#000000;stroke-width:0.85;stroke-linecap:round;stroke-linejoin:round;" d="M 4838.17,181.38 L 4838.17, 172.88 L 4818.33, 172.88 L 4818.33, 181.38 L 4838.17, 181.38" />
      <text transform="matrix(1 0 0 1 4810.2393 178.8359)" style="font-family:'Arial'; font-size:6px;">12</text>
    </g><g ewd:figtype="w2w" ewd:code="fc1" ewd:pin_no="10" ewd:figID="219">
      <path style="fill:#FFFFFF;stroke:#FFFFFF;stroke-width:0;stroke-linecap:round;stroke-linejoin:round;" d="M 4917.54,251.37 L 4913.29, 255.62 L 4909.04, 251.37 L 4909.04, 257.92 L 4917.54, 257.92 L 4917.54, 251.37" />
      <path style="fill:#FFFFFF;stroke:#FFFFFF;stroke-width:0;stroke-linecap:round;stroke-linejoin:round;" d="M 4917.54,248.53 L 4913.29, 252.78 L 4909.04, 248.53 L 4909.04, 255.08 L 4917.54, 255.08 L 4917.54, 248.53" />
      <path style="fill:none;stroke:#000000;stroke-width:0.85;" d="M 4917.54,250.83 L 4913.29, 255.08 L 4909.04, 250.83" />
      <path style="fill:none;stroke:#000000;stroke-width:0.85;" d="M 4917.54,253.67 L 4913.29, 257.92 L 4909.04, 253.67" />
      <path style="fill:none;stroke:#000000;stroke-width:0.85;stroke-linecap:round;stroke-linejoin:round;" d="M 4923.21,266.42 L 4923.21, 257.92 L 4903.37, 257.92 L 4903.37, 266.42 L 4923.21, 266.42" />
      <text transform="matrix(1 0 0 1 4895.2783 263.875)" style="font-family:'Arial'; font-size:6px;">10</text>
    </g><g ewd:figtype="w2w" ewd:code="ci1" ewd:pin_no="13" ewd:figID="220">
      <path style="fill:#FFFFFF;stroke:#FFFFFF;stroke-width:0;stroke-linecap:round;stroke-linejoin:round;" d="M 4917.54,166.33 L 4913.29, 170.58 L 4909.04, 166.33 L 4909.04, 172.88 L 4917.54, 172.88 L 4917.54, 166.33" />
      <path style="fill:#FFFFFF;stroke:#FFFFFF;stroke-width:0;stroke-linecap:round;stroke-linejoin:round;" d="M 4917.54,163.49 L 4913.29, 167.74 L 4909.04, 163.49 L 4909.04, 170.04 L 4917.54, 170.04 L 4917.54, 163.49" />
      <path style="fill:none;stroke:#000000;stroke-width:0.85;" d="M 4917.54,165.79 L 4913.29, 170.04 L 4909.04, 165.79" />
      <path style="fill:none;stroke:#000000;stroke-width:0.85;" d="M 4917.54,168.63 L 4913.29, 172.88 L 4909.04, 168.63" />
      <path style="fill:none;stroke:#000000;stroke-width:0.85;stroke-linecap:round;stroke-linejoin:round;" d="M 4923.21,181.38 L 4923.21, 172.88 L 4903.37, 172.88 L 4903.37, 181.38 L 4923.21, 181.38" />
      <text transform="matrix(1 0 0 1 4895.2783 178.8359)" style="font-family:'Arial'; font-size:6px;">13</text>
    </g><g ewd:figtype="w2w" ewd:code="fc1" ewd:pin_no="16" ewd:figID="221">
      <path style="fill:#FFFFFF;stroke:#FFFFFF;stroke-width:0;stroke-linecap:round;stroke-linejoin:round;" d="M 4977.07,251.37 L 4972.82, 255.62 L 4968.57, 251.37 L 4968.57, 257.92 L 4977.07, 257.92 L 4977.07, 251.37" />
      <path style="fill:#FFFFFF;stroke:#FFFFFF;stroke-width:0;stroke-linecap:round;stroke-linejoin:round;" d="M 4977.07,248.53 L 4972.82, 252.78 L 4968.57, 248.53 L 4968.57, 255.08 L 4977.07, 255.08 L 4977.07, 248.53" />
      <path style="fill:none;stroke:#000000;stroke-width:0.85;" d="M 4977.07,250.83 L 4972.82, 255.08 L 4968.57, 250.83" />
      <path style="fill:none;stroke:#000000;stroke-width:0.85;" d="M 4977.07,253.67 L 4972.82, 257.92 L 4968.57, 253.67" />
      <path style="fill:none;stroke:#000000;stroke-width:0.85;stroke-linecap:round;stroke-linejoin:round;" d="M 4982.74,266.42 L 4982.74, 257.92 L 4962.9, 257.92 L 4962.9, 266.42 L 4982.74, 266.42" />
      <text transform="matrix(1 0 0 1 4954.8057 263.875)" style="font-family:'Arial'; font-size:6px;">16</text>
    </g><g ewd:figtype="w2w" ewd:code="ci1" ewd:pin_no="10" ewd:figID="222">
      <path style="fill:#FFFFFF;stroke:#FFFFFF;stroke-width:0;stroke-linecap:round;stroke-linejoin:round;" d="M 4977.07,166.33 L 4972.82, 170.58 L 4968.57, 166.33 L 4968.57, 172.88 L 4977.07, 172.88 L 4977.07, 166.33" />
      <path style="fill:#FFFFFF;stroke:#FFFFFF;stroke-width:0;stroke-linecap:round;stroke-linejoin:round;" d="M 4977.07,163.49 L 4972.82, 167.74 L 4968.57, 163.49 L 4968.57, 170.04 L 4977.07, 170.04 L 4977.07, 163.49" />
      <path style="fill:none;stroke:#000000;stroke-width:0.85;" d="M 4977.07,165.79 L 4972.82, 170.04 L 4968.57, 165.79" />
      <path style="fill:none;stroke:#000000;stroke-width:0.85;" d="M 4977.07,168.63 L 4972.82, 172.88 L 4968.57, 168.63" />
      <path style="fill:none;stroke:#000000;stroke-width:0.85;stroke-linecap:round;stroke-linejoin:round;" d="M 4982.74,181.38 L 4982.74, 172.88 L 4962.9, 172.88 L 4962.9, 181.38 L 4982.74, 181.38" />
      <text transform="matrix(1 0 0 1 4954.8057 178.8359)" style="font-family:'Arial'; font-size:6px;">10</text>
    </g><g ewd:figtype="w2w" ewd:code="Mi2" ewd:pin_no="4" ewd:figID="223">
      <path style="fill:#FFFFFF;stroke:#FFFFFF;stroke-width:0;stroke-linecap:round;stroke-linejoin:round;" d="M 5147.15,166.33 L 5142.9, 170.58 L 5138.65, 166.33 L 5138.65, 172.88 L 5147.15, 172.88 L 5147.15, 166.33" />
      <path style="fill:#FFFFFF;stroke:#FFFFFF;stroke-width:0;stroke-linecap:round;stroke-linejoin:round;" d="M 5147.15,163.49 L 5142.9, 167.74 L 5138.65, 163.49 L 5138.65, 170.04 L 5147.16, 170.04 L 5147.16, 163.49" />
      <path style="fill:none;stroke:#000000;stroke-width:0.85;" d="M 5147.15,165.79 L 5142.9, 170.04 L 5138.65, 165.79" />
      <path style="fill:none;stroke:#000000;stroke-width:0.85;" d="M 5147.15,168.63 L 5142.9, 172.88 L 5138.65, 168.63" />
      <path style="fill:none;stroke:#000000;stroke-width:0.85;stroke-linecap:round;stroke-linejoin:round;" d="M 5152.82,181.38 L 5152.82, 172.88 L 5132.98, 172.88 L 5132.98, 181.38 L 5152.82, 181.38" />
      <text transform="matrix(1 0 0 1 5128.2227 178.8364)" style="font-family:'Arial'; font-size:6px;">4</text>
    </g><g ewd:figtype="w2w" ewd:code="Mi2" ewd:pin_no="9" ewd:figID="224">
      <path style="fill:#FFFFFF;stroke:#FFFFFF;stroke-width:0;stroke-linecap:round;stroke-linejoin:round;" d="M 5198.17,166.33 L 5193.92, 170.58 L 5189.67, 166.33 L 5189.67, 172.88 L 5198.17, 172.88 L 5198.17, 166.33" />
      <path style="fill:#FFFFFF;stroke:#FFFFFF;stroke-width:0;stroke-linecap:round;stroke-linejoin:round;" d="M 5198.17,163.49 L 5193.92, 167.74 L 5189.67, 163.49 L 5189.67, 170.04 L 5198.18, 170.04 L 5198.18, 163.49" />
      <path style="fill:none;stroke:#000000;stroke-width:0.85;" d="M 5198.17,165.79 L 5193.92, 170.04 L 5189.67, 165.79" />
      <path style="fill:none;stroke:#000000;stroke-width:0.85;" d="M 5198.17,168.63 L 5193.92, 172.88 L 5189.67, 168.63" />
      <path style="fill:none;stroke:#000000;stroke-width:0.85;stroke-linecap:round;stroke-linejoin:round;" d="M 5203.84,181.38 L 5203.84, 172.88 L 5184, 172.88 L 5184, 181.38 L 5203.84, 181.38" />
      <text transform="matrix(1 0 0 1 5179.2461 178.8364)" style="font-family:'Arial'; font-size:6px;">9</text>
    </g><g ewd:figtype="w2w" ewd:code="Mi2" ewd:pin_no="6" ewd:figID="225">
      <path style="fill:#FFFFFF;stroke:#FFFFFF;stroke-width:0;stroke-linecap:round;stroke-linejoin:round;" d="M 5249.19,166.33 L 5244.94, 170.58 L 5240.69, 166.33 L 5240.69, 172.88 L 5249.19, 172.88 L 5249.19, 166.33" />
      <path style="fill:#FFFFFF;stroke:#FFFFFF;stroke-width:0;stroke-linecap:round;stroke-linejoin:round;" d="M 5249.2,163.49 L 5244.95, 167.74 L 5240.7, 163.49 L 5240.7, 170.04 L 5249.21, 170.04 L 5249.21, 163.49" />
      <path style="fill:none;stroke:#000000;stroke-width:0.85;" d="M 5249.2,165.79 L 5244.95, 170.04 L 5240.7, 165.79" />
      <path style="fill:none;stroke:#000000;stroke-width:0.85;" d="M 5249.19,168.63 L 5244.94, 172.88 L 5240.69, 168.63" />
      <path style="fill:none;stroke:#000000;stroke-width:0.85;stroke-linecap:round;stroke-linejoin:round;" d="M 5254.86,181.38 L 5254.86, 172.88 L 5235.02, 172.88 L 5235.02, 181.38 L 5254.86, 181.38" />
      <text transform="matrix(1 0 0 1 5230.2695 178.8364)" style="font-family:'Arial'; font-size:6px;">6</text>
    </g><g ewd:figtype="w2w" ewd:code="fc1" ewd:pin_no="4" ewd:figID="226">
      <path style="fill:#FFFFFF;stroke:#FFFFFF;stroke-width:0;stroke-linecap:round;stroke-linejoin:round;" d="M 5036.6,302.39 L 5032.35, 306.64 L 5028.1, 302.39 L 5028.1, 308.94 L 5036.6, 308.94 L 5036.6, 302.39" />
      <path style="fill:#FFFFFF;stroke:#FFFFFF;stroke-width:0;stroke-linecap:round;stroke-linejoin:round;" d="M 5036.6,299.55 L 5032.35, 303.8 L 5028.1, 299.55 L 5028.1, 306.1 L 5036.6, 306.1 L 5036.6, 299.55" />
      <path style="fill:none;stroke:#000000;stroke-width:0.85;" d="M 5036.6,301.85 L 5032.35, 306.1 L 5028.1, 301.85" />
      <path style="fill:none;stroke:#000000;stroke-width:0.85;" d="M 5036.6,304.69 L 5032.35, 308.94 L 5028.1, 304.69" />
      <path style="fill:none;stroke:#000000;stroke-width:0.85;stroke-linecap:round;stroke-linejoin:round;" d="M 5042.27,317.44 L 5042.27, 308.94 L 5022.43, 308.94 L 5022.43, 317.44 L 5042.27, 317.44" />
      <text transform="matrix(1 0 0 1 5017.6777 314.8989)" style="font-family:'Arial'; font-size:6px;">4</text>
    </g><g ewd:figtype="w2w" ewd:code="ci1" ewd:pin_no="9" ewd:figID="227">
      <path style="fill:#FFFFFF;stroke:#FFFFFF;stroke-width:0;stroke-linecap:round;stroke-linejoin:round;" d="M 5036.6,234.36 L 5032.35, 238.61 L 5028.1, 234.36 L 5028.1, 240.91 L 5036.6, 240.91 L 5036.6, 234.36" />
      <path style="fill:#FFFFFF;stroke:#FFFFFF;stroke-width:0;stroke-linecap:round;stroke-linejoin:round;" d="M 5036.6,231.52 L 5032.35, 235.77 L 5028.1, 231.52 L 5028.1, 238.07 L 5036.6, 238.07 L 5036.6, 231.52" />
      <path style="fill:none;stroke:#000000;stroke-width:0.85;" d="M 5036.6,233.82 L 5032.35, 238.07 L 5028.1, 233.82" />
      <path style="fill:none;stroke:#000000;stroke-width:0.85;" d="M 5036.6,236.66 L 5032.35, 240.91 L 5028.1, 236.66" />
      <path style="fill:none;stroke:#000000;stroke-width:0.85;stroke-linecap:round;stroke-linejoin:round;" d="M 5042.27,249.41 L 5042.27, 240.91 L 5022.43, 240.91 L 5022.43, 249.41 L 5042.27, 249.41" />
      <text transform="matrix(1 0 0 1 5017.6777 246.8677)" style="font-family:'Arial'; font-size:6px;">9</text>
    </g><g ewd:figtype="conn" ewd:code="f4" ewd:figID="45">
      <path d="M 4829.67,351.46 C 4829.67 352.24 4829.04 352.88 4828.25 352.88 C 4827.46 352.880009765625 4826.83 352.25 4826.83 351.46 C 4826.83 350.68 4827.46 350.04 4828.25 350.04 C 4829.04 350.040017089844 4829.67 350.68 4829.67 351.46" style="stroke-linecap:round;stroke-linejoin:round;" />
      <path style="fill:none;stroke:#000000;stroke-width:0.85;" d="M 4828.25,317.44 L 4828.25, 321.69" />
      <path style="fill:none;stroke:#000000;stroke-width:0.85;" d="M 4828.25,347.21 L 4828.25, 359.96" />
      <path style="fill:none;stroke:#000000;stroke-width:0.85;" d="M 4785.73,317.44 L 4785.73, 321.69" />
      <path style="fill:none;stroke:#000000;stroke-width:0.85;" d="M 4785.73,347.21 L 4785.73, 351.46 L 4828.25, 351.46" />
      <path style="fill:none;stroke:#000000;stroke-width:1.417;" d="M 4833.93,321.74 L 4828.61, 344.42" />
      <path style="fill:none;stroke:#000000;stroke-width:0.85;stroke-linecap:round;stroke-linejoin:round;" d="M 4828.25,324.53 C 4829.03 324.53 4829.67 323.9 4829.67 323.11 C 4829.66984375 322.319970703125 4829.04 321.69 4828.25 321.69 C 4827.46 321.690004882813 4826.83 322.32 4826.83 323.11 C 4826.83015625 323.899970703125 4827.47 324.53 4828.25 324.53" />
      <path style="fill:none;stroke:#000000;stroke-width:0.85;stroke-linecap:round;stroke-linejoin:round;" d="M 4828.25,347.21 C 4829.03 347.21 4829.67 346.58 4829.67 345.79 C 4829.67 345.01 4829.04 344.37 4828.25 344.37 C 4827.46 344.369990234375 4826.83 345 4826.83 345.79 C 4826.83 346.57 4827.47 347.21 4828.25 347.21" />
      <path style="fill:none;stroke:#000000;stroke-width:1.417;" d="M 4791.41,321.74 L 4786.09, 344.42" />
      <path style="fill:none;stroke:#000000;stroke-width:0.85;stroke-linecap:round;stroke-linejoin:round;" d="M 4785.73,324.53 C 4786.51 324.53 4787.15 323.9 4787.15 323.11 C 4787.1498046875 322.319970703125 4786.52 321.69 4785.73 321.69 C 4784.9399609375 321.690004882813 4784.31 322.32 4784.31 323.11 C 4784.3101171875 323.899970703125 4784.95 324.53 4785.73 324.53" />
      <path style="fill:none;stroke:#000000;stroke-width:0.85;stroke-linecap:round;stroke-linejoin:round;" d="M 4785.73,347.21 C 4786.51 347.21 4787.15 346.58 4787.15 345.79 C 4787.15 345.01 4786.52 344.37 4785.73 344.37 C 4784.9399609375 344.369990234375 4784.31 345 4784.31 345.79 C 4784.31 346.57 4784.95 347.21 4785.73 347.21" />
      <path style="fill:none;stroke:#000000;stroke-width:1.417;stroke-linecap:round;stroke-linejoin:round;" d="M 4836.75,359.96 L 4836.75, 317.44 L 4777.22, 317.44 L 4777.22, 359.96 L 4836.75, 359.96" />
      <text transform="matrix(1 0 0 1 4819.9531 313.4805)" style="font-family:'Arial'; font-size:6px;">1</text>
      <text transform="matrix(1 0 0 1 4777.4336 313.4805)" style="font-family:'Arial'; font-size:6px;">2</text>
      <text transform="matrix(1 0 0 1 4819.9531 367.3389)" style="font-family:'Arial'; font-size:6px;">3</text>
      <g ewd:figtype="title">
        <text transform="matrix(0 -1 1 0 4844.8389 359.9629)" style="font-family:'Arial'; font-size:6px;">f4</text>
        <text transform="matrix(0 -1 1 0 4851.9268 359.9629)" style="font-family:'Arial'; font-size:6px;" ewd:textID="42">Slide Door Handle SW (RH)</text>
      </g>
    </g><g ewd:figtype="conn" ewd:code="f6" ewd:figID="46">
      <path d="M 4914.71,359.96 C 4914.71 360.74 4914.08 361.38 4913.29 361.38 C 4912.500078125 361.380009765625 4911.87 360.75 4911.87 359.96 C 4911.87 359.18 4912.5 358.54 4913.29 358.54 C 4914.080078125 358.540017089844 4914.71 359.18 4914.71 359.96" style="stroke-linecap:round;stroke-linejoin:round;" />
      <path d="M 4914.71,325.95 C 4914.71 326.73 4914.08 327.37 4913.29 327.37 C 4912.500078125 327.369990234375 4911.87 326.74 4911.87 325.95 C 4911.87 325.17 4912.5 324.53 4913.29 324.53 C 4914.080078125 324.529997558594 4914.71 325.16 4914.71 325.95" style="stroke-linecap:round;stroke-linejoin:round;" />
      <path style="fill:none;stroke:#000000;stroke-width:0.85;" d="M 4913.29,325.95 L 4896.28, 325.95 L 4896.28, 334.81" />
      <path style="fill:none;stroke:#000000;stroke-width:0.85;" d="M 4896.28,351.1 L 4896.28, 359.96 L 4913.29, 359.96" />
      <path style="fill:none;stroke:#000000;stroke-width:0.85;" d="M 4913.29,317.44 L 4913.29, 330.2" />
      <path style="fill:none;stroke:#000000;stroke-width:0.85;" d="M 4913.29,355.71 L 4913.29, 368.46" />
      <path style="fill:none;stroke:#000000;stroke-width:0.85;" d="M 4896.28,334.45 L 4898.74, 335.87 L 4893.83, 338.7 L 4898.74, 341.54 L 4893.83, 344.37 L 4898.74, 347.2 L 4893.83, 350.03 L 4896.29, 351.45" />
      <path style="fill:none;stroke:#000000;stroke-width:1.417;" d="M 4918.97,330.24 L 4913.65, 352.92" />
      <path style="fill:none;stroke:#000000;stroke-width:0.85;stroke-linecap:round;stroke-linejoin:round;" d="M 4913.29,333.04 C 4914.07 333.04 4914.71 332.41 4914.71 331.62 C 4914.709921875 330.829990234375 4914.08 330.2 4913.29 330.2 C 4912.500078125 330.200024414063 4911.87 330.83 4911.87 331.62 C 4911.870234375 332.409990234375 4912.51 333.04 4913.29 333.04" />
      <path style="fill:none;stroke:#000000;stroke-width:0.85;stroke-linecap:round;stroke-linejoin:round;" d="M 4913.29,355.71 C 4914.07 355.71 4914.71 355.08 4914.71 354.29 C 4914.71 353.51 4914.08 352.87 4913.29 352.87 C 4912.500078125 352.869990234375 4911.87 353.5 4911.87 354.29 C 4911.87 355.08 4912.51 355.71 4913.29 355.71" />
      <path style="fill:none;stroke:#000000;stroke-width:1.417;stroke-linecap:round;stroke-linejoin:round;" d="M 4921.79,368.47 L 4921.79, 317.45 L 4887.77, 317.45 L 4887.77, 368.47 L 4921.79, 368.47" />
      <text transform="matrix(1 0 0 1 4904.9922 313.4805)" style="font-family:'Arial'; font-size:6px;">1</text>
      <text transform="matrix(1 0 0 1 4904.9922 375.8428)" style="font-family:'Arial'; font-size:6px;">2</text>
      <g ewd:figtype="title">
        <text transform="matrix(0 -1 1 0 4929.8779 368.4668)" style="font-family:'Arial'; font-size:6px;">f6</text>
        <text transform="matrix(0 -1 1 0 4936.9658 368.4668)" style="font-family:'Arial'; font-size:6px;" ewd:textID="39">Power Slide Door Sensor (RH)</text>
      </g>
    </g><g ewd:figtype="conn" ewd:code="f5" ewd:figID="47">
      <path style="fill:none;stroke:#000000;stroke-width:0.85;" d="M 5032.35,368.47 L 5032.35, 372.72" />
      <path style="fill:none;stroke:#000000;stroke-width:0.85;" d="M 5032.35,398.23 L 5032.35, 402.48" />
      <path style="fill:none;stroke:#000000;stroke-width:1.417;" d="M 5038.03,372.76 L 5032.71, 395.44" />
      <path style="fill:none;stroke:#000000;stroke-width:0.85;stroke-linecap:round;stroke-linejoin:round;" d="M 5032.35,375.55 C 5033.13 375.55 5033.77 374.92 5033.77 374.13 C 5033.7700390625 373.340009765625 5033.14 372.71 5032.35 372.71 C 5031.5601953125 372.709982910156 5030.93 373.34 5030.93 374.13 C 5030.9303515625 374.920009765625 5031.57 375.55 5032.35 375.55" />
      <path style="fill:none;stroke:#000000;stroke-width:0.85;stroke-linecap:round;stroke-linejoin:round;" d="M 5032.35,398.23 C 5033.13 398.23 5033.77 397.6 5033.77 396.81 C 5033.77 396.03 5033.14 395.39 5032.35 395.39 C 5031.5601953125 395.390029296875 5030.93 396.02 5030.93 396.81 C 5030.93 397.6 5031.57 398.23 5032.35 398.23" />
      <path style="fill:none;stroke:#000000;stroke-width:1.417;stroke-linecap:round;stroke-linejoin:round;" d="M 5040.86,402.48 L 5040.86, 368.46 L 5023.85, 368.46 L 5023.85, 402.48 L 5040.86, 402.48" />
      <text transform="matrix(1 0 0 1 5024.0547 364.5039)" style="font-family:'Arial'; font-size:6px;">4</text>
      <text transform="matrix(1 0 0 1 5024.0547 409.8584)" style="font-family:'Arial'; font-size:6px;">1</text>
      <g ewd:figtype="title">
        <text transform="matrix(0 -1 1 0 5048.9404 402.4824)" style="font-family:'Arial'; font-size:6px;">f5</text>
        <text transform="matrix(0 -1 1 0 5056.0283 402.4824)" style="font-family:'Arial'; font-size:6px;" ewd:textID="46">Slide Door Lock Remote <tspan x="0" dy="1em">Control Assembly (RH)</tspan></text>
      </g>
    </g><g ewd:figtype="w2w" ewd:code="MB2" ewd:pin_no="4" ewd:figID="205">
      <path style="fill:#FFFFFF;stroke:#FFFFFF;stroke-width:0;stroke-linecap:round;stroke-linejoin:round;" d="M 5147.14,272.98 L 5142.89, 268.73 L 5138.64, 272.98 L 5138.64, 266.43 L 5147.14, 266.43 L 5147.14, 272.98" />
      <path style="fill:#FFFFFF;stroke:#FFFFFF;stroke-width:0;stroke-linecap:round;stroke-linejoin:round;" d="M 5147.14,275.81 L 5142.89, 271.56 L 5138.64, 275.81 L 5138.64, 269.26 L 5147.14, 269.26 L 5147.14, 275.81" />
      <path style="fill:none;stroke:#000000;stroke-width:0.85;" d="M 5147.14,273.51 L 5142.89, 269.26 L 5138.64, 273.51" />
      <path style="fill:none;stroke:#000000;stroke-width:0.85;" d="M 5147.14,270.68 L 5142.89, 266.43 L 5138.64, 270.68" />
      <path style="fill:none;stroke:#000000;stroke-width:0.85;stroke-linecap:round;stroke-linejoin:round;" d="M 5152.81,257.92 L 5152.81, 266.42 L 5132.97, 266.42 L 5132.97, 257.92 L 5152.81, 257.92" />
      <text transform="matrix(1 0 0 1 5128.2129 263.877)" style="font-family:'Arial'; font-size:6px;">4</text>
    </g><g ewd:figtype="w2w" ewd:code="MB2" ewd:pin_no="8" ewd:figID="228">
      <path style="fill:#FFFFFF;stroke:#FFFFFF;stroke-width:0;stroke-linecap:round;stroke-linejoin:round;" d="M 5198.16,272.98 L 5193.91, 268.73 L 5189.66, 272.98 L 5189.66, 266.43 L 5198.16, 266.43 L 5198.16, 272.98" />
      <path style="fill:#FFFFFF;stroke:#FFFFFF;stroke-width:0;stroke-linecap:round;stroke-linejoin:round;" d="M 5198.16,275.81 L 5193.91, 271.56 L 5189.66, 275.81 L 5189.66, 269.26 L 5198.16, 269.26 L 5198.16, 275.81" />
      <path style="fill:none;stroke:#000000;stroke-width:0.85;" d="M 5198.16,273.51 L 5193.91, 269.26 L 5189.66, 273.51" />
      <path style="fill:none;stroke:#000000;stroke-width:0.85;" d="M 5198.16,270.68 L 5193.91, 266.43 L 5189.66, 270.68" />
      <path style="fill:none;stroke:#000000;stroke-width:0.85;stroke-linecap:round;stroke-linejoin:round;" d="M 5203.83,257.92 L 5203.83, 266.42 L 5183.99, 266.42 L 5183.99, 257.92 L 5203.83, 257.92" />
      <text transform="matrix(1 0 0 1 5179.2363 263.877)" style="font-family:'Arial'; font-size:6px;">8</text>
    </g><g ewd:figtype="w2w" ewd:code="MB2" ewd:pin_no="7" ewd:figID="229">
      <path style="fill:#FFFFFF;stroke:#FFFFFF;stroke-width:0;stroke-linecap:round;stroke-linejoin:round;" d="M 5249.19,272.98 L 5244.94, 268.73 L 5240.69, 272.98 L 5240.69, 266.43 L 5249.19, 266.43 L 5249.19, 272.98" />
      <path style="fill:#FFFFFF;stroke:#FFFFFF;stroke-width:0;stroke-linecap:round;stroke-linejoin:round;" d="M 5249.19,275.81 L 5244.94, 271.56 L 5240.69, 275.81 L 5240.69, 269.26 L 5249.19, 269.26 L 5249.19, 275.81" />
      <path style="fill:none;stroke:#000000;stroke-width:0.85;" d="M 5249.19,273.51 L 5244.94, 269.26 L 5240.69, 273.51" />
      <path style="fill:none;stroke:#000000;stroke-width:0.85;" d="M 5249.19,270.68 L 5244.94, 266.43 L 5240.69, 270.68" />
      <path style="fill:none;stroke:#000000;stroke-width:0.85;stroke-linecap:round;stroke-linejoin:round;" d="M 5254.86,257.92 L 5254.86, 266.42 L 5235.02, 266.42 L 5235.02, 257.92 L 5254.86, 257.92" />
      <text transform="matrix(1 0 0 1 5230.2598 263.877)" style="font-family:'Arial'; font-size:6px;">7</text>
    </g><text transform="matrix(1 0 0 1 4943.1377 483.5586)" style="font-family:'Arial'; font-size:6px;">BR</text><text transform="matrix(0 -1 1 0 4781.7686 132.0234)" style="font-family:'Arial'; font-size:6px;">L</text><text transform="matrix(0 -1 1 0 4781.7686 293.6006)" style="font-family:'Arial'; font-size:6px;">L</text><text transform="matrix(0 -1 1 0 4781.7686 208.5615)" style="font-family:'Arial'; font-size:6px;">L</text><text transform="matrix(0 -1 1 0 4824.2881 132.356)" style="font-family:'Arial'; font-size:6px;">Y</text><text transform="matrix(0 -1 1 0 4824.2881 293.9331)" style="font-family:'Arial'; font-size:6px;">Y</text><text transform="matrix(0 -1 1 0 4824.2881 208.894)" style="font-family:'Arial'; font-size:6px;">Y</text><text transform="matrix(0 -1 1 0 4909.3271 132.6885)" style="font-family:'Arial'; font-size:6px;">G</text><text transform="matrix(0 -1 1 0 4909.3271 294.2656)" style="font-family:'Arial'; font-size:6px;">G</text><text transform="matrix(0 -1 1 0 4909.3271 209.2266)" style="font-family:'Arial'; font-size:6px;">G</text><text transform="matrix(0 -1 1 0 4968.8545 134.5225)" style="font-family:'Arial'; font-size:6px;">BR</text><text transform="matrix(0 -1 1 0 5138.9346 132.356)" style="font-family:'Arial'; font-size:6px;">B</text><text transform="matrix(0 -1 1 0 4968.8545 296.0996)" style="font-family:'Arial'; font-size:6px;">BR</text><text transform="matrix(0 -1 1 0 4968.8545 211.0605)" style="font-family:'Arial'; font-size:6px;">BR</text><text transform="matrix(0 -1 1 0 5138.9346 217.3984)" style="font-family:'Arial'; font-size:6px;">B</text><text transform="matrix(0 -1 1 0 5028.3896 134.855)" style="font-family:'Arial'; font-size:6px;">GR</text><text transform="matrix(0 -1 1 0 5028.3896 211.3906)" style="font-family:'Arial'; font-size:6px;">GR</text><text transform="matrix(0 -1 1 0 5028.3896 347.4561)" style="font-family:'Arial'; font-size:6px;">GR</text><text transform="matrix(0 -1 1 0 5028.3896 279.4248)" style="font-family:'Arial'; font-size:6px;">GR</text><text transform="matrix(0 -1 1 0 5087.917 279.4248)" style="font-family:'Arial'; font-size:6px;">GR</text><text transform="matrix(0 -1 1 0 4824.2881 440.665)" style="font-family:'Arial'; font-size:6px;">BR</text><text transform="matrix(0 -1 1 0 4909.3271 440.665)" style="font-family:'Arial'; font-size:6px;">BR</text><text transform="matrix(0 -1 1 0 5028.3896 440.665)" style="font-family:'Arial'; font-size:6px;">BR</text><text transform="matrix(1 0 0 1 4866.6025 483.5586)" style="font-family:'Arial'; font-size:6px;">BR</text><text transform="matrix(0 -1 1 0 5189.958 132.356)" style="font-family:'Arial'; font-size:6px;">P</text><text transform="matrix(0 -1 1 0 5189.958 217.3984)" style="font-family:'Arial'; font-size:6px;">P</text><text transform="matrix(0 -1 1 0 5240.9814 132.5215)" style="font-family:'Arial'; font-size:6px;">R</text><text transform="matrix(0 -1 1 0 5240.9814 217.564)" style="font-family:'Arial'; font-size:6px;">R</text><text transform="matrix(0 -1 1 0 5138.9346 293.9341)" style="font-family:'Arial'; font-size:6px;">B</text><text transform="matrix(0 -1 1 0 5189.958 293.9341)" style="font-family:'Arial'; font-size:6px;">P</text><text transform="matrix(0 -1 1 0 5240.9814 294.0996)" style="font-family:'Arial'; font-size:6px;">R</text><text transform="matrix(1 0 0 1 4764.5439 483.5596)" style="font-family:'Arial'; font-size:6px;">BR</text><text transform="matrix(0 -1 1 0 5099.2568 279.7588)" style="font-family:'Arial'; font-size:6px;">(*3)</text><text transform="matrix(1 0 0 1 4763.8779 554.4258)" style="font-family:'Arial'; font-size:6px;">(*3)</text><text transform="matrix(0 -1 1 0 5150.2744 135.189)" style="font-family:'Arial'; font-size:6px;">(*2)</text><text transform="matrix(0 -1 1 0 5150.2744 220.2314)" style="font-family:'Arial'; font-size:6px;">(*2)</text><text transform="matrix(0 -1 1 0 5150.2744 296.7671)" style="font-family:'Arial'; font-size:6px;">(*2)</text><text transform="matrix(1 0 0 1 4763.8701 579.9443)" style="font-family:'Arial'; font-size:6px;">(*2)</text><text transform="matrix(0 -1 1 0 5201.2979 135.189)" style="font-family:'Arial'; font-size:6px;">(*2)</text><text transform="matrix(0 -1 1 0 5201.2979 220.2314)" style="font-family:'Arial'; font-size:6px;">(*2)</text><text transform="matrix(0 -1 1 0 5201.2979 296.7671)" style="font-family:'Arial'; font-size:6px;">(*2)</text><text transform="matrix(1 0 0 1 4763.8701 605.4561)" style="font-family:'Arial'; font-size:6px;">(*2)</text><text transform="matrix(1 0 0 1 4763.8701 630.9678)" style="font-family:'Arial'; font-size:6px;">(*2)</text><text transform="matrix(1 0 0 1 5240.1084 681.9844)" style="font-family:'Arial'; font-size:6px;">(*2)</text><text transform="matrix(1 0 0 1 4763.8682 681.9912)" style="font-family:'Arial'; font-size:6px;">(*2)</text><text transform="matrix(1 0 0 1 4763.8701 656.4795)" style="font-family:'Arial'; font-size:6px;">(*2)</text><text transform="matrix(1 0 0 1 5240.1279 656.5049)" style="font-family:'Arial'; font-size:6px;">(*2)</text><text transform="matrix(0 -1 1 0 4980.1943 135.189)" style="font-family:'Arial'; font-size:6px;">(*2)</text><text transform="matrix(0 -1 1 0 4980.1943 211.7271)" style="font-family:'Arial'; font-size:6px;">(*2)</text><text transform="matrix(0 -1 1 0 4980.1943 296.7661)" style="font-family:'Arial'; font-size:6px;">(*2)</text><text transform="matrix(0 -1 1 0 5039.7295 135.189)" style="font-family:'Arial'; font-size:6px;">(*2)</text><text transform="matrix(0 -1 1 0 5039.7295 211.7246)" style="font-family:'Arial'; font-size:6px;">(*2)</text><text transform="matrix(0 -1 1 0 5039.7295 279.7588)" style="font-family:'Arial'; font-size:6px;">(*2)</text><text transform="matrix(0 -1 1 0 5039.7295 347.79)" style="font-family:'Arial'; font-size:6px;">(*2)</text><text transform="matrix(0 -1 1 0 5039.7295 441.332)" style="font-family:'Arial'; font-size:6px;">(*2)</text><text transform="matrix(1 0 0 1 4942.4717 494.8984)" style="font-family:'Arial'; font-size:6px;">(*2)</text><text transform="matrix(1 0 0 1 4865.9365 494.8984)" style="font-family:'Arial'; font-size:6px;">(*2)</text><text transform="matrix(1 0 0 1 4763.8779 494.8984)" style="font-family:'Arial'; font-size:6px;">(*2)</text><text transform="matrix(0 -1 1 0 4920.667 135.189)" style="font-family:'Arial'; font-size:6px;">(*2)</text><text transform="matrix(0 -1 1 0 4920.667 211.7271)" style="font-family:'Arial'; font-size:6px;">(*2)</text><text transform="matrix(0 -1 1 0 4920.667 296.7661)" style="font-family:'Arial'; font-size:6px;">(*2)</text><text transform="matrix(0 -1 1 0 4920.667 441.332)" style="font-family:'Arial'; font-size:6px;">(*2)</text><text transform="matrix(0 -1 1 0 4835.6279 135.189)" style="font-family:'Arial'; font-size:6px;">(*2)</text><text transform="matrix(0 -1 1 0 4835.6279 211.7271)" style="font-family:'Arial'; font-size:6px;">(*2)</text><text transform="matrix(0 -1 1 0 4835.6279 296.7661)" style="font-family:'Arial'; font-size:6px;">(*2)</text><text transform="matrix(0 -1 1 0 4835.6279 441.332)" style="font-family:'Arial'; font-size:6px;">(*2)</text><text transform="matrix(0 -1 1 0 4793.1084 135.189)" style="font-family:'Arial'; font-size:6px;">(*2)</text><text transform="matrix(0 -1 1 0 4793.1084 211.7271)" style="font-family:'Arial'; font-size:6px;">(*2)</text><text transform="matrix(0 -1 1 0 4793.1084 296.7661)" style="font-family:'Arial'; font-size:6px;">(*2)</text><text transform="matrix(1 0 0 1 5239.1104 670.6455)" style="font-family:'Arial'; font-size:6px;">W-B</text><text transform="matrix(1 0 0 1 4764.2119 543.0869)" style="font-family:'Arial'; font-size:6px;">GR</text><text transform="matrix(1 0 0 1 4766.7021 568.6055)" style="font-family:'Arial'; font-size:6px;">B</text><text transform="matrix(1 0 0 1 4766.7021 645.1406)" style="font-family:'Arial'; font-size:6px;">V</text><text transform="matrix(1 0 0 1 5242.96 645.166)" style="font-family:'Arial'; font-size:6px;">V</text><text transform="matrix(1 0 0 1 4766.7021 594.1172)" style="font-family:'Arial'; font-size:6px;">P</text><text transform="matrix(1 0 0 1 4766.5361 619.6289)" style="font-family:'Arial'; font-size:6px;">R</text><text transform="matrix(1 0 0 1 4762.8701 670.6523)" style="font-family:'Arial'; font-size:6px;">W-B</text></svg>