﻿<?xml version="1.0" encoding="utf-8"?>
<!-- Generator: Adobe Illustrator 10.0, SVG Export Plug-In . SVG Version: 3.0.0 Build 77)  -->
<!DOCTYPE svg PUBLIC "-//W3C//DTD SVG 1.0//EN" "http://www.w3.org/TR/2001/REC-SVG-20010904/DTD/svg10.dtd"[
   <!ENTITY ns_flows "http://ns.adobe.com/Flows/1.0/">
   <!ENTITY ns_svg "http://www.w3.org/2000/svg">
   <!ENTITY ns_xlink "http://www.w3.org/1999/xlink">
   <!ENTITY st0 "font-size:7px;font-family:'MS-PGothic';adobe-font-script:japanese;">
   <!ENTITY st1 "font-size:6px;font-family:'ArialMT';">
   <!ENTITY st2 "fill:#FFFFFF;stroke:#000000; stroke-width:1.41;stroke-linecap:round;stroke-linejoin:round;">
   <!ENTITY st3 "fill:#FFFFCC;stroke:#FFFFCC; stroke-width:0.1;stroke-linecap:round;stroke-linejoin:round;">
   <!ENTITY st4 "fill:#CCCCCC;stroke:#CCCCCC; stroke-width:0.1;stroke-linecap:round;stroke-linejoin:round;">
   <!ENTITY st5 "fill:#CCECF4;stroke:#000000; stroke-width:1.133;stroke-linecap:round;stroke-linejoin:round;">
   <!ENTITY st6 "fill:none;stroke-linecap:butt; stroke-linejoin:round;">
   <!ENTITY st7 "fill:none;stroke:#000000;stroke-linecap:round;stroke-linejoin:round;">
   <!ENTITY st8 "enable-background:new;">
   <!ENTITY st9 "fill:#000000;stroke:#000000; stroke-linecap:round;stroke-linejoin:round;">
   <!ENTITY st10 "font-size:9px;font-family:'ArialMT';">
   <!ENTITY st11 "font-size:9px;font-family:'Svg Symbol';">
   <!ENTITY st12 "font-size:6px;font-family:'Svg Symbol';">
   <!ENTITY st13 "fill:none;stroke:#ff0000;stroke-linecap:round;stroke-linejoin:round;">
   <!ENTITY st14 "fill:#FFFF00;stroke:#FFFF00; stroke-width:0.1;stroke-linecap:round;stroke-linejoin:round;">
   <!ENTITY st15 "font-size:6px;font-family:'MS-PGothic';adobe-font-script:japanese;">
   <!ENTITY st16 "1.00 0.00 0.00 1.00">
   <!ENTITY st17 "0.00 -1.00 1.00 0.00">
   <!ENTITY st18 "font-size:6px;font-family:'Arial';">
   <!ENTITY st19 "font-size:9px;font-family:'Arial';">
   <!ENTITY st20 "font-size:6px;font-family:'MS-PGothic','MS PGothic';adobe-font-script:japanese;">
   <!ENTITY st21 "font-size:7px;font-family:'MS-PGothic','MS PGothic';adobe-font-script:japanese;">
   <!ATTLIST svg
       xmlns:ewd CDATA #FIXED "http://shcl.co.jp/ewd"
       xmlns:a CDATA #FIXED "http://ns.adobe.com/AdobeSVGViewerExtensions/3.0/"
       ewd:ver CDATA #IMPLIED >
   <!ATTLIST a
       ewd:lineID CDATA #IMPLIED
       ewd:groupID CDATA #IMPLIED
       ewd:figtype CDATA #IMPLIED
       ewd:code CDATA #IMPLIED
       ewd:figID CDATA #IMPLIED
       ewd:pinNo CDATA #IMPLIED
       ewd:comment CDATA #IMPLIED >
   <!ATTLIST g
       ewd:lineID CDATA #IMPLIED
       ewd:groupID CDATA #IMPLIED
       ewd:figtype CDATA #IMPLIED
       ewd:code CDATA #IMPLIED
       ewd:figID CDATA #IMPLIED
       ewd:pinNo CDATA #IMPLIED
       ewd:comment CDATA #IMPLIED >
   <!ATTLIST text
       ewd:textID CDATA #IMPLIED >
   <!ATTLIST title
       ewd:textID CDATA #IMPLIED >
]>
<svg xmlns="http://www.w3.org/2000/svg" xmlns:xlink="http://www.w3.org/1999/xlink" width="6801.73" height="721" viewBox="0 0 6801.73 721" xml:space="preserve" xmlns:ewd="http://shcl.co.jp/ewd" ewd:ver="2.0">
  
  <defs>
    <font horiz-adv-x="1229">
      <font-face font-family="Svg Symbol" units-per-em="2048" panose-1="5 5 1 2 1 7 6 2 5 7" ascent="2059" descent="450" alphabetic="0" />
      <missing-glyph d="M 103,0 l 0,1280 1024,0 0,-1280 -1024,0 z m 32,32 l 960,0 0,1216 -960,0 0,-1216 z" />
      <glyph d4p1:unicode="" horiz-adv-x="1573" d="M 1517,0 l -567,0 24,279 q 141,59 207.5,168 66.5,109 66.5,306 0,272 -132.5,417.5 -132.5,145.5 -333.5,145.5 -194,0 -328,-147.5 -134,-147.5 -134,-401.5 0,-200 68.5,-319 68.5,-119 206.5,-169 l 25,-279 -564,0 0,279 35,0 q 3,-61 32,-83 45,-35 137,-35 l 270,0 0,70 q -210,61 -324.5,209 -114.5,148 -114.5,349 0,252 186.5,425 186.5,173 504.5,173 195,0 358.5,-73.5 163.5,-73.5 252,-214.5 88.5,-141 88.5,-310 0,-207 -121.5,-360.5 -121.5,-153.5 -317.5,-197.5 l -8,-70 275,0 q 92,0 128,28 36,28 42,90 l 38,0 0,-279 z" xmlns:d4p1="def-glyph-attr-unicode" />
    </font>
  </defs>
  
<g ewd:figtype="w2w" ewd:code="yq2" ewd:pin_no="8" ewd:figID="118">
      <path style="fill:#FFFFFF;stroke:#FFFFFF;stroke-width:0;stroke-linecap:round;stroke-linejoin:round;" d="M 301.89,149.33 L 297.64, 153.58 L 293.39, 149.33 L 293.39, 155.88 L 301.89, 155.88 L 301.89, 149.33" />
      <path style="fill:#FFFFFF;stroke:#FFFFFF;stroke-width:0;stroke-linecap:round;stroke-linejoin:round;" d="M 301.89,146.49 L 297.64, 150.74 L 293.39, 146.49 L 293.39, 153.04 L 301.89, 153.04 L 301.89, 146.49" />
      <path style="fill:none;stroke:#000000;stroke-width:0.85;" d="M 301.89,148.79 L 297.64, 153.04 L 293.39, 148.79" />
      <path style="fill:none;stroke:#000000;stroke-width:0.85;" d="M 301.89,151.63 L 297.64, 155.88 L 293.39, 151.63" />
      <path style="fill:none;stroke:#000000;stroke-width:0.85;stroke-linecap:round;stroke-linejoin:round;" d="M 307.56,164.39 L 307.56, 155.89 L 287.72, 155.89 L 287.72, 164.39 L 307.56, 164.39" />
      <text transform="matrix(1 0 0 1 282.9653 161.8398)" style="font-family:'Arial'; font-size:6px;">8</text>
    </g><g ewd:figtype="w2w" ewd:code="oq1" ewd:pin_no="1" ewd:figID="119">
      <path style="fill:#FFFFFF;stroke:#FFFFFF;stroke-width:0;stroke-linecap:round;stroke-linejoin:round;" d="M 344.41,149.33 L 340.16, 153.58 L 335.91, 149.33 L 335.91, 155.88 L 344.41, 155.88 L 344.41, 149.33" />
      <path style="fill:#FFFFFF;stroke:#FFFFFF;stroke-width:0;stroke-linecap:round;stroke-linejoin:round;" d="M 344.41,146.49 L 340.16, 150.74 L 335.91, 146.49 L 335.91, 153.04 L 344.41, 153.04 L 344.41, 146.49" />
      <path style="fill:none;stroke:#000000;stroke-width:0.85;" d="M 344.41,148.79 L 340.16, 153.04 L 335.91, 148.79" />
      <path style="fill:none;stroke:#000000;stroke-width:0.85;" d="M 344.41,151.63 L 340.16, 155.88 L 335.91, 151.63" />
      <path style="fill:none;stroke:#000000;stroke-width:0.85;stroke-linecap:round;stroke-linejoin:round;" d="M 350.08,164.39 L 350.08, 155.89 L 330.24, 155.89 L 330.24, 164.39 L 350.08, 164.39" />
      <text transform="matrix(1 0 0 1 325.4849 161.8398)" style="font-family:'Arial'; font-size:6px;">1</text>
    </g><g ewd:figtype="w2w" ewd:code="po2" ewd:pin_no="5" ewd:figID="124">
      <path style="fill:#FFFFFF;stroke:#FFFFFF;stroke-width:0;stroke-linecap:round;stroke-linejoin:round;" d="M 344.41,200.35 L 340.16, 204.6 L 335.91, 200.35 L 335.91, 206.9 L 344.41, 206.9 L 344.41, 200.35" />
      <path style="fill:#FFFFFF;stroke:#FFFFFF;stroke-width:0;stroke-linecap:round;stroke-linejoin:round;" d="M 344.41,197.52 L 340.16, 201.77 L 335.91, 197.52 L 335.91, 204.07 L 344.41, 204.07 L 344.41, 197.52" />
      <path style="fill:none;stroke:#000000;stroke-width:0.85;" d="M 344.41,199.82 L 340.16, 204.07 L 335.91, 199.82" />
      <path style="fill:none;stroke:#000000;stroke-width:0.85;" d="M 344.41,202.65 L 340.16, 206.9 L 335.91, 202.65" />
      <path style="fill:none;stroke:#000000;stroke-width:0.85;stroke-linecap:round;stroke-linejoin:round;" d="M 350.08,215.41 L 350.08, 206.91 L 330.24, 206.91 L 330.24, 215.41 L 350.08, 215.41" />
      <text transform="matrix(1 0 0 1 325.4854 212.8633)" style="font-family:'Arial'; font-size:6px;">5</text>
    </g><g ewd:figtype="w2w" ewd:code="po2" ewd:pin_no="7" ewd:figID="125">
      <path style="fill:#FFFFFF;stroke:#FFFFFF;stroke-width:0;stroke-linecap:round;stroke-linejoin:round;" d="M 344.41,519.6 L 340.16, 515.35 L 335.91, 519.6 L 335.91, 513.05 L 344.41, 513.05 L 344.41, 519.6" />
      <path style="fill:#FFFFFF;stroke:#FFFFFF;stroke-width:0;stroke-linecap:round;stroke-linejoin:round;" d="M 344.41,522.43 L 340.16, 518.18 L 335.91, 522.43 L 335.91, 515.88 L 344.41, 515.88 L 344.41, 522.43" />
      <path style="fill:none;stroke:#000000;stroke-width:0.85;" d="M 344.41,520.13 L 340.16, 515.88 L 335.91, 520.13" />
      <path style="fill:none;stroke:#000000;stroke-width:0.85;" d="M 344.41,517.3 L 340.16, 513.05 L 335.91, 517.3" />
      <path style="fill:none;stroke:#000000;stroke-width:0.85;stroke-linecap:round;stroke-linejoin:round;" d="M 350.08,504.54 L 350.08, 513.04 L 330.24, 513.04 L 330.24, 504.54 L 350.08, 504.54" />
      <text transform="matrix(1 0 0 1 325.4839 510.499)" style="font-family:'Arial'; font-size:6px;">7</text>
    </g><g ewd:figtype="w2w" ewd:code="yB1" ewd:pin_no="12" ewd:figID="126">
      <path style="fill:#FFFFFF;stroke:#FFFFFF;stroke-width:0;stroke-linecap:round;stroke-linejoin:round;" d="M 591.02,519.6 L 586.77, 515.35 L 582.52, 519.6 L 582.52, 513.05 L 591.02, 513.05 L 591.02, 519.6" />
      <path style="fill:#FFFFFF;stroke:#FFFFFF;stroke-width:0;stroke-linecap:round;stroke-linejoin:round;" d="M 591.02,522.43 L 586.77, 518.18 L 582.52, 522.43 L 582.52, 515.88 L 591.02, 515.88 L 591.02, 522.43" />
      <path style="fill:none;stroke:#000000;stroke-width:0.85;" d="M 591.02,520.13 L 586.77, 515.88 L 582.52, 520.13" />
      <path style="fill:none;stroke:#000000;stroke-width:0.85;" d="M 591.02,517.3 L 586.77, 513.05 L 582.52, 517.3" />
      <path style="fill:none;stroke:#000000;stroke-width:0.85;stroke-linecap:round;stroke-linejoin:round;" d="M 596.69,504.54 L 596.69, 513.04 L 576.85, 513.04 L 576.85, 504.54 L 596.69, 504.54" />
      <text transform="matrix(1 0 0 1 568.7612 510.499)" style="font-family:'Arial'; font-size:6px;">12</text>
    </g><g ewd:figtype="w2w" ewd:code="oq1" ewd:pin_no="15" ewd:figID="127">
      <path style="fill:#FFFFFF;stroke:#FFFFFF;stroke-width:0;stroke-linecap:round;stroke-linejoin:round;" d="M 412.44,506.49 L 408.19, 510.74 L 403.94, 506.49 L 403.94, 513.04 L 412.44, 513.04 L 412.44, 506.49" />
      <path style="fill:#FFFFFF;stroke:#FFFFFF;stroke-width:0;stroke-linecap:round;stroke-linejoin:round;" d="M 412.44,503.66 L 408.19, 507.91 L 403.94, 503.66 L 403.94, 510.21 L 412.44, 510.21 L 412.44, 503.66" />
      <path style="fill:none;stroke:#000000;stroke-width:0.85;" d="M 412.44,505.96 L 408.19, 510.21 L 403.94, 505.96" />
      <path style="fill:none;stroke:#000000;stroke-width:0.85;" d="M 412.44,508.79 L 408.19, 513.04 L 403.94, 508.79" />
      <path style="fill:none;stroke:#000000;stroke-width:0.85;stroke-linecap:round;stroke-linejoin:round;" d="M 418.11,521.55 L 418.11, 513.05 L 398.27, 513.05 L 398.27, 521.55 L 418.11, 521.55" />
      <text transform="matrix(1 0 0 1 390.1782 519.0049)" style="font-family:'Arial'; font-size:6px;">15</text>
    </g><g ewd:figtype="w2w" ewd:code="yq1" ewd:pin_no="6" ewd:figID="128">
      <path style="fill:#FFFFFF;stroke:#FFFFFF;stroke-width:0;stroke-linecap:round;stroke-linejoin:round;" d="M 591.03,378.94 L 586.78, 383.19 L 582.53, 378.94 L 582.53, 385.49 L 591.03, 385.49 L 591.03, 378.94" />
      <path style="fill:#FFFFFF;stroke:#FFFFFF;stroke-width:0;stroke-linecap:round;stroke-linejoin:round;" d="M 591.03,376.1 L 586.78, 380.35 L 582.53, 376.1 L 582.53, 382.65 L 591.03, 382.65 L 591.03, 376.1" />
      <path style="fill:none;stroke:#000000;stroke-width:0.85;" d="M 591.03,378.4 L 586.78, 382.65 L 582.53, 378.4" />
      <path style="fill:none;stroke:#000000;stroke-width:0.85;" d="M 591.03,381.24 L 586.78, 385.49 L 582.53, 381.24" />
      <path style="fill:none;stroke:#000000;stroke-width:0.85;stroke-linecap:round;stroke-linejoin:round;" d="M 596.7,393.99 L 596.7, 385.49 L 576.86, 385.49 L 576.86, 393.99 L 596.7, 393.99" />
      <text transform="matrix(1 0 0 1 572.1011 391.4463)" style="font-family:'Arial'; font-size:6px;">6</text>
    </g><g ewd:figtype="conn" ewd:code="q2" ewd:figID="24">
      <path style="fill:none;stroke:#000000;stroke-width:1.417;stroke-linecap:round;stroke-linejoin:round;" d="M 603.78,189.9 L 603.78, 155.89 L 569.76, 155.89 L 569.76, 189.9 L 603.78, 189.9" />
      <text transform="matrix(1 0 0 1 578.478 151.918)" style="font-family:'Arial'; font-size:6px;">1</text>
      <text transform="matrix(1 0 0 1 578.478 197.2715)" style="font-family:'Arial'; font-size:6px;">2</text>
      <g ewd:figtype="title">
        <text transform="matrix(0 -1 1 0 618.9556 189.8955)" style="font-family:'Arial'; font-size:6px;" ewd:textID="50">Slide Door Warning Buzzer <tspan x="0" dy="1em">(LH)</tspan></text>
        <text transform="matrix(0 -1 1 0 611.8696 189.8955)" style="font-family:'Arial'; font-size:6px;">q2</text>
      </g>
    </g><g ewd:figtype="gp" ewd:code="B5" ewd:figID="129">
      <path style="fill:none;stroke:#000000;stroke-width:0.85;" d="M 586.77,708.64 L 586.77, 711.47" />
      <path style="fill:none;stroke:#000000;stroke-width:0.85;" d="M 585.35,719.98 L 588.19, 719.98" />
      <path style="fill:none;stroke:#000000;stroke-width:0.85;" d="M 583.94,717.14 L 589.61, 717.14" />
      <path style="fill:none;stroke:#000000;stroke-width:0.85;" d="M 581.1,714.31 L 592.44, 714.31" />
      <path style="fill:none;stroke:#000000;stroke-width:0.85;" d="M 578.27,711.47 L 595.28, 711.47" />
    </g><g ewd:figtype="conn" ewd:code="q1-A,q5-B" ewd:figID="25">
      <path style="fill:#FFFFFF;stroke:#000000;stroke-width:0.85;stroke-linecap:round;stroke-linejoin:round;" d="M 663.31,266.43 C 666.44 266.43 668.98 263.89 668.98 260.76 C 668.9799609375 257.63001953125 666.44 255.09 663.31 255.09 C 660.179995117187 255.089992675781 657.64 257.63 657.64 260.76 C 657.640029296875 263.89001953125 660.18 266.43 663.31 266.43" />
      <path style="fill:#FFFFFF;stroke:#000000;stroke-width:0.85;stroke-linecap:round;stroke-linejoin:round;" d="M 705.83,266.43 C 708.96 266.43 711.5 263.89 711.5 260.76 C 711.5 257.63001953125 708.96 255.09 705.83 255.09 C 702.700034179687 255.089992675781 700.16 257.63 700.16 260.76 C 700.159946289063 263.89001953125 702.7 266.43 705.83 266.43" />
      <path style="fill:#FFFFFF;stroke:#000000;stroke-width:0.85;stroke-linecap:round;stroke-linejoin:round;" d="M 748.35,266.43 C 751.48 266.43 754.02 263.89 754.02 260.76 C 754.0200390625 257.63001953125 751.48 255.09 748.35 255.09 C 745.219951171875 255.089992675781 742.68 257.63 742.68 260.76 C 742.679985351563 263.89001953125 745.22 266.43 748.35 266.43" />
      <path style="fill:#FFFFFF;stroke:#000000;stroke-width:0.85;stroke-linecap:round;stroke-linejoin:round;" d="M 790.87,266.43 C 794 266.43 796.54 263.89 796.54 260.76 C 796.539956054688 257.63001953125 794 255.09 790.87 255.09 C 787.739990234375 255.089992675781 785.2 257.63 785.2 260.76 C 785.200024414062 263.89001953125 787.74 266.43 790.87 266.43" />
      <path style="fill:#FFFFFF;stroke:#000000;stroke-width:0.85;stroke-linecap:round;stroke-linejoin:round;" d="M 841.89,266.43 C 845.02 266.43 847.56 263.89 847.56 260.76 C 847.559995117188 257.63001953125 845.02 255.09 841.89 255.09 C 838.760029296875 255.089992675781 836.22 257.63 836.22 260.76 C 836.21994140625 263.89001953125 838.76 266.43 841.89 266.43" />
      <path style="fill:#FFFFFF;stroke:#000000;stroke-width:0.85;stroke-linecap:round;stroke-linejoin:round;" d="M 892.92,266.43 C 896.05 266.43 898.59 263.89 898.59 260.76 C 898.590053710937 257.63001953125 896.05 255.09 892.92 255.09 C 889.789965820313 255.089992675781 887.25 257.63 887.25 260.76 C 887.25 263.89001953125 889.79 266.43 892.92 266.43" />
      <path style="fill:#FFFFFF;stroke:#000000;stroke-width:0.85;stroke-linecap:round;stroke-linejoin:round;" d="M 952.44,266.43 C 955.57 266.43 958.11 263.89 958.11 260.76 C 958.109970703125 257.63001953125 955.57 255.09 952.44 255.09 C 949.310004882812 255.089992675781 946.77 257.63 946.77 260.76 C 946.7700390625 263.89001953125 949.31 266.43 952.44 266.43" />
      <path style="fill:#FFFFFF;stroke:#000000;stroke-width:0.85;stroke-linecap:round;stroke-linejoin:round;" d="M 1020.48,266.43 C 1023.61 266.43 1026.15 263.89 1026.15 260.76 C 1026.15004882812 257.63001953125 1023.61 255.09 1020.48 255.09 C 1017.3499609375 255.089992675781 1014.81 257.63 1014.81 260.76 C 1014.80999511719 263.89001953125 1017.34 266.43 1020.48 266.43" />
      <path style="fill:none;stroke:#000000;stroke-width:0.85;" d="M 901.42,283.44 L 884.41, 317.45" />
      <path style="fill:none;stroke:#000000;stroke-width:0.85;" d="M 884.41,283.44 L 901.42, 317.45" />
      <path style="fill:none;stroke:#000000;stroke-width:0.85;" d="M 1020.47,266.43 L 1020.47, 300.45 L 999.21, 300.45" />
      <path style="fill:none;stroke:#000000;stroke-width:0.85;" d="M 973.7,300.45 L 952.44, 300.45 L 952.44, 266.43" />
      <path style="fill:none;stroke:#000000;stroke-width:0.85;" d="M 892.91,266.43 L 892.91, 283.44" />
      <path style="fill:none;stroke:#000000;stroke-width:0.85;" d="M 892.91,317.45 L 892.91, 325.96 L 841.89, 325.96 L 841.89, 266.43" />
      <path style="fill:none;stroke:#000000;stroke-width:0.85;" d="M 790.87,266.43 L 790.87, 283.44" />
      <path style="fill:none;stroke:#000000;stroke-width:0.85;" d="M 748.35,266.43 L 748.35, 283.44" />
      <path style="fill:none;stroke:#000000;stroke-width:0.85;" d="M 705.83,266.43 L 705.83, 283.44" />
      <path style="fill:none;stroke:#000000;stroke-width:0.85;" d="M 663.31,266.43 L 663.31, 283.44" />
      <path style="fill:none;stroke:#000000;stroke-width:1.417;stroke-linecap:round;stroke-linejoin:round;" d="M 973.7,304.7 L 973.7, 296.2 L 979.08, 296.2 C 980.55 293.67 983.31 291.95 986.45 291.95 C 989.590024414063 291.950024414063 992.35 293.67 993.82 296.2 L 999.21, 296.2 L 999.21, 304.7 L 993.82, 304.7 C 992.35 307.23 989.59 308.95 986.45 308.95 C 983.310024414062 308.950024414063 980.55 307.23 979.08 304.7 L 973.7, 304.7" />
      <path style="fill:none;stroke:#000000;stroke-width:1.417;" d="M 993.83,296.2 C 994.57 297.46 994.96 298.89 994.96 300.45 C 994.96 302.01 994.56 303.45 993.83 304.7" />
      <path style="fill:none;stroke:#000000;stroke-width:1.417;" d="M 979.09,296.2 C 978.35 297.46 977.96 298.89 977.96 300.45 C 977.96 302.01 978.36 303.45 979.09 304.7" />
      <path style="fill:none;stroke:#000000;stroke-width:1.417;stroke-linecap:round;stroke-linejoin:round;" d="M 901.42,317.45 L 901.42, 283.44 L 884.41, 283.44 L 884.41, 317.45 L 901.42, 317.45" />
      <path style="fill:none;stroke:#000000;stroke-width:1.417;stroke-linecap:round;stroke-linejoin:round;" d="M 799.37,283.44 L 654.81, 283.44 L 654.81, 308.95 L 799.38, 308.95 L 799.38, 283.44" />
      <path style="fill:none;stroke:#000000;stroke-width:1.417;stroke-linecap:round;stroke-linejoin:round;" d="M 1037.48,334.46 L 1037.48, 266.43 L 646.3, 266.43 L 646.3, 334.46 L 1037.48, 334.46" />
      <text transform="matrix(1 0 0 1 664.7271 273.8076)" style="font-family:'Arial'; font-size:6px;">DSV</text>
      <text transform="matrix(1 0 0 1 707.2466 273.8076)" style="font-family:'Arial'; font-size:6px;">DS1</text>
      <text transform="matrix(1 0 0 1 749.7661 273.8076)" style="font-family:'Arial'; font-size:6px;">DS2</text>
      <text transform="matrix(1 0 0 1 792.2856 273.8076)" style="font-family:'Arial'; font-size:6px;">DSG</text>
      <text transform="matrix(1 0 0 1 843.3091 273.8076)" style="font-family:'Arial'; font-size:6px;">CL+</text>
      <text transform="matrix(1 0 0 1 894.3325 273.8076)" style="font-family:'Arial'; font-size:6px;">CL-</text>
      <text transform="matrix(1 0 0 1 953.8599 273.8076)" style="font-family:'Arial'; font-size:6px;">SD+</text>
      <text transform="matrix(1 0 0 1 1021.8911 273.8076)" style="font-family:'Arial'; font-size:6px;">SD-</text>
      <text transform="matrix(1 0 0 1 702.7446 316.3281)" style="font-family:'Arial'; font-size:6px;" ewd:textID="49">Slide Door Sensor</text>
      <text transform="matrix(1 0 0 1 965.1978 316.3281)" style="font-family:'Arial'; font-size:6px;" ewd:textID="46">Slide Door Motor</text>
      <text transform="matrix(0 -1 1 0 908.7974 321.7065)" style="font-family:'Arial'; font-size:6px;" ewd:textID="24">Magnetic  <tspan x="0" dy="1em">Clutch</tspan></text>
      <text transform="matrix(1 0 0 1 983.9595 302.1538)" style="font-family:'Arial'; font-size:6px;">M</text>
      <text transform="matrix(1 0 0 1 1009.9116 262.4688)" style="font-family:'Arial'; font-size:6px;">1</text>
      <text transform="matrix(1 0 0 1 1018.4751 262.4688)" style="font-family:'Arial'; font-size:6px;">B</text>
      <text transform="matrix(1 0 0 1 941.8804 262.4688)" style="font-family:'Arial'; font-size:6px;">2</text>
      <text transform="matrix(1 0 0 1 950.4438 262.4688)" style="font-family:'Arial'; font-size:6px;">B</text>
      <text transform="matrix(1 0 0 1 882.353 262.4688)" style="font-family:'Arial'; font-size:6px;">4</text>
      <text transform="matrix(1 0 0 1 890.9165 262.4688)" style="font-family:'Arial'; font-size:6px;">B</text>
      <text transform="matrix(1 0 0 1 831.3296 262.4688)" style="font-family:'Arial'; font-size:6px;">5</text>
      <text transform="matrix(1 0 0 1 839.8931 262.4688)" style="font-family:'Arial'; font-size:6px;">B</text>
      <text transform="matrix(1 0 0 1 780.3062 262.4688)" style="font-family:'Arial'; font-size:6px;">1</text>
      <text transform="matrix(1 0 0 1 788.8696 262.4688)" style="font-family:'Arial'; font-size:6px;">A</text>
      <text transform="matrix(1 0 0 1 737.7866 262.4688)" style="font-family:'Arial'; font-size:6px;">2</text>
      <text transform="matrix(1 0 0 1 746.3501 262.4688)" style="font-family:'Arial'; font-size:6px;">A</text>
      <text transform="matrix(1 0 0 1 695.2671 262.4688)" style="font-family:'Arial'; font-size:6px;">4</text>
      <text transform="matrix(1 0 0 1 703.8306 262.4688)" style="font-family:'Arial'; font-size:6px;">A</text>
      <text transform="matrix(1 0 0 1 652.7476 262.4688)" style="font-family:'Arial'; font-size:6px;">3</text>
      <text transform="matrix(1 0 0 1 661.311 262.4688)" style="font-family:'Arial'; font-size:6px;">A</text>
      <g ewd:figtype="title">
        <text transform="matrix(1 0 0 1 748.3481 342.5483)" style="font-family:'Arial'; font-size:6px;">q1(A), q5(B)</text>
        <text transform="matrix(1 0 0 1 748.3481 349.6353)" style="font-family:'Arial'; font-size:6px;" ewd:textID="47">Slide Door Motor Assembly (LH)</text>
      </g>
    </g><g ewd:figtype="w2w" ewd:code="yq1" ewd:pin_no="7" ewd:figID="131">
      <path style="fill:#FFFFFF;stroke:#FFFFFF;stroke-width:0;stroke-linecap:round;stroke-linejoin:round;" d="M 729.39,670.39 L 725.14, 674.64 L 729.39, 678.89 L 722.84, 678.89 L 722.84, 670.39 L 729.39, 670.39" />
      <path style="fill:#FFFFFF;stroke:#FFFFFF;stroke-width:0;stroke-linecap:round;stroke-linejoin:round;" d="M 732.22,670.39 L 727.97, 674.64 L 732.22, 678.89 L 725.67, 678.89 L 725.67, 670.39 L 732.22, 670.39" />
      <path style="fill:none;stroke:#000000;stroke-width:0.85;" d="M 729.92,670.39 L 725.67, 674.64 L 729.92, 678.89" />
      <path style="fill:none;stroke:#000000;stroke-width:0.85;" d="M 727.09,670.39 L 722.84, 674.64 L 727.09, 678.89" />
      <path style="fill:none;stroke:#000000;stroke-width:0.85;stroke-linecap:round;stroke-linejoin:round;" d="M 722.84,678.89 L 722.84, 670.39 L 703, 670.39 L 703, 678.89 L 722.84, 678.89" />
      <text transform="matrix(1 0 0 1 711.2471 668.1992)" style="font-family:'Arial'; font-size:6px;">7</text>
    </g><g ewd:figtype="w2w" ewd:code="yB1" ewd:pin_no="10" ewd:figID="133">
      <path style="fill:#FFFFFF;stroke:#FFFFFF;stroke-width:0;stroke-linecap:round;stroke-linejoin:round;" d="M 634.09,670.39 L 638.34, 674.64 L 634.09, 678.89 L 640.64, 678.89 L 640.64, 670.39 L 634.09, 670.39" />
      <path style="fill:#FFFFFF;stroke:#FFFFFF;stroke-width:0;stroke-linecap:round;stroke-linejoin:round;" d="M 631.25,670.39 L 635.5, 674.64 L 631.25, 678.89 L 637.8, 678.89 L 637.8, 670.39 L 631.25, 670.39" />
      <path style="fill:none;stroke:#000000;stroke-width:0.85;" d="M 633.55,670.39 L 637.8, 674.64 L 633.55, 678.89" />
      <path style="fill:none;stroke:#000000;stroke-width:0.85;" d="M 636.39,670.39 L 640.64, 674.64 L 636.39, 678.89" />
      <path style="fill:none;stroke:#000000;stroke-width:0.85;stroke-linecap:round;stroke-linejoin:round;" d="M 640.64,678.89 L 640.64, 670.39 L 660.48, 670.39 L 660.48, 678.89 L 640.64, 678.89" />
      <text transform="matrix(1 0 0 1 647.2256 668.1992)" style="font-family:'Arial'; font-size:6px;">10</text>
    </g><g ewd:figtype="comment" ewd:code="1" ewd:figID="1000">
      <text transform="matrix(1 0 0 1 745.5181 373.7383)" style="font-family:'Arial'; font-size:6px;" ewd:textID="1">*1 : w/ Power Slide Door LH w/ Power Slide Door RH</text>
    </g><text transform="matrix(0 -1 1 0 251.1572 135.5356)" style="font-family:'Arial'; font-size:6px;">B-R</text><text transform="matrix(0 -1 1 0 293.6768 134.3711)" style="font-family:'Arial'; font-size:6px;">SB</text><text transform="matrix(0 -1 1 0 336.1963 135.5356)" style="font-family:'Arial'; font-size:6px;">R-B</text><text transform="matrix(0 -1 1 0 404.228 136.2007)" style="font-family:'Arial'; font-size:6px;">W-B</text><text transform="matrix(0 -1 1 0 463.7554 136.2007)" style="font-family:'Arial'; font-size:6px;">W-B</text><text transform="matrix(0 -1 1 0 582.813 133.2007)" style="font-family:'Arial'; font-size:6px;">W</text><text transform="matrix(0 -1 1 0 659.3481 132.3701)" style="font-family:'Arial'; font-size:6px;">P</text><text transform="matrix(0 -1 1 0 701.8677 134.3711)" style="font-family:'Arial'; font-size:6px;">LG</text><text transform="matrix(0 -1 1 0 744.3872 132.3701)" style="font-family:'Arial'; font-size:6px;">B</text><text transform="matrix(0 -1 1 0 336.1968 186.5591)" style="font-family:'Arial'; font-size:6px;">R-B</text><text transform="matrix(0 -1 1 0 336.1968 246.0864)" style="font-family:'Arial'; font-size:6px;">R-B</text><text transform="matrix(0 -1 1 0 582.813 246.7515)" style="font-family:'Arial'; font-size:6px;">W-B</text><text transform="matrix(0 -1 1 0 293.6763 466.1895)" style="font-family:'Arial'; font-size:6px;">BR</text><text transform="matrix(0 -1 1 0 336.1958 467.8535)" style="font-family:'Arial'; font-size:6px;">W-B</text><text transform="matrix(0 -1 1 0 404.2271 467.8535)" style="font-family:'Arial'; font-size:6px;">W-B</text><text transform="matrix(0 -1 1 0 336.1958 637.9316)" style="font-family:'Arial'; font-size:6px;">W-B</text><text transform="matrix(0 -1 1 0 404.2271 637.9316)" style="font-family:'Arial'; font-size:6px;">W-B</text><text transform="matrix(0 -1 1 0 582.813 552.8926)" style="font-family:'Arial'; font-size:6px;">W-B</text><text transform="matrix(0 -1 1 0 582.813 663.4434)" style="font-family:'Arial'; font-size:6px;">W-B</text><text transform="matrix(0 -1 1 0 336.1968 348.1333)" style="font-family:'Arial'; font-size:6px;">R-B</text><text transform="matrix(0 -1 1 0 404.2285 348.7983)" style="font-family:'Arial'; font-size:6px;">W-B</text><text transform="matrix(0 -1 1 0 582.813 306.2788)" style="font-family:'Arial'; font-size:6px;">W-B</text><text transform="matrix(0 -1 1 0 293.6772 348.1333)" style="font-family:'Arial'; font-size:6px;">R-B</text><text transform="matrix(1 0 0 1 427.8726 262.4688)" style="font-family:'Arial'; font-size:6px;">W-B</text><text transform="matrix(1 0 0 1 546.9282 262.4688)" style="font-family:'Arial'; font-size:6px;">W-B</text><text transform="matrix(1 0 0 1 613.8477 670.7656)" style="font-family:'Arial'; font-size:6px;">BR</text><text transform="matrix(1 0 0 1 739.6904 670.7656)" style="font-family:'Arial'; font-size:6px;">W-B</text><text transform="matrix(0 -1 1 0 582.813 433.8379)" style="font-family:'Arial'; font-size:6px;">W-B</text><text transform="matrix(1 0 0 1 251.1196 211.4448)" style="font-family:'Arial'; font-size:6px;">SB</text><text transform="matrix(1 0 0 1 671.6592 670.7656)" style="font-family:'Arial'; font-size:6px;">W-B</text><text transform="matrix(1 0 0 1 613.1416 681.3105)" style="font-family:'Arial'; font-size:6px;">(*1)</text><text transform="matrix(1 0 0 1 672.6689 681.3105)" style="font-family:'Arial'; font-size:6px;">(*1)</text><text transform="matrix(1 0 0 1 740.7002 681.3105)" style="font-family:'Arial'; font-size:6px;">(*1)</text><text transform="matrix(1 0 0 1 428.8916 273.8062)" style="font-family:'Arial'; font-size:6px;">(*1)</text><text transform="matrix(1 0 0 1 496.9229 273.8062)" style="font-family:'Arial'; font-size:6px;">(*1)</text><text transform="matrix(1 0 0 1 547.9463 273.8062)" style="font-family:'Arial'; font-size:6px;">(*1)</text><text transform="matrix(0 -1 1 0 713.189 135.1929)" style="font-family:'Arial'; font-size:6px;">(*1)</text><text transform="matrix(0 -1 1 0 670.6694 135.1929)" style="font-family:'Arial'; font-size:6px;">(*1)</text><text transform="matrix(0 -1 1 0 594.1343 135.1929)" style="font-family:'Arial'; font-size:6px;">(*1)</text><text transform="matrix(0 -1 1 0 594.1343 245.7441)" style="font-family:'Arial'; font-size:6px;">(*1)</text><text transform="matrix(0 -1 1 0 594.1343 305.2715)" style="font-family:'Arial'; font-size:6px;">(*1)</text><text transform="matrix(0 -1 1 0 594.1343 432.8301)" style="font-family:'Arial'; font-size:6px;">(*1)</text><text transform="matrix(0 -1 1 0 594.1343 551.8867)" style="font-family:'Arial'; font-size:6px;">(*1)</text><text transform="matrix(0 -1 1 0 594.1343 662.4375)" style="font-family:'Arial'; font-size:6px;">(*1)</text><text transform="matrix(0 -1 1 0 475.0796 135.1929)" style="font-family:'Arial'; font-size:6px;">(*1)</text><text transform="matrix(0 -1 1 0 415.5522 135.1929)" style="font-family:'Arial'; font-size:6px;">(*1)</text><text transform="matrix(0 -1 1 0 415.5522 347.7905)" style="font-family:'Arial'; font-size:6px;">(*1)</text><text transform="matrix(0 -1 1 0 415.5522 466.8457)" style="font-family:'Arial'; font-size:6px;">(*1)</text><text transform="matrix(0 -1 1 0 415.5522 636.9258)" style="font-family:'Arial'; font-size:6px;">(*1)</text><text transform="matrix(0 -1 1 0 347.521 636.9258)" style="font-family:'Arial'; font-size:6px;">(*1)</text><text transform="matrix(0 -1 1 0 347.521 466.8457)" style="font-family:'Arial'; font-size:6px;">(*1)</text><text transform="matrix(0 -1 1 0 305.0015 466.8457)" style="font-family:'Arial'; font-size:6px;">(*1)</text><text transform="matrix(0 -1 1 0 305.0015 347.7905)" style="font-family:'Arial'; font-size:6px;">(*1)</text><text transform="matrix(0 -1 1 0 347.521 347.7905)" style="font-family:'Arial'; font-size:6px;">(*1)</text><text transform="matrix(0 -1 1 0 347.521 245.7437)" style="font-family:'Arial'; font-size:6px;">(*1)</text><text transform="matrix(0 -1 1 0 347.521 186.2163)" style="font-family:'Arial'; font-size:6px;">(*1)</text><text transform="matrix(0 -1 1 0 347.521 135.1929)" style="font-family:'Arial'; font-size:6px;">(*1)</text><text transform="matrix(1 0 0 1 250.3091 222.7822)" style="font-family:'Arial'; font-size:6px;">(*1)</text><text transform="matrix(0 -1 1 0 305.0015 135.1929)" style="font-family:'Arial'; font-size:6px;">(*1)</text><text transform="matrix(0 -1 1 0 262.4819 135.1929)" style="font-family:'Arial'; font-size:6px;">(*1)</text><text transform="matrix(1 0 0 1 495.9038 262.4688)" style="font-family:'Arial'; font-size:6px;">W-B</text></svg>