﻿<?xml version="1.0" encoding="utf-8"?>
<!-- Generator: Adobe Illustrator 10.0, SVG Export Plug-In . SVG Version: 3.0.0 Build 77)  -->
<!DOCTYPE svg PUBLIC "-//W3C//DTD SVG 1.0//EN" "http://www.w3.org/TR/2001/REC-SVG-20010904/DTD/svg10.dtd"[
   <!ENTITY ns_flows "http://ns.adobe.com/Flows/1.0/">
   <!ENTITY ns_svg "http://www.w3.org/2000/svg">
   <!ENTITY ns_xlink "http://www.w3.org/1999/xlink">
   <!ENTITY st0 "font-size:7px;font-family:'MS-PGothic';adobe-font-script:japanese;">
   <!ENTITY st1 "font-size:6px;font-family:'ArialMT';">
   <!ENTITY st2 "fill:#FFFFFF;stroke:#000000; stroke-width:1.41;stroke-linecap:round;stroke-linejoin:round;">
   <!ENTITY st3 "fill:#FFFFCC;stroke:#FFFFCC; stroke-width:0.1;stroke-linecap:round;stroke-linejoin:round;">
   <!ENTITY st4 "fill:#CCCCCC;stroke:#CCCCCC; stroke-width:0.1;stroke-linecap:round;stroke-linejoin:round;">
   <!ENTITY st5 "fill:#CCECF4;stroke:#000000; stroke-width:1.133;stroke-linecap:round;stroke-linejoin:round;">
   <!ENTITY st6 "fill:none;stroke-linecap:butt; stroke-linejoin:round;">
   <!ENTITY st7 "fill:none;stroke:#000000;stroke-linecap:round;stroke-linejoin:round;">
   <!ENTITY st8 "enable-background:new;">
   <!ENTITY st9 "fill:#000000;stroke:#000000; stroke-linecap:round;stroke-linejoin:round;">
   <!ENTITY st10 "font-size:9px;font-family:'ArialMT';">
   <!ENTITY st11 "font-size:9px;font-family:'Svg Symbol';">
   <!ENTITY st12 "font-size:6px;font-family:'Svg Symbol';">
   <!ENTITY st13 "fill:none;stroke:#ff0000;stroke-linecap:round;stroke-linejoin:round;">
   <!ENTITY st14 "fill:#FFFF00;stroke:#FFFF00; stroke-width:0.1;stroke-linecap:round;stroke-linejoin:round;">
   <!ENTITY st15 "font-size:6px;font-family:'MS-PGothic';adobe-font-script:japanese;">
   <!ENTITY st16 "1.00 0.00 0.00 1.00">
   <!ENTITY st17 "0.00 -1.00 1.00 0.00">
   <!ENTITY st18 "font-size:6px;font-family:'Arial';">
   <!ENTITY st19 "font-size:9px;font-family:'Arial';">
   <!ENTITY st20 "font-size:6px;font-family:'MS-PGothic','MS PGothic';adobe-font-script:japanese;">
   <!ENTITY st21 "font-size:7px;font-family:'MS-PGothic','MS PGothic';adobe-font-script:japanese;">
   <!ATTLIST svg
       xmlns:ewd CDATA #FIXED "http://shcl.co.jp/ewd"
       xmlns:a CDATA #FIXED "http://ns.adobe.com/AdobeSVGViewerExtensions/3.0/"
       ewd:ver CDATA #IMPLIED >
   <!ATTLIST a
       ewd:lineID CDATA #IMPLIED
       ewd:groupID CDATA #IMPLIED
       ewd:figtype CDATA #IMPLIED
       ewd:code CDATA #IMPLIED
       ewd:figID CDATA #IMPLIED
       ewd:pinNo CDATA #IMPLIED
       ewd:comment CDATA #IMPLIED >
   <!ATTLIST g
       ewd:lineID CDATA #IMPLIED
       ewd:groupID CDATA #IMPLIED
       ewd:figtype CDATA #IMPLIED
       ewd:code CDATA #IMPLIED
       ewd:figID CDATA #IMPLIED
       ewd:pinNo CDATA #IMPLIED
       ewd:comment CDATA #IMPLIED >
   <!ATTLIST text
       ewd:textID CDATA #IMPLIED >
   <!ATTLIST title
       ewd:textID CDATA #IMPLIED >
]>
<svg xmlns="http://www.w3.org/2000/svg" xmlns:xlink="http://www.w3.org/1999/xlink" width="6326.51" height="721" viewBox="0 0 6326.51 721" xml:space="preserve" xmlns:ewd="http://shcl.co.jp/ewd" ewd:ver="2.0">
  
  <defs>
    <font horiz-adv-x="1229">
      <font-face font-family="Svg Symbol" units-per-em="2048" panose-1="5 5 1 2 1 7 6 2 5 7" ascent="2059" descent="450" alphabetic="0" />
      <missing-glyph d="M 103,0 l 0,1280 1024,0 0,-1280 -1024,0 z m 32,32 l 960,0 0,1216 -960,0 0,-1216 z" />
      <glyph d4p1:unicode="" horiz-adv-x="1573" d="M 1517,0 l -567,0 24,279 q 141,59 207.5,168 66.5,109 66.5,306 0,272 -132.5,417.5 -132.5,145.5 -333.5,145.5 -194,0 -328,-147.5 -134,-147.5 -134,-401.5 0,-200 68.5,-319 68.5,-119 206.5,-169 l 25,-279 -564,0 0,279 35,0 q 3,-61 32,-83 45,-35 137,-35 l 270,0 0,70 q -210,61 -324.5,209 -114.5,148 -114.5,349 0,252 186.5,425 186.5,173 504.5,173 195,0 358.5,-73.5 163.5,-73.5 252,-214.5 88.5,-141 88.5,-310 0,-207 -121.5,-360.5 -121.5,-153.5 -317.5,-197.5 l -8,-70 275,0 q 92,0 128,28 36,28 42,90 l 38,0 0,-279 z" xmlns:d4p1="def-glyph-attr-unicode" />
    </font>
  </defs>
  
<g ewd:figtype="gp" ewd:code="B4" ewd:figID="167">
      <path style="fill:none;stroke:#000000;stroke-width:0.85;" d="M 3382.58,708.62 L 3382.58, 711.45" />
      <path style="fill:none;stroke:#000000;stroke-width:0.85;" d="M 3381.16,719.96 L 3384, 719.96" />
      <path style="fill:none;stroke:#000000;stroke-width:0.85;" d="M 3379.74,717.13 L 3385.41, 717.13" />
      <path style="fill:none;stroke:#000000;stroke-width:0.85;" d="M 3376.9,714.29 L 3388.24, 714.29" />
      <path style="fill:none;stroke:#000000;stroke-width:0.85;" d="M 3374.07,711.46 L 3391.08, 711.46" />
    </g><g ewd:figtype="conn" ewd:code="B75,B76" ewd:figID="40">
      <path style="fill:none;stroke:#000000;stroke-width:1.417;stroke-linecap:round;stroke-linejoin:round;" d="M 3552.65,96.34 L 3552.65, 45.32 L 3263.52, 45.32 L 3263.52, 96.34 L 3552.65, 96.34" />
      <g ewd:lineID="160">
        <path style="fill:#FFFFFF;stroke:#000000;stroke-width:0.85;stroke-linecap:round;stroke-linejoin:round;" d="M 3535.64,107.68 C 3538.77 107.68 3541.31 105.14 3541.31 102.01 C 3541.3101171875 98.8800042724609 3538.77 96.34 3535.64 96.34 C 3532.50978515625 96.3399926757812 3529.97 98.88 3529.97 102.01 C 3529.96994140625 105.140004272461 3532.51 107.68 3535.64 107.68" />
        <text transform="matrix(1 0 0 1 3533.6436 103.7134)" style="font-family:'Arial'; font-size:6px;">B</text>
        <text transform="matrix(1 0 0 1 3521.7432 103.7134)" style="font-family:'Arial'; font-size:6px;">36</text>
        <text transform="matrix(1 0 0 1 3527.4756 92.376)" style="font-family:'Arial'; font-size:6px;">PRG3</text>
      </g>
      <g ewd:lineID="161">
        <path style="fill:#FFFFFF;stroke:#000000;stroke-width:0.85;stroke-linecap:round;stroke-linejoin:round;" d="M 3484.62,107.68 C 3487.75 107.68 3490.29 105.14 3490.29 102.01 C 3490.290078125 98.8800042724609 3487.75 96.34 3484.62 96.34 C 3481.490234375 96.3399926757812 3478.95 98.88 3478.95 102.01 C 3478.94990234375 105.140004272461 3481.49 107.68 3484.62 107.68" />
        <text transform="matrix(1 0 0 1 3482.6201 103.7134)" style="font-family:'Arial'; font-size:6px;">B</text>
        <text transform="matrix(1 0 0 1 3470.7197 103.7134)" style="font-family:'Arial'; font-size:6px;">13</text>
        <text transform="matrix(1 0 0 1 3476.6182 92.376)" style="font-family:'Arial'; font-size:6px;">RDA3</text>
      </g>
      <g ewd:lineID="162">
        <path style="fill:#FFFFFF;stroke:#000000;stroke-width:0.85;stroke-linecap:round;stroke-linejoin:round;" d="M 3382.57,107.68 C 3385.7 107.68 3388.24 105.14 3388.24 102.01 C 3388.23998046875 98.8800042724609 3385.7 96.34 3382.57 96.34 C 3379.44013671875 96.3399926757812 3376.9 98.88 3376.9 102.01 C 3376.8998046875 105.140004272461 3379.44 107.68 3382.57 107.68" />
        <text transform="matrix(1 0 0 1 3380.5732 103.7134)" style="font-family:'Arial'; font-size:6px;">A</text>
        <text transform="matrix(1 0 0 1 3368.6729 103.7134)" style="font-family:'Arial'; font-size:6px;">10</text>
        <text transform="matrix(1 0 0 1 3380.5732 92.376)" style="font-family:'Arial'; font-size:6px;">E</text>
      </g>
      <g ewd:lineID="164">
        <path style="fill:#FFFFFF;stroke:#000000;stroke-width:0.85;stroke-linecap:round;stroke-linejoin:round;" d="M 3280.53,107.68 C 3283.66 107.68 3286.2 105.14 3286.2 102.01 C 3286.19990234375 98.8800042724609 3283.66 96.34 3280.53 96.34 C 3277.40005859375 96.3399926757812 3274.86 98.88 3274.86 102.01 C 3274.86021484375 105.140004272461 3277.4 107.68 3280.53 107.68" />
        <text transform="matrix(1 0 0 1 3278.5264 103.7134)" style="font-family:'Arial'; font-size:6px;">A</text>
        <text transform="matrix(1 0 0 1 3269.9629 103.7134)" style="font-family:'Arial'; font-size:6px;">1</text>
        <text transform="matrix(1 0 0 1 3276.7744 92.376)" style="font-family:'Arial'; font-size:6px;">+B</text>
      </g>
      <g ewd:lineID="23">
        <path style="fill:#FFFFFF;stroke:#000000;stroke-width:0.85;stroke-linecap:round;stroke-linejoin:round;" d="M 3331.55,107.68 C 3334.68 107.68 3337.22 105.14 3337.22 102.01 C 3337.21994140625 98.8800042724609 3334.68 96.34 3331.55 96.34 C 3328.42009765625 96.3399926757812 3325.88 98.88 3325.88 102.01 C 3325.879765625 105.140004272461 3328.42 107.68 3331.55 107.68" />
        <text transform="matrix(1 0 0 1 3329.5498 103.7134)" style="font-family:'Arial'; font-size:6px;">B</text>
        <text transform="matrix(1 0 0 1 3317.6494 103.7134)" style="font-family:'Arial'; font-size:6px;">33</text>
        <text transform="matrix(1 0 0 1 3323.3838 92.376)" style="font-family:'Arial'; font-size:6px;">CUTB</text>
      </g>
      <g ewd:lineID="29">
        <path style="fill:#FFFFFF;stroke:#000000;stroke-width:0.85;stroke-linecap:round;stroke-linejoin:round;" d="M 3433.6,107.68 C 3436.73 107.68 3439.27 105.14 3439.27 102.01 C 3439.2700390625 98.8800042724609 3436.73 96.34 3433.6 96.34 C 3430.4701953125 96.3399926757812 3427.93 98.88 3427.93 102.01 C 3427.92986328125 105.140004272461 3430.47 107.68 3433.6 107.68" />
        <text transform="matrix(1 0 0 1 3431.5967 103.7134)" style="font-family:'Arial'; font-size:6px;">A</text>
        <text transform="matrix(1 0 0 1 3423.0332 103.7134)" style="font-family:'Arial'; font-size:6px;">9</text>
        <text transform="matrix(1 0 0 1 3425.0957 92.376)" style="font-family:'Arial'; font-size:6px;">LSWP</text>
      </g>
      <g ewd:figtype="title">
        <text transform="matrix(1 0 0 1 3331.5508 40.645)" style="font-family:'Arial'; font-size:6px;" ewd:textID="53">Smart Key Computer Assembly</text>
        <text transform="matrix(1 0 0 1 3331.5508 33.5566)" style="font-family:'Arial'; font-size:6px;">B75(A), B76(B)</text>
      </g>
    </g><g ewd:figtype="w2w" ewd:code="HB1" ewd:pin_no="18" ewd:figID="168">
      <path style="fill:#FFFFFF;stroke:#FFFFFF;stroke-width:0;stroke-linecap:round;stroke-linejoin:round;" d="M 3599.42,162.42 L 3595.17, 158.17 L 3590.92, 162.42 L 3590.92, 155.87 L 3599.42, 155.87 L 3599.42, 162.42" />
      <path style="fill:#FFFFFF;stroke:#FFFFFF;stroke-width:0;stroke-linecap:round;stroke-linejoin:round;" d="M 3599.42,165.25 L 3595.17, 161 L 3590.92, 165.25 L 3590.92, 158.7 L 3599.42, 158.7 L 3599.42, 165.25" />
      <path style="fill:none;stroke:#000000;stroke-width:0.85;" d="M 3599.42,162.95 L 3595.17, 158.7 L 3590.92, 162.95" />
      <path style="fill:none;stroke:#000000;stroke-width:0.85;" d="M 3599.42,160.12 L 3595.17, 155.87 L 3590.92, 160.12" />
      <path style="fill:none;stroke:#000000;stroke-width:0.85;stroke-linecap:round;stroke-linejoin:round;" d="M 3605.09,147.36 L 3605.09, 155.86 L 3585.25, 155.86 L 3585.25, 147.36 L 3605.09, 147.36" />
      <text transform="matrix(1 0 0 1 3577.1611 153.3198)" style="font-family:'Arial'; font-size:6px;">18</text>
    </g><g ewd:figtype="w2w" ewd:code="HB1" ewd:pin_no="34" ewd:figID="169">
      <path style="fill:#FFFFFF;stroke:#FFFFFF;stroke-width:0;stroke-linecap:round;stroke-linejoin:round;" d="M 3650.45,179.43 L 3646.2, 175.18 L 3641.95, 179.43 L 3641.95, 172.88 L 3650.46, 172.88 L 3650.46, 179.43" />
      <path style="fill:#FFFFFF;stroke:#FFFFFF;stroke-width:0;stroke-linecap:round;stroke-linejoin:round;" d="M 3650.45,182.26 L 3646.2, 178.01 L 3641.95, 182.26 L 3641.95, 175.71 L 3650.46, 175.71 L 3650.46, 182.26" />
      <path style="fill:none;stroke:#000000;stroke-width:0.85;" d="M 3650.45,179.96 L 3646.2, 175.71 L 3641.95, 179.96" />
      <path style="fill:none;stroke:#000000;stroke-width:0.85;" d="M 3650.45,177.13 L 3646.2, 172.88 L 3641.95, 177.13" />
      <path style="fill:none;stroke:#000000;stroke-width:0.85;stroke-linecap:round;stroke-linejoin:round;" d="M 3656.12,164.37 L 3656.12, 172.87 L 3636.27, 172.87 L 3636.27, 164.37 L 3656.12, 164.37" />
      <text transform="matrix(1 0 0 1 3628.1846 170.3276)" style="font-family:'Arial'; font-size:6px;">34</text>
    </g><g ewd:figtype="w2w" ewd:code="HB1" ewd:pin_no="51" ewd:figID="170">
      <path style="fill:#FFFFFF;stroke:#FFFFFF;stroke-width:0;stroke-linecap:round;stroke-linejoin:round;" d="M 3743.99,179.43 L 3739.74, 175.18 L 3735.49, 179.43 L 3735.49, 172.88 L 3743.99, 172.88 L 3743.99, 179.43" />
      <path style="fill:#FFFFFF;stroke:#FFFFFF;stroke-width:0;stroke-linecap:round;stroke-linejoin:round;" d="M 3743.99,182.26 L 3739.74, 178.01 L 3735.49, 182.26 L 3735.49, 175.71 L 3743.99, 175.71 L 3743.99, 182.26" />
      <path style="fill:none;stroke:#000000;stroke-width:0.85;" d="M 3743.99,179.96 L 3739.74, 175.71 L 3735.49, 179.96" />
      <path style="fill:none;stroke:#000000;stroke-width:0.85;" d="M 3743.99,177.13 L 3739.74, 172.88 L 3735.49, 177.13" />
      <path style="fill:none;stroke:#000000;stroke-width:0.85;stroke-linecap:round;stroke-linejoin:round;" d="M 3749.66,164.37 L 3749.66, 172.87 L 3729.82, 172.87 L 3729.82, 164.37 L 3749.66, 164.37" />
      <text transform="matrix(1 0 0 1 3721.7305 170.3276)" style="font-family:'Arial'; font-size:6px;">51</text>
    </g><g ewd:figtype="gp" ewd:code="Y1" ewd:figID="171">
      <path style="fill:none;stroke:#000000;stroke-width:0.85;" d="M 3544.15,708.63 L 3544.15, 711.46" />
      <path style="fill:none;stroke:#000000;stroke-width:0.85;" d="M 3542.73,719.97 L 3545.57, 719.97" />
      <path style="fill:none;stroke:#000000;stroke-width:0.85;" d="M 3541.32,717.13 L 3546.99, 717.13" />
      <path style="fill:none;stroke:#000000;stroke-width:0.85;" d="M 3538.48,714.3 L 3549.82, 714.3" />
      <path style="fill:none;stroke:#000000;stroke-width:0.85;" d="M 3535.65,711.46 L 3552.66, 711.46" />
    </g><g ewd:figtype="w2w" ewd:code="BT1" ewd:pin_no="13" ewd:figID="183">
      <path style="fill:#FFFFFF;stroke:#FFFFFF;stroke-width:0;stroke-linecap:round;stroke-linejoin:round;" d="M 3599.43,306.99 L 3595.18, 302.74 L 3590.93, 306.99 L 3590.93, 300.44 L 3599.43, 300.44 L 3599.43, 306.99" />
      <path style="fill:#FFFFFF;stroke:#FFFFFF;stroke-width:0;stroke-linecap:round;stroke-linejoin:round;" d="M 3599.43,309.82 L 3595.18, 305.57 L 3590.93, 309.82 L 3590.93, 303.27 L 3599.43, 303.27 L 3599.43, 309.82" />
      <path style="fill:none;stroke:#000000;stroke-width:0.85;" d="M 3599.43,307.52 L 3595.18, 303.27 L 3590.93, 307.52" />
      <path style="fill:none;stroke:#000000;stroke-width:0.85;" d="M 3599.43,304.69 L 3595.18, 300.44 L 3590.93, 304.69" />
      <path style="fill:none;stroke:#000000;stroke-width:0.85;stroke-linecap:round;stroke-linejoin:round;" d="M 3605.1,291.93 L 3605.1, 300.43 L 3585.26, 300.43 L 3585.26, 291.93 L 3605.1, 291.93" />
      <text transform="matrix(1 0 0 1 3577.1631 297.8901)" style="font-family:'Arial'; font-size:6px;">13</text>
    </g><g ewd:figtype="w2w" ewd:code="BT1" ewd:pin_no="6" ewd:figID="184">
      <path style="fill:#FFFFFF;stroke:#FFFFFF;stroke-width:0;stroke-linecap:round;stroke-linejoin:round;" d="M 3548.4,306.99 L 3544.15, 302.74 L 3539.9, 306.99 L 3539.9, 300.44 L 3548.4, 300.44 L 3548.4, 306.99" />
      <path style="fill:#FFFFFF;stroke:#FFFFFF;stroke-width:0;stroke-linecap:round;stroke-linejoin:round;" d="M 3548.4,309.82 L 3544.15, 305.57 L 3539.9, 309.82 L 3539.9, 303.27 L 3548.4, 303.27 L 3548.4, 309.82" />
      <path style="fill:none;stroke:#000000;stroke-width:0.85;" d="M 3548.4,307.52 L 3544.15, 303.27 L 3539.9, 307.52" />
      <path style="fill:none;stroke:#000000;stroke-width:0.85;" d="M 3548.4,304.69 L 3544.15, 300.44 L 3539.9, 304.69" />
      <path style="fill:none;stroke:#000000;stroke-width:0.85;stroke-linecap:round;stroke-linejoin:round;" d="M 3554.07,291.93 L 3554.07, 300.43 L 3534.23, 300.43 L 3534.23, 291.93 L 3554.07, 291.93" />
      <text transform="matrix(1 0 0 1 3529.4766 297.8901)" style="font-family:'Arial'; font-size:6px;">6</text>
    </g><g ewd:figtype="w2w" ewd:code="BT1" ewd:pin_no="7" ewd:figID="185">
      <path style="fill:#FFFFFF;stroke:#FFFFFF;stroke-width:0;stroke-linecap:round;stroke-linejoin:round;" d="M 3650.45,306.99 L 3646.2, 302.74 L 3641.95, 306.99 L 3641.95, 300.44 L 3650.46, 300.44 L 3650.46, 306.99" />
      <path style="fill:#FFFFFF;stroke:#FFFFFF;stroke-width:0;stroke-linecap:round;stroke-linejoin:round;" d="M 3650.45,309.82 L 3646.2, 305.57 L 3641.95, 309.82 L 3641.95, 303.27 L 3650.46, 303.27 L 3650.46, 309.82" />
      <path style="fill:none;stroke:#000000;stroke-width:0.85;" d="M 3650.45,307.52 L 3646.2, 303.27 L 3641.95, 307.52" />
      <path style="fill:none;stroke:#000000;stroke-width:0.85;" d="M 3650.45,304.69 L 3646.2, 300.44 L 3641.95, 304.69" />
      <path style="fill:none;stroke:#000000;stroke-width:0.85;stroke-linecap:round;stroke-linejoin:round;" d="M 3656.12,291.93 L 3656.12, 300.43 L 3636.28, 300.43 L 3636.28, 291.93 L 3656.12, 291.93" />
      <text transform="matrix(1 0 0 1 3631.5234 297.8901)" style="font-family:'Arial'; font-size:6px;">7</text>
    </g><g ewd:figtype="w2w" ewd:code="TY5" ewd:pin_no="14" ewd:figID="186">
      <path style="fill:#FFFFFF;stroke:#FFFFFF;stroke-width:0;stroke-linecap:round;stroke-linejoin:round;" d="M 3599.43,358.01 L 3595.18, 353.76 L 3590.93, 358.01 L 3590.93, 351.46 L 3599.43, 351.46 L 3599.43, 358.01" />
      <path style="fill:#FFFFFF;stroke:#FFFFFF;stroke-width:0;stroke-linecap:round;stroke-linejoin:round;" d="M 3599.43,360.85 L 3595.18, 356.6 L 3590.93, 360.85 L 3590.93, 354.3 L 3599.43, 354.3 L 3599.43, 360.85" />
      <path style="fill:none;stroke:#000000;stroke-width:0.85;" d="M 3599.43,358.55 L 3595.18, 354.3 L 3590.93, 358.55" />
      <path style="fill:none;stroke:#000000;stroke-width:0.85;" d="M 3599.43,355.71 L 3595.18, 351.46 L 3590.93, 355.71" />
      <path style="fill:none;stroke:#000000;stroke-width:0.85;stroke-linecap:round;stroke-linejoin:round;" d="M 3605.1,342.96 L 3605.1, 351.46 L 3585.26, 351.46 L 3585.26, 342.96 L 3605.1, 342.96" />
      <text transform="matrix(1 0 0 1 3577.1631 348.9141)" style="font-family:'Arial'; font-size:6px;">14</text>
    </g><g ewd:figtype="w2w" ewd:code="TY5" ewd:pin_no="4" ewd:figID="187">
      <path style="fill:#FFFFFF;stroke:#FFFFFF;stroke-width:0;stroke-linecap:round;stroke-linejoin:round;" d="M 3548.4,358.01 L 3544.15, 353.76 L 3539.9, 358.01 L 3539.9, 351.46 L 3548.4, 351.46 L 3548.4, 358.01" />
      <path style="fill:#FFFFFF;stroke:#FFFFFF;stroke-width:0;stroke-linecap:round;stroke-linejoin:round;" d="M 3548.4,360.85 L 3544.15, 356.6 L 3539.9, 360.85 L 3539.9, 354.3 L 3548.4, 354.3 L 3548.4, 360.85" />
      <path style="fill:none;stroke:#000000;stroke-width:0.85;" d="M 3548.4,358.55 L 3544.15, 354.3 L 3539.9, 358.55" />
      <path style="fill:none;stroke:#000000;stroke-width:0.85;" d="M 3548.4,355.71 L 3544.15, 351.46 L 3539.9, 355.71" />
      <path style="fill:none;stroke:#000000;stroke-width:0.85;stroke-linecap:round;stroke-linejoin:round;" d="M 3554.07,342.96 L 3554.07, 351.46 L 3534.23, 351.46 L 3534.23, 342.96 L 3554.07, 342.96" />
      <text transform="matrix(1 0 0 1 3529.4766 348.9141)" style="font-family:'Arial'; font-size:6px;">4</text>
    </g><g ewd:figtype="w2w" ewd:code="TY5" ewd:pin_no="15" ewd:figID="188">
      <path style="fill:#FFFFFF;stroke:#FFFFFF;stroke-width:0;stroke-linecap:round;stroke-linejoin:round;" d="M 3650.45,358.01 L 3646.2, 353.76 L 3641.95, 358.01 L 3641.95, 351.46 L 3650.46, 351.46 L 3650.46, 358.01" />
      <path style="fill:#FFFFFF;stroke:#FFFFFF;stroke-width:0;stroke-linecap:round;stroke-linejoin:round;" d="M 3650.45,360.85 L 3646.2, 356.6 L 3641.95, 360.85 L 3641.95, 354.3 L 3650.46, 354.3 L 3650.46, 360.85" />
      <path style="fill:none;stroke:#000000;stroke-width:0.85;" d="M 3650.45,358.55 L 3646.2, 354.3 L 3641.95, 358.55" />
      <path style="fill:none;stroke:#000000;stroke-width:0.85;" d="M 3650.45,355.71 L 3646.2, 351.46 L 3641.95, 355.71" />
      <path style="fill:none;stroke:#000000;stroke-width:0.85;stroke-linecap:round;stroke-linejoin:round;" d="M 3656.12,342.96 L 3656.12, 351.46 L 3636.28, 351.46 L 3636.28, 342.96 L 3656.12, 342.96" />
      <text transform="matrix(1 0 0 1 3628.1865 348.9141)" style="font-family:'Arial'; font-size:6px;">15</text>
    </g><g ewd:figtype="conn" ewd:code="Y2" ewd:figID="43">
      <path style="fill:none;stroke:#000000;stroke-width:1.417;stroke-linecap:round;stroke-linejoin:round;" d="M 3663.21,436.5 L 3663.21, 402.49 L 3527.14, 402.49 L 3527.14, 436.5 L 3663.21, 436.5" />
      <g ewd:lineID="151">
        <text transform="matrix(1 0 0 1 3535.8535 443.874)" style="font-family:'Arial'; font-size:6px;">1</text>
        <text transform="matrix(1 0 0 1 3537.4854 432.5361)" style="font-family:'Arial'; font-size:6px;">GND</text>
      </g>
      <g ewd:lineID="155">
        <text transform="matrix(1 0 0 1 3637.9004 398.5205)" style="font-family:'Arial'; font-size:6px;">2</text>
        <text transform="matrix(1 0 0 1 3639.8662 409.8594)" style="font-family:'Arial'; font-size:6px;">RDA</text>
      </g>
      <g ewd:lineID="159">
        <text transform="matrix(1 0 0 1 3586.877 398.5205)" style="font-family:'Arial'; font-size:6px;">3</text>
        <text transform="matrix(1 0 0 1 3588.6738 409.8594)" style="font-family:'Arial'; font-size:6px;">PRG</text>
      </g>
      <g ewd:lineID="9">
        <text transform="matrix(1 0 0 1 3535.8535 398.5205)" style="font-family:'Arial'; font-size:6px;">5</text>
        <text transform="matrix(1 0 0 1 3540.3984 409.8594)" style="font-family:'Arial'; font-size:6px;">+B</text>
      </g>
      <g ewd:figtype="title">
        <text transform="matrix(1 0 0 1 3578.167 444.583)" style="font-family:'Arial'; font-size:6px;">Y2</text>
        <text transform="matrix(1 0 0 1 3578.167 451.6699)" style="font-family:'Arial'; font-size:6px;" ewd:textID="12">Door Control Receiver</text>
      </g>
    </g><g ewd:figtype="w2w" ewd:code="HB1" ewd:pin_no="33" ewd:figID="189">
      <path style="fill:#FFFFFF;stroke:#FFFFFF;stroke-width:0;stroke-linecap:round;stroke-linejoin:round;" d="M 3437.85,149.31 L 3433.6, 153.56 L 3429.35, 149.31 L 3429.35, 155.86 L 3437.85, 155.86 L 3437.85, 149.31" />
      <path style="fill:#FFFFFF;stroke:#FFFFFF;stroke-width:0;stroke-linecap:round;stroke-linejoin:round;" d="M 3437.85,146.48 L 3433.6, 150.73 L 3429.35, 146.48 L 3429.35, 153.03 L 3437.85, 153.03 L 3437.85, 146.48" />
      <path style="fill:none;stroke:#000000;stroke-width:0.85;" d="M 3437.85,148.78 L 3433.6, 153.03 L 3429.35, 148.78" />
      <path style="fill:none;stroke:#000000;stroke-width:0.85;" d="M 3437.85,151.61 L 3433.6, 155.86 L 3429.35, 151.61" />
      <path style="fill:none;stroke:#000000;stroke-width:0.85;stroke-linecap:round;stroke-linejoin:round;" d="M 3443.52,164.37 L 3443.52, 155.87 L 3423.68, 155.87 L 3423.68, 164.37 L 3443.52, 164.37" />
      <text transform="matrix(1 0 0 1 3415.5869 161.8247)" style="font-family:'Arial'; font-size:6px;">33</text>
    </g><g ewd:figtype="conn" ewd:code="H7" ewd:figID="44">
      <path style="fill:none;stroke:#000000;stroke-width:1.417;stroke-linecap:round;stroke-linejoin:round;" d="M 4037.38,96.34 L 4037.38, 45.32 L 3578.17, 45.32 L 3578.17, 96.34 L 4037.38, 96.34" />
      <g ewd:lineID="152">
        <path style="fill:#FFFFFF;stroke:#000000;stroke-width:0.85;stroke-linecap:round;stroke-linejoin:round;" d="M 3646.2,107.68 C 3649.33 107.68 3651.87 105.14 3651.87 102.01 C 3651.870234375 98.8800042724609 3649.33 96.34 3646.2 96.34 C 3643.07 96.34 3640.53 98.88 3640.53 102.01 C 3640.53005859375 105.140004272461 3643.07 107.68 3646.2 107.68" />
        <text transform="matrix(1 0 0 1 3644.1963 103.7134)" style="font-family:'Arial'; font-size:6px;">A</text>
        <text transform="matrix(1 0 0 1 3635.6318 103.7134)" style="font-family:'Arial'; font-size:6px;">7</text>
        <text transform="matrix(1 0 0 1 3639.8643 92.376)" style="font-family:'Arial'; font-size:6px;">RDA</text>
      </g>
      <g ewd:lineID="156">
        <path style="fill:#FFFFFF;stroke:#000000;stroke-width:0.85;stroke-linecap:round;stroke-linejoin:round;" d="M 3595.17,107.68 C 3598.3 107.68 3600.84 105.14 3600.84 102.01 C 3600.84017578125 98.8800042724609 3598.3 96.34 3595.17 96.34 C 3592.03984375 96.3399926757812 3589.5 98.88 3589.5 102.01 C 3589.5 105.140004272461 3592.04 107.68 3595.17 107.68" />
        <text transform="matrix(1 0 0 1 3593.1719 103.7134)" style="font-family:'Arial'; font-size:6px;">A</text>
        <text transform="matrix(1 0 0 1 3584.6084 103.7134)" style="font-family:'Arial'; font-size:6px;">8</text>
        <text transform="matrix(1 0 0 1 3588.6719 92.376)" style="font-family:'Arial'; font-size:6px;">PRG</text>
      </g>
      <g ewd:lineID="19">
        <path style="fill:#FFFFFF;stroke:#000000;stroke-width:0.85;stroke-linecap:round;stroke-linejoin:round;" d="M 3935.33,107.68 C 3938.46 107.68 3941 105.14 3941 102.01 C 3941 98.8800042724609 3938.46 96.34 3935.33 96.34 C 3932.20015625 96.3399926757812 3929.66 98.88 3929.66 102.01 C 3929.65982421875 105.140004272461 3932.2 107.68 3935.33 107.68" />
        <text transform="matrix(1 0 0 1 3933.3311 103.7134)" style="font-family:'Arial'; font-size:6px;">A</text>
        <text transform="matrix(1 0 0 1 3921.4307 103.7134)" style="font-family:'Arial'; font-size:6px;">21</text>
        <text transform="matrix(1 0 0 1 3926.1631 92.376)" style="font-family:'Arial'; font-size:6px;">PSD R</text>
      </g>
      <g ewd:lineID="5">
        <path style="fill:#FFFFFF;stroke:#000000;stroke-width:0.85;stroke-linecap:round;stroke-linejoin:round;" d="M 3739.74,107.68 C 3742.87 107.68 3745.41 105.14 3745.41 102.01 C 3745.40982421875 98.8800042724609 3742.87 96.34 3739.74 96.34 C 3736.60998046875 96.3399926757812 3734.07 98.88 3734.07 102.01 C 3734.07013671875 105.140004272461 3736.61 107.68 3739.74 107.68" />
        <text transform="matrix(1 0 0 1 3737.7412 103.7134)" style="font-family:'Arial'; font-size:6px;">A</text>
        <text transform="matrix(1 0 0 1 3725.8408 103.7134)" style="font-family:'Arial'; font-size:6px;">20</text>
        <text transform="matrix(1 0 0 1 3731.0713 92.376)" style="font-family:'Arial'; font-size:6px;">PSD L</text>
      </g>
      <g ewd:lineID="99999">
        <text transform="matrix(1 0 0 1 4012.0361 92.376)" style="font-family:'Arial'; font-size:6px;">BECU</text>
        <text transform="matrix(1 0 0 1 3974.6846 92.376)" style="font-family:'Arial'; font-size:6px;">IG</text>
        <text transform="matrix(1 0 0 1 3886.1455 92.376)" style="font-family:'Arial'; font-size:6px;">GND</text>
      </g>
      <g ewd:figtype="title">
        <text transform="matrix(1 0 0 1 3799.2695 40.645)" style="font-family:'Arial'; font-size:6px;" ewd:textID="22">Integration Relay</text>
        <text transform="matrix(1 0 0 1 3799.2695 33.5566)" style="font-family:'Arial'; font-size:6px;">H7(A)</text>
      </g>
      <g ewd:figtype="title">
        <text transform="matrix(1 0 0 1 3578.1836 40.645)" style="font-family:'Arial'; font-size:6px;" ewd:textID="22">Integration Relay</text>
        <text transform="matrix(1 0 0 1 3578.1836 33.5566)" style="font-family:'Arial'; font-size:6px;">H7(A)</text>
      </g>
    </g><text transform="matrix(0 -1 1 0 3378.6152 391.3047)" style="font-family:'Arial'; font-size:6px;">W-B</text><text transform="matrix(0 -1 1 0 3540.1875 476.3457)" style="font-family:'Arial'; font-size:6px;">W-B</text><text transform="matrix(0 -1 1 0 3591.209 276.9248)" style="font-family:'Arial'; font-size:6px;">B</text><text transform="matrix(0 -1 1 0 3540.1855 277.7554)" style="font-family:'Arial'; font-size:6px;">W</text><text transform="matrix(0 -1 1 0 3642.2324 277.7554)" style="font-family:'Arial'; font-size:6px;">W</text><text transform="matrix(0 -1 1 0 3591.209 327.9487)" style="font-family:'Arial'; font-size:6px;">B</text><text transform="matrix(0 -1 1 0 3642.2324 328.7793)" style="font-family:'Arial'; font-size:6px;">W</text><text transform="matrix(0 -1 1 0 3540.1846 328.7793)" style="font-family:'Arial'; font-size:6px;">W</text><text transform="matrix(0 -1 1 0 3591.209 378.9727)" style="font-family:'Arial'; font-size:6px;">B</text><text transform="matrix(0 -1 1 0 3642.2324 379.8027)" style="font-family:'Arial'; font-size:6px;">W</text><text transform="matrix(0 -1 1 0 3540.1846 379.8027)" style="font-family:'Arial'; font-size:6px;">W</text><text transform="matrix(0 -1 1 0 3327.5918 133.1865)" style="font-family:'Arial'; font-size:6px;">W</text><text transform="matrix(0 -1 1 0 3378.6152 136.1865)" style="font-family:'Arial'; font-size:6px;">W-B</text><text transform="matrix(0 -1 1 0 3429.6387 132.356)" style="font-family:'Arial'; font-size:6px;">Y</text><text transform="matrix(0 -1 1 0 3480.6621 133.1865)" style="font-family:'Arial'; font-size:6px;">W</text><text transform="matrix(0 -1 1 0 3531.6855 132.356)" style="font-family:'Arial'; font-size:6px;">B</text><text transform="matrix(0 -1 1 0 3591.2129 132.356)" style="font-family:'Arial'; font-size:6px;">B</text><text transform="matrix(0 -1 1 0 3642.2363 133.1865)" style="font-family:'Arial'; font-size:6px;">W</text><text transform="matrix(0 -1 1 0 3735.7822 132.0234)" style="font-family:'Arial'; font-size:6px;">L</text><text transform="matrix(0 -1 1 0 3735.7822 200.0552)" style="font-family:'Arial'; font-size:6px;">L</text><text transform="matrix(0 -1 1 0 3551.5244 381.8047)" style="font-family:'Arial'; font-size:6px;">(*4)</text><text transform="matrix(0 -1 1 0 3551.5244 330.7817)" style="font-family:'Arial'; font-size:6px;">(*4)</text><text transform="matrix(0 -1 1 0 3551.5254 279.7578)" style="font-family:'Arial'; font-size:6px;">(*4)</text><text transform="matrix(1 0 0 1 3658.3652 528.9209)" style="font-family:'Arial'; font-size:6px;">(*2)</text><text transform="matrix(1 0 0 1 3709.3896 528.9209)" style="font-family:'Arial'; font-size:6px;">(*2)</text><text transform="matrix(0 -1 1 0 3338.9277 279.7578)" style="font-family:'Arial'; font-size:6px;">(*2)</text><text transform="matrix(0 -1 1 0 3338.9307 135.189)" style="font-family:'Arial'; font-size:6px;">(*3)</text><text transform="matrix(0 -1 1 0 3440.9785 194.7163)" style="font-family:'Arial'; font-size:6px;">(*3)</text><text transform="matrix(0 -1 1 0 3440.9775 135.189)" style="font-family:'Arial'; font-size:6px;">(*3)</text><text transform="matrix(1 0 0 1 3658.3652 579.9443)" style="font-family:'Arial'; font-size:6px;">(*2)</text><text transform="matrix(1 0 0 1 3709.3896 579.9443)" style="font-family:'Arial'; font-size:6px;">(*2)</text><text transform="matrix(1 0 0 1 3658.3652 605.4561)" style="font-family:'Arial'; font-size:6px;">(*2)</text><text transform="matrix(1 0 0 1 3709.3896 605.4561)" style="font-family:'Arial'; font-size:6px;">(*2)</text><text transform="matrix(1 0 0 1 3658.3652 630.9678)" style="font-family:'Arial'; font-size:6px;">(*2)</text><text transform="matrix(1 0 0 1 3709.3896 630.9678)" style="font-family:'Arial'; font-size:6px;">(*2)</text><text transform="matrix(1 0 0 1 3658.3652 681.9912)" style="font-family:'Arial'; font-size:6px;">(*2)</text><text transform="matrix(1 0 0 1 3709.3896 681.9912)" style="font-family:'Arial'; font-size:6px;">(*2)</text><text transform="matrix(1 0 0 1 3658.3652 656.4795)" style="font-family:'Arial'; font-size:6px;">(*2)</text><text transform="matrix(1 0 0 1 3709.3896 656.4795)" style="font-family:'Arial'; font-size:6px;">(*2)</text><text transform="matrix(1 0 0 1 3658.3662 554.4258)" style="font-family:'Arial'; font-size:6px;">(*3)</text><text transform="matrix(1 0 0 1 3709.3896 554.4258)" style="font-family:'Arial'; font-size:6px;">(*3)</text><text transform="matrix(0 -1 1 0 3551.5273 475.3477)" style="font-family:'Arial'; font-size:6px;">(*4)</text><text transform="matrix(0 -1 1 0 3653.5752 279.7578)" style="font-family:'Arial'; font-size:6px;">(*4)</text><text transform="matrix(0 -1 1 0 3653.5742 330.7817)" style="font-family:'Arial'; font-size:6px;">(*4)</text><text transform="matrix(0 -1 1 0 3653.5742 381.8047)" style="font-family:'Arial'; font-size:6px;">(*4)</text><text transform="matrix(0 -1 1 0 3602.5488 279.7578)" style="font-family:'Arial'; font-size:6px;">(*4)</text><text transform="matrix(0 -1 1 0 3602.5479 330.7817)" style="font-family:'Arial'; font-size:6px;">(*4)</text><text transform="matrix(0 -1 1 0 3602.5479 381.8047)" style="font-family:'Arial'; font-size:6px;">(*4)</text><text transform="matrix(0 -1 1 0 3543.0244 135.189)" style="font-family:'Arial'; font-size:6px;">(*3)</text><text transform="matrix(0 -1 1 0 3492.001 135.189)" style="font-family:'Arial'; font-size:6px;">(*3)</text><text transform="matrix(0 -1 1 0 3389.9541 135.189)" style="font-family:'Arial'; font-size:6px;">(*3)</text><text transform="matrix(0 -1 1 0 3389.9541 390.3066)" style="font-family:'Arial'; font-size:6px;">(*3)</text><text transform="matrix(0 -1 1 0 3429.6387 191.8833)" style="font-family:'Arial'; font-size:6px;">Y</text><text transform="matrix(0 -1 1 0 3327.5879 277.7554)" style="font-family:'Arial'; font-size:6px;">W</text><text transform="matrix(1 0 0 1 3658.7002 543.0869)" style="font-family:'Arial'; font-size:6px;">GR</text><text transform="matrix(1 0 0 1 3661.1982 568.6055)" style="font-family:'Arial'; font-size:6px;">B</text><text transform="matrix(1 0 0 1 3661.1982 594.1172)" style="font-family:'Arial'; font-size:6px;">P</text><text transform="matrix(1 0 0 1 3661.1982 645.1406)" style="font-family:'Arial'; font-size:6px;">V</text><text transform="matrix(1 0 0 1 3661.0322 619.6289)" style="font-family:'Arial'; font-size:6px;">R</text><text transform="matrix(1 0 0 1 3709.7236 543.0869)" style="font-family:'Arial'; font-size:6px;">GR</text><text transform="matrix(1 0 0 1 3657.3672 670.6523)" style="font-family:'Arial'; font-size:6px;">W-B</text><text transform="matrix(1 0 0 1 3712.2217 568.6055)" style="font-family:'Arial'; font-size:6px;">B</text><text transform="matrix(1 0 0 1 3660.3672 517.582)" style="font-family:'Arial'; font-size:6px;">W</text><text transform="matrix(1 0 0 1 3711.3916 517.582)" style="font-family:'Arial'; font-size:6px;">W</text><text transform="matrix(1 0 0 1 3661.5303 253.96)" style="font-family:'Arial'; font-size:6px;">L</text><text transform="matrix(1 0 0 1 3712.5537 253.96)" style="font-family:'Arial'; font-size:6px;">L</text><text transform="matrix(1 0 0 1 3661.1982 219.9443)" style="font-family:'Arial'; font-size:6px;">Y</text><text transform="matrix(1 0 0 1 3712.2217 219.9443)" style="font-family:'Arial'; font-size:6px;">Y</text><text transform="matrix(1 0 0 1 3712.2217 594.1172)" style="font-family:'Arial'; font-size:6px;">P</text><text transform="matrix(1 0 0 1 3712.2217 645.1406)" style="font-family:'Arial'; font-size:6px;">V</text><text transform="matrix(1 0 0 1 3712.0557 619.6289)" style="font-family:'Arial'; font-size:6px;">R</text><text transform="matrix(1 0 0 1 3708.3916 670.6523)" style="font-family:'Arial'; font-size:6px;">W-B</text></svg>