﻿<?xml version="1.0" encoding="utf-8"?>
<!-- Generator: Adobe Illustrator 10.0, SVG Export Plug-In . SVG Version: 3.0.0 Build 77)  -->
<!DOCTYPE svg PUBLIC "-//W3C//DTD SVG 1.0//EN" "http://www.w3.org/TR/2001/REC-SVG-20010904/DTD/svg10.dtd"[
   <!ENTITY ns_flows "http://ns.adobe.com/Flows/1.0/">
   <!ENTITY ns_svg "http://www.w3.org/2000/svg">
   <!ENTITY ns_xlink "http://www.w3.org/1999/xlink">
   <!ENTITY st0 "font-size:7px;font-family:'MS-PGothic';adobe-font-script:japanese;">
   <!ENTITY st1 "font-size:6px;font-family:'ArialMT';">
   <!ENTITY st2 "fill:#FFFFFF;stroke:#000000; stroke-width:1.41;stroke-linecap:round;stroke-linejoin:round;">
   <!ENTITY st3 "fill:#FFFFCC;stroke:#FFFFCC; stroke-width:0.1;stroke-linecap:round;stroke-linejoin:round;">
   <!ENTITY st4 "fill:#CCCCCC;stroke:#CCCCCC; stroke-width:0.1;stroke-linecap:round;stroke-linejoin:round;">
   <!ENTITY st5 "fill:#CCECF4;stroke:#000000; stroke-width:1.133;stroke-linecap:round;stroke-linejoin:round;">
   <!ENTITY st6 "fill:none;stroke-linecap:butt; stroke-linejoin:round;">
   <!ENTITY st7 "fill:none;stroke:#000000;stroke-linecap:round;stroke-linejoin:round;">
   <!ENTITY st8 "enable-background:new;">
   <!ENTITY st9 "fill:#000000;stroke:#000000; stroke-linecap:round;stroke-linejoin:round;">
   <!ENTITY st10 "font-size:9px;font-family:'ArialMT';">
   <!ENTITY st11 "font-size:9px;font-family:'Svg Symbol';">
   <!ENTITY st12 "font-size:6px;font-family:'Svg Symbol';">
   <!ENTITY st13 "fill:none;stroke:#ff0000;stroke-linecap:round;stroke-linejoin:round;">
   <!ENTITY st14 "fill:#FFFF00;stroke:#FFFF00; stroke-width:0.1;stroke-linecap:round;stroke-linejoin:round;">
   <!ENTITY st15 "font-size:6px;font-family:'MS-PGothic';adobe-font-script:japanese;">
   <!ENTITY st16 "1.00 0.00 0.00 1.00">
   <!ENTITY st17 "0.00 -1.00 1.00 0.00">
   <!ENTITY st18 "font-size:6px;font-family:'Arial';">
   <!ENTITY st19 "font-size:9px;font-family:'Arial';">
   <!ENTITY st20 "font-size:6px;font-family:'MS-PGothic','MS PGothic';adobe-font-script:japanese;">
   <!ENTITY st21 "font-size:7px;font-family:'MS-PGothic','MS PGothic';adobe-font-script:japanese;">
   <!ATTLIST svg
       xmlns:ewd CDATA #FIXED "http://shcl.co.jp/ewd"
       xmlns:a CDATA #FIXED "http://ns.adobe.com/AdobeSVGViewerExtensions/3.0/"
       ewd:ver CDATA #IMPLIED >
   <!ATTLIST a
       ewd:lineID CDATA #IMPLIED
       ewd:groupID CDATA #IMPLIED
       ewd:figtype CDATA #IMPLIED
       ewd:code CDATA #IMPLIED
       ewd:figID CDATA #IMPLIED
       ewd:pinNo CDATA #IMPLIED
       ewd:comment CDATA #IMPLIED >
   <!ATTLIST g
       ewd:lineID CDATA #IMPLIED
       ewd:groupID CDATA #IMPLIED
       ewd:figtype CDATA #IMPLIED
       ewd:code CDATA #IMPLIED
       ewd:figID CDATA #IMPLIED
       ewd:pinNo CDATA #IMPLIED
       ewd:comment CDATA #IMPLIED >
   <!ATTLIST text
       ewd:textID CDATA #IMPLIED >
   <!ATTLIST title
       ewd:textID CDATA #IMPLIED >
]>
<svg xmlns="http://www.w3.org/2000/svg" xmlns:xlink="http://www.w3.org/1999/xlink" width="6326.51" height="721" viewBox="0 0 6326.51 721" xml:space="preserve" xmlns:ewd="http://shcl.co.jp/ewd" ewd:ver="2.0">
  
  <defs>
    <font horiz-adv-x="1229">
      <font-face font-family="Svg Symbol" units-per-em="2048" panose-1="5 5 1 2 1 7 6 2 5 7" ascent="2059" descent="450" alphabetic="0" />
      <missing-glyph d="M 103,0 l 0,1280 1024,0 0,-1280 -1024,0 z m 32,32 l 960,0 0,1216 -960,0 0,-1216 z" />
      <glyph d4p1:unicode="" horiz-adv-x="1573" d="M 1517,0 l -567,0 24,279 q 141,59 207.5,168 66.5,109 66.5,306 0,272 -132.5,417.5 -132.5,145.5 -333.5,145.5 -194,0 -328,-147.5 -134,-147.5 -134,-401.5 0,-200 68.5,-319 68.5,-119 206.5,-169 l 25,-279 -564,0 0,279 35,0 q 3,-61 32,-83 45,-35 137,-35 l 270,0 0,70 q -210,61 -324.5,209 -114.5,148 -114.5,349 0,252 186.5,425 186.5,173 504.5,173 195,0 358.5,-73.5 163.5,-73.5 252,-214.5 88.5,-141 88.5,-310 0,-207 -121.5,-360.5 -121.5,-153.5 -317.5,-197.5 l -8,-70 275,0 q 92,0 128,28 36,28 42,90 l 38,0 0,-279 z" xmlns:d4p1="def-glyph-attr-unicode" />
    </font>
  </defs>
  
<g ewd:figtype="rb" ewd:code="FUSE147" ewd:figID="28">
      <path style="fill:none;stroke:#000000;stroke-width:0.85;" d="M 4139.43,80.75 L 4139.43, 87.84" />
      <path style="fill:none;stroke:#000000;stroke-width:0.85;" d="M 4139.43,87.84 L 4139.43, 102.01" />
      <path d="M 4139.43,102.01 L 4142.26, 99.18 L 4142.26, 96.35 L 4139.43, 99.18 L 4136.6, 96.35 L 4136.6, 99.18 L 4139.43, 102.01" style="stroke-linecap:round;stroke-linejoin:round;" />
      <path style="fill:none;stroke:#000000;stroke-width:0.85;stroke-linecap:round;stroke-linejoin:round;" d="M 4143.68,113.35 C 4146.81 113.35 4149.35 110.81 4149.35 107.68 C 4149.35 104.55 4146.81 102.01 4143.68 102.01 L 4135.18, 102.01 C 4132.05 102.01 4129.51 104.55 4129.51 107.68 C 4129.51 110.81 4132.05 113.35 4135.18 113.35 L 4143.68, 113.35" />
      <path style="fill:none;stroke:#000000;stroke-width:0.85;stroke-linecap:round;stroke-linejoin:round;" d="M 4139.43,80.75 C 4140.21 80.75 4140.85 80.12 4140.85 79.33 C 4140.8501953125 78.5400036621094 4140.22 77.91 4139.43 77.91 C 4138.65 77.91 4138.01 78.54 4138.01 79.33 C 4138.00953125 80.1200036621094 4138.65 80.75 4139.43 80.75" />
      <path style="fill:none;stroke:#000000;stroke-width:0.85;stroke-linecap:round;stroke-linejoin:round;" d="M 4139.43,55.24 C 4140.21 55.24 4140.85 54.61 4140.85 53.82 C 4140.8501953125 53.0299993896484 4140.22 52.4 4139.43 52.4 C 4138.65 52.4 4138.01 53.03 4138.01 53.82 C 4138.00953125 54.6099993896484 4138.65 55.24 4139.43 55.24" />
      <path style="fill:none;stroke:#000000;stroke-width:1.417;" d="M 4138.43,54.82 C 4138.43 54.82 4132.36 59.5 4139.43 66.57 C 4146.5 73.64 4140.43 78.32 4140.43 78.32" />
      <path style="fill:none;stroke:#000000;stroke-width:1.417;stroke-linecap:round;stroke-linejoin:round;" d="M 4152.19,87.84 L 4152.19, 45.32 L 4126.68, 45.32 L 4126.68, 87.84 L 4152.19, 87.84" />
      <text transform="matrix(1 0 0 1 4136.0889 109.3848)" style="font-family:'Arial'; font-size:6px;">12</text>
      <text transform="matrix(1 0 0 1 4131.1328 95.2114)" style="font-family:'Arial'; font-size:6px;">2</text>
      <text transform="matrix(1 0 0 1 4134.2646 41.3521)" style="font-family:'Arial'; font-size:6px;">(IG)</text>
      <text transform="matrix(1 0 0 1 4155.0205 61.1953)" style="font-family:'Arial'; font-size:6px;">7.5A<tspan x="0" dy="1em">ECU-IG </tspan><tspan x="0" dy="1em">NO.2</tspan></text>
    </g><g ewd:figtype="jb" ewd:code="6" ewd:figID="1">
      <path style="fill:none;stroke:#000000;stroke-width:0.85;" d="M 3977.85,238.07 L 3977.85, 209.72" />
      <path d="M 3977.85,238.07 L 3980.68, 235.24 L 3980.68, 232.41 L 3977.85, 235.24 L 3975.02, 232.41 L 3975.02, 235.24 L 3977.85, 238.07" style="stroke-linecap:round;stroke-linejoin:round;" />
      <path style="fill:none;stroke:#000000;stroke-width:0.85;stroke-linecap:round;stroke-linejoin:round;" d="M 3982.1,249.41 C 3985.23 249.41 3987.77 246.87 3987.77 243.74 C 3987.77 240.61 3985.23 238.07 3982.1 238.07 L 3973.6, 238.07 C 3970.47 238.07 3967.93 240.61 3967.93 243.74 C 3967.93 246.87 3970.47 249.41 3973.6 249.41 L 3982.1, 249.41" />
      <path d="M 3977.85,209.73 L 3980.68, 212.56 L 3980.68, 215.39 L 3977.85, 212.56 L 3975.02, 215.39 L 3975.02, 212.56 L 3977.85, 209.73" style="stroke-linecap:round;stroke-linejoin:round;" />
      <path style="fill:none;stroke:#000000;stroke-width:0.85;stroke-linecap:round;stroke-linejoin:round;" d="M 3982.1,209.73 C 3985.23 209.73 3987.77 207.19 3987.77 204.06 C 3987.77 200.93 3985.23 198.39 3982.1 198.39 L 3973.6, 198.39 C 3970.47 198.39 3967.93 200.93 3967.93 204.06 C 3967.93 207.19 3970.47 209.73 3973.6 209.73 L 3982.1, 209.73" />
      <text transform="matrix(1 0 0 1 3974.1826 245.4487)" style="font-family:'Arial'; font-size:6px;">6B</text>
      <text transform="matrix(1 0 0 1 3963.1768 245.4487)" style="font-family:'Arial'; font-size:6px;">5</text>
      <text transform="matrix(1 0 0 1 3974.1826 205.7622)" style="font-family:'Arial'; font-size:6px;">6B</text>
      <text transform="matrix(1 0 0 1 3963.1768 205.7622)" style="font-family:'Arial'; font-size:6px;">6</text>
    </g><g ewd:figtype="jb" ewd:code="13" ewd:figID="3">
      <path style="fill:none;stroke:#000000;stroke-width:0.85;" d="M 3892.81,96.34 L 3892.81, 119.02" />
      <path d="M 3892.81,119.02 L 3895.64, 116.19 L 3895.64, 113.36 L 3892.81, 116.19 L 3889.98, 113.36 L 3889.98, 116.19 L 3892.81, 119.02" style="stroke-linecap:round;stroke-linejoin:round;" />
      <path style="fill:none;stroke:#000000;stroke-width:0.85;stroke-linecap:round;stroke-linejoin:round;" d="M 3897.06,130.36 C 3900.19 130.36 3902.73 127.82 3902.73 124.69 C 3902.73 121.56 3900.19 119.02 3897.06 119.02 L 3888.56, 119.02 C 3885.43 119.02 3882.89 121.56 3882.89 124.69 C 3882.89 127.82 3885.43 130.36 3888.56 130.36 L 3897.06, 130.36" />
      <text transform="matrix(1 0 0 1 3884.5146 103.7153)" style="font-family:'Arial'; font-size:6px;">1</text>
      <text transform="matrix(1 0 0 1 3886.9766 126.3926)" style="font-family:'Arial'; font-size:6px;">13M</text>
      <text transform="matrix(1 0 0 1 3878.1377 126.3926)" style="font-family:'Arial'; font-size:6px;">7</text>
    </g><g ewd:figtype="jb" ewd:code="13" ewd:figID="2">
      <path style="fill:none;stroke:#000000;stroke-width:0.85;" d="M 4020.37,96.34 L 4020.37, 121.85 L 4071.39, 121.85 L 4071.39, 87.84" />
      <path style="fill:none;stroke:#000000;stroke-width:0.85;" d="M 4071.4,87.84 L 4071.4, 80.75" />
      <path style="fill:none;stroke:#000000;stroke-width:0.85;" d="M 3977.85,119.02 L 3977.85, 96.34" />
      <path d="M 3977.85,119.02 L 3980.68, 116.19 L 3980.68, 113.36 L 3977.85, 116.19 L 3975.02, 113.36 L 3975.02, 116.19 L 3977.85, 119.02" style="stroke-linecap:round;stroke-linejoin:round;" />
      <path style="fill:none;stroke:#000000;stroke-width:0.85;stroke-linecap:round;stroke-linejoin:round;" d="M 3982.1,130.36 C 3985.23 130.36 3987.77 127.82 3987.77 124.69 C 3987.77 121.56 3985.23 119.02 3982.1 119.02 L 3973.6, 119.02 C 3970.47 119.02 3967.93 121.56 3967.93 124.69 C 3967.93 127.82 3970.47 130.36 3973.6 130.36 L 3982.1, 130.36" />
      <path style="fill:none;stroke:#000000;stroke-width:0.85;stroke-linecap:round;stroke-linejoin:round;" d="M 4071.4,80.75 C 4072.18 80.75 4072.82 80.12 4072.82 79.33 C 4072.82013671875 78.5400036621094 4072.19 77.91 4071.4 77.91 C 4070.62 77.91 4069.98 78.54 4069.98 79.33 C 4069.9799609375 80.1200036621094 4070.62 80.75 4071.4 80.75" />
      <path style="fill:none;stroke:#000000;stroke-width:0.85;stroke-linecap:round;stroke-linejoin:round;" d="M 4071.4,55.24 C 4072.18 55.24 4072.82 54.61 4072.82 53.82 C 4072.82013671875 53.0299993896484 4072.19 52.4 4071.4 52.4 C 4070.62 52.4 4069.98 53.03 4069.98 53.82 C 4069.9799609375 54.6099993896484 4070.62 55.24 4071.4 55.24" />
      <path style="fill:none;stroke:#000000;stroke-width:1.417;" d="M 4070.4,54.82 C 4070.4 54.82 4064.33 59.5 4071.4 66.57 C 4078.47 73.64 4072.4 78.32 4072.4 78.32" />
      <path style="fill:none;stroke:#000000;stroke-width:1.417;stroke-linecap:round;stroke-linejoin:round;" d="M 4084.16,87.84 L 4084.16, 45.32 L 4058.65, 45.32 L 4058.65, 87.84 L 4084.16, 87.84" />
      <text transform="matrix(1 0 0 1 3969.5537 103.7153)" style="font-family:'Arial'; font-size:6px;">5</text>
      <text transform="matrix(1 0 0 1 4012.0732 103.7153)" style="font-family:'Arial'; font-size:6px;">4</text>
      <text transform="matrix(1 0 0 1 3972.3486 126.3926)" style="font-family:'Arial'; font-size:6px;">13C</text>
      <text transform="matrix(1 0 0 1 3963.1768 126.3926)" style="font-family:'Arial'; font-size:6px;">4</text>
      <text transform="matrix(1 0 0 1 4063.1016 95.2114)" style="font-family:'Arial'; font-size:6px;">2</text>
      <text transform="matrix(1 0 0 1 4063.5664 41.3521)" style="font-family:'Arial'; font-size:6px;">(BAT)</text>
      <text transform="matrix(1 0 0 1 4086.9893 64.7388)" style="font-family:'Arial'; font-size:6px;">30A<tspan x="0" dy="1em">DOOR</tspan></text>
    </g><g ewd:figtype="gp" ewd:code="H1" ewd:figID="172">
      <path style="fill:none;stroke:#000000;stroke-width:0.85;" d="M 3892.82,708.63 L 3892.82, 711.46" />
      <path style="fill:none;stroke:#000000;stroke-width:0.85;" d="M 3891.4,719.97 L 3894.24, 719.97" />
      <path style="fill:none;stroke:#000000;stroke-width:0.85;" d="M 3889.98,717.13 L 3895.65, 717.13" />
      <path style="fill:none;stroke:#000000;stroke-width:0.85;" d="M 3887.14,714.3 L 3898.48, 714.3" />
      <path style="fill:none;stroke:#000000;stroke-width:0.85;" d="M 3884.31,711.46 L 3901.32, 711.46" />
    </g><g ewd:figtype="w2w" ewd:code="HB1" ewd:pin_no="57" ewd:figID="190">
      <path style="fill:#FFFFFF;stroke:#FFFFFF;stroke-width:0;stroke-linecap:round;stroke-linejoin:round;" d="M 3786.51,375.02 L 3782.26, 370.77 L 3778.01, 375.02 L 3778.01, 368.47 L 3786.51, 368.47 L 3786.51, 375.02" />
      <path style="fill:#FFFFFF;stroke:#FFFFFF;stroke-width:0;stroke-linecap:round;stroke-linejoin:round;" d="M 3786.51,377.85 L 3782.26, 373.6 L 3778.01, 377.85 L 3778.01, 371.3 L 3786.51, 371.3 L 3786.51, 377.85" />
      <path style="fill:none;stroke:#000000;stroke-width:0.85;" d="M 3786.51,375.55 L 3782.26, 371.3 L 3778.01, 375.55" />
      <path style="fill:none;stroke:#000000;stroke-width:0.85;" d="M 3786.51,372.72 L 3782.26, 368.47 L 3778.01, 372.72" />
      <path style="fill:none;stroke:#000000;stroke-width:0.85;stroke-linecap:round;stroke-linejoin:round;" d="M 3792.18,359.96 L 3792.18, 368.46 L 3772.34, 368.46 L 3772.34, 359.96 L 3792.18, 359.96" />
      <text transform="matrix(1 0 0 1 3764.25 365.9199)" style="font-family:'Arial'; font-size:6px;">57</text>
    </g><g ewd:figtype="w2w" ewd:code="HB1" ewd:pin_no="20" ewd:figID="173">
      <path style="fill:#FFFFFF;stroke:#FFFFFF;stroke-width:0;stroke-linecap:round;stroke-linejoin:round;" d="M 3829.03,375.02 L 3824.78, 370.77 L 3820.53, 375.02 L 3820.53, 368.47 L 3829.03, 368.47 L 3829.03, 375.02" />
      <path style="fill:#FFFFFF;stroke:#FFFFFF;stroke-width:0;stroke-linecap:round;stroke-linejoin:round;" d="M 3829.03,377.85 L 3824.78, 373.6 L 3820.53, 377.85 L 3820.53, 371.3 L 3829.03, 371.3 L 3829.03, 377.85" />
      <path style="fill:none;stroke:#000000;stroke-width:0.85;" d="M 3829.03,375.55 L 3824.78, 371.3 L 3820.53, 375.55" />
      <path style="fill:none;stroke:#000000;stroke-width:0.85;" d="M 3829.03,372.72 L 3824.78, 368.47 L 3820.53, 372.72" />
      <path style="fill:none;stroke:#000000;stroke-width:0.85;stroke-linecap:round;stroke-linejoin:round;" d="M 3834.7,359.96 L 3834.7, 368.46 L 3814.86, 368.46 L 3814.86, 359.96 L 3834.7, 359.96" />
      <text transform="matrix(1 0 0 1 3806.7695 365.9199)" style="font-family:'Arial'; font-size:6px;">20</text>
    </g><g ewd:figtype="w2w" ewd:code="Bq2" ewd:pin_no="5" ewd:figID="174">
      <path style="fill:#FFFFFF;stroke:#FFFFFF;stroke-width:0;stroke-linecap:round;stroke-linejoin:round;" d="M 3786.51,443.05 L 3782.26, 438.8 L 3778.01, 443.05 L 3778.01, 436.5 L 3786.51, 436.5 L 3786.51, 443.05" />
      <path style="fill:#FFFFFF;stroke:#FFFFFF;stroke-width:0;stroke-linecap:round;stroke-linejoin:round;" d="M 3786.51,445.88 L 3782.26, 441.63 L 3778.01, 445.88 L 3778.01, 439.33 L 3786.51, 439.33 L 3786.51, 445.88" />
      <path style="fill:none;stroke:#000000;stroke-width:0.85;" d="M 3786.51,443.58 L 3782.26, 439.33 L 3778.01, 443.58" />
      <path style="fill:none;stroke:#000000;stroke-width:0.85;" d="M 3786.51,440.75 L 3782.26, 436.5 L 3778.01, 440.75" />
      <path style="fill:none;stroke:#000000;stroke-width:0.85;stroke-linecap:round;stroke-linejoin:round;" d="M 3792.18,427.99 L 3792.18, 436.49 L 3772.34, 436.49 L 3772.34, 427.99 L 3792.18, 427.99" />
      <text transform="matrix(1 0 0 1 3767.5869 433.9512)" style="font-family:'Arial'; font-size:6px;">5</text>
    </g><g ewd:figtype="w2w" ewd:code="Bi2" ewd:pin_no="5" ewd:figID="175">
      <path style="fill:#FFFFFF;stroke:#FFFFFF;stroke-width:0;stroke-linecap:round;stroke-linejoin:round;" d="M 3829.03,443.05 L 3824.78, 438.8 L 3820.53, 443.05 L 3820.53, 436.5 L 3829.03, 436.5 L 3829.03, 443.05" />
      <path style="fill:#FFFFFF;stroke:#FFFFFF;stroke-width:0;stroke-linecap:round;stroke-linejoin:round;" d="M 3829.03,445.88 L 3824.78, 441.63 L 3820.53, 445.88 L 3820.53, 439.33 L 3829.03, 439.33 L 3829.03, 445.88" />
      <path style="fill:none;stroke:#000000;stroke-width:0.85;" d="M 3829.03,443.58 L 3824.78, 439.33 L 3820.53, 443.58" />
      <path style="fill:none;stroke:#000000;stroke-width:0.85;" d="M 3829.03,440.75 L 3824.78, 436.5 L 3820.53, 440.75" />
      <path style="fill:none;stroke:#000000;stroke-width:0.85;stroke-linecap:round;stroke-linejoin:round;" d="M 3834.7,427.99 L 3834.7, 436.49 L 3814.86, 436.49 L 3814.86, 427.99 L 3834.7, 427.99" />
      <text transform="matrix(1 0 0 1 3810.1064 433.9512)" style="font-family:'Arial'; font-size:6px;">5</text>
    </g><g ewd:figtype="conn" ewd:code="H89" ewd:figID="41">
      <path style="fill:none;stroke:#000000;stroke-width:0.85;" d="M 3824.78,172.88 L 3824.78, 164.38 L 3782.26, 164.38 L 3782.26, 172.88" />
      <path style="fill:none;stroke:#000000;stroke-width:1.417;stroke-linecap:round;stroke-linejoin:round;" d="M 3833.29,172.88 L 3833.29, 155.87 L 3773.76, 155.87 L 3773.76, 172.88 L 3833.29, 172.88" />
      <text transform="matrix(1 0 0 1 3813.1475 180.2529)" style="font-family:'Arial'; font-size:6px;">18</text>
      <text transform="matrix(1 0 0 1 3770.6279 180.2529)" style="font-family:'Arial'; font-size:6px;">21</text>
      <g ewd:figtype="title">
        <text transform="matrix(0 -1 1 0 3848.457 172.877)" style="font-family:'Arial'; font-size:6px;" ewd:textID="23">Junction Connector</text>
        <text transform="matrix(0 -1 1 0 3841.3701 172.877)" style="font-family:'Arial'; font-size:6px;">H89</text>
      </g>
    </g><g ewd:figtype="conn" ewd:code="H86" ewd:figID="42">
      <path style="fill:none;stroke:#000000;stroke-width:0.85;" d="M 3824.78,266.42 L 3782.26, 266.42 L 3782.26, 291.93" />
      <path style="fill:none;stroke:#000000;stroke-width:0.85;" d="M 3824.78,291.93 L 3824.78, 257.92" />
      <path d="M 3776.59,274.92 L 3787.93, 274.92 L 3782.26, 283.42 L 3776.59, 274.92" style="stroke-linecap:round;stroke-linejoin:round;" />
      <path style="fill:none;stroke:#000000;stroke-width:0.85;" d="M 3776.59,283.43 L 3787.93, 283.43" />
      <path d="M 3819.11,274.92 L 3830.45, 274.92 L 3824.78, 283.42 L 3819.11, 274.92" style="stroke-linecap:round;stroke-linejoin:round;" />
      <path style="fill:none;stroke:#000000;stroke-width:0.85;" d="M 3819.11,283.43 L 3830.45, 283.43" />
      <path d="M 3824.78,265 C 3825.56 265 3826.2 265.63 3826.2 266.42 C 3826.2 267.2 3825.57 267.84 3824.78 267.84 C 3824 267.84 3823.36 267.21 3823.36 266.42 C 3823.36 265.64 3824 265 3824.78 265" style="stroke-linecap:round;stroke-linejoin:round;" />
      <path style="fill:none;stroke:#000000;stroke-width:1.417;stroke-linecap:round;stroke-linejoin:round;" d="M 3833.29,257.92 L 3833.29, 291.93 L 3773.76, 291.93 L 3773.76, 257.92 L 3833.29, 257.92" />
      <text transform="matrix(1 0 0 1 3773.9639 299.3062)" style="font-family:'Arial'; font-size:6px;">1</text>
      <text transform="matrix(1 0 0 1 3816.4844 253.9526)" style="font-family:'Arial'; font-size:6px;">2</text>
      <text transform="matrix(1 0 0 1 3816.4844 299.3062)" style="font-family:'Arial'; font-size:6px;">3</text>
      <g ewd:figtype="title">
        <text transform="matrix(0 -1 1 0 3848.457 291.9302)" style="font-family:'Arial'; font-size:6px;" ewd:textID="10">Diode (Door Lock)</text>
        <text transform="matrix(0 -1 1 0 3841.3701 291.9302)" style="font-family:'Arial'; font-size:6px;">H86</text>
      </g>
    </g><g ewd:figtype="w2w" ewd:code="HB1" ewd:pin_no="23" ewd:figID="176">
      <path style="fill:#FFFFFF;stroke:#FFFFFF;stroke-width:0;stroke-linecap:round;stroke-linejoin:round;" d="M 4143.68,234.36 L 4139.43, 238.61 L 4135.18, 234.36 L 4135.18, 240.91 L 4143.68, 240.91 L 4143.68, 234.36" />
      <path style="fill:#FFFFFF;stroke:#FFFFFF;stroke-width:0;stroke-linecap:round;stroke-linejoin:round;" d="M 4143.68,231.52 L 4139.43, 235.77 L 4135.18, 231.52 L 4135.18, 238.07 L 4143.68, 238.07 L 4143.68, 231.52" />
      <path style="fill:none;stroke:#000000;stroke-width:0.85;" d="M 4143.68,233.82 L 4139.43, 238.07 L 4135.18, 233.82" />
      <path style="fill:none;stroke:#000000;stroke-width:0.85;" d="M 4143.68,236.66 L 4139.43, 240.91 L 4135.18, 236.66" />
      <path style="fill:none;stroke:#000000;stroke-width:0.85;stroke-linecap:round;stroke-linejoin:round;" d="M 4149.35,249.41 L 4149.35, 240.91 L 4129.51, 240.91 L 4129.51, 249.41 L 4149.35, 249.41" />
      <text transform="matrix(1 0 0 1 4121.415 246.8662)" style="font-family:'Arial'; font-size:6px;">23</text>
    </g><g ewd:figtype="w2w" ewd:code="HB1" ewd:pin_no="56" ewd:figID="177">
      <path style="fill:#FFFFFF;stroke:#FFFFFF;stroke-width:0;stroke-linecap:round;stroke-linejoin:round;" d="M 3939.58,213.44 L 3935.33, 209.19 L 3931.08, 213.44 L 3931.08, 206.89 L 3939.58, 206.89 L 3939.58, 213.44" />
      <path style="fill:#FFFFFF;stroke:#FFFFFF;stroke-width:0;stroke-linecap:round;stroke-linejoin:round;" d="M 3939.58,216.28 L 3935.33, 212.03 L 3931.08, 216.28 L 3931.08, 209.73 L 3939.58, 209.73 L 3939.58, 216.28" />
      <path style="fill:none;stroke:#000000;stroke-width:0.85;" d="M 3939.58,213.98 L 3935.33, 209.73 L 3931.08, 213.98" />
      <path style="fill:none;stroke:#000000;stroke-width:0.85;" d="M 3939.58,211.14 L 3935.33, 206.89 L 3931.08, 211.14" />
      <path style="fill:none;stroke:#000000;stroke-width:0.85;stroke-linecap:round;stroke-linejoin:round;" d="M 3945.25,198.39 L 3945.25, 206.89 L 3925.41, 206.89 L 3925.41, 198.39 L 3945.25, 198.39" />
      <text transform="matrix(1 0 0 1 3917.3203 204.3447)" style="font-family:'Arial'; font-size:6px;">56</text>
    </g><g ewd:figtype="comment" ewd:code="2" ewd:figID="1007">
      <text transform="matrix(1 0 0 1 3952.3398 390.7432)" style="font-family:'Arial'; font-size:6px;" ewd:textID="2">*2 : w/ Power Slide Door LH w/ Power Slide Door RH</text>
    </g><g ewd:figtype="comment" ewd:code="3" ewd:figID="1006">
      <text transform="matrix(1 0 0 1 3952.2783 398.7373)" style="font-family:'Arial'; font-size:6px;" ewd:textID="3">*3 : w/ Entry and Start System</text>
    </g><g ewd:figtype="comment" ewd:code="4" ewd:figID="1005">
      <text transform="matrix(1 0 0 1 3952.2783 407.2412)" style="font-family:'Arial'; font-size:6px;" ewd:textID="4">*4 : w/o Entry and Start System</text>
    </g><text transform="matrix(0 -1 1 0 3931.3721 157.5352)" style="font-family:'Arial'; font-size:6px;">L</text><text transform="matrix(0 -1 1 0 3973.8916 157.8677)" style="font-family:'Arial'; font-size:6px;">B</text><text transform="matrix(0 -1 1 0 4135.4668 276.9229)" style="font-family:'Arial'; font-size:6px;">B</text><text transform="matrix(0 -1 1 0 3820.8193 208.8945)" style="font-family:'Arial'; font-size:6px;">Y</text><text transform="matrix(0 -1 1 0 3778.2998 208.8945)" style="font-family:'Arial'; font-size:6px;">Y</text><text transform="matrix(0 -1 1 0 4135.4668 149.3638)" style="font-family:'Arial'; font-size:6px;">B</text><text transform="matrix(0 -1 1 0 4135.4668 200.3877)" style="font-family:'Arial'; font-size:6px;">B</text><text transform="matrix(0 -1 1 0 3888.8525 161.6982)" style="font-family:'Arial'; font-size:6px;">W-B</text><text transform="matrix(0 -1 1 0 3820.8174 327.9482)" style="font-family:'Arial'; font-size:6px;">B</text><text transform="matrix(0 -1 1 0 3778.2979 327.6157)" style="font-family:'Arial'; font-size:6px;">L</text><text transform="matrix(0 -1 1 0 3820.8174 405.3145)" style="font-family:'Arial'; font-size:6px;">W</text><text transform="matrix(0 -1 1 0 3778.2979 406.9824)" style="font-family:'Arial'; font-size:6px;">GR</text><text transform="matrix(0 -1 1 0 3778.2979 466.5098)" style="font-family:'Arial'; font-size:6px;">GR</text><text transform="matrix(1 0 0 1 4185.6201 503.4023)" style="font-family:'Arial'; font-size:6px;">(*2)</text><text transform="matrix(1 0 0 1 4236.6338 503.4023)" style="font-family:'Arial'; font-size:6px;">(*2)</text><text transform="matrix(0 -1 1 0 3942.709 279.7588)" style="font-family:'Arial'; font-size:6px;">(*2)</text><text transform="matrix(0 -1 1 0 3942.7109 160.7007)" style="font-family:'Arial'; font-size:6px;">(*2)</text><text transform="matrix(1 0 0 1 4185.6211 528.9141)" style="font-family:'Arial'; font-size:6px;">(*2)</text><text transform="matrix(1 0 0 1 4236.6357 528.9141)" style="font-family:'Arial'; font-size:6px;">(*2)</text><text transform="matrix(1 0 0 1 4185.6201 554.4258)" style="font-family:'Arial'; font-size:6px;">(*3)</text><text transform="matrix(1 0 0 1 4236.6338 554.4258)" style="font-family:'Arial'; font-size:6px;">(*3)</text><text transform="matrix(0 -1 1 0 3832.1563 466.8438)" style="font-family:'Arial'; font-size:6px;">(*3)</text><text transform="matrix(0 -1 1 0 3832.1563 407.3164)" style="font-family:'Arial'; font-size:6px;">(*3)</text><text transform="matrix(0 -1 1 0 3832.1563 330.7813)" style="font-family:'Arial'; font-size:6px;">(*3)</text><text transform="matrix(0 -1 1 0 3832.1582 211.7275)" style="font-family:'Arial'; font-size:6px;">(*3)</text><text transform="matrix(0 -1 1 0 3789.6387 211.7275)" style="font-family:'Arial'; font-size:6px;">(*3)</text><text transform="matrix(1 0 0 1 4236.626 579.9443)" style="font-family:'Arial'; font-size:6px;">(*2)</text><text transform="matrix(1 0 0 1 4185.6113 579.9443)" style="font-family:'Arial'; font-size:6px;">(*2)</text><text transform="matrix(1 0 0 1 4185.6113 605.4561)" style="font-family:'Arial'; font-size:6px;">(*2)</text><text transform="matrix(1 0 0 1 4236.626 605.4561)" style="font-family:'Arial'; font-size:6px;">(*2)</text><text transform="matrix(1 0 0 1 4185.6113 630.9678)" style="font-family:'Arial'; font-size:6px;">(*2)</text><text transform="matrix(1 0 0 1 4236.626 630.9678)" style="font-family:'Arial'; font-size:6px;">(*2)</text><text transform="matrix(1 0 0 1 4185.6104 681.9912)" style="font-family:'Arial'; font-size:6px;">(*2)</text><text transform="matrix(1 0 0 1 4236.624 681.9912)" style="font-family:'Arial'; font-size:6px;">(*2)</text><text transform="matrix(1 0 0 1 4236.626 656.4795)" style="font-family:'Arial'; font-size:6px;">(*2)</text><text transform="matrix(1 0 0 1 4185.6104 656.4795)" style="font-family:'Arial'; font-size:6px;">(*2)</text><text transform="matrix(0 -1 1 0 3789.6367 330.7813)" style="font-family:'Arial'; font-size:6px;">(*3)</text><text transform="matrix(0 -1 1 0 3789.6367 407.3164)" style="font-family:'Arial'; font-size:6px;">(*3)</text><text transform="matrix(0 -1 1 0 3789.6367 466.8438)" style="font-family:'Arial'; font-size:6px;">(*3)</text><text transform="matrix(0 -1 1 0 3973.8916 276.9229)" style="font-family:'Arial'; font-size:6px;">B</text><text transform="matrix(1 0 0 1 4187.623 517.5752)" style="font-family:'Arial'; font-size:6px;">W</text><text transform="matrix(1 0 0 1 4185.9541 543.0869)" style="font-family:'Arial'; font-size:6px;">GR</text><text transform="matrix(1 0 0 1 4188.7852 492.0635)" style="font-family:'Arial'; font-size:6px;">L</text><text transform="matrix(0 -1 1 0 3931.3701 276.5933)" style="font-family:'Arial'; font-size:6px;">L</text><text transform="matrix(0 -1 1 0 3820.8174 466.5098)" style="font-family:'Arial'; font-size:6px;">GR</text><text transform="matrix(1 0 0 1 4188.4443 568.6055)" style="font-family:'Arial'; font-size:6px;">B</text><text transform="matrix(1 0 0 1 4188.4424 645.1406)" style="font-family:'Arial'; font-size:6px;">V</text><text transform="matrix(1 0 0 1 4188.4443 594.1172)" style="font-family:'Arial'; font-size:6px;">P</text><text transform="matrix(1 0 0 1 4188.2783 619.6289)" style="font-family:'Arial'; font-size:6px;">R</text><text transform="matrix(1 0 0 1 4184.6123 670.6523)" style="font-family:'Arial'; font-size:6px;">W-B</text><text transform="matrix(1 0 0 1 4238.6377 517.5752)" style="font-family:'Arial'; font-size:6px;">W</text><text transform="matrix(1 0 0 1 4236.9678 543.0869)" style="font-family:'Arial'; font-size:6px;">GR</text><text transform="matrix(1 0 0 1 4239.7998 492.0635)" style="font-family:'Arial'; font-size:6px;">L</text><text transform="matrix(1 0 0 1 4239.458 568.6055)" style="font-family:'Arial'; font-size:6px;">B</text><text transform="matrix(1 0 0 1 4239.458 645.1406)" style="font-family:'Arial'; font-size:6px;">V</text><text transform="matrix(1 0 0 1 4239.458 594.1172)" style="font-family:'Arial'; font-size:6px;">P</text><text transform="matrix(1 0 0 1 4239.292 619.6289)" style="font-family:'Arial'; font-size:6px;">R</text><text transform="matrix(1 0 0 1 4235.626 670.6523)" style="font-family:'Arial'; font-size:6px;">W-B</text></svg>