﻿<?xml version="1.0" encoding="utf-8"?>
<!-- Generator: Adobe Illustrator 10.0, SVG Export Plug-In . SVG Version: 3.0.0 Build 77)  -->
<!DOCTYPE svg PUBLIC "-//W3C//DTD SVG 1.0//EN" "http://www.w3.org/TR/2001/REC-SVG-20010904/DTD/svg10.dtd"[
   <!ENTITY ns_flows "http://ns.adobe.com/Flows/1.0/">
   <!ENTITY ns_svg "http://www.w3.org/2000/svg">
   <!ENTITY ns_xlink "http://www.w3.org/1999/xlink">
   <!ENTITY st0 "font-size:7px;font-family:'MS-PGothic';adobe-font-script:japanese;">
   <!ENTITY st1 "font-size:6px;font-family:'ArialMT';">
   <!ENTITY st2 "fill:#FFFFFF;stroke:#000000; stroke-width:1.41;stroke-linecap:round;stroke-linejoin:round;">
   <!ENTITY st3 "fill:#FFFFCC;stroke:#FFFFCC; stroke-width:0.1;stroke-linecap:round;stroke-linejoin:round;">
   <!ENTITY st4 "fill:#CCCCCC;stroke:#CCCCCC; stroke-width:0.1;stroke-linecap:round;stroke-linejoin:round;">
   <!ENTITY st5 "fill:#CCECF4;stroke:#000000; stroke-width:1.133;stroke-linecap:round;stroke-linejoin:round;">
   <!ENTITY st6 "fill:none;stroke-linecap:butt; stroke-linejoin:round;">
   <!ENTITY st7 "fill:none;stroke:#000000;stroke-linecap:round;stroke-linejoin:round;">
   <!ENTITY st8 "enable-background:new;">
   <!ENTITY st9 "fill:#000000;stroke:#000000; stroke-linecap:round;stroke-linejoin:round;">
   <!ENTITY st10 "font-size:9px;font-family:'ArialMT';">
   <!ENTITY st11 "font-size:9px;font-family:'Svg Symbol';">
   <!ENTITY st12 "font-size:6px;font-family:'Svg Symbol';">
   <!ENTITY st13 "fill:none;stroke:#ff0000;stroke-linecap:round;stroke-linejoin:round;">
   <!ENTITY st14 "fill:#FFFF00;stroke:#FFFF00; stroke-width:0.1;stroke-linecap:round;stroke-linejoin:round;">
   <!ENTITY st15 "font-size:6px;font-family:'MS-PGothic';adobe-font-script:japanese;">
   <!ENTITY st16 "1.00 0.00 0.00 1.00">
   <!ENTITY st17 "0.00 -1.00 1.00 0.00">
   <!ENTITY st18 "font-size:6px;font-family:'Arial';">
   <!ENTITY st19 "font-size:9px;font-family:'Arial';">
   <!ENTITY st20 "font-size:6px;font-family:'MS-PGothic','MS PGothic';adobe-font-script:japanese;">
   <!ENTITY st21 "font-size:7px;font-family:'MS-PGothic','MS PGothic';adobe-font-script:japanese;">
   <!ATTLIST svg
       xmlns:ewd CDATA #FIXED "http://shcl.co.jp/ewd"
       xmlns:a CDATA #FIXED "http://ns.adobe.com/AdobeSVGViewerExtensions/3.0/"
       ewd:ver CDATA #IMPLIED >
   <!ATTLIST a
       ewd:lineID CDATA #IMPLIED
       ewd:groupID CDATA #IMPLIED
       ewd:figtype CDATA #IMPLIED
       ewd:code CDATA #IMPLIED
       ewd:figID CDATA #IMPLIED
       ewd:pinNo CDATA #IMPLIED
       ewd:comment CDATA #IMPLIED >
   <!ATTLIST g
       ewd:lineID CDATA #IMPLIED
       ewd:groupID CDATA #IMPLIED
       ewd:figtype CDATA #IMPLIED
       ewd:code CDATA #IMPLIED
       ewd:figID CDATA #IMPLIED
       ewd:pinNo CDATA #IMPLIED
       ewd:comment CDATA #IMPLIED >
   <!ATTLIST text
       ewd:textID CDATA #IMPLIED >
   <!ATTLIST title
       ewd:textID CDATA #IMPLIED >
]>
<svg xmlns="http://www.w3.org/2000/svg" xmlns:xlink="http://www.w3.org/1999/xlink" width="7874.22" height="720.98" viewBox="0 0 7874.22 720.98" xml:space="preserve" xmlns:ewd="http://shcl.co.jp/ewd" ewd:ver="2.0">
  
  <defs>
    <font horiz-adv-x="1229">
      <font-face font-family="Svg Symbol" units-per-em="2048" panose-1="5 5 1 2 1 7 6 2 5 7" ascent="2059" descent="450" alphabetic="0" />
      <missing-glyph d="M 103,0 l 0,1280 1024,0 0,-1280 -1024,0 z m 32,32 l 960,0 0,1216 -960,0 0,-1216 z" />
      <glyph d4p1:unicode="" horiz-adv-x="1573" d="M 1517,0 l -567,0 24,279 q 141,59 207.5,168 66.5,109 66.5,306 0,272 -132.5,417.5 -132.5,145.5 -333.5,145.5 -194,0 -328,-147.5 -134,-147.5 -134,-401.5 0,-200 68.5,-319 68.5,-119 206.5,-169 l 25,-279 -564,0 0,279 35,0 q 3,-61 32,-83 45,-35 137,-35 l 270,0 0,70 q -210,61 -324.5,209 -114.5,148 -114.5,349 0,252 186.5,425 186.5,173 504.5,173 195,0 358.5,-73.5 163.5,-73.5 252,-214.5 88.5,-141 88.5,-310 0,-207 -121.5,-360.5 -121.5,-153.5 -317.5,-197.5 l -8,-70 275,0 q 92,0 128,28 36,28 42,90 l 38,0 0,-279 z" xmlns:d4p1="def-glyph-attr-unicode" />
    </font>
  </defs>
  
<g ewd:figtype="gp" ewd:code="B2" ewd:figID="209">
      <path style="fill:none;stroke:#000000;stroke-width:0.85;" d="M 6112.3,708.63 L 6112.3, 711.46" />
      <path style="fill:none;stroke:#000000;stroke-width:0.85;" d="M 6110.88,719.97 L 6113.72, 719.97" />
      <path style="fill:none;stroke:#000000;stroke-width:0.85;" d="M 6109.46,717.13 L 6115.13, 717.13" />
      <path style="fill:none;stroke:#000000;stroke-width:0.85;" d="M 6106.63,714.3 L 6117.97, 714.3" />
      <path style="fill:none;stroke:#000000;stroke-width:0.85;" d="M 6103.79,711.46 L 6120.8, 711.46" />
    </g><g ewd:figtype="w2w" ewd:code="HB1" ewd:pin_no="20" ewd:figID="218">
      <path style="fill:#FFFFFF;stroke:#FFFFFF;stroke-width:0;stroke-linecap:round;stroke-linejoin:round;" d="M 5835.95,583.02 L 5831.7, 587.27 L 5827.45, 583.02 L 5827.45, 589.57 L 5835.95, 589.57 L 5835.95, 583.02" />
      <path style="fill:#FFFFFF;stroke:#FFFFFF;stroke-width:0;stroke-linecap:round;stroke-linejoin:round;" d="M 5835.95,580.19 L 5831.7, 584.44 L 5827.45, 580.19 L 5827.45, 586.74 L 5835.96, 586.74 L 5835.96, 580.19" />
      <path style="fill:none;stroke:#000000;stroke-width:0.85;" d="M 5835.95,582.49 L 5831.7, 586.74 L 5827.45, 582.49" />
      <path style="fill:none;stroke:#000000;stroke-width:0.85;" d="M 5835.95,585.32 L 5831.7, 589.57 L 5827.45, 585.32" />
      <path style="fill:none;stroke:#000000;stroke-width:0.85;stroke-linecap:round;stroke-linejoin:round;" d="M 5841.62,598.08 L 5841.62, 589.58 L 5821.78, 589.58 L 5821.78, 598.08 L 5841.62, 598.08" />
      <text transform="matrix(1 0 0 1 5813.6875 595.5322)" style="font-family:'Arial'; font-size:6px;">20</text>
    </g><g ewd:figtype="w2w" ewd:code="fc1" ewd:pin_no="2" ewd:figID="240">
      <path style="fill:#FFFFFF;stroke:#FFFFFF;stroke-width:0;stroke-linecap:round;stroke-linejoin:round;" d="M 6231.02,370.42 L 6226.77, 374.67 L 6222.52, 370.42 L 6222.52, 376.97 L 6231.02, 376.97 L 6231.02, 370.42" />
      <path style="fill:#FFFFFF;stroke:#FFFFFF;stroke-width:0;stroke-linecap:round;stroke-linejoin:round;" d="M 6231.02,367.59 L 6226.77, 371.84 L 6222.52, 367.59 L 6222.52, 374.14 L 6231.03, 374.14 L 6231.03, 367.59" />
      <path style="fill:none;stroke:#000000;stroke-width:0.85;" d="M 6231.02,369.89 L 6226.77, 374.14 L 6222.52, 369.89" />
      <path style="fill:none;stroke:#000000;stroke-width:0.85;" d="M 6231.02,372.72 L 6226.77, 376.97 L 6222.52, 372.72" />
      <path style="fill:none;stroke:#000000;stroke-width:0.85;stroke-linecap:round;stroke-linejoin:round;" d="M 6236.69,385.48 L 6236.69, 376.98 L 6216.85, 376.98 L 6216.85, 385.48 L 6236.69, 385.48" />
      <text transform="matrix(1 0 0 1 6212.0928 382.9336)" style="font-family:'Arial'; font-size:6px;">2</text>
    </g><g ewd:figtype="w2w" ewd:code="ci1" ewd:pin_no="2" ewd:figID="242">
      <path style="fill:#FFFFFF;stroke:#FFFFFF;stroke-width:0;stroke-linecap:round;stroke-linejoin:round;" d="M 6232.77,319.4 L 6228.52, 323.65 L 6224.27, 319.4 L 6224.27, 325.95 L 6232.77, 325.95 L 6232.77, 319.4" />
      <path style="fill:#FFFFFF;stroke:#FFFFFF;stroke-width:0;stroke-linecap:round;stroke-linejoin:round;" d="M 6232.77,316.56 L 6228.52, 320.81 L 6224.27, 316.56 L 6224.27, 323.11 L 6232.78, 323.11 L 6232.78, 316.56" />
      <path style="fill:none;stroke:#000000;stroke-width:0.85;" d="M 6232.77,318.86 L 6228.52, 323.11 L 6224.27, 318.86" />
      <path style="fill:none;stroke:#000000;stroke-width:0.85;" d="M 6232.77,321.7 L 6228.52, 325.95 L 6224.27, 321.7" />
      <path style="fill:none;stroke:#000000;stroke-width:0.85;stroke-linecap:round;stroke-linejoin:round;" d="M 6238.44,334.46 L 6238.44, 325.96 L 6218.6, 325.96 L 6218.6, 334.46 L 6238.44, 334.46" />
      <text transform="matrix(1 0 0 1 6213.8428 331.9106)" style="font-family:'Arial'; font-size:6px;">2</text>
    </g><g ewd:figtype="w2w" ewd:code="Mi1" ewd:pin_no="4" ewd:figID="244">
      <path style="fill:#FFFFFF;stroke:#FFFFFF;stroke-width:0;stroke-linecap:round;stroke-linejoin:round;" d="M 6232.77,281.48 L 6228.52, 277.23 L 6224.27, 281.48 L 6224.27, 274.93 L 6232.77, 274.93 L 6232.77, 281.48" />
      <path style="fill:#FFFFFF;stroke:#FFFFFF;stroke-width:0;stroke-linecap:round;stroke-linejoin:round;" d="M 6232.77,284.31 L 6228.52, 280.06 L 6224.27, 284.31 L 6224.27, 277.76 L 6232.77, 277.76 L 6232.77, 284.31" />
      <path style="fill:none;stroke:#000000;stroke-width:0.85;" d="M 6232.77,282.02 L 6228.52, 277.77 L 6224.27, 282.02" />
      <path style="fill:none;stroke:#000000;stroke-width:0.85;" d="M 6232.77,279.18 L 6228.52, 274.93 L 6224.27, 279.18" />
      <path style="fill:none;stroke:#000000;stroke-width:0.85;stroke-linecap:round;stroke-linejoin:round;" d="M 6238.44,266.42 L 6238.44, 274.92 L 6218.6, 274.92 L 6218.6, 266.42 L 6238.44, 266.42" />
      <text transform="matrix(1 0 0 1 6213.8428 272.3823)" style="font-family:'Arial'; font-size:6px;">4</text>
    </g><g ewd:figtype="w2w" ewd:code="MB1" ewd:pin_no="2" ewd:figID="245">
      <path style="fill:#FFFFFF;stroke:#FFFFFF;stroke-width:0;stroke-linecap:round;stroke-linejoin:round;" d="M 6116.55,494.08 L 6112.3, 489.83 L 6108.05, 494.08 L 6108.05, 487.53 L 6116.56, 487.53 L 6116.56, 494.08" />
      <path style="fill:#FFFFFF;stroke:#FFFFFF;stroke-width:0;stroke-linecap:round;stroke-linejoin:round;" d="M 6116.55,496.91 L 6112.3, 492.66 L 6108.05, 496.91 L 6108.05, 490.36 L 6116.56, 490.36 L 6116.56, 496.91" />
      <path style="fill:none;stroke:#000000;stroke-width:0.85;" d="M 6116.55,494.61 L 6112.3, 490.36 L 6108.05, 494.61" />
      <path style="fill:none;stroke:#000000;stroke-width:0.85;" d="M 6116.55,491.78 L 6112.3, 487.53 L 6108.05, 491.78" />
      <path style="fill:none;stroke:#000000;stroke-width:0.85;stroke-linecap:round;stroke-linejoin:round;" d="M 6122.22,479.02 L 6122.22, 487.52 L 6102.38, 487.52 L 6102.38, 479.02 L 6122.22, 479.02" />
      <text transform="matrix(1 0 0 1 6097.624 484.9805)" style="font-family:'Arial'; font-size:6px;">2</text>
    </g><g ewd:figtype="w2w" ewd:code="MB1" ewd:pin_no="6" ewd:figID="220">
      <path style="fill:#FFFFFF;stroke:#FFFFFF;stroke-width:0;stroke-linecap:round;stroke-linejoin:round;" d="M 5835.89,332.5 L 5831.64, 328.25 L 5827.39, 332.5 L 5827.39, 325.95 L 5835.9, 325.95 L 5835.9, 332.5" />
      <path style="fill:#FFFFFF;stroke:#FFFFFF;stroke-width:0;stroke-linecap:round;stroke-linejoin:round;" d="M 5835.89,335.34 L 5831.64, 331.09 L 5827.39, 335.34 L 5827.39, 328.79 L 5835.9, 328.79 L 5835.9, 335.34" />
      <path style="fill:none;stroke:#000000;stroke-width:0.85;" d="M 5835.89,333.04 L 5831.64, 328.79 L 5827.39, 333.04" />
      <path style="fill:none;stroke:#000000;stroke-width:0.85;" d="M 5835.89,330.2 L 5831.64, 325.95 L 5827.39, 330.2" />
      <path style="fill:none;stroke:#000000;stroke-width:0.85;stroke-linecap:round;stroke-linejoin:round;" d="M 5841.56,317.45 L 5841.56, 325.95 L 5821.72, 325.95 L 5821.72, 317.45 L 5841.56, 317.45" />
      <text transform="matrix(1 0 0 1 5816.9678 323.4058)" style="font-family:'Arial'; font-size:6px;">6</text>
    </g><g ewd:figtype="w2w" ewd:code="Mi2" ewd:pin_no="5" ewd:figID="224">
      <path style="fill:#FFFFFF;stroke:#FFFFFF;stroke-width:0;stroke-linecap:round;stroke-linejoin:round;" d="M 5977.16,568.31 L 5972.91, 572.56 L 5977.16, 576.81 L 5970.61, 576.81 L 5970.61, 568.31 L 5977.16, 568.31" />
      <path style="fill:#FFFFFF;stroke:#FFFFFF;stroke-width:0;stroke-linecap:round;stroke-linejoin:round;" d="M 5979.99,568.31 L 5975.74, 572.56 L 5979.99, 576.81 L 5973.44, 576.81 L 5973.44, 568.31 L 5979.99, 568.31" />
      <path style="fill:none;stroke:#000000;stroke-width:0.85;" d="M 5977.69,568.31 L 5973.44, 572.56 L 5977.69, 576.81" />
      <path style="fill:none;stroke:#000000;stroke-width:0.85;" d="M 5974.86,568.31 L 5970.61, 572.56 L 5974.86, 576.81" />
      <path style="fill:none;stroke:#000000;stroke-width:0.85;stroke-linecap:round;stroke-linejoin:round;" d="M 5970.61,576.82 L 5970.61, 568.32 L 5950.77, 568.32 L 5950.77, 576.82 L 5970.61, 576.82" />
      <text transform="matrix(1 0 0 1 5959.0156 566.1211)" style="font-family:'Arial'; font-size:6px;">5</text>
    </g><g ewd:figtype="w2w" ewd:code="fc1" ewd:pin_no="16" ewd:figID="225">
      <path style="fill:#FFFFFF;stroke:#FFFFFF;stroke-width:0;stroke-linecap:round;stroke-linejoin:round;" d="M 6159.13,472.49 L 6154.88, 476.74 L 6150.63, 472.49 L 6150.63, 479.04 L 6159.13, 479.04 L 6159.13, 472.49" />
      <path style="fill:#FFFFFF;stroke:#FFFFFF;stroke-width:0;stroke-linecap:round;stroke-linejoin:round;" d="M 6159.13,469.65 L 6154.88, 473.9 L 6150.63, 469.65 L 6150.63, 476.2 L 6159.13, 476.2 L 6159.13, 469.65" />
      <path style="fill:none;stroke:#000000;stroke-width:0.85;" d="M 6159.13,471.95 L 6154.88, 476.2 L 6150.63, 471.95" />
      <path style="fill:none;stroke:#000000;stroke-width:0.85;" d="M 6159.13,474.79 L 6154.88, 479.04 L 6150.63, 474.79" />
      <path style="fill:none;stroke:#000000;stroke-width:0.85;stroke-linecap:round;stroke-linejoin:round;" d="M 6164.8,487.54 L 6164.8, 479.04 L 6144.96, 479.04 L 6144.96, 487.54 L 6164.8, 487.54" />
      <text transform="matrix(1 0 0 1 6136.8652 484.9951)" style="font-family:'Arial'; font-size:6px;">16</text>
    </g><g ewd:figtype="w2w" ewd:code="ci1" ewd:pin_no="10" ewd:figID="226">
      <path style="fill:#FFFFFF;stroke:#FFFFFF;stroke-width:0;stroke-linecap:round;stroke-linejoin:round;" d="M 6159.11,412.96 L 6154.86, 417.21 L 6150.61, 412.96 L 6150.61, 419.51 L 6159.11, 419.51 L 6159.11, 412.96" />
      <path style="fill:#FFFFFF;stroke:#FFFFFF;stroke-width:0;stroke-linecap:round;stroke-linejoin:round;" d="M 6159.12,410.12 L 6154.87, 414.37 L 6150.62, 410.12 L 6150.62, 416.67 L 6159.13, 416.67 L 6159.13, 410.12" />
      <path style="fill:none;stroke:#000000;stroke-width:0.85;" d="M 6159.12,412.42 L 6154.87, 416.67 L 6150.62, 412.42" />
      <path style="fill:none;stroke:#000000;stroke-width:0.85;" d="M 6159.11,415.26 L 6154.86, 419.51 L 6150.61, 415.26" />
      <path style="fill:none;stroke:#000000;stroke-width:0.85;stroke-linecap:round;stroke-linejoin:round;" d="M 6164.78,428.01 L 6164.78, 419.51 L 6144.94, 419.51 L 6144.94, 428.01 L 6164.78, 428.01" />
      <text transform="matrix(1 0 0 1 6136.8496 425.4678)" style="font-family:'Arial'; font-size:6px;">10</text>
    </g><g ewd:figtype="w2w" ewd:code="Mi1" ewd:pin_no="6" ewd:figID="246">
      <path style="fill:#FFFFFF;stroke:#FFFFFF;stroke-width:0;stroke-linecap:round;stroke-linejoin:round;" d="M 6116.59,412.94 L 6112.34, 417.19 L 6108.09, 412.94 L 6108.09, 419.49 L 6116.59, 419.49 L 6116.59, 412.94" />
      <path style="fill:#FFFFFF;stroke:#FFFFFF;stroke-width:0;stroke-linecap:round;stroke-linejoin:round;" d="M 6116.6,410.11 L 6112.35, 414.36 L 6108.1, 410.11 L 6108.1, 416.66 L 6116.61, 416.66 L 6116.61, 410.11" />
      <path style="fill:none;stroke:#000000;stroke-width:0.85;" d="M 6116.6,412.41 L 6112.35, 416.66 L 6108.1, 412.41" />
      <path style="fill:none;stroke:#000000;stroke-width:0.85;" d="M 6116.59,415.24 L 6112.34, 419.49 L 6108.09, 415.24" />
      <path style="fill:none;stroke:#000000;stroke-width:0.85;stroke-linecap:round;stroke-linejoin:round;" d="M 6122.26,428 L 6122.26, 419.5 L 6102.42, 419.5 L 6102.42, 428 L 6122.26, 428" />
      <text transform="matrix(1 0 0 1 6097.667 425.4531)" style="font-family:'Arial'; font-size:6px;">6</text>
    </g><g ewd:figtype="conn" ewd:code="i3,i4" ewd:figID="69">
      <path style="fill:#FFFFFF;stroke:#000000;stroke-width:0.85;stroke-linecap:round;stroke-linejoin:round;" d="M 6154.85,379.81 C 6157.98 379.81 6160.52 377.27 6160.52 374.14 C 6160.5200390625 371.010029296875 6157.98 368.47 6154.85 368.47 C 6151.7201953125 368.470002441406 6149.18 371.01 6149.18 374.14 C 6149.1803515625 377.270029296875 6151.72 379.81 6154.85 379.81" />
      <path style="fill:#FFFFFF;stroke:#000000;stroke-width:0.85;stroke-linecap:round;stroke-linejoin:round;" d="M 6154.87,334.46 C 6158 334.46 6160.54 331.92 6160.54 328.79 C 6160.540078125 325.660017089844 6158 323.12 6154.87 323.12 C 6151.740234375 323.119990234375 6149.2 325.66 6149.2 328.79 C 6149.200390625 331.920017089844 6151.73 334.46 6154.87 334.46" />
      <path style="fill:none;stroke:#000000;stroke-width:1.417;stroke-linecap:round;stroke-linejoin:round;" d="M 6171.87,368.47 L 6171.87, 334.46 L 6137.84, 334.46 L 6137.84, 368.47 L 6171.87, 368.47" />
      <text transform="matrix(1 0 0 1 6148.1973 364.5103)" style="font-family:'Arial'; font-size:6px;">OSG</text>
      <text transform="matrix(1 0 0 1 6148.1992 341.833)" style="font-family:'Arial'; font-size:6px;">GND</text>
      <text transform="matrix(1 0 0 1 6144.2998 330.4946)" style="font-family:'Arial'; font-size:6px;">7</text>
      <text transform="matrix(1 0 0 1 6152.8633 330.4946)" style="font-family:'Arial'; font-size:6px;">A</text>
      <text transform="matrix(1 0 0 1 6140.9492 375.8467)" style="font-family:'Arial'; font-size:6px;">13</text>
      <text transform="matrix(1 0 0 1 6152.8496 375.8467)" style="font-family:'Arial'; font-size:6px;">B</text>
      <g ewd:figtype="title">
        <text transform="matrix(0 -1 1 0 6187.043 368.4717)" style="font-family:'Arial'; font-size:6px;" ewd:textID="17">Door Control Relay (Power Slide Door RH)</text>
        <text transform="matrix(0 -1 1 0 6179.957 368.4717)" style="font-family:'Arial'; font-size:6px;">i3(A), i4(B)</text>
      </g>
    </g><g ewd:figtype="w2w" ewd:code="MB1" ewd:pin_no="6" ewd:figID="249">
      <path style="fill:#FFFFFF;stroke:#FFFFFF;stroke-width:0;stroke-linecap:round;stroke-linejoin:round;" d="M 5881.88,568.31 L 5886.13, 572.56 L 5881.88, 576.81 L 5888.43, 576.81 L 5888.43, 568.31 L 5881.88, 568.31" />
      <path style="fill:#FFFFFF;stroke:#FFFFFF;stroke-width:0;stroke-linecap:round;stroke-linejoin:round;" d="M 5879.05,568.31 L 5883.3, 572.56 L 5879.05, 576.81 L 5885.6, 576.81 L 5885.6, 568.31 L 5879.05, 568.31" />
      <path style="fill:none;stroke:#000000;stroke-width:0.85;" d="M 5881.35,568.31 L 5885.6, 572.56 L 5881.35, 576.81" />
      <path style="fill:none;stroke:#000000;stroke-width:0.85;" d="M 5884.18,568.31 L 5888.43, 572.56 L 5884.18, 576.81" />
      <path style="fill:none;stroke:#000000;stroke-width:0.85;stroke-linecap:round;stroke-linejoin:round;" d="M 5888.43,576.82 L 5888.43, 568.32 L 5908.27, 568.32 L 5908.27, 576.82 L 5888.43, 576.82" />
      <text transform="matrix(1 0 0 1 5896.6875 566.1211)" style="font-family:'Arial'; font-size:6px;">6</text>
    </g><g ewd:figtype="w2w" ewd:code="MB1" ewd:pin_no="5" ewd:figID="251">
      <path style="fill:#FFFFFF;stroke:#FFFFFF;stroke-width:0;stroke-linecap:round;stroke-linejoin:round;" d="M 5958.43,194.14 L 5962.68, 198.39 L 5958.43, 202.64 L 5964.98, 202.64 L 5964.98, 194.14 L 5958.43, 194.14" />
      <path style="fill:#FFFFFF;stroke:#FFFFFF;stroke-width:0;stroke-linecap:round;stroke-linejoin:round;" d="M 5955.59,194.14 L 5959.84, 198.39 L 5955.59, 202.64 L 5962.14, 202.64 L 5962.14, 194.14 L 5955.59, 194.14" />
      <path style="fill:none;stroke:#000000;stroke-width:0.85;" d="M 5957.89,194.14 L 5962.14, 198.39 L 5957.89, 202.64" />
      <path style="fill:none;stroke:#000000;stroke-width:0.85;" d="M 5960.73,194.14 L 5964.98, 198.39 L 5960.73, 202.64" />
      <path style="fill:none;stroke:#000000;stroke-width:0.85;stroke-linecap:round;stroke-linejoin:round;" d="M 5964.98,202.64 L 5964.98, 194.14 L 5984.82, 194.14 L 5984.82, 202.64 L 5964.98, 202.64" />
      <text transform="matrix(1 0 0 1 5973.2344 191.9482)" style="font-family:'Arial'; font-size:6px;">5</text>
    </g><g ewd:figtype="w2w" ewd:code="MB1" ewd:pin_no="1" ewd:figID="252">
      <path style="fill:#FFFFFF;stroke:#FFFFFF;stroke-width:0;stroke-linecap:round;stroke-linejoin:round;" d="M 5907.41,211.15 L 5911.66, 215.4 L 5907.41, 219.65 L 5913.96, 219.65 L 5913.96, 211.15 L 5907.41, 211.15" />
      <path style="fill:#FFFFFF;stroke:#FFFFFF;stroke-width:0;stroke-linecap:round;stroke-linejoin:round;" d="M 5904.57,211.15 L 5908.82, 215.4 L 5904.57, 219.65 L 5911.12, 219.65 L 5911.12, 211.15 L 5904.57, 211.15" />
      <path style="fill:none;stroke:#000000;stroke-width:0.85;" d="M 5906.87,211.15 L 5911.12, 215.4 L 5906.87, 219.65" />
      <path style="fill:none;stroke:#000000;stroke-width:0.85;" d="M 5909.71,211.15 L 5913.96, 215.4 L 5909.71, 219.65" />
      <path style="fill:none;stroke:#000000;stroke-width:0.85;stroke-linecap:round;stroke-linejoin:round;" d="M 5913.96,219.65 L 5913.96, 211.15 L 5933.8, 211.15 L 5933.8, 219.65 L 5913.96, 219.65" />
      <text transform="matrix(1 0 0 1 5922.2109 208.9561)" style="font-family:'Arial'; font-size:6px;">1</text>
    </g><g ewd:figtype="conn" ewd:code="f5" ewd:figID="71">
      <path style="fill:none;stroke:#000000;stroke-width:0.85;" d="M 6228.57,513.05 L 6228.57, 496.02 L 6241.2, 496.02" />
      <path style="fill:none;stroke:#000000;stroke-width:0.85;" d="M 6266.71,496.02 L 6279.6, 496.02 L 6279.6, 513.05" />
      <path style="fill:none;stroke:#000000;stroke-width:0.85;" d="M 6279.61,436.52 L 6279.61, 462.67 L 6266.79, 462.67" />
      <path style="fill:none;stroke:#000000;stroke-width:0.85;" d="M 6241.27,462.67 L 6228.56, 462.67 L 6228.56, 436.52" />
      <path style="fill:none;stroke:#000000;stroke-width:1.417;" d="M 6241.24,490.37 L 6263.93, 495.69" />
      <path style="fill:none;stroke:#000000;stroke-width:0.85;stroke-linecap:round;stroke-linejoin:round;" d="M 6244.03,496.05 C 6244.03 495.27 6243.4 494.63 6242.61 494.63 C 6241.8197265625 494.630009765625 6241.19 495.26 6241.19 496.05 C 6241.19 496.83 6241.82 497.47 6242.61 497.47 C 6243.3997265625 497.470002441406 6244.03 496.83 6244.03 496.05" />
      <path style="fill:none;stroke:#000000;stroke-width:0.85;stroke-linecap:round;stroke-linejoin:round;" d="M 6266.71,496.05 C 6266.71 495.27 6266.08 494.63 6265.29 494.63 C 6264.51 494.63 6263.87 495.26 6263.87 496.05 C 6263.87 496.83 6264.5 497.47 6265.29 497.47 C 6266.08 497.47 6266.71 496.83 6266.71 496.05" />
      <path style="fill:none;stroke:#000000;stroke-width:1.417;stroke-linecap:round;stroke-linejoin:round;" d="M 6241.27,466.27 L 6241.27, 457.77 L 6246.65, 457.77 C 6248.12 455.24 6250.88 453.52 6254.02 453.52 C 6257.1600390625 453.519978027344 6259.92 455.24 6261.39 457.77 L 6266.78, 457.77 L 6266.78, 466.27 L 6261.39, 466.27 C 6259.92 468.8 6257.16 470.52 6254.02 470.52 C 6250.8800390625 470.519978027344 6248.12 468.8 6246.65 466.27 L 6241.27, 466.27" />
      <path style="fill:none;stroke:#000000;stroke-width:1.417;" d="M 6261.4,457.76 C 6262.14 459.02 6262.53 460.45 6262.53 462.01 C 6262.53 463.57 6262.13 465.01 6261.4 466.26" />
      <path style="fill:none;stroke:#000000;stroke-width:1.417;" d="M 6246.66,457.76 C 6245.92 459.02 6245.53 460.45 6245.53 462.01 C 6245.53 463.57 6245.93 465.01 6246.66 466.26" />
      <path style="fill:none;stroke:#000000;stroke-width:1.417;stroke-linecap:round;stroke-linejoin:round;" d="M 6220.02,513.05 L 6288.05, 513.05 L 6288.05, 436.51 L 6220.02, 436.51 L 6220.02, 513.05" />
      <text transform="matrix(1 0 0 1 6251.5313 463.7207)" style="font-family:'Arial'; font-size:6px;">M</text>
      <text transform="matrix(1 0 0 1 6271.2432 432.54)" style="font-family:'Arial'; font-size:6px;">3</text>
      <text transform="matrix(1 0 0 1 6220.2197 432.54)" style="font-family:'Arial'; font-size:6px;">2</text>
      <text transform="matrix(1 0 0 1 6219.9404 520.4326)" style="font-family:'Arial'; font-size:6px;">4</text>
      <text transform="matrix(1 0 0 1 6271.3604 520.4336)" style="font-family:'Arial'; font-size:6px;">1</text>
      <g ewd:figtype="title">
        <text transform="matrix(0 -1 1 0 6303.2051 513.0576)" style="font-family:'Arial'; font-size:6px;" ewd:textID="60">Slide Door Lock Remote Control Assembly <tspan x="0" dy="1em">(RH)</tspan></text>
        <text transform="matrix(0 -1 1 0 6296.1191 513.0576)" style="font-family:'Arial'; font-size:6px;">f5</text>
      </g>
    </g><g ewd:figtype="w2w" ewd:code="ci1" ewd:pin_no="9" ewd:figID="227">
      <path style="fill:#FFFFFF;stroke:#FFFFFF;stroke-width:0;stroke-linecap:round;stroke-linejoin:round;" d="M 6134.18,568.33 L 6138.43, 572.58 L 6134.18, 576.83 L 6140.73, 576.83 L 6140.73, 568.33 L 6134.18, 568.33" />
      <path style="fill:#FFFFFF;stroke:#FFFFFF;stroke-width:0;stroke-linecap:round;stroke-linejoin:round;" d="M 6131.34,568.33 L 6135.59, 572.58 L 6131.34, 576.83 L 6137.89, 576.83 L 6137.89, 568.33 L 6131.34, 568.33" />
      <path style="fill:none;stroke:#000000;stroke-width:0.85;" d="M 6133.64,568.33 L 6137.89, 572.58 L 6133.64, 576.83" />
      <path style="fill:none;stroke:#000000;stroke-width:0.85;" d="M 6136.48,568.33 L 6140.73, 572.58 L 6136.48, 576.83" />
      <path style="fill:none;stroke:#000000;stroke-width:0.85;stroke-linecap:round;stroke-linejoin:round;" d="M 6140.73,576.84 L 6140.73, 568.34 L 6160.57, 568.34 L 6160.57, 576.84 L 6140.73, 576.84" />
      <text transform="matrix(1 0 0 1 6148.9844 566.1436)" style="font-family:'Arial'; font-size:6px;">9</text>
    </g><g ewd:figtype="w2w" ewd:code="fc1" ewd:pin_no="4" ewd:figID="228">
      <path style="fill:#FFFFFF;stroke:#FFFFFF;stroke-width:0;stroke-linecap:round;stroke-linejoin:round;" d="M 6219.23,568.33 L 6223.48, 572.58 L 6219.23, 576.83 L 6225.78, 576.83 L 6225.78, 568.33 L 6219.23, 568.33" />
      <path style="fill:#FFFFFF;stroke:#FFFFFF;stroke-width:0;stroke-linecap:round;stroke-linejoin:round;" d="M 6216.4,568.33 L 6220.65, 572.58 L 6216.4, 576.83 L 6222.95, 576.83 L 6222.95, 568.33 L 6216.4, 568.33" />
      <path style="fill:none;stroke:#000000;stroke-width:0.85;" d="M 6218.7,568.33 L 6222.95, 572.58 L 6218.7, 576.83" />
      <path style="fill:none;stroke:#000000;stroke-width:0.85;" d="M 6221.53,568.33 L 6225.78, 572.58 L 6221.53, 576.83" />
      <path style="fill:none;stroke:#000000;stroke-width:0.85;stroke-linecap:round;stroke-linejoin:round;" d="M 6225.78,576.84 L 6225.78, 568.34 L 6245.62, 568.34 L 6245.62, 576.84 L 6225.78, 576.84" />
      <text transform="matrix(1 0 0 1 6234.0371 566.1436)" style="font-family:'Arial'; font-size:6px;">4</text>
    </g><g ewd:figtype="conn" ewd:code="M1" ewd:figID="66">
      <path style="fill:none;stroke:#000000;stroke-width:0.85;" d="M 5908.25,376.98 L 5908.25, 436.51" />
      <path style="fill:none;stroke:#000000;stroke-width:0.85;" d="M 5908.25,453.51 L 5908.25, 470.51 L 5874.23, 470.51 L 5874.23, 453.51" />
      <path style="fill:none;stroke:#000000;stroke-width:0.85;" d="M 5874.24,436.5 L 5874.24, 376.97" />
      <path style="fill:none;stroke:#000000;stroke-width:0.85;" d="M 6001.8,376.98 L 6001.8, 436.51" />
      <path style="fill:none;stroke:#000000;stroke-width:0.85;" d="M 6001.8,453.51 L 6001.8, 470.53 L 5989, 470.53" />
      <path style="fill:none;stroke:#000000;stroke-width:0.85;" d="M 5963.48,470.53 L 5950.76, 470.53 L 5950.76, 453.51" />
      <path style="fill:none;stroke:#000000;stroke-width:0.85;" d="M 5950.76,436.5 L 5950.76, 376.97" />
      <path style="fill:none;stroke:#000000;stroke-width:1.417;stroke-linecap:round;stroke-linejoin:round;" d="M 5963.48,474.77 L 5963.48, 466.27 L 5968.86, 466.27 C 5970.33 463.74 5973.09 462.02 5976.23 462.02 C 5979.3699609375 462.019978027344 5982.13 463.74 5983.6 466.27 L 5988.99, 466.27 L 5988.99, 474.77 L 5983.6, 474.77 C 5982.13 477.3 5979.37 479.02 5976.23 479.02 C 5973.0899609375 479.019978027344 5970.33 477.3 5968.86 474.77 L 5963.48, 474.77" />
      <path style="fill:none;stroke:#000000;stroke-width:1.417;" d="M 5983.61,466.27 C 5984.35 467.53 5984.74 468.96 5984.74 470.52 C 5984.74 472.08 5984.34 473.52 5983.61 474.77" />
      <path style="fill:none;stroke:#000000;stroke-width:1.417;" d="M 5968.87,466.27 C 5968.13 467.53 5967.74 468.96 5967.74 470.52 C 5967.74 472.08 5968.14 473.52 5968.87 474.77" />
      <path style="fill:none;stroke:#000000;stroke-width:1.417;stroke-linecap:round;stroke-linejoin:round;" d="M 6010.25,453.51 L 6010.25, 436.5 L 5865.68, 436.5 L 5865.68, 453.51 L 6010.25, 453.51" />
      <path style="fill:none;stroke:#000000;stroke-width:1.417;stroke-linecap:round;stroke-linejoin:round;" d="M 6044.27,521.54 L 6044.27, 376.98 L 5857.18, 376.98 L 5857.18, 521.55 L 6044.27, 521.55" />
      <text transform="matrix(1 0 0 1 5939.373 487.1523)" style="font-family:'Arial'; font-size:6px;" ewd:textID="25">Door Lock Motor Assembly<tspan x="0" dy="1em">(Slide Door RH)</tspan></text>
      <text transform="matrix(0 -1 1 0 6018.3262 476.2051)" style="font-family:'Arial'; font-size:6px;" ewd:textID="56">Slide Door Control Junction <tspan x="0" dy="1em">(Female RH)</tspan></text>
      <text transform="matrix(1 0 0 1 5973.7402 472.2246)" style="font-family:'Arial'; font-size:6px;">M</text>
      <text transform="matrix(1 0 0 1 5993.4521 373.0127)" style="font-family:'Arial'; font-size:6px;">3</text>
      <text transform="matrix(1 0 0 1 5942.4287 373.0127)" style="font-family:'Arial'; font-size:6px;">2</text>
      <text transform="matrix(1 0 0 1 5899.9092 373.0127)" style="font-family:'Arial'; font-size:6px;">5</text>
      <text transform="matrix(1 0 0 1 5865.8936 373.0127)" style="font-family:'Arial'; font-size:6px;">1</text>
      <g ewd:figtype="title">
        <text transform="matrix(1 0 0 1 5857.166 529.627)" style="font-family:'Arial'; font-size:6px;">M1</text>
        <text transform="matrix(1 0 0 1 5857.166 536.7139)" style="font-family:'Arial'; font-size:6px;" ewd:textID="58">Slide Door Control Junction (Male RH)</text>
      </g>
    </g><g ewd:figtype="comment" ewd:code="2" ewd:figID="1003">
      <text transform="matrix(1 0 0 1 6156.2949 625.2988)" style="font-family:'Arial'; font-size:6px;" ewd:textID="2">*2 : w/ Power Slide Door</text>
    </g><g ewd:figtype="comment" ewd:code="1" ewd:figID="1002">
      <text transform="matrix(1 0 0 1 6156.2949 616.7959)" style="font-family:'Arial'; font-size:6px;" ewd:textID="1">*1 : w/o Power Slide Door</text>
    </g><text transform="matrix(1 0 0 1 5997.248 568.6035)" style="font-family:'Arial'; font-size:6px;">GR</text><text transform="matrix(0 -1 1 0 6150.8535 457.6777)" style="font-family:'Arial'; font-size:6px;">BR</text><text transform="matrix(0 -1 1 0 6150.8535 398.1504)" style="font-family:'Arial'; font-size:6px;">BR</text><text transform="matrix(0 -1 1 0 6108.334 459.3418)" style="font-family:'Arial'; font-size:6px;">W-B</text><text transform="matrix(0 -1 1 0 6108.334 518.8691)" style="font-family:'Arial'; font-size:6px;">W-B</text><text transform="matrix(0 -1 1 0 6108.334 399.8145)" style="font-family:'Arial'; font-size:6px;">W-B</text><text transform="matrix(0 -1 1 0 6108.334 348.791)" style="font-family:'Arial'; font-size:6px;">W-B</text><text transform="matrix(0 -1 1 0 6074.3184 459.3418)" style="font-family:'Arial'; font-size:6px;">W-B</text><text transform="matrix(0 -1 1 0 5870.2246 353.4644)" style="font-family:'Arial'; font-size:6px;">B</text><text transform="matrix(0 -1 1 0 5870.2539 302.4414)" style="font-family:'Arial'; font-size:6px;">B</text><text transform="matrix(0 -1 1 0 5904.2402 357.2949)" style="font-family:'Arial'; font-size:6px;">W-B</text><text transform="matrix(0 -1 1 0 5946.7598 353.1318)" style="font-family:'Arial'; font-size:6px;">L</text><text transform="matrix(0 -1 1 0 5997.7832 353.6299)" style="font-family:'Arial'; font-size:6px;">R</text><text transform="matrix(0 -1 1 0 6224.5547 404.1553)" style="font-family:'Arial'; font-size:6px;">L</text><text transform="matrix(1 0 0 1 5821 194.4302)" style="font-family:'Arial'; font-size:6px;">R</text><text transform="matrix(1 0 0 1 6072.3652 568.626)" style="font-family:'Arial'; font-size:6px;">GR</text><text transform="matrix(1 0 0 1 6191.4316 568.626)" style="font-family:'Arial'; font-size:6px;">GR</text><text transform="matrix(1 0 0 1 5852.6836 568.5967)" style="font-family:'Arial'; font-size:6px;">GR</text><text transform="matrix(1 0 0 1 5920.7148 568.5967)" style="font-family:'Arial'; font-size:6px;">GR</text><text transform="matrix(0 -1 1 0 5827.7441 625.6162)" style="font-family:'Arial'; font-size:6px;">B</text><text transform="matrix(0 -1 1 0 5827.748 353.4653)" style="font-family:'Arial'; font-size:6px;">B</text><text transform="matrix(0 -1 1 0 6150.8535 517.2051)" style="font-family:'Arial'; font-size:6px;">BR</text><text transform="matrix(1 0 0 1 6207.3359 534.5811)" style="font-family:'Arial'; font-size:6px;">BR</text><text transform="matrix(0 -1 1 0 6224.5547 353.1323)" style="font-family:'Arial'; font-size:6px;">L</text><text transform="matrix(0 -1 1 0 6224.584 302.1089)" style="font-family:'Arial'; font-size:6px;">L</text><text transform="matrix(0 -1 1 0 6224.5547 251.0854)" style="font-family:'Arial'; font-size:6px;">L</text><text transform="matrix(0 -1 1 0 6108.3398 629.4141)" style="font-family:'Arial'; font-size:6px;">W-B</text><text transform="matrix(1 0 0 1 5821.498 211.438)" style="font-family:'Arial'; font-size:6px;">L</text><text transform="matrix(0 -1 1 0 6085.6582 458.3438)" style="font-family:'Arial'; font-size:6px;">(*1)</text><text transform="matrix(0 -1 1 0 5915.6094 305.2744)" style="font-family:'Arial'; font-size:6px;">(*1)</text><text transform="matrix(0 -1 1 0 5915.5801 356.2974)" style="font-family:'Arial'; font-size:6px;">(*1)</text><text transform="matrix(0 -1 1 0 5881.5645 356.2974)" style="font-family:'Arial'; font-size:6px;">(*1)</text><text transform="matrix(0 -1 1 0 5881.5938 305.2744)" style="font-family:'Arial'; font-size:6px;">(*1)</text><text transform="matrix(0 -1 1 0 5839.0723 356.2983)" style="font-family:'Arial'; font-size:6px;">(*1)</text><text transform="matrix(0 -1 1 0 6119.6738 458.3438)" style="font-family:'Arial'; font-size:6px;">(*2)</text><text transform="matrix(0 -1 1 0 6119.6738 398.8164)" style="font-family:'Arial'; font-size:6px;">(*2)</text><text transform="matrix(0 -1 1 0 6119.6738 347.7935)" style="font-family:'Arial'; font-size:6px;">(*2)</text><text transform="matrix(0 -1 1 0 6162.1934 398.8164)" style="font-family:'Arial'; font-size:6px;">(*2)</text><text transform="matrix(0 -1 1 0 6162.1934 458.3438)" style="font-family:'Arial'; font-size:6px;">(*2)</text><text transform="matrix(0 -1 1 0 6162.1934 517.8711)" style="font-family:'Arial'; font-size:6px;">(*2)</text><text transform="matrix(1 0 0 1 6206.6689 545.9209)" style="font-family:'Arial'; font-size:6px;">(*2)</text><text transform="matrix(1 0 0 1 6191.0977 579.9639)" style="font-family:'Arial'; font-size:6px;">(*2)</text><text transform="matrix(1 0 0 1 6072.0313 579.9639)" style="font-family:'Arial'; font-size:6px;">(*2)</text><text transform="matrix(1 0 0 1 5996.9141 579.9424)" style="font-family:'Arial'; font-size:6px;">(*2)</text><text transform="matrix(1 0 0 1 5920.3809 579.9355)" style="font-family:'Arial'; font-size:6px;">(*2)</text><text transform="matrix(1 0 0 1 5852.3496 579.9355)" style="font-family:'Arial'; font-size:6px;">(*2)</text><text transform="matrix(0 -1 1 0 6235.8945 407.3203)" style="font-family:'Arial'; font-size:6px;">(*2)</text><text transform="matrix(0 -1 1 0 6235.8945 356.2979)" style="font-family:'Arial'; font-size:6px;">(*2)</text><text transform="matrix(0 -1 1 0 6235.9238 305.2744)" style="font-family:'Arial'; font-size:6px;">(*2)</text><text transform="matrix(0 -1 1 0 6235.8945 254.251)" style="font-family:'Arial'; font-size:6px;">(*2)</text><text transform="matrix(0 -1 1 0 6009.123 356.2974)" style="font-family:'Arial'; font-size:6px;">(*1)</text><text transform="matrix(0 -1 1 0 5958.0996 356.2974)" style="font-family:'Arial'; font-size:6px;">(*1)</text><text transform="matrix(1 0 0 1 5770.1563 662.1504)" style="font-family:'Arial'; font-size:6px;">Y</text><text transform="matrix(1 0 0 1 5770.1563 645.1426)" style="font-family:'Arial'; font-size:6px;">B</text><text transform="matrix(1 0 0 1 5821.1797 662.1504)" style="font-family:'Arial'; font-size:6px;">Y</text><text transform="matrix(0 -1 1 0 5904.2695 306.272)" style="font-family:'Arial'; font-size:6px;">W-B</text><text transform="matrix(1 0 0 1 5770.4512 211.438)" style="font-family:'Arial'; font-size:6px;">L</text><text transform="matrix(1 0 0 1 5769.9531 194.4321)" style="font-family:'Arial'; font-size:6px;">R</text></svg>