﻿<?xml version="1.0" encoding="utf-8"?>
<!DOCTYPE svg PUBLIC "-//W3C//DTD SVG 1.0//EN" "http://www.w3.org/TR/2001/REC-SVG-20010904/DTD/svg10.dtd"[
	<!ENTITY ns_flows "http://ns.adobe.com/Flows/1.0/">
	<!ENTITY ns_svg "http://www.w3.org/2000/svg">
	<!ENTITY ns_xlink "http://www.w3.org/1999/xlink">
	<!ENTITY st0 "font-size:7px;font-family:'MS-PGothic';adobe-font-script:japanese;">
	<!ENTITY st1 "font-size:6px;font-family:'ArialMT';">
	<!-- White fill  -->
	<!ENTITY st2 "fill:#FFFFFF;stroke:#000000; stroke-width:1.41;stroke-linecap:round;stroke-linejoin:round;">
	<!-- Yellow fill  -->
	<!ENTITY st3 "fill:#FFFFCC;stroke:#FFFFCC; stroke-width:0.1;stroke-linecap:round;stroke-linejoin:round;">
	<!-- Gray fill  -->
	<!ENTITY st4 "fill:#CCCCCC;stroke:#CCCCCC; stroke-width:0.1;stroke-linecap:round;stroke-linejoin:round;">
	<!-- Light-blue fill -->
	<!ENTITY st5 "fill:#CCECF4;stroke:#000000; stroke-width:1.133;stroke-linecap:round;stroke-linejoin:round;">
	<!ENTITY st6 "fill:none;stroke-linecap:butt; stroke-linejoin:round;">
	<!ENTITY st7 "fill:none;stroke:#000000;stroke-linecap:round;stroke-linejoin:round;">
	<!ENTITY st8 "enable-background:new    ;">
	<!-- Black fill -->
	<!ENTITY st9 "fill:#000000;stroke:#000000; stroke-linecap:round;stroke-linejoin:round;">
	<!-- SRS note   -->
	<!ENTITY st10 "font-size:9px;font-family:'ArialMT';">
	<!ENTITY st11 "font-size:9px;font-family:'Svg Symbol';">
	<!ENTITY st12 "font-size:6px;font-family:'Svg Symbol';">
	<!ENTITY st13 "fill:none;stroke:#ff0000;stroke-linecap:round;stroke-linejoin:round;">
	<!-- Yellow fill  -->
	<!ENTITY st14 "fill:#FFFF00;stroke:#FFFF00; stroke-width:0.1;stroke-linecap:round;stroke-linejoin:round;">
	<!ENTITY st15 "font-size:6px;font-family:'MS-PGothic';adobe-font-script:japanese;">
	<!ENTITY st16 "1.00 0.00 0.00 1.00">
	<!ENTITY st17 "0.00 -1.00 1.00 0.00">
	<!ENTITY st18 "font-size:6px;font-family:'Arial';">
	<!ENTITY st19 "font-size:9px;font-family:'Arial';">
	<!ENTITY st20 "font-size:6px;font-family:'MS-PGothic','MS PGothic';adobe-font-script:japanese;">
	<!ENTITY st21 "font-size:7px;font-family:'MS-PGothic','MS PGothic';adobe-font-script:japanese;">
	<!ATTLIST svg
		xmlns:ewd CDATA #FIXED "http://shcl.co.jp/ewd"
		xmlns:a CDATA #FIXED "http://ns.adobe.com/AdobeSVGViewerExtensions/3.0/"
		ewd:ver CDATA #IMPLIED
	>
	<!ATTLIST a
		ewd:lineID CDATA #IMPLIED
		ewd:groupID CDATA #IMPLIED
		ewd:figtype CDATA #IMPLIED
		ewd:code CDATA #IMPLIED
		ewd:figID CDATA #IMPLIED
		ewd:pinNo CDATA #IMPLIED
		ewd:comment CDATA #IMPLIED >
	<!ATTLIST g
		ewd:lineID CDATA #IMPLIED
		ewd:groupID CDATA #IMPLIED
		ewd:figtype CDATA #IMPLIED
		ewd:code CDATA #IMPLIED
		ewd:figID CDATA #IMPLIED
		ewd:pinNo CDATA #IMPLIED
		ewd:comment CDATA #IMPLIED >
	<!ATTLIST text
		ewd:textID CDATA #IMPLIED >
	<!ATTLIST title
		ewd:textID CDATA #IMPLIED >
]>
<!-- Generator: Shintec Hozumi YS   -->
<svg onload="call_execInitLoadProc_svg('system')" style="overflow:visible;  enable-background:new 0 0 1380.142 710.000" viewBox="0 0 1380.142 710.000" height="710.000" width="1380.142" xml:space="preserve" ewd:ver="L2.1.2.5" xmlns="&ns_svg;" xmlns:a="http://ns.adobe.com/AdobeSVGViewerExtensions/3.0/" xmlns:ewd="http://shcl.co.jp/ewd" xmlns:xlink="&ns_xlink;">
<path d=" M 1157.93,  571.19  L 1153.68,  571.19 " style="stroke-width: 1.42 ;&st7; " /><path d=" M 1157.93,  537.20  L 1153.68,  537.20 " style="stroke-width: 1.42 ;&st7; " /><path d=" M 1157.93,  528.70  L 1153.68,  528.70 " style="stroke-width: 1.42 ;&st7; " /><path d=" M 1157.93,  494.70  L 1153.68,  494.70 " style="stroke-width: 1.42 ;&st7; " /><path d=" M 1157.93,  486.20  L 1153.68,  486.20 " style="stroke-width: 1.42 ;&st7; " /><path d=" M 1276.91,  120.77  L 1272.66,  120.77 " style="stroke-width: 1.42 ;&st7; " /><path d=" M 1276.91,  112.27  L 1272.66,  112.27 " style="stroke-width: 1.42 ;&st7; " /><path d=" M 1200.42,  120.77  L 1196.18,  120.77 " style="stroke-width: 1.42 ;&st7; " /><path d=" M 1200.42,  112.27  L 1196.18,  112.27 " style="stroke-width: 1.42 ;&st7; " /><path d=" M 1157.93,  120.77  L 1153.68,  120.77 " style="stroke-width: 1.42 ;&st7; " /><path d=" M 1157.93,  112.27  L 1153.68,  112.27 " style="stroke-width: 1.42 ;&st7; " /><path d=" M 1198.30,  341.73  L 1198.30,  345.98 " style="stroke-width: 0.85 ;&st7; " /><path d=" M 1198.30,  354.48  L 1198.30,  358.73 " style="stroke-width: 0.85 ;&st7; " /><path d=" M 1155.81,  341.73  L 1155.81,  345.98 " style="stroke-width: 0.85 ;&st7; " /><path d=" M 1155.81,  354.48  L 1155.81,  358.73 " style="stroke-width: 0.85 ;&st7; " /><path d=" M 1334.28,   69.77  L 1334.28,   78.27 " style="stroke-width: 0.85 ;&st7; " /><path d=" M 1336.40,  112.27  L 1332.15,  112.27 " style="stroke-width: 1.42 ;&st7; " /><path d=" M 1336.40,  103.77  L 1332.15,  103.77 " style="stroke-width: 1.42 ;&st7; " /><path d=" M 1336.40,  214.25  L 1332.15,  214.25 " style="stroke-width: 1.42 ;&st7; " /><path d=" M 1336.40,  222.75  L 1332.15,  222.75 " style="stroke-width: 1.42 ;&st7; " /><path d=" M 1336.40,  256.74  L 1332.15,  256.74 " style="stroke-width: 1.42 ;&st7; " /><path d=" M 1336.40,  265.24  L 1332.15,  265.24 " style="stroke-width: 1.42 ;&st7; " /><path d=" M 1338.53,  443.71  L 1330.03,  443.71 " style="stroke-width: 0.85 ;&st7; " /><path d=" M 1347.01,  434.05  L 1339.65,  438.30 " style="stroke-width: 0.85 ;&st7; " /><path d=" M 1341.65,  441.76  L 1349.01,  437.52 " style="stroke-width: 0.85 ;&st7; " /><path d=" M 1304.53,  443.71  L 1296.03,  443.71 " style="stroke-width: 0.85 ;&st7; " /><path d=" M 1313.01,  434.05  L 1305.65,  438.30 " style="stroke-width: 0.85 ;&st7; " /><path d=" M 1307.66,  441.76  L 1315.02,  437.52 " style="stroke-width: 0.85 ;&st7; " /><path d=" M 1126.06,  592.44  L 1130.31,  592.44 " style="stroke-width: 1.42 ;&st7; " /><path d=" M 1130.31,  600.93  L 1126.06,  600.93 " style="stroke-width: 1.42 ;&st7; " /><path d=" M 1266.29,  588.19  L 1274.79,  588.19 " style="stroke-width: 1.42 ;&st7; " /><path d=" M 1200.42,  494.70  L 1196.18,  494.70 " style="stroke-width: 1.42 ;&st7; " /><path d=" M 1200.42,  486.20  L 1196.18,  486.20 " style="stroke-width: 1.42 ;&st7; " /><path d=" M 1157.93,  622.18  L 1153.68,  622.18 " style="stroke-width: 1.42 ;&st7; " /><path d=" M 1157.93,  613.68  L 1153.68,  613.68 " style="stroke-width: 1.42 ;&st7; " /><path d=" M 1157.93,  579.69  L 1153.68,  579.69 " style="stroke-width: 1.42 ;&st7; " /><path d=" M 1154.39,  710.00  L 1157.22,  710.00 " style="stroke-width: 0.85 ;&st7; " /><path d=" M 1152.97,  707.17  L 1158.64,  707.17 " style="stroke-width: 0.85 ;&st7; " /><path d=" M 1151.56,  704.33  L 1160.06,  704.33 " style="stroke-width: 0.85 ;&st7; " /><path d=" M 1147.31,  701.50  L 1164.30,  701.50 " style="stroke-width: 0.85 ;&st7; " /><path d=" M 1155.81,  697.25  L 1155.81,  701.50 " style="stroke-width: 0.85 ;&st7; " /><path d=" M 1279.04,  582.52  L 1274.79,  586.77  L 1270.54,  582.52 " style="stroke-width: 1.42 ;&st7; " /><path d=" M 1270.54,  579.12  L 1274.79,  583.37  L 1279.04,  579.12 " style="stroke-width: 1.42 ;&st7; " /><path d=" M 1249.29,  392.72  L 1249.29,  503.20  L 1359.77,  503.20  L 1359.77,  392.72  L 1249.29,  392.72 " style="stroke-width: 1.42 ;&st7; " /><path d=" M 1155.81,  511.70  L 1198.30,  511.70  L 1198.30,  494.70 " style="stroke-width: 0.85 ;&st7; " /><path d=" M 1198.30,  499.60  L 1201.13,  502.43  L 1201.13,  498.18  L 1198.30,  495.35  L 1195.47,  498.18  L 1195.47,  502.43  L 1198.30,  499.60 " style="stroke-width: 0.28 ;&st9;" /><path d=" M 1155.81,  613.68  L 1155.81,  579.69 " style="stroke-width: 0.85 ;&st7; " /><path d=" M 1155.81,  608.79  L 1152.97,  605.95  L 1152.97,  610.20  L 1155.81,  613.04  L 1158.64,  610.20  L 1158.64,  605.95  L 1155.81,  608.79 " style="stroke-width: 0.28 ;&st9;" /><path d=" M 1155.81,  584.58  L 1158.64,  587.42  L 1158.64,  583.17  L 1155.81,  580.33  L 1152.97,  583.17  L 1152.97,  587.42  L 1155.81,  584.58 " style="stroke-width: 0.28 ;&st9;" /><path d=" M 1155.81,  528.70  L 1155.81,  494.70 " style="stroke-width: 0.85 ;&st7; " /><path d=" M 1155.81,  523.80  L 1152.97,  520.97  L 1152.97,  525.22  L 1155.81,  528.05  L 1158.64,  525.22  L 1158.64,  520.97  L 1155.81,  523.80 " style="stroke-width: 0.28 ;&st9;" /><path d=" M 1155.81,  499.60  L 1158.64,  502.43  L 1158.64,  498.18  L 1155.81,  495.35  L 1152.97,  498.18  L 1152.97,  502.43  L 1155.81,  499.60 " style="stroke-width: 0.28 ;&st9;" /><path d=" M 1274.79,  107.37  L 1271.95,  104.54  L 1271.95,  108.79  L 1274.79,  111.62  L 1277.62,  108.79  L 1277.62,  104.54  L 1274.79,  107.37 " style="stroke-width: 0.28 ;&st9;" /><path d=" M 1198.30,  107.37  L 1195.47,  104.54  L 1195.47,  108.79  L 1198.30,  111.62  L 1201.13,  108.79  L 1201.13,  104.54  L 1198.30,  107.37 " style="stroke-width: 0.28 ;&st9;" /><path d=" M 1155.81,  107.37  L 1152.97,  104.54  L 1152.97,  108.79  L 1155.81,  111.62  L 1158.64,  108.79  L 1158.64,  104.54  L 1155.81,  107.37 " style="stroke-width: 0.28 ;&st9;" /><path d=" M 1198.30,   95.27  L 1198.30,  112.27 " style="stroke-width: 0.85 ;&st7; " /><path d=" M 1155.81,   95.27  L 1155.81,  112.27 " style="stroke-width: 0.85 ;&st7; " /><path d=" M 1154.61,   94.27  L 1154.34,   94.74  L 1154.25,   95.27  L 1154.34,   95.80  L 1154.61,   96.27  L 1155.03,   96.62  L 1155.53,   96.81  L 1156.08,   96.81  L 1156.59,   96.62  L 1157.00,   96.27  L 1157.27,   95.80  L 1157.36,   95.27  L 1157.27,   94.74  L 1157.00,   94.27  L 1156.59,   93.92  L 1156.08,   93.73  L 1155.53,   93.73  L 1155.03,   93.92  L 1154.61,   94.27  L 1155.01,   94.98  L 1155.01,   95.56  L 1155.38,   96.01  L 1155.95,   96.11  L 1156.46,   95.82  L 1156.66,   95.27  L 1156.46,   94.72  L 1155.95,   94.43  L 1155.38,   94.53  L 1155.81,   95.27 " style="stroke-width: 0.85 ;&st7; " /><path d=" M 1197.11,   94.27  L 1196.83,   94.74  L 1196.74,   95.27  L 1196.83,   95.80  L 1197.11,   96.27  L 1197.52,   96.62  L 1198.03,   96.81  L 1198.57,   96.81  L 1199.08,   96.62  L 1199.49,   96.27  L 1199.76,   95.80  L 1199.86,   95.27  L 1199.76,   94.74  L 1199.49,   94.27  L 1199.08,   93.92  L 1198.57,   93.73  L 1198.03,   93.73  L 1197.52,   93.92  L 1197.11,   94.27  L 1197.50,   94.98  L 1197.50,   95.56  L 1197.87,   96.01  L 1198.45,   96.11  L 1198.95,   95.82  L 1199.15,   95.27  L 1198.95,   94.72  L 1198.45,   94.43  L 1197.87,   94.53  L 1198.30,   95.27 " style="stroke-width: 0.85 ;&st7; " /><path d=" M 1154.61,  510.70  L 1154.34,  511.17  L 1154.25,  511.70  L 1154.34,  512.23  L 1154.61,  512.70  L 1155.03,  513.05  L 1155.53,  513.24  L 1156.08,  513.24  L 1156.59,  513.05  L 1157.00,  512.70  L 1157.27,  512.23  L 1157.36,  511.70  L 1157.27,  511.17  L 1157.00,  510.70  L 1156.59,  510.35  L 1156.08,  510.16  L 1155.53,  510.16  L 1155.03,  510.35  L 1154.61,  510.70  L 1155.01,  511.41  L 1155.01,  511.99  L 1155.38,  512.44  L 1155.95,  512.54  L 1156.46,  512.25  L 1156.66,  511.70  L 1156.46,  511.15  L 1155.95,  510.86  L 1155.38,  510.96  L 1155.81,  511.70 " style="stroke-width: 0.85 ;&st7; " /><path d=" M 1334.28,   78.27  L 1334.28,  103.77 " style="stroke-width: 0.85 ;&st7; " /><path d=" M 1347.02,   78.27  L 1347.02,   35.78  L 1321.53,   35.78  L 1321.53,   78.27  L 1347.02,   78.27 " style="stroke-width: 1.42 ;&st7; " /><path d=" M 1334.28,   98.87  L 1331.44,   96.04  L 1331.44,  100.29  L 1334.28,  103.12  L 1337.11,  100.29  L 1337.11,   96.04  L 1334.28,   98.87 " style="stroke-width: 0.28 ;&st9;" /><path d=" M 1334.28,  227.64  L 1337.11,  230.48  L 1337.11,  226.23  L 1334.28,  223.39  L 1331.44,  226.23  L 1331.44,  230.48  L 1334.28,  227.64 " style="stroke-width: 0.28 ;&st9;" /><path d=" M 1334.28,  251.85  L 1331.44,  249.01  L 1331.44,  253.26  L 1334.28,  256.10  L 1337.11,  253.26  L 1337.11,  249.01  L 1334.28,  251.85 " style="stroke-width: 0.28 ;&st9;" /><path d=" M 1334.28,  256.74  L 1334.28,  222.75 " style="stroke-width: 0.85 ;&st7; " /><path d=" M 1334.28,  443.71  L 1328.61,  435.21  L 1339.94,  435.21  L 1334.28,  443.71 " style="stroke-width: 0.28 ;&st9;" /><path d=" M 1347.01,  434.05  L 1344.68,  437.09  L 1343.21,  434.55  L 1347.01,  434.05  L 1345.73,  434.79  L 1344.74,  436.07  L 1344.12,  435.00  L 1345.73,  434.79  L 1345.09,  435.16  L 1344.78,  435.56  L 1344.58,  435.22  L 1345.09,  435.16 " style="stroke-width: 0.85 ;&st7; " /><path d=" M 1349.01,  437.52  L 1346.68,  440.56  L 1345.21,  438.02  L 1349.01,  437.52  L 1347.73,  438.26  L 1346.75,  439.54  L 1346.13,  438.47  L 1347.73,  438.26  L 1347.09,  438.63  L 1346.78,  439.03  L 1346.59,  438.69  L 1347.09,  438.63 " style="stroke-width: 0.85 ;&st7; " /><path d=" M 1300.28,  443.71  L 1294.62,  435.21  L 1305.95,  435.21  L 1300.28,  443.71 " style="stroke-width: 0.28 ;&st9;" /><path d=" M 1313.02,  434.05  L 1310.68,  437.09  L 1309.21,  434.55  L 1313.02,  434.05  L 1311.73,  434.79  L 1310.75,  436.07  L 1310.13,  435.00  L 1311.73,  434.79  L 1311.09,  435.16  L 1310.78,  435.56  L 1310.59,  435.22  L 1311.09,  435.16 " style="stroke-width: 0.85 ;&st7; " /><path d=" M 1315.02,  437.52  L 1312.68,  440.56  L 1311.22,  438.02  L 1315.02,  437.52  L 1313.74,  438.26  L 1312.75,  439.54  L 1312.13,  438.47  L 1313.74,  438.26  L 1313.10,  438.63  L 1312.78,  439.03  L 1312.59,  438.69  L 1313.10,  438.63 " style="stroke-width: 0.85 ;&st7; " /><path d=" M 1351.27,  469.21  L 1351.27,  486.20  L 1283.29,  486.20  L 1283.29,  469.21  L 1351.27,  469.21 " style="stroke-width: 1.42 ;&st7; " /><path d=" M 1334.28,  392.72  L 1334.28,  469.21 " style="stroke-width: 0.85 ;&st7; " /><path d=" M 1334.28,  409.72  L 1300.28,  409.72  L 1300.28,  469.21 " style="stroke-width: 0.85 ;&st7; " /><path d=" M 1333.08,  408.71  L 1332.81,  409.18  L 1332.72,  409.72  L 1332.81,  410.25  L 1333.08,  410.72  L 1333.50,  411.07  L 1334.00,  411.25  L 1334.55,  411.25  L 1335.06,  411.07  L 1335.47,  410.72  L 1335.74,  410.25  L 1335.83,  409.72  L 1335.74,  409.18  L 1335.47,  408.71  L 1335.06,  408.37  L 1334.55,  408.18  L 1334.00,  408.18  L 1333.50,  408.37  L 1333.08,  408.71  L 1333.48,  409.43  L 1333.48,  410.01  L 1333.85,  410.45  L 1334.42,  410.55  L 1334.93,  410.26  L 1335.13,  409.72  L 1334.93,  409.17  L 1334.42,  408.88  L 1333.85,  408.98  L 1334.28,  409.72 " style="stroke-width: 0.85 ;&st7; " /><path d=" M 1155.81,  596.69  L 1134.56,  596.69 " style="stroke-width: 0.85 ;&st7; " /><path d=" M 1139.46,  596.69  L 1142.29,  593.85  L 1138.04,  593.85  L 1135.21,  596.69  L 1138.04,  599.52  L 1142.29,  599.52  L 1139.46,  596.69 " style="stroke-width: 0.28 ;&st9;" /><path d=" M 1154.61,  595.68  L 1154.34,  596.15  L 1154.25,  596.69  L 1154.34,  597.22  L 1154.61,  597.69  L 1155.03,  598.03  L 1155.53,  598.22  L 1156.08,  598.22  L 1156.59,  598.03  L 1157.00,  597.69  L 1157.27,  597.22  L 1157.36,  596.69  L 1157.27,  596.15  L 1157.00,  595.68  L 1156.59,  595.34  L 1156.08,  595.15  L 1155.53,  595.15  L 1155.03,  595.34  L 1154.61,  595.68  L 1155.01,  596.39  L 1155.01,  596.98  L 1155.38,  597.42  L 1155.95,  597.52  L 1156.46,  597.23  L 1156.66,  596.69  L 1156.46,  596.14  L 1155.95,  595.85  L 1155.38,  595.95  L 1155.81,  596.69 " style="stroke-width: 0.85 ;&st7; " /><path d=" M 1283.29,  477.71  L 1274.79,  477.71  L 1274.79,  392.72 " style="stroke-width: 0.85 ;&st7; " /><path d=" M 1198.30,  354.48  C 1199.85   354.49  1201.12   353.23  1201.13   351.68 " style="stroke-width: 0.85 ;&st7; " /><path d=" M 1201.13,  351.68  C 1201.14   350.12  1199.89   348.85  1198.33   348.84 " style="stroke-width: 0.85 ;&st7; " /><path d=" M 1198.33,  348.84  C 1197.30   348.84  1196.42   349.34  1195.89   350.23 " style="stroke-width: 0.85 ;&st7; " /><path d=" M 1195.89,  350.23  C 1196.68   351.57  1198.41   352.01  1199.75   351.22 " style="stroke-width: 0.85 ;&st7; " /><path d=" M 1199.75,  351.22  C 1201.09   350.43  1201.53   348.70  1200.74   347.36 " style="stroke-width: 0.85 ;&st7; " /><path d=" M 1200.74,  347.36  C 1200.22   346.47  1199.33   345.97  1198.30   345.98 " style="stroke-width: 0.85 ;&st7; " /><path d=" M 1206.80,  350.23  C 1206.80   345.53  1202.99   341.73  1198.30   341.73 " style="stroke-width: 1.42 ;&st7; " /><path d=" M 1198.30,  341.73  C 1193.61   341.73  1189.80   345.53  1189.80   350.23 " style="stroke-width: 1.42 ;&st7; " /><path d=" M 1189.80,  350.23  C 1189.80   354.92  1193.61   358.73  1198.30   358.73 " style="stroke-width: 1.42 ;&st7; " /><path d=" M 1198.30,  358.73  C 1202.99   358.73  1206.80   354.92  1206.80   350.23 " style="stroke-width: 1.42 ;&st7; " /><path d=" M 1155.81,  354.48  C 1157.36   354.49  1158.63   353.23  1158.64   351.68 " style="stroke-width: 0.85 ;&st7; " /><path d=" M 1158.64,  351.68  C 1158.65   350.12  1157.40   348.85  1155.84   348.84 " style="stroke-width: 0.85 ;&st7; " /><path d=" M 1155.84,  348.84  C 1154.81   348.84  1153.93   349.34  1153.40   350.23 " style="stroke-width: 0.85 ;&st7; " /><path d=" M 1153.40,  350.23  C 1154.19   351.57  1155.92   352.01  1157.26   351.22 " style="stroke-width: 0.85 ;&st7; " /><path d=" M 1157.26,  351.22  C 1158.60   350.43  1159.04   348.70  1158.25   347.36 " style="stroke-width: 0.85 ;&st7; " /><path d=" M 1158.25,  347.36  C 1157.72   346.47  1156.84   345.97  1155.81   345.98 " style="stroke-width: 0.85 ;&st7; " /><path d=" M 1164.31,  350.23  C 1164.31   345.53  1160.50   341.73  1155.81   341.73 " style="stroke-width: 1.42 ;&st7; " /><path d=" M 1155.81,  341.73  C 1151.11   341.73  1147.31   345.53  1147.31   350.23 " style="stroke-width: 1.42 ;&st7; " /><path d=" M 1147.31,  350.23  C 1147.31   354.92  1151.11   358.73  1155.81   358.73 " style="stroke-width: 1.42 ;&st7; " /><path d=" M 1155.81,  358.73  C 1160.50   358.73  1164.31   354.92  1164.31   350.23 " style="stroke-width: 1.42 ;&st7; " /><path d=" M 1000.71,  116.52  C 1000.71   114.17   998.81   112.27   996.46   112.27 " style="stroke-width: 1.42 ;&st7; " /><path d=" M 1334.28,   47.11  C 1331.54    48.72  1330.63    52.25  1332.24    54.99 " style="stroke-width: 1.42 ;&st7; " /><path d=" M 1332.24,   54.99  C 1332.76    55.87  1333.40    56.51  1334.28    57.03 " style="stroke-width: 1.42 ;&st7; " /><path d=" M 1334.28,   66.94  C 1337.01    65.33  1337.93    61.80  1336.31    59.06 " style="stroke-width: 1.42 ;&st7; " /><path d=" M 1336.31,   59.06  C 1335.79    58.18  1335.16    57.55  1334.28    57.03 " style="stroke-width: 1.42 ;&st7; " /><path d=" M 1335.69,   45.69  C 1335.69    44.91  1335.06    44.28  1334.28    44.28 " style="stroke-width: 0.85 ;&st7; " /><path d=" M 1334.28,   44.28  C 1333.49    44.28  1332.86    44.91  1332.86    45.69 " style="stroke-width: 0.85 ;&st7; " /><path d=" M 1332.86,   45.69  C 1332.86    46.48  1333.49    47.11  1334.28    47.11 " style="stroke-width: 0.85 ;&st7; " /><path d=" M 1334.28,   47.11  C 1335.06    47.11  1335.69    46.48  1335.69    45.69 " style="stroke-width: 0.85 ;&st7; " /><path d=" M 1335.69,   68.36  C 1335.69    67.57  1335.06    66.94  1334.28    66.94 " style="stroke-width: 0.85 ;&st7; " /><path d=" M 1334.28,   66.94  C 1333.49    66.94  1332.86    67.57  1332.86    68.36 " style="stroke-width: 0.85 ;&st7; " /><path d=" M 1332.86,   68.36  C 1332.86    69.14  1333.49    69.77  1334.28    69.77 " style="stroke-width: 0.85 ;&st7; " /><path d=" M 1334.28,   69.77  C 1335.06    69.77  1335.69    69.14  1335.69    68.36 " style="stroke-width: 0.85 ;&st7; " /><path d=" M 1340.65,  108.02  C 1340.65   105.67  1338.75   103.77  1336.40   103.77 " style="stroke-width: 1.42 ;&st7; " /><path d=" M 1336.40,  112.27  C 1338.75   112.27  1340.65   110.36  1340.65   108.02 " style="stroke-width: 1.42 ;&st7; " /><path d=" M 1327.90,  108.02  C 1327.90   110.36  1329.81   112.27  1332.15   112.27 " style="stroke-width: 1.42 ;&st7; " /><path d=" M 1332.15,  103.77  C 1329.81   103.77  1327.90   105.67  1327.90   108.02 " style="stroke-width: 1.42 ;&st7; " /><path d=" M 1332.15,  214.25  C 1329.81   214.25  1327.90   216.15  1327.90   218.50 " style="stroke-width: 1.42 ;&st7; " /><path d=" M 1327.90,  218.50  C 1327.90   220.85  1329.81   222.75  1332.15   222.75 " style="stroke-width: 1.42 ;&st7; " /><path d=" M 1336.40,  222.75  C 1338.75   222.75  1340.65   220.85  1340.65   218.50 " style="stroke-width: 1.42 ;&st7; " /><path d=" M 1340.65,  218.50  C 1340.65   216.15  1338.75   214.25  1336.40   214.25 " style="stroke-width: 1.42 ;&st7; " /><path d=" M 1332.15,  256.74  C 1329.81   256.74  1327.90   258.64  1327.90   260.99 " style="stroke-width: 1.42 ;&st7; " /><path d=" M 1327.90,  260.99  C 1327.90   263.34  1329.81   265.24  1332.15   265.24 " style="stroke-width: 1.42 ;&st7; " /><path d=" M 1336.40,  265.24  C 1338.75   265.24  1340.65   263.34  1340.65   260.99 " style="stroke-width: 1.42 ;&st7; " /><path d=" M 1340.65,  260.99  C 1340.65   258.64  1338.75   256.74  1336.40   256.74 " style="stroke-width: 1.42 ;&st7; " /><path d=" M 1126.06,  592.44  C 1123.72   592.44  1121.81   594.34  1121.81   596.69 " style="stroke-width: 1.42 ;&st7; " /><path d=" M 1121.81,  596.69  C 1121.81   599.03  1123.72   600.93  1126.06   600.93 " style="stroke-width: 1.42 ;&st7; " /><path d=" M 1130.31,  600.93  C 1132.66   600.93  1134.56   599.03  1134.56   596.69 " style="stroke-width: 1.42 ;&st7; " /><path d=" M 1134.56,  596.69  C 1134.56   594.34  1132.66   592.44  1130.31   592.44 " style="stroke-width: 1.42 ;&st7; " /><path d=" M 1204.67,  490.45  C 1204.67   488.11  1202.77   486.20  1200.42   486.20 " style="stroke-width: 1.42 ;&st7; " /><path d=" M 1200.42,  494.70  C 1202.77   494.70  1204.67   492.80  1204.67   490.45 " style="stroke-width: 1.42 ;&st7; " /><path d=" M 1191.93,  490.45  C 1191.93   492.80  1193.83   494.70  1196.18   494.70 " style="stroke-width: 1.42 ;&st7; " /><path d=" M 1196.18,  486.20  C 1193.83   486.20  1191.93   488.11  1191.93   490.45 " style="stroke-width: 1.42 ;&st7; " /><path d=" M 1162.18,  617.93  C 1162.18   615.59  1160.28   613.68  1157.93   613.68 " style="stroke-width: 1.42 ;&st7; " /><path d=" M 1157.93,  622.18  C 1160.28   622.18  1162.18   620.28  1162.18   617.93 " style="stroke-width: 1.42 ;&st7; " /><path d=" M 1149.43,  617.93  C 1149.43   620.28  1151.34   622.18  1153.68   622.18 " style="stroke-width: 1.42 ;&st7; " /><path d=" M 1153.68,  613.68  C 1151.34   613.68  1149.43   615.59  1149.43   617.93 " style="stroke-width: 1.42 ;&st7; " /><path d=" M 1162.18,  575.44  C 1162.18   573.09  1160.28   571.19  1157.93   571.19 " style="stroke-width: 1.42 ;&st7; " /><path d=" M 1157.93,  579.69  C 1160.28   579.69  1162.18   577.79  1162.18   575.44 " style="stroke-width: 1.42 ;&st7; " /><path d=" M 1149.43,  575.44  C 1149.43   577.79  1151.34   579.69  1153.68   579.69 " style="stroke-width: 1.42 ;&st7; " /><path d=" M 1153.68,  571.19  C 1151.34   571.19  1149.43   573.09  1149.43   575.44 " style="stroke-width: 1.42 ;&st7; " /><path d=" M 1162.18,  532.95  C 1162.18   530.60  1160.28   528.70  1157.93   528.70 " style="stroke-width: 1.42 ;&st7; " /><path d=" M 1157.93,  537.20  C 1160.28   537.20  1162.18   535.29  1162.18   532.95 " style="stroke-width: 1.42 ;&st7; " /><path d=" M 1149.43,  532.95  C 1149.43   535.29  1151.34   537.20  1153.68   537.20 " style="stroke-width: 1.42 ;&st7; " /><path d=" M 1153.68,  528.70  C 1151.34   528.70  1149.43   530.60  1149.43   532.95 " style="stroke-width: 1.42 ;&st7; " /><path d=" M 1162.18,  490.45  C 1162.18   488.11  1160.28   486.20  1157.93   486.20 " style="stroke-width: 1.42 ;&st7; " /><path d=" M 1157.93,  494.70  C 1160.28   494.70  1162.18   492.80  1162.18   490.45 " style="stroke-width: 1.42 ;&st7; " /><path d=" M 1149.43,  490.45  C 1149.43   492.80  1151.34   494.70  1153.68   494.70 " style="stroke-width: 1.42 ;&st7; " /><path d=" M 1153.68,  486.20  C 1151.34   486.20  1149.43   488.11  1149.43   490.45 " style="stroke-width: 1.42 ;&st7; " /><path d=" M 1281.16,  116.52  C 1281.16   114.17  1279.26   112.27  1276.91   112.27 " style="stroke-width: 1.42 ;&st7; " /><path d=" M 1276.91,  120.77  C 1279.26   120.77  1281.16   118.86  1281.16   116.52 " style="stroke-width: 1.42 ;&st7; " /><path d=" M 1268.41,  116.52  C 1268.41   118.86  1270.32   120.77  1272.66   120.77 " style="stroke-width: 1.42 ;&st7; " /><path d=" M 1272.66,  112.27  C 1270.32   112.27  1268.41   114.17  1268.41   116.52 " style="stroke-width: 1.42 ;&st7; " /><path d=" M 1204.67,  116.52  C 1204.67   114.17  1202.77   112.27  1200.42   112.27 " style="stroke-width: 1.42 ;&st7; " /><path d=" M 1200.42,  120.77  C 1202.77   120.77  1204.67   118.86  1204.67   116.52 " style="stroke-width: 1.42 ;&st7; " /><path d=" M 1191.93,  116.52  C 1191.93   118.86  1193.83   120.77  1196.18   120.77 " style="stroke-width: 1.42 ;&st7; " /><path d=" M 1196.18,  112.27  C 1193.83   112.27  1191.93   114.17  1191.93   116.52 " style="stroke-width: 1.42 ;&st7; " /><path d=" M 1162.18,  116.52  C 1162.18   114.17  1160.28   112.27  1157.93   112.27 " style="stroke-width: 1.42 ;&st7; " /><path d=" M 1157.93,  120.77  C 1160.28   120.77  1162.18   118.86  1162.18   116.52 " style="stroke-width: 1.42 ;&st7; " /><path d=" M 1149.43,  116.52  C 1149.43   118.86  1151.34   120.77  1153.68   120.77 " style="stroke-width: 1.42 ;&st7; " /><path d=" M 1153.68,  112.27  C 1151.34   112.27  1149.43   114.17  1149.43   116.52 " style="stroke-width: 1.42 ;&st7; " /><text style="&st18;" transform="matrix(&st16;  1270.87  499.5 )">E1</text><text style="&st18;" transform="matrix(&st16;  1268.0  511.39 )">7</text><text style="&st18;" transform="matrix(&st16;  1264.81  389.03 )">10</text><text style="&st18;" transform="matrix(&st17;  1018.94  420.74 )">I2(A),I18(D)</text><text style="&st18;" transform="matrix(&st17;  1214.41  361.25 )">H21</text><text style="&st18;" transform="matrix(&st17;  1152.11  268.0 )">G</text><text style="&st18;" transform="matrix(&st17;  1194.6  268.0 )">G</text><text style="&st18;" transform="matrix(&st17;  1271.09  268.0 )">G</text><text style="&st18;" transform="matrix(&st17;  1152.11  425.92 )">W-B</text><text style="&st18;" transform="matrix(&st17;  1194.6  425.92 )">W-B</text><text style="&st18;" transform="matrix(&st17;  1152.11  561.89 )">W-B</text><text style="&st18;" transform="matrix(&st17;  1152.11  642.63 )">W-B</text><text style="&st18;" transform="matrix(&st16;  1351.58  56.17 )">10A <tspan dy="6" x="0">DOME</tspan></text><text style="&st18;" transform="matrix(&st16;  1327.49  86.47 )">2</text><text style="&st18;" transform="matrix(&st16;  1325.16  32.08 )">(BAT)</text><text style="&st18;" transform="matrix(&st16;  1332.3  109.99 )">2</text><text style="&st18;" transform="matrix(&st16;  1329.97  220.47 )">5E</text><text style="&st18;" transform="matrix(&st16;  1318.41  220.47 )">18</text><text style="&st18;" transform="matrix(&st16;  1329.97  262.96 )">5S</text><text style="&st18;" transform="matrix(&st16;  1321.59  262.96 )">8</text><text style="&st18;" transform="matrix(&st17;  1367.38  497.23 )">H20</text><text ewd:textID="22" style="&st18;" transform="matrix(&st17;  1326.62  457.19 )">Illumination</text><text ewd:textID="25" style="&st18;" transform="matrix(&st17;  1286.41  457.19 )">Pointer <tspan dy="6" x="0">Illumination</tspan></text><text style="&st18;" transform="matrix(&st17;  1330.58  344.2 )">R</text><text style="&st18;" transform="matrix(&st17;  1330.58  140.23 )">R</text><text style="&st18;" transform="matrix(&st16;  1327.48  389.03 )">5</text><text style="&st18;" transform="matrix(&st16;  1337.11  400.91 )">B</text><text style="&st18;" transform="matrix(&st16;  1207.6  660.98 )">W-B</text><text style="&st18;" transform="matrix(&st16;  1209.12  672.31 )">(*2)</text><text style="&st18;" transform="matrix(&st17;  1296.59  561.89 )">W-B</text><text style="&st18;" transform="matrix(&st17;  1307.92  560.37 )">(*2)</text><text style="&st18;" transform="matrix(&st17;  1271.09  621.38 )">W-B</text><text style="&st18;" transform="matrix(&st17;  1282.42  619.48 )">(*1)</text><text style="&st18;" transform="matrix(&st17;  1271.09  561.89 )">W-B</text><text style="&st18;" transform="matrix(&st17;  1282.42  559.99 )">(*1)</text><text style="&st18;" transform="matrix(&st16;  1054.62  592.99 )">W-B</text><text style="&st18;" transform="matrix(&st16;  1006.53  635.48 )">BR</text><text style="&st18;" transform="matrix(&st16;  1057.52  635.48 )">BR</text><text style="&st18;" transform="matrix(&st16;  1003.63  652.48 )">W-B</text><text style="&st18;" transform="matrix(&st16;  1054.62  652.48 )">W-B</text><text ewd:textID="1" style="&st18;" transform="matrix(&st16;  1059.8  20.75 )">* 1 :Before Oct. 2006 Production, RHD From Oct. 2006 Production <tspan dy="8.5" x="14.16">until Apr. 2009 Production</tspan></text><text style="&st18;" transform="matrix(&st16;  1124.09  598.65 )">6F</text><text style="&st18;" transform="matrix(&st16;  1126.21  589.45 )">7</text><text ewd:textID="14" style="&st18;" transform="matrix(&st17;  1374.49  497.23 )">Combination Meter</text><text ewd:textID="11" style="&st18;" transform="matrix(&st17;  1221.52  361.25 )">A/T Shift Lever Illumination</text><text ewd:textID="28" style="&st18;" transform="matrix(&st17;  1026.05  420.74 )">Radio Receiver Assembly</text><text style="&st18;" transform="matrix(&st16;  1003.63  592.99 )">W-B</text><text style="&st18;" transform="matrix(&st16;  1260.75  594.41 )">1</text><text style="&st18;" transform="matrix(&st16;  1182.43  492.42 )">14</text><text style="&st18;" transform="matrix(&st16;  1194.2  492.42 )">6F</text><text style="&st18;" transform="matrix(&st16;  1143.89  619.9 )">1</text><text style="&st18;" transform="matrix(&st16;  1151.71  619.9 )">6F</text><text style="&st18;" transform="matrix(&st16;  1143.12  577.41 )">9</text><text style="&st18;" transform="matrix(&st16;  1151.71  577.41 )">6F</text><text style="&st18;" transform="matrix(&st16;  1139.94  534.92 )">10</text><text style="&st18;" transform="matrix(&st16;  1151.71  534.92 )">6F</text><text style="&st18;" transform="matrix(&st16;  1139.94  492.42 )">12</text><text style="&st18;" transform="matrix(&st16;  1151.71  492.42 )">6F</text><text style="&st18;" transform="matrix(&st16;  1262.1  118.49 )">6</text><text style="&st18;" transform="matrix(&st16;  1270.05  118.49 )">5Q</text><text style="&st18;" transform="matrix(&st16;  1185.61  118.49 )">6</text><text style="&st18;" transform="matrix(&st16;  1193.99  118.49 )">5P</text><text style="&st18;" transform="matrix(&st16;  1143.12  118.49 )">8</text><text style="&st18;" transform="matrix(&st16;  1151.5  118.49 )">5P</text><text style="&st18;" transform="matrix(&st16;  1191.51  338.04 )">2</text><text style="&st18;" transform="matrix(&st16;  1192.29  366.92 )">1</text><text ewd:textID="2" style="&st18;" transform="matrix(&st16;  1059.8  37.75 )">* 2 :LHD From Oct. 2006 Production, <tspan dy="8.5" x="14.16">RHD From Apr. 2009 Production</tspan></text><text style="&st18;" transform="matrix(&st16;  1004.25  177.98 )">(RHD *4)</text><text style="&st18;" transform="matrix(&st16;  1004.25  169.48 )">(LHD)</text><text style="&st18;" transform="matrix(&st16;  1004.25  186.47 )">(RHD *5)</text><text style="&st18;" transform="matrix(&st17;  1001.97  313.91 )">(*4)</text><text style="&st18;" transform="matrix(&st17;  1001.97  449.89 )">(*4)</text><text ewd:textID="29" style="&st18;" transform="matrix(&st17;  1143.61  361.25 )">Rear Blower SW (Main)</text><text style="&st18;" transform="matrix(&st17;  1136.51  361.25 )">H11</text><text style="&st18;" transform="matrix(&st16;  1149.02  366.92 )">4</text><text style="&st18;" transform="matrix(&st16;  1149.8  338.04 )">1</text><text style="&st18;" transform="matrix(&st16;  1277.62  400.91 )">ILL+</text></svg>