﻿<?xml version="1.0" encoding="utf-8"?>
<!-- Generator: Adobe Illustrator 10.0, SVG Export Plug-In . SVG Version: 3.0.0 Build 77)  -->
<!DOCTYPE svg PUBLIC "-//W3C//DTD SVG 1.0//EN" "http://www.w3.org/TR/2001/REC-SVG-20010904/DTD/svg10.dtd"[
   <!ENTITY ns_flows "http://ns.adobe.com/Flows/1.0/">
   <!ENTITY ns_svg "http://www.w3.org/2000/svg">
   <!ENTITY ns_xlink "http://www.w3.org/1999/xlink">
   <!ENTITY st0 "font-size:7px;font-family:'MS-PGothic';adobe-font-script:japanese;">
   <!ENTITY st1 "font-size:6px;font-family:'ArialMT';">
   <!ENTITY st2 "fill:#FFFFFF;stroke:#000000; stroke-width:1.41;stroke-linecap:round;stroke-linejoin:round;">
   <!ENTITY st3 "fill:#FFFFCC;stroke:#FFFFCC; stroke-width:0.1;stroke-linecap:round;stroke-linejoin:round;">
   <!ENTITY st4 "fill:#CCCCCC;stroke:#CCCCCC; stroke-width:0.1;stroke-linecap:round;stroke-linejoin:round;">
   <!ENTITY st5 "fill:#CCECF4;stroke:#000000; stroke-width:1.133;stroke-linecap:round;stroke-linejoin:round;">
   <!ENTITY st6 "fill:none;stroke-linecap:butt; stroke-linejoin:round;">
   <!ENTITY st7 "fill:none;stroke:#000000;stroke-linecap:round;stroke-linejoin:round;">
   <!ENTITY st8 "enable-background:new;">
   <!ENTITY st9 "fill:#000000;stroke:#000000; stroke-linecap:round;stroke-linejoin:round;">
   <!ENTITY st10 "font-size:9px;font-family:'ArialMT';">
   <!ENTITY st11 "font-size:9px;font-family:'Svg Symbol';">
   <!ENTITY st12 "font-size:6px;font-family:'Svg Symbol';">
   <!ENTITY st13 "fill:none;stroke:#ff0000;stroke-linecap:round;stroke-linejoin:round;">
   <!ENTITY st14 "fill:#FFFF00;stroke:#FFFF00; stroke-width:0.1;stroke-linecap:round;stroke-linejoin:round;">
   <!ENTITY st15 "font-size:6px;font-family:'MS-PGothic';adobe-font-script:japanese;">
   <!ENTITY st16 "1.00 0.00 0.00 1.00">
   <!ENTITY st17 "0.00 -1.00 1.00 0.00">
   <!ENTITY st18 "font-size:6px;font-family:'Arial';">
   <!ENTITY st19 "font-size:9px;font-family:'Arial';">
   <!ENTITY st20 "font-size:6px;font-family:'MS-PGothic','MS PGothic';adobe-font-script:japanese;">
   <!ENTITY st21 "font-size:7px;font-family:'MS-PGothic','MS PGothic';adobe-font-script:japanese;">
   <!ATTLIST svg
       xmlns:ewd CDATA #FIXED "http://shcl.co.jp/ewd"
       xmlns:a CDATA #FIXED "http://ns.adobe.com/AdobeSVGViewerExtensions/3.0/"
       ewd:ver CDATA #IMPLIED >
   <!ATTLIST a
       ewd:lineID CDATA #IMPLIED
       ewd:groupID CDATA #IMPLIED
       ewd:figtype CDATA #IMPLIED
       ewd:code CDATA #IMPLIED
       ewd:figID CDATA #IMPLIED
       ewd:pinNo CDATA #IMPLIED
       ewd:comment CDATA #IMPLIED >
   <!ATTLIST g
       ewd:lineID CDATA #IMPLIED
       ewd:groupID CDATA #IMPLIED
       ewd:figtype CDATA #IMPLIED
       ewd:code CDATA #IMPLIED
       ewd:figID CDATA #IMPLIED
       ewd:pinNo CDATA #IMPLIED
       ewd:comment CDATA #IMPLIED >
   <!ATTLIST text
       ewd:textID CDATA #IMPLIED >
   <!ATTLIST title
       ewd:textID CDATA #IMPLIED >
]>
<svg xmlns="http://www.w3.org/2000/svg" xmlns:xlink="http://www.w3.org/1999/xlink" width="4213.15" height="721" viewBox="0 0 4213.15 721" xml:space="preserve" xmlns:ewd="http://shcl.co.jp/ewd" ewd:ver="2.0">
  
  <defs>
    <font horiz-adv-x="1229">
      <font-face font-family="Svg Symbol" units-per-em="2048" panose-1="5 5 1 2 1 7 6 2 5 7" ascent="2059" descent="450" alphabetic="0" />
      <missing-glyph d="M 103,0 l 0,1280 1024,0 0,-1280 -1024,0 z m 32,32 l 960,0 0,1216 -960,0 0,-1216 z" />
      <glyph d4p1:unicode="" horiz-adv-x="1573" d="M 1517,0 l -567,0 24,279 q 141,59 207.5,168 66.5,109 66.5,306 0,272 -132.5,417.5 -132.5,145.5 -333.5,145.5 -194,0 -328,-147.5 -134,-147.5 -134,-401.5 0,-200 68.5,-319 68.5,-119 206.5,-169 l 25,-279 -564,0 0,279 35,0 q 3,-61 32,-83 45,-35 137,-35 l 270,0 0,70 q -210,61 -324.5,209 -114.5,148 -114.5,349 0,252 186.5,425 186.5,173 504.5,173 195,0 358.5,-73.5 163.5,-73.5 252,-214.5 88.5,-141 88.5,-310 0,-207 -121.5,-360.5 -121.5,-153.5 -317.5,-197.5 l -8,-70 275,0 q 92,0 128,28 36,28 42,90 l 38,0 0,-279 z" xmlns:d4p1="def-glyph-attr-unicode" />
    </font>
  </defs>
  
<g ewd:figtype="rb" ewd:code="FUSE105" ewd:figID="37">
      <path style="fill:none;stroke:#000000;stroke-width:0.85;" d="M 1397.32,598.11 L 1361.89, 598.11" />
      <path style="fill:none;stroke:#000000;stroke-width:0.85;" d="M 1361.88,598.11 L 1354.79, 598.11" />
      <path style="fill:none;stroke:#000000;stroke-width:0.85;" d="M 1326.45,598.11 L 1319.36, 598.11" />
      <path style="fill:none;stroke:#000000;stroke-width:0.85;" d="M 1319.36,598.11 L 1283.93, 598.11" />
      <path style="fill:none;stroke:#000000;stroke-width:0.85;stroke-linecap:round;stroke-linejoin:round;" d="M 1354.79,598.11 C 1354.79 597.33 1354.16 596.69 1353.37 596.69 C 1352.57999023437 596.690004882812 1351.95 597.32 1351.95 598.11 C 1351.95 598.89 1352.58 599.53 1353.37 599.53 C 1354.15999023438 599.53005859375 1354.79 598.89 1354.79 598.11" />
      <path style="fill:none;stroke:#000000;stroke-width:0.85;stroke-linecap:round;stroke-linejoin:round;" d="M 1329.28,598.11 C 1329.28 597.33 1328.65 596.69 1327.86 596.69 C 1327.08 596.69 1326.44 597.32 1326.44 598.11 C 1326.44 598.89 1327.07 599.53 1327.86 599.53 C 1328.65 599.53 1329.28 598.89 1329.28 598.11" />
      <path style="fill:none;stroke:#000000;stroke-width:1.417;" d="M 1328.87,599.11 C 1328.87 599.11 1333.55 605.18 1340.62 598.11 C 1347.69 591.04 1352.37 597.11 1352.37 597.11" />
      <path style="fill:none;stroke:#000000;stroke-width:1.417;stroke-linecap:round;stroke-linejoin:round;" d="M 1361.88,585.35 L 1319.36, 585.35 L 1319.36, 610.86 L 1361.88, 610.86 L 1361.88, 585.35" />
      <path d="M 1397.32,598.11 L 1394.49, 595.28 L 1391.65, 595.28 L 1394.49, 598.11 L 1391.65, 600.94 L 1394.48, 600.94 L 1397.32, 598.11" style="stroke-linecap:round;stroke-linejoin:round;" />
      <path style="fill:none;stroke:#000000;stroke-width:0.85;stroke-linecap:round;stroke-linejoin:round;" d="M 1411.49,603.78 C 1414.62 603.78 1417.16 601.2401 1417.16 598.11 C 1417.16 594.98 1414.62 592.44 1411.49 592.44 L 1402.99, 592.44 C 1399.86 592.44 1397.32 594.98 1397.32 598.11 C 1397.32 601.24 1399.86 603.78 1402.99 603.78 L 1411.49, 603.78" />
      <path d="M 1283.93,598.11 L 1286.76, 595.28 L 1289.59, 595.28 L 1286.76, 598.11 L 1289.59, 600.94 L 1286.76, 600.94 L 1283.93, 598.11" style="stroke-linecap:round;stroke-linejoin:round;" />
      <path style="fill:none;stroke:#000000;stroke-width:0.85;stroke-linecap:round;stroke-linejoin:round;" d="M 1278.26,603.78 C 1281.39 603.78 1283.93 601.2401 1283.93 598.11 C 1283.93 594.98 1281.39 592.44 1278.26 592.44 L 1269.76, 592.44 C 1266.63 592.44 1264.09 594.98 1264.09 598.11 C 1264.09 601.24 1266.63 603.78 1269.76 603.78 L 1278.26, 603.78" />
      <text transform="matrix(1 0 0 1 1313.9004 591.3115)" style="font-family:'Arial'; font-size:6px;">1</text>
      <text transform="matrix(1 0 0 1 1364.0088 591.3115)" style="font-family:'Arial'; font-size:6px;">2</text>
      <text transform="matrix(1 0 0 1 1321.1191 580.6807)" style="font-family:'Arial'; font-size:6px;">15A  MIR HTR</text>
      <text transform="matrix(1 0 0 1 1403.8999 599.8154)" style="font-family:'Arial'; font-size:6px;">10</text>
      <text transform="matrix(1 0 0 1 1270.6724 599.8154)" style="font-family:'Arial'; font-size:6px;">10</text>
    </g><g ewd:figtype="rb" ewd:code="FUSE112" ewd:figID="38">
      <path style="fill:none;stroke:#000000;stroke-width:0.85;" d="M 1397.32,640.63 L 1361.89, 640.63" />
      <path style="fill:none;stroke:#000000;stroke-width:0.85;" d="M 1361.88,640.63 L 1354.79, 640.63" />
      <path style="fill:none;stroke:#000000;stroke-width:0.85;" d="M 1326.45,640.63 L 1319.36, 640.63" />
      <path style="fill:none;stroke:#000000;stroke-width:0.85;" d="M 1319.36,640.63 L 1283.93, 640.63" />
      <path style="fill:none;stroke:#000000;stroke-width:0.85;stroke-linecap:round;stroke-linejoin:round;" d="M 1354.79,640.63 C 1354.79 639.85 1354.16 639.21 1353.37 639.21 C 1352.57999023437 639.210043945312 1351.95 639.84 1351.95 640.63 C 1351.94990234375 641.420009765625 1352.58 642.05 1353.37 642.05 C 1354.15999023438 642.049975585938 1354.79 641.41 1354.79 640.63" />
      <path style="fill:none;stroke:#000000;stroke-width:0.85;stroke-linecap:round;stroke-linejoin:round;" d="M 1329.28,640.63 C 1329.28 639.85 1328.65 639.21 1327.86 639.21 C 1327.08 639.21 1326.44 639.84 1326.44 640.63 C 1326.4398828125 641.420009765625 1327.07 642.05 1327.86 642.05 C 1328.65 642.04 1329.28 641.41 1329.28 640.63" />
      <path style="fill:none;stroke:#000000;stroke-width:1.417;" d="M 1328.87,641.63 C 1328.87 641.63 1333.55 647.7 1340.62 640.63 C 1347.68999023438 633.560009765625 1352.37 639.63 1352.37 639.63" />
      <path style="fill:none;stroke:#000000;stroke-width:1.417;stroke-linecap:round;stroke-linejoin:round;" d="M 1361.88,627.87 L 1319.36, 627.87 L 1319.36, 653.38 L 1361.88, 653.38 L 1361.88, 627.87" />
      <path d="M 1397.32,640.63 L 1394.49, 637.8 L 1391.65, 637.8 L 1394.49, 640.63 L 1391.65, 643.46 L 1394.48, 643.46 L 1397.32, 640.63" style="stroke-linecap:round;stroke-linejoin:round;" />
      <path style="fill:none;stroke:#000000;stroke-width:0.85;stroke-linecap:round;stroke-linejoin:round;" d="M 1411.49,646.3 C 1414.62 646.3 1417.16 643.76 1417.16 640.63 C 1417.16 637.5 1414.62 634.96 1411.49 634.96 L 1402.99, 634.96 C 1399.86 634.96 1397.32 637.5 1397.32 640.63 C 1397.32 643.76 1399.86 646.3 1402.99 646.3 L 1411.49, 646.3" />
      <path d="M 1283.93,640.63 L 1286.76, 637.8 L 1289.59, 637.8 L 1286.76, 640.63 L 1289.59, 643.46 L 1286.76, 643.46 L 1283.93, 640.63" style="stroke-linecap:round;stroke-linejoin:round;" />
      <path style="fill:none;stroke:#000000;stroke-width:0.85;stroke-linecap:round;stroke-linejoin:round;" d="M 1278.26,646.3 C 1281.39 646.3 1283.93 643.76 1283.93 640.63 C 1283.93 637.5 1281.39 634.96 1278.26 634.96 L 1269.76, 634.96 C 1266.63 634.96 1264.09 637.5 1264.09 640.63 C 1264.09 643.76 1266.63 646.3 1269.76 646.3 L 1278.26, 646.3" />
      <text transform="matrix(1 0 0 1 1313.9004 633.8301)" style="font-family:'Arial'; font-size:6px;">1</text>
      <text transform="matrix(1 0 0 1 1364.0088 633.8301)" style="font-family:'Arial'; font-size:6px;">2</text>
      <text transform="matrix(1 0 0 1 1327.6172 623.2002)" style="font-family:'Arial'; font-size:6px;">30A  DEF</text>
      <text transform="matrix(1 0 0 1 1403.8999 642.334)" style="font-family:'Arial'; font-size:6px;">11</text>
      <text transform="matrix(1 0 0 1 1270.6724 642.335)" style="font-family:'Arial'; font-size:6px;">11</text>
    </g><g ewd:figtype="rb" ewd:code="FUSE100" ewd:figID="39">
      <path style="fill:none;stroke:#000000;stroke-width:0.85;" d="M 1499.36,428.03 L 1463.93, 428.03" />
      <path style="fill:none;stroke:#000000;stroke-width:0.85;" d="M 1463.93,428.03 L 1456.84, 428.03" />
      <path style="fill:none;stroke:#000000;stroke-width:0.85;" d="M 1428.5,428.03 L 1421.41, 428.03" />
      <path style="fill:none;stroke:#000000;stroke-width:0.85;" d="M 1421.41,428.03 L 1385.98, 428.03" />
      <path style="fill:none;stroke:#000000;stroke-width:0.85;stroke-linecap:round;stroke-linejoin:round;" d="M 1456.84,428.03 C 1456.84 427.25 1456.21 426.61 1455.42 426.61 C 1454.63008789062 426.609970703125 1454 427.24 1454 428.03 C 1454 428.819997558594 1454.63 429.45 1455.42 429.45 C 1456.21008789062 429.450024414063 1456.84 428.81 1456.84 428.03" />
      <path style="fill:none;stroke:#000000;stroke-width:0.85;stroke-linecap:round;stroke-linejoin:round;" d="M 1431.33,428.03 C 1431.33 427.25 1430.7 426.61 1429.91 426.61 C 1429.13 426.61 1428.49 427.24 1428.49 428.03 C 1428.48998046875 428.819997558594 1429.12 429.45 1429.91 429.45 C 1430.7 429.45 1431.33 428.81 1431.33 428.03" />
      <path style="fill:none;stroke:#000000;stroke-width:1.417;" d="M 1430.92,429.03 C 1430.92 429.03 1435.6 435.1 1442.67 428.03 C 1449.74008789063 420.959997558594 1454.42 427.03 1454.42 427.03" />
      <path style="fill:none;stroke:#000000;stroke-width:1.417;stroke-linecap:round;stroke-linejoin:round;" d="M 1463.93,415.27 L 1421.41, 415.27 L 1421.41, 440.78 L 1463.93, 440.78 L 1463.93, 415.27" />
      <path d="M 1499.36,428.03 L 1496.53, 425.2 L 1493.69, 425.2 L 1496.53, 428.03 L 1493.69, 430.87 L 1496.52, 430.87 L 1499.36, 428.03" style="stroke-linecap:round;stroke-linejoin:round;" />
      <path style="fill:none;stroke:#000000;stroke-width:0.85;stroke-linecap:round;stroke-linejoin:round;" d="M 1513.54,433.7 C 1516.67 433.7 1519.21 431.16 1519.21 428.03 C 1519.21 424.9 1516.67 422.36 1513.54 422.36 L 1505.04, 422.36 C 1501.91 422.36 1499.37 424.9 1499.37 428.03 C 1499.37 431.16 1501.91 433.7 1505.04 433.7 L 1513.54, 433.7" />
      <path d="M 1385.98,428.03 L 1388.81, 425.2 L 1391.65, 425.2 L 1388.81, 428.03 L 1391.65, 430.87 L 1388.81, 430.87 L 1385.98, 428.03" style="stroke-linecap:round;stroke-linejoin:round;" />
      <path style="fill:none;stroke:#000000;stroke-width:0.85;stroke-linecap:round;stroke-linejoin:round;" d="M 1380.31,433.7 C 1383.44 433.7 1385.98 431.16 1385.98 428.03 C 1385.98 424.9 1383.44 422.36 1380.31 422.36 L 1371.81, 422.36 C 1368.68 422.36 1366.14 424.9 1366.14 428.03 C 1366.14 431.16 1368.68 433.7 1371.81 433.7 L 1380.31, 433.7" />
      <text transform="matrix(1 0 0 1 1415.9473 421.2324)" style="font-family:'Arial'; font-size:6px;">1</text>
      <text transform="matrix(1 0 0 1 1466.0557 421.2324)" style="font-family:'Arial'; font-size:6px;">2</text>
      <text transform="matrix(1 0 0 1 1421.9946 410.6025)" style="font-family:'Arial'; font-size:6px;">7.5A  A/C NO.3</text>
      <text transform="matrix(1 0 0 1 1505.9468 429.7363)" style="font-family:'Arial'; font-size:6px;">10</text>
      <text transform="matrix(1 0 0 1 1372.7192 429.7363)" style="font-family:'Arial'; font-size:6px;">10</text>
    </g><g ewd:figtype="rb" ewd:code="FUSE209" ewd:figID="51">
      <path style="fill:none;stroke:#000000;stroke-width:0.85;" d="M 1499.36,351.49 L 1463.93, 351.49" />
      <path style="fill:none;stroke:#000000;stroke-width:0.85;" d="M 1463.93,351.49 L 1456.84, 351.49" />
      <path style="fill:none;stroke:#000000;stroke-width:0.85;" d="M 1428.5,351.49 L 1421.41, 351.49" />
      <path style="fill:none;stroke:#000000;stroke-width:0.85;" d="M 1421.41,351.49 L 1385.98, 351.49" />
      <path style="fill:none;stroke:#000000;stroke-width:0.85;stroke-linecap:round;stroke-linejoin:round;" d="M 1456.84,351.49 C 1456.84 350.71 1456.21 350.07 1455.42 350.07 C 1454.64 350.07 1454 350.7 1454 351.49 C 1454 352.27 1454.63 352.91 1455.42 352.91 C 1456.21 352.91 1456.84 352.28 1456.84 351.49" />
      <path style="fill:none;stroke:#000000;stroke-width:0.85;stroke-linecap:round;stroke-linejoin:round;" d="M 1431.33,351.49 C 1431.33 350.71 1430.7 350.07 1429.91 350.07 C 1429.13 350.07 1428.49 350.7 1428.49 351.49 C 1428.49 352.27 1429.12 352.91 1429.91 352.91 C 1430.7 352.91 1431.33 352.28 1431.33 351.49" />
      <path style="fill:none;stroke:#000000;stroke-width:1.417;" d="M 1430.92,352.5 C 1430.92 352.5 1435.6 358.57 1442.67 351.5 C 1449.74 344.43 1454.42 350.5 1454.42 350.5" />
      <path style="fill:none;stroke:#000000;stroke-width:1.417;stroke-linecap:round;stroke-linejoin:round;" d="M 1463.93,338.74 L 1421.41, 338.74 L 1421.41, 364.25 L 1463.93, 364.25 L 1463.93, 338.74" />
      <path d="M 1499.36,351.49 L 1496.53, 348.66 L 1493.7, 348.66 L 1496.53, 351.49 L 1493.7, 354.32 L 1496.53, 354.32 L 1499.36, 351.49" style="stroke-linecap:round;stroke-linejoin:round;" />
      <path style="fill:none;stroke:#000000;stroke-width:0.85;stroke-linecap:round;stroke-linejoin:round;" d="M 1513.54,357.16 C 1516.67 357.16 1519.21 354.62 1519.21 351.49 C 1519.21 348.36 1516.67 345.82 1513.54 345.82 L 1505.04, 345.82 C 1501.91 345.82 1499.37 348.36 1499.37 351.49 C 1499.37 354.62 1501.91 357.16 1505.04 357.16 L 1513.54, 357.16" />
      <path d="M 1385.98,351.49 L 1388.81, 348.66 L 1391.64, 348.66 L 1388.81, 351.49 L 1391.64, 354.32 L 1388.81, 354.32 L 1385.98, 351.49" style="stroke-linecap:round;stroke-linejoin:round;" />
      <path style="fill:none;stroke:#000000;stroke-width:0.85;stroke-linecap:round;stroke-linejoin:round;" d="M 1380.31,357.16 C 1383.44 357.16 1385.98 354.62 1385.98 351.49 C 1385.98 348.36 1383.44 345.82 1380.31 345.82 L 1371.81, 345.82 C 1368.68 345.82 1366.14 348.36 1366.14 351.49 C 1366.14 354.62 1368.68 357.16 1371.81 357.16 L 1380.31, 357.16" />
      <text transform="matrix(1 0 0 1 1415.9463 344.6968)" style="font-family:'Arial'; font-size:6px;">1</text>
      <text transform="matrix(1 0 0 1 1466.0547 344.6968)" style="font-family:'Arial'; font-size:6px;">2</text>
      <text transform="matrix(1 0 0 1 1423.1616 334.0669)" style="font-family:'Arial'; font-size:6px;">10A  EFI NO.3</text>
      <text transform="matrix(1 0 0 1 1505.9458 353.2007)" style="font-family:'Arial'; font-size:6px;">10</text>
      <text transform="matrix(1 0 0 1 1372.7192 353.2012)" style="font-family:'Arial'; font-size:6px;">10</text>
    </g><g ewd:figtype="jb" ewd:code="12" ewd:figID="4">
      <path d="M 1672.28,386.93 C 1673.06 386.93 1673.7 386.3 1673.7 385.51 C 1673.7 384.73 1673.07 384.09 1672.28 384.09 C 1671.5 384.09 1670.86 384.72 1670.86 385.51 C 1670.86 386.29 1671.49 386.93 1672.28 386.93" style="stroke-linecap:round;stroke-linejoin:round;" />
      <path d="M 1689.28,471.97 C 1690.06 471.97 1690.7 471.34 1690.7 470.55 C 1690.7 469.77 1690.07 469.13 1689.28 469.13 C 1688.49005859375 469.130009765625 1687.86 469.76 1687.86 470.55 C 1687.87 471.33 1688.5 471.97 1689.28 471.97" style="stroke-linecap:round;stroke-linejoin:round;" />
      <path d="M 1825.35,463.46 C 1826.13 463.46 1826.77 462.83 1826.77 462.04 C 1826.77 461.26 1826.14 460.62 1825.35 460.62 C 1824.57 460.62 1823.93 461.25 1823.93 462.04 C 1823.93 462.83 1824.56 463.46 1825.35 463.46" style="stroke-linecap:round;stroke-linejoin:round;" />
      <path d="M 1910.39,386.93 C 1911.17 386.93 1911.81 386.3 1911.81 385.51 C 1911.81 384.73 1911.18 384.09 1910.39 384.09 C 1909.61 384.09 1908.97 384.72 1908.97 385.51 C 1908.97 386.29 1909.6 386.93 1910.39 386.93" style="stroke-linecap:round;stroke-linejoin:round;" />
      <path d="M 1672.28,344.41 C 1673.06 344.41 1673.7 343.78 1673.7 342.99 C 1673.7 342.21 1673.07 341.57 1672.28 341.57 C 1671.5 341.57 1670.86 342.2 1670.86 342.99 C 1670.86 343.77 1671.49 344.41 1672.28 344.41" style="stroke-linecap:round;stroke-linejoin:round;" />
      <path d="M 1672.28,301.89 C 1673.06 301.89 1673.7 301.26 1673.7 300.47 C 1673.69990234375 299.680002441406 1673.07 299.05 1672.28 299.05 C 1671.5 299.05 1670.86 299.68 1670.86 300.47 C 1670.85997070313 301.260002441406 1671.49 301.89 1672.28 301.89" style="stroke-linecap:round;stroke-linejoin:round;" />
      <path d="M 1672.28,259.37 C 1673.06 259.37 1673.7 258.74 1673.7 257.95 C 1673.69990234375 257.160024414062 1673.07 256.53 1672.28 256.53 C 1671.5 256.53 1670.86 257.16 1670.86 257.95 C 1670.85997070313 258.740024414062 1671.49 259.37 1672.28 259.37" style="stroke-linecap:round;stroke-linejoin:round;" />
      <path d="M 1672.28,216.85 C 1673.06 216.85 1673.7 216.22 1673.7 215.43 C 1673.7 214.65 1673.07 214.01 1672.28 214.01 C 1671.5 214.01 1670.86 214.64 1670.86 215.43 C 1670.86 216.21 1671.49 216.85 1672.28 216.85" style="stroke-linecap:round;stroke-linejoin:round;" />
      <path style="fill:none;stroke:#000000;stroke-width:0.85;" d="M 1808.34,342.99 L 1770.07, 342.99" />
      <path style="fill:none;stroke:#000000;stroke-width:0.85;" d="M 1770.07,342.99 L 1762.98, 342.99" />
      <path style="fill:none;stroke:#000000;stroke-width:0.85;" d="M 1734.64,342.99 L 1727.55, 342.99" />
      <path style="fill:none;stroke:#000000;stroke-width:0.85;" d="M 1727.55,342.99 L 1672.27, 342.99 L 1672.27, 470.55 L 1649.59, 470.55" />
      <path style="fill:none;stroke:#000000;stroke-width:0.85;" d="M 2018.1,462.05 L 1978.42, 462.05" />
      <path style="fill:none;stroke:#000000;stroke-width:0.85;" d="M 1978.42,462.05 L 1970.91, 462.05" />
      <path style="fill:none;stroke:#000000;stroke-width:0.85;" d="M 1951.91,462.05 L 1944.4, 462.05" />
      <path style="fill:none;stroke:#000000;stroke-width:0.85;" d="M 1944.4,462.05 L 1825.34, 462.05" />
      <path style="fill:none;stroke:#000000;stroke-width:0.85;" d="M 2018.1,385.51 L 1876.37, 385.51" />
      <path style="fill:none;stroke:#000000;stroke-width:0.85;" d="M 1876.37,385.51 L 1872.12, 385.51" />
      <path style="fill:none;stroke:#000000;stroke-width:0.85;" d="M 1846.61,385.51 L 1842.36, 385.51" />
      <path style="fill:none;stroke:#000000;stroke-width:0.85;" d="M 1842.35,385.51 L 1770.07, 385.51" />
      <path style="fill:none;stroke:#000000;stroke-width:0.85;" d="M 1770.07,385.51 L 1762.98, 385.51" />
      <path style="fill:none;stroke:#000000;stroke-width:0.85;" d="M 1734.64,385.51 L 1727.55, 385.51" />
      <path style="fill:none;stroke:#000000;stroke-width:0.85;" d="M 1727.55,385.51 L 1672.27, 385.51" />
      <path style="fill:none;stroke:#000000;stroke-width:0.85;" d="M 2018.1,436.53 L 1978.42, 436.53" />
      <path style="fill:none;stroke:#000000;stroke-width:0.85;" d="M 1978.42,436.53 L 1974.17, 436.53" />
      <path style="fill:none;stroke:#000000;stroke-width:0.85;" d="M 1948.65,436.53 L 1944.4, 436.53" />
      <path style="fill:none;stroke:#000000;stroke-width:0.85;" d="M 1944.4,436.53 L 1927.39, 436.53 L 1927.39, 411.02 L 2018.1, 411.02" />
      <path style="fill:none;stroke:#000000;stroke-width:0.85;" d="M 2018.1,513.07 L 1893.37, 513.07 L 1893.37, 411.02 L 1876.36, 411.02" />
      <path style="fill:none;stroke:#000000;stroke-width:0.85;" d="M 1876.37,411.02 L 1868.86, 411.02" />
      <path style="fill:none;stroke:#000000;stroke-width:0.85;" d="M 1849.86,411.02 L 1842.35, 411.02" />
      <path style="fill:none;stroke:#000000;stroke-width:0.85;" d="M 1842.35,411.02 L 1825.34, 411.02 L 1825.34, 510.23" />
      <path style="fill:none;stroke:#000000;stroke-width:0.85;" d="M 1808.34,172.91 L 1770.07, 172.91" />
      <path style="fill:none;stroke:#000000;stroke-width:0.85;" d="M 1770.07,172.91 L 1762.98, 172.91" />
      <path style="fill:none;stroke:#000000;stroke-width:0.85;" d="M 1734.64,172.91 L 1727.55, 172.91" />
      <path style="fill:none;stroke:#000000;stroke-width:0.85;" d="M 1727.55,172.91 L 1672.27, 172.91 L 1672.27, 342.99" />
      <path style="fill:none;stroke:#000000;stroke-width:0.85;" d="M 1808.34,215.43 L 1770.07, 215.43" />
      <path style="fill:none;stroke:#000000;stroke-width:0.85;" d="M 1770.07,215.43 L 1762.98, 215.43" />
      <path style="fill:none;stroke:#000000;stroke-width:0.85;" d="M 1734.64,215.43 L 1727.55, 215.43" />
      <path style="fill:none;stroke:#000000;stroke-width:0.85;" d="M 1727.55,215.43 L 1672.27, 215.43" />
      <path style="fill:none;stroke:#000000;stroke-width:0.85;" d="M 1808.34,257.95 L 1770.07, 257.95" />
      <path style="fill:none;stroke:#000000;stroke-width:0.85;" d="M 1770.07,257.95 L 1762.98, 257.95" />
      <path style="fill:none;stroke:#000000;stroke-width:0.85;" d="M 1734.64,257.95 L 1727.55, 257.95" />
      <path style="fill:none;stroke:#000000;stroke-width:0.85;" d="M 1727.55,257.95 L 1672.27, 257.95" />
      <path style="fill:none;stroke:#000000;stroke-width:0.85;" d="M 1808.34,300.47 L 1770.07, 300.47" />
      <path style="fill:none;stroke:#000000;stroke-width:0.85;" d="M 1770.07,300.47 L 1762.98, 300.47" />
      <path style="fill:none;stroke:#000000;stroke-width:0.85;" d="M 1734.64,300.47 L 1727.55, 300.47" />
      <path style="fill:none;stroke:#000000;stroke-width:0.85;" d="M 1727.55,300.47 L 1672.27, 300.47" />
      <path style="fill:none;stroke:#000000;stroke-width:0.85;" d="M 1910.39,385.51 L 1910.39, 496.06 L 1689.29, 496.06 L 1689.29, 428.03 L 1727.56, 428.03" />
      <path style="fill:none;stroke:#000000;stroke-width:0.85;" d="M 1727.55,428.03 L 1734.64, 428.03" />
      <path style="fill:none;stroke:#000000;stroke-width:0.85;" d="M 1762.98,428.03 L 1770.07, 428.03" />
      <path style="fill:none;stroke:#000000;stroke-width:0.85;" d="M 1770.07,428.03 L 1808.34, 428.03" />
      <path style="fill:none;stroke:#000000;stroke-width:0.85;" d="M 1689.28,470.55 L 1727.55, 470.55" />
      <path style="fill:none;stroke:#000000;stroke-width:0.85;" d="M 1727.55,470.55 L 1734.64, 470.55" />
      <path style="fill:none;stroke:#000000;stroke-width:0.85;" d="M 1762.98,470.55 L 1770.07, 470.55" />
      <path style="fill:none;stroke:#000000;stroke-width:0.85;" d="M 1770.07,470.55 L 1808.34, 470.55" />
      <path d="M 1649.6,470.55 L 1652.43, 467.72 L 1655.27, 467.72 L 1652.43, 470.55 L 1655.27, 473.39 L 1652.44, 473.39 L 1649.6, 470.55" style="stroke-linecap:round;stroke-linejoin:round;" />
      <path style="fill:none;stroke:#000000;stroke-width:0.85;stroke-linecap:round;stroke-linejoin:round;" d="M 1643.93,476.22 C 1647.06 476.22 1649.6 473.68 1649.6 470.55 C 1649.6 467.42 1647.06 464.88 1643.93 464.88 L 1635.43, 464.88 C 1632.3 464.88 1629.76 467.42 1629.76 470.55 C 1629.76 473.68 1632.3 476.22 1635.43 476.22 L 1643.93, 476.22" />
      <path d="M 1825.34,510.23 L 1828.17, 507.4 L 1828.17, 504.57 L 1825.34, 507.4 L 1822.51, 504.57 L 1822.51, 507.4 L 1825.34, 510.23" style="stroke-linecap:round;stroke-linejoin:round;" />
      <path style="fill:none;stroke:#000000;stroke-width:0.85;stroke-linecap:round;stroke-linejoin:round;" d="M 1829.6,521.57 C 1832.73 521.57 1835.27 519.03 1835.27 515.9 C 1835.27 512.77 1832.73 510.23 1829.6 510.23 L 1821.1, 510.23 C 1817.97 510.23 1815.43 512.77 1815.43 515.9 C 1815.43 519.03 1817.97 521.57 1821.1 521.57 L 1829.6, 521.57" />
      <path style="fill:none;stroke:#000000;stroke-width:1.417;" d="M 1846.65,379.83 L 1869.33, 385.15" />
      <path style="fill:none;stroke:#000000;stroke-width:0.85;stroke-linecap:round;stroke-linejoin:round;" d="M 1849.44,385.51 C 1849.44 384.73 1848.81 384.09 1848.02 384.09 C 1847.2300390625 384.089992675781 1846.6 384.72 1846.6 385.51 C 1846.6 386.29 1847.23 386.93 1848.02 386.93 C 1848.8100390625 386.929985351562 1849.44 386.29 1849.44 385.51" />
      <path style="fill:none;stroke:#000000;stroke-width:0.85;stroke-linecap:round;stroke-linejoin:round;" d="M 1872.12,385.51 C 1872.12 384.73 1871.49 384.09 1870.7 384.09 C 1869.90990234375 384.089992675781 1869.28 384.72 1869.28 385.51 C 1869.28 386.29 1869.91 386.93 1870.7 386.93 C 1871.48990234375 386.929985351562 1872.12 386.29 1872.12 385.51" />
      <path style="fill:none;stroke:#000000;stroke-width:0.85;" d="M 1849.44,411.02 C 1849.44 408.67 1851.34 406.77 1853.69 406.77 C 1856.04 406.77 1857.94 408.67 1857.94 411.02 C 1857.94 412.28 1857.39 413.41 1856.52 414.19 L 1856.52, 414.19 C 1855.65 413.41 1855.1 412.28 1855.1 411.02 C 1855.1 408.67 1857 406.77 1859.35 406.77 C 1861.7 406.77 1863.6 408.67 1863.6 411.02 C 1863.6 412.28 1863.05 413.41 1862.18 414.19 L 1862.18, 414.19 C 1861.31 413.41 1860.76 412.28 1860.76 411.02 C 1860.76 408.67 1862.66 406.77 1865.01 406.77 C 1867.36 406.77 1869.26 408.67 1869.26 411.02" />
      <path style="fill:none;stroke:#000000;stroke-width:1.417;stroke-linecap:round;stroke-linejoin:round;" d="M 1876.37,377.01 L 1842.35, 377.01 L 1842.35, 419.53 L 1876.37, 419.53 L 1876.37, 377.01" />
      <path style="fill:none;stroke:#000000;stroke-width:1.417;" d="M 1948.7,430.85 L 1971.38, 436.17" />
      <path style="fill:none;stroke:#000000;stroke-width:0.85;stroke-linecap:round;stroke-linejoin:round;" d="M 1951.49,436.54 C 1951.49 435.76 1950.86 435.12 1950.07 435.12 C 1949.27989257813 435.119990234375 1948.65 435.75 1948.65 436.54 C 1948.65 437.32 1949.28 437.96 1950.07 437.96 C 1950.85989257813 437.959982910156 1951.49 437.32 1951.49 436.54" />
      <path style="fill:none;stroke:#000000;stroke-width:0.85;stroke-linecap:round;stroke-linejoin:round;" d="M 1974.17,436.54 C 1974.17 435.76 1973.54 435.12 1972.75 435.12 C 1971.96 435.119990234375 1971.33 435.75 1971.33 436.54 C 1971.33 437.32 1971.96 437.96 1972.75 437.96 C 1973.54 437.959982910156 1974.17 437.32 1974.17 436.54" />
      <path style="fill:none;stroke:#000000;stroke-width:0.85;" d="M 1951.49,462.05 C 1951.49 459.7 1953.39 457.8 1955.74 457.8 C 1958.09 457.8 1959.99 459.7 1959.99 462.05 C 1959.99 463.31 1959.44 464.44 1958.57 465.22 L 1958.57, 465.22 C 1957.7 464.44 1957.15 463.31 1957.15 462.05 C 1957.15 459.7 1959.05 457.8 1961.4 457.8 C 1963.75004882813 457.799975585937 1965.65 459.7 1965.65 462.05 C 1965.65 463.31 1965.1 464.44 1964.23 465.22 L 1964.23, 465.22 C 1963.36 464.44 1962.81 463.31 1962.81 462.05 C 1962.81 459.7 1964.71 457.8 1967.06 457.8 C 1969.41 457.8 1971.31 459.7 1971.31 462.05" />
      <path style="fill:none;stroke:#000000;stroke-width:1.417;stroke-linecap:round;stroke-linejoin:round;" d="M 1978.42,428.03 L 1944.4, 428.03 L 1944.4, 470.55 L 1978.42, 470.55 L 1978.42, 428.03" />
      <path d="M 2018.1,513.07 L 2015.26, 510.23 L 2012.43, 510.23 L 2015.26, 513.06 L 2012.43, 515.89 L 2015.26, 515.89 L 2018.1, 513.07" style="stroke-linecap:round;stroke-linejoin:round;" />
      <path style="fill:none;stroke:#000000;stroke-width:0.85;stroke-linecap:round;stroke-linejoin:round;" d="M 2032.28,518.74 C 2035.41 518.74 2037.95 516.2 2037.95 513.07 C 2037.95 509.94 2035.41 507.4 2032.28 507.4 L 2023.78, 507.4 C 2020.65 507.4 2018.11 509.94 2018.11 513.07 C 2018.11 516.2 2020.65 518.74 2023.78 518.74 L 2032.28, 518.74" />
      <path d="M 2018.1,385.51 L 2015.26, 382.67 L 2012.43, 382.67 L 2015.26, 385.5 L 2012.43, 388.33 L 2015.26, 388.33 L 2018.1, 385.51" style="stroke-linecap:round;stroke-linejoin:round;" />
      <path style="fill:none;stroke:#000000;stroke-width:0.85;stroke-linecap:round;stroke-linejoin:round;" d="M 2032.28,391.18 C 2035.41 391.18 2037.95 388.64 2037.95 385.51 C 2037.95 382.38 2035.41 379.84 2032.28 379.84 L 2023.78, 379.84 C 2020.65 379.84 2018.11 382.38 2018.11 385.51 C 2018.11 388.64 2020.65 391.18 2023.78 391.18 L 2032.28, 391.18" />
      <path d="M 2018.1,411.02 L 2015.26, 408.18 L 2012.43, 408.18 L 2015.26, 411.01 L 2012.43, 413.84 L 2015.26, 413.84 L 2018.1, 411.02" style="stroke-linecap:round;stroke-linejoin:round;" />
      <path style="fill:none;stroke:#000000;stroke-width:0.85;stroke-linecap:round;stroke-linejoin:round;" d="M 2032.28,416.69 C 2035.41 416.69 2037.95 414.15 2037.95 411.02 C 2037.95 407.89 2035.41 405.35 2032.28 405.35 L 2023.78, 405.35 C 2020.65 405.35 2018.11 407.89 2018.11 411.02 C 2018.11 414.15 2020.65 416.69 2023.78 416.69 L 2032.28, 416.69" />
      <path d="M 2018.1,436.54 L 2015.26, 433.7 L 2012.43, 433.7 L 2015.26, 436.53 L 2012.43, 439.36 L 2015.26, 439.36 L 2018.1, 436.54" style="stroke-linecap:round;stroke-linejoin:round;" />
      <path style="fill:none;stroke:#000000;stroke-width:0.85;stroke-linecap:round;stroke-linejoin:round;" d="M 2032.28,442.2 C 2035.41 442.2 2037.95 439.66 2037.95 436.53 C 2037.95 433.4 2035.41 430.86 2032.28 430.86 L 2023.78, 430.86 C 2020.65 430.86 2018.11 433.4 2018.11 436.53 C 2018.11 439.66 2020.65 442.2 2023.78 442.2 L 2032.28, 442.2" />
      <path d="M 2018.1,462.05 L 2015.26, 459.21 L 2012.43, 459.21 L 2015.26, 462.04 L 2012.43, 464.87 L 2015.26, 464.87 L 2018.1, 462.05" style="stroke-linecap:round;stroke-linejoin:round;" />
      <path style="fill:none;stroke:#000000;stroke-width:0.85;stroke-linecap:round;stroke-linejoin:round;" d="M 2032.28,467.72 C 2035.41 467.72 2037.95 465.18 2037.95 462.05 C 2037.95 458.92 2035.41 456.38 2032.28 456.38 L 2023.78, 456.38 C 2020.65 456.38 2018.11 458.92 2018.11 462.05 C 2018.11 465.18 2020.65 467.72 2023.78 467.72 L 2032.28, 467.72" />
      <path style="fill:none;stroke:#000000;stroke-width:0.85;stroke-linecap:round;stroke-linejoin:round;" d="M 1762.99,342.99 C 1762.99 342.21 1762.36 341.57 1761.57 341.57 C 1760.77989257813 341.570014648438 1760.15 342.2 1760.15 342.99 C 1760.15 343.77 1760.78 344.41 1761.57 344.41 C 1762.35989257813 344.410007324219 1762.99 343.77 1762.99 342.99" />
      <path style="fill:none;stroke:#000000;stroke-width:0.85;stroke-linecap:round;stroke-linejoin:round;" d="M 1737.47,342.99 C 1737.47 342.21 1736.84 341.57 1736.05 341.57 C 1735.27 341.57 1734.63 342.2 1734.63 342.99 C 1734.63 343.77 1735.26 344.41 1736.05 344.41 C 1736.84 344.41 1737.47 343.77 1737.47 342.99" />
      <path style="fill:none;stroke:#000000;stroke-width:1.417;" d="M 1737.06,343.99 C 1737.06 343.99 1741.74 350.06 1748.81 342.99 C 1755.88 335.92 1760.56 341.99 1760.56 341.99" />
      <path style="fill:none;stroke:#000000;stroke-width:1.417;stroke-linecap:round;stroke-linejoin:round;" d="M 1770.07,330.23 L 1727.55, 330.23 L 1727.55, 355.74 L 1770.07, 355.74 L 1770.07, 330.23" />
      <path style="fill:none;stroke:#000000;stroke-width:0.85;stroke-linecap:round;stroke-linejoin:round;" d="M 1762.99,300.47 C 1762.99 299.69 1762.36 299.05 1761.57 299.05 C 1760.77989257813 299.049975585937 1760.15 299.68 1760.15 300.47 C 1760.15 301.25 1760.78 301.89 1761.57 301.89 C 1762.35989257813 301.890029296875 1762.99 301.25 1762.99 300.47" />
      <path style="fill:none;stroke:#000000;stroke-width:0.85;stroke-linecap:round;stroke-linejoin:round;" d="M 1737.47,300.47 C 1737.47 299.69 1736.84 299.05 1736.05 299.05 C 1735.27 299.05 1734.63 299.68 1734.63 300.47 C 1734.63 301.25 1735.26 301.89 1736.05 301.89 C 1736.84 301.89 1737.47 301.25 1737.47 300.47" />
      <path style="fill:none;stroke:#000000;stroke-width:1.417;" d="M 1737.06,301.47 C 1737.06 301.47 1741.74 307.54 1748.81 300.47 C 1755.88 293.4 1760.56 299.47 1760.56 299.47" />
      <path style="fill:none;stroke:#000000;stroke-width:1.417;stroke-linecap:round;stroke-linejoin:round;" d="M 1770.07,287.71 L 1727.55, 287.71 L 1727.55, 313.22 L 1770.07, 313.22 L 1770.07, 287.71" />
      <path style="fill:none;stroke:#000000;stroke-width:0.85;stroke-linecap:round;stroke-linejoin:round;" d="M 1762.99,257.95 C 1762.99 257.17 1762.36 256.53 1761.57 256.53 C 1760.77989257813 256.529997558594 1760.15 257.16 1760.15 257.95 C 1760.15 258.73 1760.78 259.37 1761.57 259.37 C 1762.35989257813 259.369990234375 1762.99 258.73 1762.99 257.95" />
      <path style="fill:none;stroke:#000000;stroke-width:0.85;stroke-linecap:round;stroke-linejoin:round;" d="M 1737.47,257.95 C 1737.47 257.17 1736.84 256.53 1736.05 256.53 C 1735.27 256.53 1734.63 257.16 1734.63 257.95 C 1734.63 258.73 1735.26 259.37 1736.05 259.37 C 1736.84 259.37 1737.47 258.73 1737.47 257.95" />
      <path style="fill:none;stroke:#000000;stroke-width:1.417;" d="M 1737.06,258.95 C 1737.06 258.95 1741.74 265.02 1748.81 257.95 C 1755.88 250.88 1760.56 256.95 1760.56 256.95" />
      <path style="fill:none;stroke:#000000;stroke-width:1.417;stroke-linecap:round;stroke-linejoin:round;" d="M 1770.07,245.2 L 1727.55, 245.2 L 1727.55, 270.71 L 1770.07, 270.71 L 1770.07, 245.2" />
      <path style="fill:none;stroke:#000000;stroke-width:0.85;stroke-linecap:round;stroke-linejoin:round;" d="M 1762.99,215.43 C 1762.99 214.65 1762.36 214.01 1761.57 214.01 C 1760.77989257813 214.009989013672 1760.15 214.64 1760.15 215.43 C 1760.15 216.21 1760.78 216.85 1761.57 216.85 C 1762.35989257813 216.850012207031 1762.99 216.21 1762.99 215.43" />
      <path style="fill:none;stroke:#000000;stroke-width:0.85;stroke-linecap:round;stroke-linejoin:round;" d="M 1737.47,215.43 C 1737.47 214.65 1736.84 214.01 1736.05 214.01 C 1735.27 214.01 1734.63 214.64 1734.63 215.43 C 1734.63 216.21 1735.26 216.85 1736.05 216.85 C 1736.84 216.85 1737.47 216.21 1737.47 215.43" />
      <path style="fill:none;stroke:#000000;stroke-width:1.417;" d="M 1737.06,216.43 C 1737.06 216.43 1741.74 222.5 1748.81 215.43 C 1755.88 208.36 1760.56 214.43 1760.56 214.43" />
      <path style="fill:none;stroke:#000000;stroke-width:1.417;stroke-linecap:round;stroke-linejoin:round;" d="M 1770.07,202.68 L 1727.55, 202.68 L 1727.55, 228.19 L 1770.07, 228.19 L 1770.07, 202.68" />
      <path style="fill:none;stroke:#000000;stroke-width:0.85;stroke-linecap:round;stroke-linejoin:round;" d="M 1762.99,172.91 C 1762.99 172.13 1762.36 171.49 1761.57 171.49 C 1760.77989257813 171.490010986328 1760.15 172.12 1760.15 172.91 C 1760.15004882812 173.700007324219 1760.78 174.33 1761.57 174.33 C 1762.35989257813 174.330003662109 1762.99 173.69 1762.99 172.91" />
      <path style="fill:none;stroke:#000000;stroke-width:0.85;stroke-linecap:round;stroke-linejoin:round;" d="M 1737.47,172.91 C 1737.47 172.13 1736.84 171.49 1736.05 171.49 C 1735.27 171.49 1734.63 172.12 1734.63 172.91 C 1734.63000976562 173.700007324219 1735.26 174.33 1736.05 174.33 C 1736.84 174.33 1737.47 173.69 1737.47 172.91" />
      <path style="fill:none;stroke:#000000;stroke-width:1.417;" d="M 1737.06,173.92 C 1737.06 173.92 1741.74 179.99 1748.81 172.92 C 1755.88 165.85 1760.56 171.92 1760.56 171.92" />
      <path style="fill:none;stroke:#000000;stroke-width:1.417;stroke-linecap:round;stroke-linejoin:round;" d="M 1770.07,160.16 L 1727.55, 160.16 L 1727.55, 185.67 L 1770.07, 185.67 L 1770.07, 160.16" />
      <path style="fill:none;stroke:#000000;stroke-width:0.85;stroke-linecap:round;stroke-linejoin:round;" d="M 1762.98,470.55 C 1762.98 469.77 1762.35 469.13 1761.56 469.13 C 1760.78 469.13 1760.14 469.76 1760.14 470.55 C 1760.14 471.33 1760.77 471.97 1761.56 471.97 C 1762.35 471.97 1762.98 471.33 1762.98 470.55" />
      <path style="fill:none;stroke:#000000;stroke-width:0.85;stroke-linecap:round;stroke-linejoin:round;" d="M 1737.47,470.55 C 1737.47 469.77 1736.84 469.13 1736.05 469.13 C 1735.27 469.13 1734.63 469.76 1734.63 470.55 C 1734.63 471.33 1735.26 471.97 1736.05 471.97 C 1736.84 471.97 1737.47 471.33 1737.47 470.55" />
      <path style="fill:none;stroke:#000000;stroke-width:1.417;" d="M 1737.06,471.55 C 1737.06 471.55 1741.74 477.62 1748.81 470.55 C 1755.88 463.48 1760.56 469.55 1760.56 469.55" />
      <path style="fill:none;stroke:#000000;stroke-width:1.417;stroke-linecap:round;stroke-linejoin:round;" d="M 1770.07,457.79 L 1727.55, 457.79 L 1727.55, 483.3 L 1770.07, 483.3 L 1770.07, 457.79" />
      <path style="fill:none;stroke:#000000;stroke-width:0.85;stroke-linecap:round;stroke-linejoin:round;" d="M 1762.98,428.03 C 1762.98 427.25 1762.35 426.61 1761.56 426.61 C 1760.78 426.61 1760.14 427.24 1760.14 428.03 C 1760.14002929687 428.819997558594 1760.77 429.45 1761.56 429.45 C 1762.35 429.45 1762.98 428.81 1762.98 428.03" />
      <path style="fill:none;stroke:#000000;stroke-width:0.85;stroke-linecap:round;stroke-linejoin:round;" d="M 1737.47,428.03 C 1737.47 427.25 1736.84 426.61 1736.05 426.61 C 1735.27 426.61 1734.63 427.24 1734.63 428.03 C 1734.63000976562 428.819997558594 1735.26 429.45 1736.05 429.45 C 1736.84 429.45 1737.47 428.81 1737.47 428.03" />
      <path style="fill:none;stroke:#000000;stroke-width:1.417;" d="M 1737.06,429.03 C 1737.06 429.03 1741.74 435.1 1748.81 428.03 C 1755.88 420.96 1760.56 427.03 1760.56 427.03" />
      <path style="fill:none;stroke:#000000;stroke-width:1.417;stroke-linecap:round;stroke-linejoin:round;" d="M 1770.07,415.27 L 1727.55, 415.27 L 1727.55, 440.78 L 1770.07, 440.78 L 1770.07, 415.27" />
      <path style="fill:none;stroke:#000000;stroke-width:0.85;stroke-linecap:round;stroke-linejoin:round;" d="M 1762.98,385.51 C 1762.98 384.73 1762.35 384.09 1761.56 384.09 C 1760.78 384.09 1760.14 384.73 1760.14 385.51 C 1760.14 386.29 1760.77 386.93 1761.56 386.93 C 1762.35 386.93 1762.98 386.29 1762.98 385.51" />
      <path style="fill:none;stroke:#000000;stroke-width:0.85;stroke-linecap:round;stroke-linejoin:round;" d="M 1737.47,385.51 C 1737.47 384.73 1736.84 384.09 1736.05 384.09 C 1735.27 384.09 1734.63 384.73 1734.63 385.51 C 1734.63 386.29 1735.26 386.93 1736.05 386.93 C 1736.84 386.93 1737.47 386.29 1737.47 385.51" />
      <path style="fill:none;stroke:#000000;stroke-width:1.417;" d="M 1737.06,386.51 C 1737.06 386.51 1741.74 392.58 1748.81 385.51 C 1755.88 378.44 1760.56 384.51 1760.56 384.51" />
      <path style="fill:none;stroke:#000000;stroke-width:1.417;stroke-linecap:round;stroke-linejoin:round;" d="M 1770.07,372.75 L 1727.55, 372.75 L 1727.55, 398.26 L 1770.07, 398.26 L 1770.07, 372.75" />
      <text transform="matrix(1 0 0 1 1634.3408 472.2568)" style="font-family:'Arial'; font-size:6px;">12A</text>
      <text transform="matrix(1 0 0 1 1638.0103 462.334)" style="font-family:'Arial'; font-size:6px;">1</text>
      <text transform="matrix(1 0 0 1 1820.0073 517.6094)" style="font-family:'Arial'; font-size:6px;">12E</text>
      <text transform="matrix(1 0 0 1 1810.6699 517.6094)" style="font-family:'Arial'; font-size:6px;">4</text>
      <text transform="matrix(1 0 0 1 1846.0234 370.918)" style="font-family:'Arial'; font-size:6px;" ewd:textID="26">IG2 Relay</text>
      <text transform="matrix(1 0 0 1 1946.5728 478.6348)" style="font-family:'Arial'; font-size:6px;" ewd:textID="14">ACC Relay</text>
      <text transform="matrix(1 0 0 1 2022.5205 514.7764)" style="font-family:'Arial'; font-size:6px;">12D</text>
      <text transform="matrix(1 0 0 1 2026.355 504.8545)" style="font-family:'Arial'; font-size:6px;">2</text>
      <text transform="matrix(1 0 0 1 2022.5205 387.2178)" style="font-family:'Arial'; font-size:6px;">12D</text>
      <text transform="matrix(1 0 0 1 2026.355 377.2959)" style="font-family:'Arial'; font-size:6px;">1</text>
      <text transform="matrix(1 0 0 1 2022.686 412.7295)" style="font-family:'Arial'; font-size:6px;">12E</text>
      <text transform="matrix(1 0 0 1 2026.355 402.8076)" style="font-family:'Arial'; font-size:6px;">9</text>
      <text transform="matrix(1 0 0 1 2022.686 438.2412)" style="font-family:'Arial'; font-size:6px;">12E</text>
      <text transform="matrix(1 0 0 1 2026.355 428.3193)" style="font-family:'Arial'; font-size:6px;">7</text>
      <text transform="matrix(1 0 0 1 2022.686 463.7529)" style="font-family:'Arial'; font-size:6px;">12E</text>
      <text transform="matrix(1 0 0 1 2026.355 453.8311)" style="font-family:'Arial'; font-size:6px;">8</text>
      <text transform="matrix(1 0 0 1 1722.0898 336.1929)" style="font-family:'Arial'; font-size:6px;">1</text>
      <text transform="matrix(1 0 0 1 1772.1982 336.1929)" style="font-family:'Arial'; font-size:6px;">2</text>
      <text transform="matrix(1 0 0 1 1718.4712 325.563)" style="font-family:'Arial'; font-size:6px;">10A  H-LP RH-HI (*13)</text>
      <text transform="matrix(1 0 0 1 1722.0898 293.6733)" style="font-family:'Arial'; font-size:6px;">1</text>
      <text transform="matrix(1 0 0 1 1772.1982 293.6733)" style="font-family:'Arial'; font-size:6px;">2</text>
      <text transform="matrix(1 0 0 1 1718.9692 283.043)" style="font-family:'Arial'; font-size:6px;">10A  H-LP LH-HI (*13)</text>
      <text transform="matrix(1 0 0 1 1722.0898 251.1538)" style="font-family:'Arial'; font-size:6px;">1</text>
      <text transform="matrix(1 0 0 1 1772.1982 251.1538)" style="font-family:'Arial'; font-size:6px;">2</text>
      <text transform="matrix(1 0 0 1 1717.4692 240.5234)" style="font-family:'Arial'; font-size:6px;">10A  H-LP RH-LO (*13)</text>
      <text transform="matrix(1 0 0 1 1722.0898 208.6338)" style="font-family:'Arial'; font-size:6px;">1</text>
      <text transform="matrix(1 0 0 1 1772.1982 208.6338)" style="font-family:'Arial'; font-size:6px;">2</text>
      <text transform="matrix(1 0 0 1 1717.9673 198.0039)" style="font-family:'Arial'; font-size:6px;">10A  H-LP LH-LO (*13)</text>
      <text transform="matrix(1 0 0 1 1722.0898 166.1143)" style="font-family:'Arial'; font-size:6px;">1</text>
      <text transform="matrix(1 0 0 1 1772.1982 166.1143)" style="font-family:'Arial'; font-size:6px;">2</text>
      <text transform="matrix(1 0 0 1 1735.8062 155.4839)" style="font-family:'Arial'; font-size:6px;">10A  DRL</text>
      <text transform="matrix(1 0 0 1 1722.0889 463.752)" style="font-family:'Arial'; font-size:6px;">1</text>
      <text transform="matrix(1 0 0 1 1772.1973 463.752)" style="font-family:'Arial'; font-size:6px;">2</text>
      <text transform="matrix(1 0 0 1 1728.6377 453.1211)" style="font-family:'Arial'; font-size:6px;">10A  IGN NO.2</text>
      <text transform="matrix(1 0 0 1 1722.0889 421.2324)" style="font-family:'Arial'; font-size:6px;">1</text>
      <text transform="matrix(1 0 0 1 1772.1973 421.2324)" style="font-family:'Arial'; font-size:6px;">2</text>
      <text transform="matrix(1 0 0 1 1728.6377 410.6025)" style="font-family:'Arial'; font-size:6px;">15A  IGN NO.1</text>
      <text transform="matrix(1 0 0 1 1722.0889 378.7119)" style="font-family:'Arial'; font-size:6px;">1</text>
      <text transform="matrix(1 0 0 1 1772.1973 378.7119)" style="font-family:'Arial'; font-size:6px;">2</text>
      <text transform="matrix(1 0 0 1 1728.4722 368.082)" style="font-family:'Arial'; font-size:6px;">30A  IG2-MAIN</text>
    </g><g ewd:figtype="annex" ewd:code="" ewd:figID="1311">
      <path style="fill:none;stroke:#000000;stroke-width:0.85;" d="M 1451.17,634.96 C 1451.17 634.96 1447.92 637.78 1451.17 640.63 C 1454.42 643.48 1451.17 646.3 1451.17 646.3" />
    </g><g ewd:figtype="annex" ewd:code="" ewd:figID="1312">
      <path style="fill:none;stroke:#000000;stroke-width:0.85;" d="M 1553.22,345.82 C 1553.22 345.82 1549.97 348.64 1553.22 351.49 C 1556.46994140625 354.33998046875 1553.22 357.16 1553.22 357.16" />
    </g><g ewd:figtype="annex" ewd:code="" ewd:figID="1313">
      <path style="fill:none;stroke:#000000;stroke-width:0.85;" d="M 1553.22,422.36 C 1553.22 422.36 1549.97 425.18 1553.22 428.03 C 1556.47 430.88 1553.22 433.7 1553.22 433.7" />
    </g><g ewd:figtype="annex" ewd:code="" ewd:figID="1314">
      <path style="fill:none;stroke:#000000;stroke-width:0.85;" d="M 1451.17,592.44 C 1451.17 592.44 1447.92 595.26 1451.17 598.11 C 1454.42 600.96 1451.17 603.78 1451.17 603.78" />
    </g><g ewd:figtype="comment" ewd:code="10" ewd:figID="1034">
      <text transform="matrix(1 0 0 1 1357.6611 688.3994)" style="font-family:'Arial'; font-size:6px;">*10 : 5L-E</text>
    </g><g ewd:figtype="comment" ewd:code="11" ewd:figID="1033">
      <text transform="matrix(1 0 0 1 1357.6611 696.9033)" style="font-family:'Arial'; font-size:6px;">*11 : 1TR-FE, 2TR-FE, 1KD-FTV, 2KD-FTV</text>
    </g><g ewd:figtype="comment" ewd:code="12" ewd:figID="1032">
      <text transform="matrix(1 0 0 1 1357.6611 705.4072)" style="font-family:'Arial'; font-size:6px;">*12 : 1TR-FE, 2TR-FE, 1KD-FTV</text>
    </g><g ewd:figtype="comment" ewd:code="9" ewd:figID="1031">
      <text transform="matrix(1 0 0 1 1357.6611 679.8955)" style="font-family:'Arial'; font-size:6px;" ewd:textID="13">*9 : Except 2TR-FE w/ Air Pressure Sensor</text>
    </g><g ewd:figtype="comment" ewd:code="8" ewd:figID="1030">
      <text transform="matrix(1 0 0 1 1357.6611 671.3916)" style="font-family:'Arial'; font-size:6px;" ewd:textID="12">*8 : 2TR-FE w/ Air Pressure Sensor</text>
    </g><text transform="matrix(1 0 0 1 1279.4268 424.0664)" style="font-family:'Arial'; font-size:6px;">L</text><text transform="matrix(1 0 0 1 1330.4507 424.0664)" style="font-family:'Arial'; font-size:6px;">L</text><text transform="matrix(1 0 0 1 1279.4268 347.5317)" style="font-family:'Arial'; font-size:6px;">L</text><text transform="matrix(1 0 0 1 1330.4502 347.5317)" style="font-family:'Arial'; font-size:6px;">L</text><text transform="matrix(1 0 0 1 1530.8799 585.6416)" style="font-family:'Arial'; font-size:6px;">B-G</text><text transform="matrix(1 0 0 1 1531.0469 611.1533)" style="font-family:'Arial'; font-size:6px;">B-R</text><text transform="matrix(1 0 0 1 1531.0469 636.666)" style="font-family:'Arial'; font-size:6px;">B-R</text><text transform="matrix(1 0 0 1 1432.1655 594.1455)" style="font-family:'Arial'; font-size:6px;">B</text><text transform="matrix(1 0 0 1 1534.2124 424.0664)" style="font-family:'Arial'; font-size:6px;">P</text><text transform="matrix(1 0 0 1 1534.2114 347.5313)" style="font-family:'Arial'; font-size:6px;">B</text><text transform="matrix(1 0 0 1 1432.1655 636.666)" style="font-family:'Arial'; font-size:6px;">B</text><text transform="matrix(1 0 0 1 1330.4502 313.5161)" style="font-family:'Arial'; font-size:6px;">L</text><text transform="matrix(1 0 0 1 1607.915 95.248)" style="font-family:'Arial'; font-size:6px;">(*4)</text><text transform="matrix(1 0 0 1 1531.3789 95.248)" style="font-family:'Arial'; font-size:6px;">(*4)</text><text transform="matrix(1 0 0 1 1607.915 52.7285)" style="font-family:'Arial'; font-size:6px;">(*3)</text><text transform="matrix(1 0 0 1 1531.3789 52.7285)" style="font-family:'Arial'; font-size:6px;">(*3)</text><text transform="matrix(1 0 0 1 1529.7104 648.0039)" style="font-family:'Arial'; font-size:6px;">(*11)</text><text transform="matrix(1 0 0 1 1606.2456 648.0039)" style="font-family:'Arial'; font-size:6px;">(*11)</text><text transform="matrix(1 0 0 1 1529.7104 622.4922)" style="font-family:'Arial'; font-size:6px;">(*10)</text><text transform="matrix(1 0 0 1 1606.2456 622.4922)" style="font-family:'Arial'; font-size:6px;">(*10)</text><text transform="matrix(1 0 0 1 1327.2842 324.8545)" style="font-family:'Arial'; font-size:6px;">(*6)</text><text transform="matrix(1 0 0 1 1529.7104 358.8701)" style="font-family:'Arial'; font-size:6px;">(*12)</text><text transform="matrix(1 0 0 1 1325.6157 358.8701)" style="font-family:'Arial'; font-size:6px;">(*12)</text><text transform="matrix(1 0 0 1 1276.2607 358.8701)" style="font-family:'Arial'; font-size:6px;">(*7)</text><text transform="matrix(1 0 0 1 1533.3818 466.5869)" style="font-family:'Arial'; font-size:6px;">W</text><text transform="matrix(1 0 0 1 1609.9165 466.5869)" style="font-family:'Arial'; font-size:6px;">W</text><text transform="matrix(1 0 0 1 1607.4146 585.6416)" style="font-family:'Arial'; font-size:6px;">B-G</text><text transform="matrix(1 0 0 1 1607.5815 611.1533)" style="font-family:'Arial'; font-size:6px;">B-R</text><text transform="matrix(1 0 0 1 1607.5815 636.666)" style="font-family:'Arial'; font-size:6px;">B-R</text><text transform="matrix(1 0 0 1 1611.0801 83.9097)" style="font-family:'Arial'; font-size:6px;">L</text><text transform="matrix(1 0 0 1 1606.7515 41.3896)" style="font-family:'Arial'; font-size:6px;">W-R</text><text transform="matrix(1 0 0 1 1534.5449 83.9097)" style="font-family:'Arial'; font-size:6px;">L</text><text transform="matrix(1 0 0 1 1530.2163 41.3896)" style="font-family:'Arial'; font-size:6px;">W-R</text></svg>