﻿<?xml version="1.0" encoding="utf-8"?>
<!-- Generator: Adobe Illustrator 10.0, SVG Export Plug-In . SVG Version: 3.0.0 Build 77)  -->
<!DOCTYPE svg PUBLIC "-//W3C//DTD SVG 1.0//EN" "http://www.w3.org/TR/2001/REC-SVG-20010904/DTD/svg10.dtd"[
   <!ENTITY ns_flows "http://ns.adobe.com/Flows/1.0/">
   <!ENTITY ns_svg "http://www.w3.org/2000/svg">
   <!ENTITY ns_xlink "http://www.w3.org/1999/xlink">
   <!ENTITY st0 "font-size:7px;font-family:'MS-PGothic';adobe-font-script:japanese;">
   <!ENTITY st1 "font-size:6px;font-family:'ArialMT';">
   <!ENTITY st2 "fill:#FFFFFF;stroke:#000000; stroke-width:1.41;stroke-linecap:round;stroke-linejoin:round;">
   <!ENTITY st3 "fill:#FFFFCC;stroke:#FFFFCC; stroke-width:0.1;stroke-linecap:round;stroke-linejoin:round;">
   <!ENTITY st4 "fill:#CCCCCC;stroke:#CCCCCC; stroke-width:0.1;stroke-linecap:round;stroke-linejoin:round;">
   <!ENTITY st5 "fill:#CCECF4;stroke:#000000; stroke-width:1.133;stroke-linecap:round;stroke-linejoin:round;">
   <!ENTITY st6 "fill:none;stroke-linecap:butt; stroke-linejoin:round;">
   <!ENTITY st7 "fill:none;stroke:#000000;stroke-linecap:round;stroke-linejoin:round;">
   <!ENTITY st8 "enable-background:new;">
   <!ENTITY st9 "fill:#000000;stroke:#000000; stroke-linecap:round;stroke-linejoin:round;">
   <!ENTITY st10 "font-size:9px;font-family:'ArialMT';">
   <!ENTITY st11 "font-size:9px;font-family:'Svg Symbol';">
   <!ENTITY st12 "font-size:6px;font-family:'Svg Symbol';">
   <!ENTITY st13 "fill:none;stroke:#ff0000;stroke-linecap:round;stroke-linejoin:round;">
   <!ENTITY st14 "fill:#FFFF00;stroke:#FFFF00; stroke-width:0.1;stroke-linecap:round;stroke-linejoin:round;">
   <!ENTITY st15 "font-size:6px;font-family:'MS-PGothic';adobe-font-script:japanese;">
   <!ENTITY st16 "1.00 0.00 0.00 1.00">
   <!ENTITY st17 "0.00 -1.00 1.00 0.00">
   <!ENTITY st18 "font-size:6px;font-family:'Arial';">
   <!ENTITY st19 "font-size:9px;font-family:'Arial';">
   <!ENTITY st20 "font-size:6px;font-family:'MS-PGothic','MS PGothic';adobe-font-script:japanese;">
   <!ENTITY st21 "font-size:7px;font-family:'MS-PGothic','MS PGothic';adobe-font-script:japanese;">
   <!ATTLIST svg
       xmlns:ewd CDATA #FIXED "http://shcl.co.jp/ewd"
       xmlns:a CDATA #FIXED "http://ns.adobe.com/AdobeSVGViewerExtensions/3.0/"
       ewd:ver CDATA #IMPLIED >
   <!ATTLIST a
       ewd:lineID CDATA #IMPLIED
       ewd:groupID CDATA #IMPLIED
       ewd:figtype CDATA #IMPLIED
       ewd:code CDATA #IMPLIED
       ewd:figID CDATA #IMPLIED
       ewd:pinNo CDATA #IMPLIED
       ewd:comment CDATA #IMPLIED >
   <!ATTLIST g
       ewd:lineID CDATA #IMPLIED
       ewd:groupID CDATA #IMPLIED
       ewd:figtype CDATA #IMPLIED
       ewd:code CDATA #IMPLIED
       ewd:figID CDATA #IMPLIED
       ewd:pinNo CDATA #IMPLIED
       ewd:comment CDATA #IMPLIED >
   <!ATTLIST text
       ewd:textID CDATA #IMPLIED >
   <!ATTLIST title
       ewd:textID CDATA #IMPLIED >
]>
<svg xmlns="http://www.w3.org/2000/svg" xmlns:xlink="http://www.w3.org/1999/xlink" width="4213.15" height="721" viewBox="0 0 4213.15 721" xml:space="preserve" xmlns:ewd="http://shcl.co.jp/ewd" ewd:ver="2.0">
  
  <defs>
    <font horiz-adv-x="1229">
      <font-face font-family="Svg Symbol" units-per-em="2048" panose-1="5 5 1 2 1 7 6 2 5 7" ascent="2059" descent="450" alphabetic="0" />
      <missing-glyph d="M 103,0 l 0,1280 1024,0 0,-1280 -1024,0 z m 32,32 l 960,0 0,1216 -960,0 0,-1216 z" />
      <glyph d4p1:unicode="" horiz-adv-x="1573" d="M 1517,0 l -567,0 24,279 q 141,59 207.5,168 66.5,109 66.5,306 0,272 -132.5,417.5 -132.5,145.5 -333.5,145.5 -194,0 -328,-147.5 -134,-147.5 -134,-401.5 0,-200 68.5,-319 68.5,-119 206.5,-169 l 25,-279 -564,0 0,279 35,0 q 3,-61 32,-83 45,-35 137,-35 l 270,0 0,70 q -210,61 -324.5,209 -114.5,148 -114.5,349 0,252 186.5,425 186.5,173 504.5,173 195,0 358.5,-73.5 163.5,-73.5 252,-214.5 88.5,-141 88.5,-310 0,-207 -121.5,-360.5 -121.5,-153.5 -317.5,-197.5 l -8,-70 275,0 q 92,0 128,28 36,28 42,90 l 38,0 0,-279 z" xmlns:d4p1="def-glyph-attr-unicode" />
    </font>
  </defs>
  
<g ewd:figtype="rb" ewd:code="FUSE135" ewd:figID="18">
      <path style="fill:none;stroke:#000000;stroke-width:0.85;" d="M 388.35,385.51 L 352.92, 385.51" />
      <path style="fill:none;stroke:#000000;stroke-width:0.85;" d="M 352.91,385.51 L 345.82, 385.51" />
      <path style="fill:none;stroke:#000000;stroke-width:0.85;" d="M 317.48,385.51 L 310.39, 385.51" />
      <path style="fill:none;stroke:#000000;stroke-width:0.85;" d="M 310.39,385.51 L 272.12, 385.51 L 272.12, 470.55" />
      <path d="M 388.35,385.51 L 385.52, 382.68 L 382.68, 382.68 L 385.52, 385.51 L 382.68, 388.34 L 385.51, 388.34 L 388.35, 385.51" style="stroke-linecap:round;stroke-linejoin:round;" />
      <path style="fill:none;stroke:#000000;stroke-width:0.85;stroke-linecap:round;stroke-linejoin:round;" d="M 402.52,391.18 C 405.65 391.18 408.19 388.64 408.19 385.51 C 408.19 382.38 405.65 379.84 402.52 379.84 L 394.02, 379.84 C 390.89 379.84 388.35 382.38 388.35 385.51 C 388.35 388.64 390.89 391.18 394.02 391.18 L 402.52, 391.18" />
      <path style="fill:none;stroke:#000000;stroke-width:0.85;stroke-linecap:round;stroke-linejoin:round;" d="M 345.83,385.51 C 345.83 384.73 345.2 384.09 344.41 384.09 C 343.63 384.09 342.99 384.73 342.99 385.51 C 342.99 386.29 343.62 386.93 344.41 386.93 C 345.19 386.93 345.83 386.29 345.83 385.51" />
      <path style="fill:none;stroke:#000000;stroke-width:0.85;stroke-linecap:round;stroke-linejoin:round;" d="M 320.31,385.51 C 320.31 384.73 319.68 384.09 318.89 384.09 C 318.100029296875 384.089992675781 317.47 384.73 317.47 385.51 C 317.47 386.29 318.1 386.93 318.89 386.93 C 319.680029296875 386.929985351562 320.31 386.29 320.31 385.51" />
      <path style="fill:none;stroke:#000000;stroke-width:1.417;" d="M 319.9,386.51 C 319.9 386.51 324.58 392.58 331.65 385.51 C 338.72 378.44 343.4 384.51 343.4 384.51" />
      <path style="fill:none;stroke:#000000;stroke-width:1.417;stroke-linecap:round;stroke-linejoin:round;" d="M 352.91,372.75 L 310.39, 372.75 L 310.39, 398.26 L 352.91, 398.26 L 352.91, 372.75" />
      <text transform="matrix(1 0 0 1 394.9302 387.2168)" style="font-family:'Arial'; font-size:6px;">11</text>
      <text transform="matrix(1 0 0 1 304.9307 378.7119)" style="font-family:'Arial'; font-size:6px;">1</text>
      <text transform="matrix(1 0 0 1 355.0386 378.7119)" style="font-family:'Arial'; font-size:6px;">2</text>
      <text transform="matrix(1 0 0 1 315.147 368.082)" style="font-family:'Arial'; font-size:6px;">15A  RADIO</text>
    </g><g ewd:figtype="rb" ewd:code="FUSE130" ewd:figID="19">
      <path style="fill:none;stroke:#000000;stroke-width:0.85;" d="M 272.13,428.03 L 310.4, 428.03" />
      <path style="fill:none;stroke:#000000;stroke-width:0.85;" d="M 310.39,428.03 L 317.48, 428.03" />
      <path style="fill:none;stroke:#000000;stroke-width:0.85;" d="M 345.83,428.03 L 352.92, 428.03" />
      <path style="fill:none;stroke:#000000;stroke-width:0.85;" d="M 352.91,428.03 L 388.34, 428.03" />
      <path d="M 388.35,428.03 L 385.52, 425.2 L 382.68, 425.2 L 385.52, 428.03 L 382.68, 430.87 L 385.51, 430.87 L 388.35, 428.03" style="stroke-linecap:round;stroke-linejoin:round;" />
      <path style="fill:none;stroke:#000000;stroke-width:0.85;stroke-linecap:round;stroke-linejoin:round;" d="M 402.52,433.7 C 405.65 433.7 408.19 431.16 408.19 428.03 C 408.19 424.9 405.65 422.36 402.52 422.36 L 394.02, 422.36 C 390.89 422.36 388.35 424.9 388.35 428.03 C 388.35 431.16 390.89 433.7 394.02 433.7 L 402.52, 433.7" />
      <path style="fill:none;stroke:#000000;stroke-width:0.85;stroke-linecap:round;stroke-linejoin:round;" d="M 345.83,428.03 C 345.83 427.25 345.2 426.61 344.41 426.61 C 343.63 426.61 342.99 427.24 342.99 428.03 C 342.98998046875 428.819997558594 343.62 429.45 344.41 429.45 C 345.19 429.45 345.83 428.81 345.83 428.03" />
      <path style="fill:none;stroke:#000000;stroke-width:0.85;stroke-linecap:round;stroke-linejoin:round;" d="M 320.31,428.03 C 320.31 427.25 319.68 426.61 318.89 426.61 C 318.100029296875 426.609970703125 317.47 427.24 317.47 428.03 C 317.470002441406 428.819997558594 318.1 429.45 318.89 429.45 C 319.680029296875 429.450024414063 320.31 428.81 320.31 428.03" />
      <path style="fill:none;stroke:#000000;stroke-width:1.417;" d="M 319.9,429.03 C 319.9 429.03 324.58 435.1 331.65 428.03 C 338.72 420.96 343.4 427.03 343.4 427.03" />
      <path style="fill:none;stroke:#000000;stroke-width:1.417;stroke-linecap:round;stroke-linejoin:round;" d="M 352.91,415.27 L 310.39, 415.27 L 310.39, 440.78 L 352.91, 440.78 L 352.91, 415.27" />
      <text transform="matrix(1 0 0 1 394.9302 429.7363)" style="font-family:'Arial'; font-size:6px;">11</text>
      <text transform="matrix(1 0 0 1 304.9307 421.2324)" style="font-family:'Arial'; font-size:6px;">1</text>
      <text transform="matrix(1 0 0 1 355.0386 421.2324)" style="font-family:'Arial'; font-size:6px;">2</text>
      <text transform="matrix(1 0 0 1 307.8125 410.6025)" style="font-family:'Arial'; font-size:6px;">10A  DOME NO.1</text>
    </g><g ewd:figtype="rb" ewd:code="FUSE131" ewd:figID="20">
      <path style="fill:none;stroke:#000000;stroke-width:0.85;" d="M 310.39,470.55 L 317.48, 470.55" />
      <path style="fill:none;stroke:#000000;stroke-width:0.85;" d="M 345.83,470.55 L 352.92, 470.55" />
      <path style="fill:none;stroke:#000000;stroke-width:0.85;" d="M 352.91,470.55 L 388.34, 470.55" />
      <path d="M 388.35,470.55 L 385.52, 467.72 L 382.68, 467.72 L 385.52, 470.55 L 382.68, 473.39 L 385.51, 473.39 L 388.35, 470.55" style="stroke-linecap:round;stroke-linejoin:round;" />
      <path style="fill:none;stroke:#000000;stroke-width:0.85;stroke-linecap:round;stroke-linejoin:round;" d="M 402.52,476.22 C 405.65 476.22 408.19 473.68 408.19 470.55 C 408.19 467.42 405.65 464.88 402.52 464.88 L 394.02, 464.88 C 390.89 464.88 388.35 467.42 388.35 470.55 C 388.35 473.68 390.89 476.22 394.02 476.22 L 402.52, 476.22" />
      <path style="fill:none;stroke:#000000;stroke-width:0.85;stroke-linecap:round;stroke-linejoin:round;" d="M 345.83,470.55 C 345.83 469.77 345.2 469.13 344.41 469.13 C 343.63 469.13 342.99 469.76 342.99 470.55 C 342.99 471.33 343.62 471.97 344.41 471.97 C 345.19 471.97 345.83 471.33 345.83 470.55" />
      <path style="fill:none;stroke:#000000;stroke-width:0.85;stroke-linecap:round;stroke-linejoin:round;" d="M 320.31,470.55 C 320.31 469.77 319.68 469.13 318.89 469.13 C 318.100029296875 469.130009765625 317.47 469.76 317.47 470.55 C 317.47 471.33 318.1 471.97 318.89 471.97 C 319.680029296875 471.970002441406 320.31 471.33 320.31 470.55" />
      <path style="fill:none;stroke:#000000;stroke-width:1.417;" d="M 319.9,471.55 C 319.9 471.55 324.58 477.62 331.65 470.55 C 338.72 463.48 343.4 469.55 343.4 469.55" />
      <path style="fill:none;stroke:#000000;stroke-width:1.417;stroke-linecap:round;stroke-linejoin:round;" d="M 352.91,457.79 L 310.39, 457.79 L 310.39, 483.3 L 352.91, 483.3 L 352.91, 457.79" />
      <text transform="matrix(1 0 0 1 394.9302 472.2559)" style="font-family:'Arial'; font-size:6px;">11</text>
      <text transform="matrix(1 0 0 1 304.9307 463.752)" style="font-family:'Arial'; font-size:6px;">1</text>
      <text transform="matrix(1 0 0 1 355.0386 463.752)" style="font-family:'Arial'; font-size:6px;">2</text>
      <text transform="matrix(1 0 0 1 307.8125 453.1211)" style="font-family:'Arial'; font-size:6px;">10A  DOME NO.2</text>
    </g><g ewd:figtype="rb" ewd:code="FUSE129" ewd:figID="13">
      <path style="fill:none;stroke:#000000;stroke-width:0.85;" d="M 388.35,87.87 L 352.92, 87.87" />
      <path style="fill:none;stroke:#000000;stroke-width:0.85;" d="M 352.91,87.87 L 345.82, 87.87" />
      <path style="fill:none;stroke:#000000;stroke-width:0.85;" d="M 317.48,87.87 L 310.39, 87.87" />
      <path style="fill:none;stroke:#000000;stroke-width:0.85;" d="M 310.39,87.87 L 272.12, 87.87" />
      <path d="M 388.35,87.87 L 385.52, 85.04 L 382.68, 85.04 L 385.52, 87.87 L 382.68, 90.7 L 385.51, 90.7 L 388.35, 87.87" style="stroke-linecap:round;stroke-linejoin:round;" />
      <path style="fill:none;stroke:#000000;stroke-width:0.85;stroke-linecap:round;stroke-linejoin:round;" d="M 402.52,93.54 C 405.65 93.54 408.19 91 408.19 87.87 C 408.19 84.74001 405.65 82.2 402.52 82.2 L 394.02, 82.2 C 390.89 82.2 388.35 84.74 388.35 87.87 C 388.35 91 390.89 93.54 394.02 93.54 L 402.52, 93.54" />
      <path style="fill:none;stroke:#000000;stroke-width:0.85;stroke-linecap:round;stroke-linejoin:round;" d="M 345.83,87.87 C 345.83 87.09 345.2 86.45 344.41 86.45 C 343.63 86.45 342.99 87.07999 342.99 87.87 C 342.98998046875 88.6600154931641 343.62 89.29 344.41 89.29 C 345.19 89.29 345.83 88.66 345.83 87.87" />
      <path style="fill:none;stroke:#000000;stroke-width:0.85;stroke-linecap:round;stroke-linejoin:round;" d="M 320.31,87.87 C 320.31 87.09 319.68 86.45 318.89 86.45 C 318.100029296875 86.4499938964844 317.47 87.07999 317.47 87.87 C 317.470002441406 88.6600154931641 318.1 89.29 318.89 89.29 C 319.680029296875 89.2900018310547 320.31 88.66 320.31 87.87" />
      <path style="fill:none;stroke:#000000;stroke-width:1.417;" d="M 319.9,88.88 C 319.9 88.88 324.58 94.95 331.65 87.88 C 338.72 80.81 343.4 86.88 343.4 86.88" />
      <path style="fill:none;stroke:#000000;stroke-width:1.417;stroke-linecap:round;stroke-linejoin:round;" d="M 352.91,75.12 L 310.39, 75.12 L 310.39, 100.63 L 352.91, 100.63 L 352.91, 75.12" />
      <text transform="matrix(1 0 0 1 394.9302 89.5791)" style="font-family:'Arial'; font-size:6px;">11</text>
      <text transform="matrix(1 0 0 1 304.9307 81.0747)" style="font-family:'Arial'; font-size:6px;">1</text>
      <text transform="matrix(1 0 0 1 355.0386 81.0747)" style="font-family:'Arial'; font-size:6px;">2</text>
      <text transform="matrix(1 0 0 1 317.646 70.4443)" style="font-family:'Arial'; font-size:6px;">7.5A  AM2</text>
    </g><g ewd:figtype="rb" ewd:code="FUSE145" ewd:figID="16">
      <path style="fill:none;stroke:#000000;stroke-width:0.85;" d="M 388.35,130.39 L 352.92, 130.39" />
      <path style="fill:none;stroke:#000000;stroke-width:0.85;" d="M 352.91,130.39 L 345.82, 130.39" />
      <path style="fill:none;stroke:#000000;stroke-width:0.85;" d="M 317.48,130.39 L 310.39, 130.39" />
      <path style="fill:none;stroke:#000000;stroke-width:0.85;" d="M 310.39,130.39 L 272.12, 130.39" />
      <path style="fill:none;stroke:#000000;stroke-width:1.417;" d="M 343.4,129.39 C 343.4 129.39 337.27 119.89 328.1 130.27 C 324.41 134.45 319.9 131.4 319.9 131.4" />
      <path style="fill:none;stroke:#000000;stroke-width:1.417;" d="M 319.9,131.4 C 319.9 131.4 326.03 140.9 335.2 130.52 C 338.89 126.34 343.41 129.39 343.41 129.39" />
      <path style="fill:none;stroke:#000000;stroke-width:0.85;stroke-linecap:round;stroke-linejoin:round;" d="M 345.83,130.39 C 345.83 129.61 345.2 128.97 344.41 128.97 C 343.620007324219 128.970002441406 342.99 129.6 342.99 130.39 C 342.99 131.17 343.62 131.81 344.41 131.81 C 345.200007324219 131.809995117187 345.83 131.17 345.83 130.39" />
      <path style="fill:none;stroke:#000000;stroke-width:0.85;stroke-linecap:round;stroke-linejoin:round;" d="M 320.31,130.39 C 320.31 129.61 319.68 128.97 318.89 128.97 C 318.11 128.97 317.47 129.6 317.47 130.39 C 317.47 131.17 318.1 131.81 318.89 131.81 C 319.68 131.81 320.31 131.17 320.31 130.39" />
      <path style="fill:none;stroke:#000000;stroke-width:1.417;" d="M 319.9,131.4 C 319.9 131.4 324.58 137.47 331.65 130.4 C 338.72 123.33 343.4 129.4 343.4 129.4" />
      <path style="fill:none;stroke:#000000;stroke-width:1.417;stroke-linecap:round;stroke-linejoin:round;" d="M 352.91,117.64 L 310.39, 117.64 L 310.39, 143.15 L 352.91, 143.15 L 352.91, 117.64" />
      <path d="M 388.35,130.39 L 385.52, 127.56 L 382.68, 127.56 L 385.52, 130.39 L 382.68, 133.22 L 385.51, 133.22 L 388.35, 130.39" style="stroke-linecap:round;stroke-linejoin:round;" />
      <path style="fill:none;stroke:#000000;stroke-width:0.85;stroke-linecap:round;stroke-linejoin:round;" d="M 402.52,136.06 C 405.65 136.06 408.19 133.52 408.19 130.39 C 408.19 127.26 405.65 124.72 402.52 124.72 L 394.02, 124.72 C 390.89 124.72 388.35 127.26 388.35 130.39 C 388.35 133.52 390.89 136.06 394.02 136.06 L 402.52, 136.06" />
      <text transform="matrix(1 0 0 1 304.9307 123.5947)" style="font-family:'Arial'; font-size:6px;">1</text>
      <text transform="matrix(1 0 0 1 355.0391 123.5947)" style="font-family:'Arial'; font-size:6px;">2</text>
      <text transform="matrix(1 0 0 1 316.313 112.9644)" style="font-family:'Arial'; font-size:6px;">40A  HEAD</text>
      <text transform="matrix(1 0 0 1 394.9302 132.0986)" style="font-family:'Arial'; font-size:6px;">11</text>
    </g><g ewd:figtype="rb" ewd:code="FUSE141" ewd:figID="23">
      <path style="fill:none;stroke:#000000;stroke-width:0.85;" d="M 272.13,172.91 L 310.4, 172.91" />
      <path style="fill:none;stroke:#000000;stroke-width:0.85;" d="M 310.39,172.91 L 317.48, 172.91" />
      <path style="fill:none;stroke:#000000;stroke-width:0.85;" d="M 345.83,172.91 L 352.92, 172.91" />
      <path style="fill:none;stroke:#000000;stroke-width:0.85;" d="M 352.91,172.91 L 388.34, 172.91" />
      <path style="fill:none;stroke:#000000;stroke-width:1.417;" d="M 343.4,171.91 C 343.4 171.91 337.27 162.41 328.1 172.79 C 324.41 176.97 319.9 173.92 319.9 173.92" />
      <path style="fill:none;stroke:#000000;stroke-width:1.417;" d="M 319.9,173.92 C 319.9 173.92 326.03 183.42 335.2 173.04 C 338.89 168.86 343.41 171.91 343.41 171.91" />
      <path style="fill:none;stroke:#000000;stroke-width:0.85;stroke-linecap:round;stroke-linejoin:round;" d="M 345.83,172.91 C 345.83 172.13 345.2 171.49 344.41 171.49 C 343.620007324219 171.490010986328 342.99 172.12 342.99 172.91 C 342.99 173.69 343.62 174.33 344.41 174.33 C 345.200007324219 174.330003662109 345.83 173.69 345.83 172.91" />
      <path style="fill:none;stroke:#000000;stroke-width:0.85;stroke-linecap:round;stroke-linejoin:round;" d="M 320.31,172.91 C 320.31 172.13 319.68 171.49 318.89 171.49 C 318.11 171.49 317.47 172.12 317.47 172.91 C 317.47 173.69 318.1 174.33 318.89 174.33 C 319.68 174.33 320.31 173.69 320.31 172.91" />
      <path style="fill:none;stroke:#000000;stroke-width:1.417;" d="M 319.9,173.92 C 319.9 173.92 324.58 179.99 331.65 172.92 C 338.72 165.85 343.4 171.92 343.4 171.92" />
      <path style="fill:none;stroke:#000000;stroke-width:1.417;stroke-linecap:round;stroke-linejoin:round;" d="M 352.91,160.16 L 310.39, 160.16 L 310.39, 185.67 L 352.91, 185.67 L 352.91, 160.16" />
      <path d="M 388.35,172.91 L 385.52, 170.08 L 382.68, 170.08 L 385.52, 172.91 L 382.68, 175.74 L 385.51, 175.74 L 388.35, 172.91" style="stroke-linecap:round;stroke-linejoin:round;" />
      <path style="fill:none;stroke:#000000;stroke-width:0.85;stroke-linecap:round;stroke-linejoin:round;" d="M 402.52,178.58 C 405.65 178.58 408.19 176.04 408.19 172.91 C 408.19 169.78 405.65 167.24 402.52 167.24 L 394.02, 167.24 C 390.89 167.24 388.35 169.78 388.35 172.91 C 388.35 176.04 390.89 178.58 394.02 178.58 L 402.52, 178.58" />
      <text transform="matrix(1 0 0 1 304.9307 166.1143)" style="font-family:'Arial'; font-size:6px;">1</text>
      <text transform="matrix(1 0 0 1 355.0391 166.1143)" style="font-family:'Arial'; font-size:6px;">2</text>
      <text transform="matrix(1 0 0 1 310.8125 155.4839)" style="font-family:'Arial'; font-size:6px;">30A  DOOR BK</text>
      <text transform="matrix(1 0 0 1 394.9302 174.6182)" style="font-family:'Arial'; font-size:6px;">11</text>
    </g><g ewd:figtype="rb" ewd:code="FUSE143" ewd:figID="24">
      <path style="fill:none;stroke:#000000;stroke-width:0.85;" d="M 388.35,257.95 L 352.92, 257.95" />
      <path style="fill:none;stroke:#000000;stroke-width:0.85;" d="M 352.91,257.95 L 345.82, 257.95" />
      <path style="fill:none;stroke:#000000;stroke-width:0.85;" d="M 317.48,257.95 L 310.39, 257.95" />
      <path style="fill:none;stroke:#000000;stroke-width:0.85;" d="M 310.39,257.95 L 272.12, 257.95 L 272.12, 45.35" />
      <path style="fill:none;stroke:#000000;stroke-width:1.417;" d="M 343.4,256.95 C 343.4 256.95 337.27 247.45 328.1 257.83 C 324.41 262.01 319.9 258.96 319.9 258.96" />
      <path style="fill:none;stroke:#000000;stroke-width:1.417;" d="M 319.9,258.95 C 319.9 258.95 326.03 268.45 335.2 258.07 C 338.89 253.89 343.41 256.94 343.41 256.94" />
      <path style="fill:none;stroke:#000000;stroke-width:0.85;stroke-linecap:round;stroke-linejoin:round;" d="M 345.83,257.95 C 345.83 257.17 345.2 256.53 344.41 256.53 C 343.620007324219 256.529997558594 342.99 257.16 342.99 257.95 C 342.99 258.73 343.62 259.37 344.41 259.37 C 345.200007324219 259.369990234375 345.83 258.73 345.83 257.95" />
      <path style="fill:none;stroke:#000000;stroke-width:0.85;stroke-linecap:round;stroke-linejoin:round;" d="M 320.31,257.95 C 320.31 257.17 319.68 256.53 318.89 256.53 C 318.11 256.53 317.47 257.16 317.47 257.95 C 317.47 258.73 318.1 259.37 318.89 259.37 C 319.68 259.37 320.31 258.73 320.31 257.95" />
      <path style="fill:none;stroke:#000000;stroke-width:1.417;" d="M 319.9,258.95 C 319.9 258.95 324.58 265.02 331.65 257.95 C 338.72 250.88 343.4 256.95 343.4 256.95" />
      <path style="fill:none;stroke:#000000;stroke-width:1.417;stroke-linecap:round;stroke-linejoin:round;" d="M 352.91,245.19 L 310.39, 245.19 L 310.39, 270.7 L 352.91, 270.7 L 352.91, 245.19" />
      <path d="M 388.35,257.95 L 385.52, 255.12 L 382.68, 255.12 L 385.52, 257.95 L 382.68, 260.78 L 385.51, 260.78 L 388.35, 257.95" style="stroke-linecap:round;stroke-linejoin:round;" />
      <path style="fill:none;stroke:#000000;stroke-width:0.85;stroke-linecap:round;stroke-linejoin:round;" d="M 402.52,263.62 C 405.65 263.62 408.19 261.08 408.19 257.95 C 408.19 254.82 405.65 252.28 402.52 252.28 L 394.02, 252.28 C 390.89 252.28 388.35 254.82 388.35 257.95 C 388.35 261.08 390.89 263.62 394.02 263.62 L 402.52, 263.62" />
      <text transform="matrix(1 0 0 1 304.9307 251.1533)" style="font-family:'Arial'; font-size:6px;">1</text>
      <text transform="matrix(1 0 0 1 355.0391 251.1533)" style="font-family:'Arial'; font-size:6px;">2</text>
      <text transform="matrix(1 0 0 1 311.3135 240.5234)" style="font-family:'Arial'; font-size:6px;">40A  ABS MTR</text>
      <text transform="matrix(1 0 0 1 394.9302 259.6572)" style="font-family:'Arial'; font-size:6px;">11</text>
    </g><g ewd:figtype="rb" ewd:code="FUSE110" ewd:figID="25">
      <path style="fill:none;stroke:#000000;stroke-width:0.85;" d="M 637.79,385.51 L 676.06, 385.51" />
      <path style="fill:none;stroke:#000000;stroke-width:0.85;" d="M 676.06,385.51 L 683.15, 385.51" />
      <path style="fill:none;stroke:#000000;stroke-width:0.85;" d="M 711.49,385.51 L 718.58, 385.51" />
      <path style="fill:none;stroke:#000000;stroke-width:0.85;" d="M 718.58,385.51 L 754.01, 385.51" />
      <path style="fill:none;stroke:#000000;stroke-width:0.85;stroke-linecap:round;stroke-linejoin:round;" d="M 711.49,385.51 C 711.49 384.73 710.86 384.09 710.07 384.09 C 709.29 384.09 708.65 384.73 708.65 385.51 C 708.65 386.29 709.28 386.93 710.07 386.93 C 710.86 386.93 711.49 386.29 711.49 385.51" />
      <path style="fill:none;stroke:#000000;stroke-width:0.85;stroke-linecap:round;stroke-linejoin:round;" d="M 685.98,385.51 C 685.98 384.73 685.35 384.09 684.56 384.09 C 683.78 384.09 683.14 384.73 683.14 385.51 C 683.14 386.29 683.77 386.93 684.56 386.93 C 685.35 386.93 685.98 386.29 685.98 385.51" />
      <path style="fill:none;stroke:#000000;stroke-width:1.417;" d="M 685.57,386.51 C 685.57 386.51 690.25 392.58 697.32 385.51 C 704.390014648438 378.44001953125 709.07 384.51 709.07 384.51" />
      <path style="fill:none;stroke:#000000;stroke-width:1.417;stroke-linecap:round;stroke-linejoin:round;" d="M 718.58,372.75 L 676.06, 372.75 L 676.06, 398.26 L 718.58, 398.26 L 718.58, 372.75" />
      <path d="M 754.01,385.51 L 751.18, 382.68 L 748.34, 382.68 L 751.1801, 385.51 L 748.3401, 388.34 L 751.1701, 388.34 L 754.01, 385.51" style="stroke-linecap:round;stroke-linejoin:round;" />
      <path style="fill:none;stroke:#000000;stroke-width:0.85;stroke-linecap:round;stroke-linejoin:round;" d="M 768.19,391.18 C 771.32 391.18 773.86 388.64 773.86 385.51 C 773.86 382.38 771.32 379.84 768.19 379.84 L 759.69, 379.84 C 756.56 379.84 754.02 382.38 754.02 385.51 C 754.02 388.64 756.56 391.18 759.69 391.18 L 768.19, 391.18" />
      <text transform="matrix(1 0 0 1 670.6001 378.7119)" style="font-family:'Arial'; font-size:6px;">1</text>
      <text transform="matrix(1 0 0 1 720.7075 378.7119)" style="font-family:'Arial'; font-size:6px;">2</text>
      <text transform="matrix(1 0 0 1 678.9819 368.082)" style="font-family:'Arial'; font-size:6px;">25A  PSD RH</text>
      <text transform="matrix(1 0 0 1 760.5996 387.2168)" style="font-family:'Arial'; font-size:6px;">10</text>
    </g><g ewd:figtype="rb" ewd:code="FUSE101" ewd:figID="26">
      <path style="fill:none;stroke:#000000;stroke-width:0.85;" d="M 637.79,342.99 L 676.06, 342.99" />
      <path style="fill:none;stroke:#000000;stroke-width:0.85;" d="M 676.06,342.99 L 683.15, 342.99" />
      <path style="fill:none;stroke:#000000;stroke-width:0.85;" d="M 711.49,342.99 L 718.58, 342.99" />
      <path style="fill:none;stroke:#000000;stroke-width:0.85;" d="M 718.58,342.99 L 754.01, 342.99" />
      <path style="fill:none;stroke:#000000;stroke-width:0.85;stroke-linecap:round;stroke-linejoin:round;" d="M 711.49,342.99 C 711.49 342.21 710.86 341.57 710.07 341.57 C 709.29 341.57 708.65 342.2 708.65 342.99 C 708.65 343.77 709.28 344.41 710.07 344.41 C 710.86 344.41 711.49 343.77 711.49 342.99" />
      <path style="fill:none;stroke:#000000;stroke-width:0.85;stroke-linecap:round;stroke-linejoin:round;" d="M 685.98,342.99 C 685.98 342.21 685.35 341.57 684.56 341.57 C 683.78 341.57 683.14 342.2 683.14 342.99 C 683.14 343.77 683.77 344.41 684.56 344.41 C 685.35 344.41 685.98 343.77 685.98 342.99" />
      <path style="fill:none;stroke:#000000;stroke-width:1.417;" d="M 685.57,343.99 C 685.57 343.99 690.25 350.06 697.32 342.99 C 704.390014648438 335.91998046875 709.07 341.99 709.07 341.99" />
      <path style="fill:none;stroke:#000000;stroke-width:1.417;stroke-linecap:round;stroke-linejoin:round;" d="M 718.58,330.23 L 676.06, 330.23 L 676.06, 355.74 L 718.58, 355.74 L 718.58, 330.23" />
      <path d="M 754.01,342.99 L 751.18, 340.16 L 748.34, 340.16 L 751.1801, 342.99 L 748.3401, 345.82 L 751.1701, 345.82 L 754.01, 342.99" style="stroke-linecap:round;stroke-linejoin:round;" />
      <path style="fill:none;stroke:#000000;stroke-width:0.85;stroke-linecap:round;stroke-linejoin:round;" d="M 768.19,348.66 C 771.32 348.66 773.86 346.12 773.86 342.99 C 773.86 339.86 771.32 337.32 768.19 337.32 L 759.69, 337.32 C 756.56 337.32 754.02 339.86 754.02 342.99 C 754.02 346.12 756.56 348.66 759.69 348.66 L 768.19, 348.66" />
      <text transform="matrix(1 0 0 1 670.6001 336.1929)" style="font-family:'Arial'; font-size:6px;">1</text>
      <text transform="matrix(1 0 0 1 720.7075 336.1929)" style="font-family:'Arial'; font-size:6px;">2</text>
      <text transform="matrix(1 0 0 1 677.8145 325.5625)" style="font-family:'Arial'; font-size:6px;">10A  EFI NO.2</text>
      <text transform="matrix(1 0 0 1 760.5996 344.6968)" style="font-family:'Arial'; font-size:6px;">10</text>
    </g><g ewd:figtype="rb" ewd:code="FUSE103" ewd:figID="27">
      <path style="fill:none;stroke:#000000;stroke-width:0.85;" d="M 637.79,300.47 L 676.06, 300.47" />
      <path style="fill:none;stroke:#000000;stroke-width:0.85;" d="M 676.06,300.47 L 683.15, 300.47" />
      <path style="fill:none;stroke:#000000;stroke-width:0.85;" d="M 711.49,300.47 L 718.58, 300.47" />
      <path style="fill:none;stroke:#000000;stroke-width:0.85;" d="M 718.58,300.47 L 754.01, 300.47" />
      <path style="fill:none;stroke:#000000;stroke-width:0.85;stroke-linecap:round;stroke-linejoin:round;" d="M 711.49,300.47 C 711.49 299.69 710.86 299.05 710.07 299.05 C 709.29 299.05 708.65 299.68 708.65 300.47 C 708.65 301.25 709.28 301.89 710.07 301.89 C 710.86 301.89 711.49 301.25 711.49 300.47" />
      <path style="fill:none;stroke:#000000;stroke-width:0.85;stroke-linecap:round;stroke-linejoin:round;" d="M 685.98,300.47 C 685.98 299.69 685.35 299.05 684.56 299.05 C 683.78 299.05 683.14 299.68 683.14 300.47 C 683.14 301.25 683.77 301.89 684.56 301.89 C 685.35 301.89 685.98 301.25 685.98 300.47" />
      <path style="fill:none;stroke:#000000;stroke-width:1.417;" d="M 685.57,301.47 C 685.57 301.47 690.25 307.54 697.32 300.47 C 704.39 293.4 709.07 299.47 709.07 299.47" />
      <path style="fill:none;stroke:#000000;stroke-width:1.417;stroke-linecap:round;stroke-linejoin:round;" d="M 718.58,287.71 L 676.06, 287.71 L 676.06, 313.22 L 718.58, 313.22 L 718.58, 287.71" />
      <path d="M 754.01,300.47 L 751.18, 297.64 L 748.34, 297.64 L 751.1801, 300.47 L 748.3401, 303.3 L 751.1701, 303.3 L 754.01, 300.47" style="stroke-linecap:round;stroke-linejoin:round;" />
      <path style="fill:none;stroke:#000000;stroke-width:0.85;stroke-linecap:round;stroke-linejoin:round;" d="M 768.19,306.14 C 771.32 306.14 773.86 303.6 773.86 300.47 C 773.86 297.34 771.32 294.8 768.19 294.8 L 759.69, 294.8 C 756.56 294.8 754.02 297.34 754.02 300.47 C 754.02 303.6 756.56 306.14 759.69 306.14 L 768.19, 306.14" />
      <text transform="matrix(1 0 0 1 670.6001 293.6733)" style="font-family:'Arial'; font-size:6px;">1</text>
      <text transform="matrix(1 0 0 1 720.7075 293.6733)" style="font-family:'Arial'; font-size:6px;">2</text>
      <text transform="matrix(1 0 0 1 682.3159 283.043)" style="font-family:'Arial'; font-size:6px;">10A  ETCS</text>
      <text transform="matrix(1 0 0 1 760.5996 302.1772)" style="font-family:'Arial'; font-size:6px;">10</text>
    </g><g ewd:figtype="rb" ewd:code="FUSE123" ewd:figID="28">
      <path style="fill:none;stroke:#000000;stroke-width:0.85;" d="M 966.61,172.91 L 718.58, 172.91" />
      <path style="fill:none;stroke:#000000;stroke-width:0.85;" d="M 718.58,172.91 L 711.49, 172.91" />
      <path style="fill:none;stroke:#000000;stroke-width:0.85;" d="M 683.15,172.91 L 676.06, 172.91" />
      <path style="fill:none;stroke:#000000;stroke-width:1.417;" d="M 709.07,171.91 C 709.07 171.91 702.94 162.41 693.77 172.79 C 690.08 176.97 685.56 173.92 685.56 173.92" />
      <path style="fill:none;stroke:#000000;stroke-width:1.417;" d="M 685.57,173.92 C 685.57 173.92 691.7 183.42 700.87 173.04 C 704.56 168.86 709.08 171.91 709.08 171.91" />
      <path style="fill:none;stroke:#000000;stroke-width:0.85;stroke-linecap:round;stroke-linejoin:round;" d="M 711.49,172.91 C 711.49 172.13 710.86 171.49 710.07 171.49 C 709.29 171.49 708.65 172.12 708.65 172.91 C 708.65 173.69 709.28 174.33 710.07 174.33 C 710.86 174.33 711.49 173.69 711.49 172.91" />
      <path style="fill:none;stroke:#000000;stroke-width:0.85;stroke-linecap:round;stroke-linejoin:round;" d="M 685.98,172.91 C 685.98 172.13 685.35 171.49 684.56 171.49 C 683.769995117187 171.490010986328 683.14 172.12 683.14 172.91 C 683.14 173.69 683.77 174.33 684.56 174.33 C 685.349995117188 174.330003662109 685.98 173.69 685.98 172.91" />
      <path style="fill:none;stroke:#000000;stroke-width:1.417;" d="M 685.57,173.92 C 685.57 173.92 690.25 179.99 697.32 172.92 C 704.39 165.85 709.07 171.92 709.07 171.92" />
      <path style="fill:none;stroke:#000000;stroke-width:1.417;stroke-linecap:round;stroke-linejoin:round;" d="M 718.58,160.16 L 676.06, 160.16 L 676.06, 185.67 L 718.58, 185.67 L 718.58, 160.16" />
      <path d="M 966.61,172.91 L 963.77, 170.08 L 960.94, 170.08 L 963.77, 172.91 L 960.94, 175.74 L 963.77, 175.74 L 966.61, 172.91" style="stroke-linecap:round;stroke-linejoin:round;" />
      <path style="fill:none;stroke:#000000;stroke-width:0.85;stroke-linecap:round;stroke-linejoin:round;" d="M 980.79,178.58 C 983.92 178.58 986.46 176.04 986.46 172.91 C 986.46 169.78 983.92 167.24 980.79 167.24 L 972.29, 167.24 C 969.16 167.24 966.62 169.78 966.62 172.91 C 966.62 176.04 969.16 178.58 972.29 178.58 L 980.79, 178.58" />
      <text transform="matrix(1 0 0 1 670.6001 166.1143)" style="font-family:'Arial'; font-size:6px;">1</text>
      <text transform="matrix(1 0 0 1 720.7085 166.1143)" style="font-family:'Arial'; font-size:6px;">2</text>
      <text transform="matrix(1 0 0 1 679.647 155.4839)" style="font-family:'Arial'; font-size:6px;">60A P/I NO.2</text>
      <text transform="matrix(1 0 0 1 973.1978 174.6182)" style="font-family:'Arial'; font-size:6px;">10</text>
    </g><g ewd:figtype="rb" ewd:code="FUSE116" ewd:figID="29">
      <path style="fill:none;stroke:#000000;stroke-width:0.85;" d="M 637.79,215.43 L 676.06, 215.43" />
      <path style="fill:none;stroke:#000000;stroke-width:0.85;" d="M 676.06,215.43 L 683.15, 215.43" />
      <path style="fill:none;stroke:#000000;stroke-width:0.85;" d="M 711.49,215.43 L 718.58, 215.43" />
      <path style="fill:none;stroke:#000000;stroke-width:0.85;" d="M 718.58,215.43 L 754.01, 215.43" />
      <path style="fill:none;stroke:#000000;stroke-width:1.417;" d="M 709.07,214.43 C 709.07 214.43 702.94 204.93 693.77 215.31 C 690.08 219.49 685.56 216.44 685.56 216.44" />
      <path style="fill:none;stroke:#000000;stroke-width:1.417;" d="M 685.57,216.43 C 685.57 216.43 691.7 225.93 700.87 215.55 C 704.56 211.37 709.08 214.42 709.08 214.42" />
      <path style="fill:none;stroke:#000000;stroke-width:0.85;stroke-linecap:round;stroke-linejoin:round;" d="M 711.49,215.43 C 711.49 214.65 710.86 214.01 710.07 214.01 C 709.29 214.01 708.65 214.64 708.65 215.43 C 708.65 216.21 709.28 216.85 710.07 216.85 C 710.86 216.85 711.49 216.21 711.49 215.43" />
      <path style="fill:none;stroke:#000000;stroke-width:0.85;stroke-linecap:round;stroke-linejoin:round;" d="M 685.98,215.43 C 685.98 214.65 685.35 214.01 684.56 214.01 C 683.769995117187 214.009989013672 683.14 214.64 683.14 215.43 C 683.14 216.21 683.77 216.85 684.56 216.85 C 685.349995117188 216.850012207031 685.98 216.21 685.98 215.43" />
      <path style="fill:none;stroke:#000000;stroke-width:1.417;" d="M 685.57,216.43 C 685.57 216.43 690.25 222.5 697.32 215.43 C 704.390014648438 208.359985351563 709.07 214.43 709.07 214.43" />
      <path style="fill:none;stroke:#000000;stroke-width:1.417;stroke-linecap:round;stroke-linejoin:round;" d="M 718.58,202.68 L 676.06, 202.68 L 676.06, 228.19 L 718.58, 228.19 L 718.58, 202.68" />
      <path d="M 754.01,215.43 L 751.18, 212.6 L 748.34, 212.6 L 751.1801, 215.43 L 748.3401, 218.26 L 751.1701, 218.26 L 754.01, 215.43" style="stroke-linecap:round;stroke-linejoin:round;" />
      <path style="fill:none;stroke:#000000;stroke-width:0.85;stroke-linecap:round;stroke-linejoin:round;" d="M 768.19,221.1 C 771.32 221.1 773.86 218.56 773.86 215.43 C 773.86 212.3 771.32 209.76 768.19 209.76 L 759.69, 209.76 C 756.56 209.76 754.02 212.3 754.02 215.43 C 754.02 218.56 756.56 221.1 759.69 221.1 L 768.19, 221.1" />
      <text transform="matrix(1 0 0 1 670.6001 208.6338)" style="font-family:'Arial'; font-size:6px;">1</text>
      <text transform="matrix(1 0 0 1 720.7085 208.6338)" style="font-family:'Arial'; font-size:6px;">2</text>
      <text transform="matrix(1 0 0 1 687.3169 198.0039)" style="font-family:'Arial'; font-size:6px;">40A ST</text>
      <text transform="matrix(1 0 0 1 760.5996 217.1377)" style="font-family:'Arial'; font-size:6px;">10</text>
    </g><g ewd:figtype="rb" ewd:code="FUSE113" ewd:figID="30">
      <path style="fill:none;stroke:#000000;stroke-width:0.85;" d="M 637.79,257.95 L 676.06, 257.95" />
      <path style="fill:none;stroke:#000000;stroke-width:0.85;" d="M 676.06,257.95 L 683.15, 257.95" />
      <path style="fill:none;stroke:#000000;stroke-width:0.85;" d="M 711.49,257.95 L 718.58, 257.95" />
      <path style="fill:none;stroke:#000000;stroke-width:0.85;" d="M 718.58,257.95 L 754.01, 257.95" />
      <path style="fill:none;stroke:#000000;stroke-width:1.417;" d="M 709.07,256.95 C 709.07 256.95 702.94 247.45 693.77 257.83 C 690.08 262.01 685.56 258.96 685.56 258.96" />
      <path style="fill:none;stroke:#000000;stroke-width:1.417;" d="M 685.57,258.95 C 685.57 258.95 691.7 268.45 700.87 258.07 C 704.56 253.89 709.08 256.94 709.08 256.94" />
      <path style="fill:none;stroke:#000000;stroke-width:0.85;stroke-linecap:round;stroke-linejoin:round;" d="M 711.49,257.95 C 711.49 257.17 710.86 256.53 710.07 256.53 C 709.29 256.53 708.65 257.16 708.65 257.95 C 708.65 258.73 709.28 259.37 710.07 259.37 C 710.86 259.37 711.49 258.73 711.49 257.95" />
      <path style="fill:none;stroke:#000000;stroke-width:0.85;stroke-linecap:round;stroke-linejoin:round;" d="M 685.98,257.95 C 685.98 257.17 685.35 256.53 684.56 256.53 C 683.769995117187 256.529997558594 683.14 257.16 683.14 257.95 C 683.14 258.73 683.77 259.37 684.56 259.37 C 685.349995117188 259.369990234375 685.98 258.73 685.98 257.95" />
      <path style="fill:none;stroke:#000000;stroke-width:1.417;" d="M 685.57,258.95 C 685.57 258.95 690.25 265.02 697.32 257.95 C 704.39 250.88 709.07 256.95 709.07 256.95" />
      <path style="fill:none;stroke:#000000;stroke-width:1.417;stroke-linecap:round;stroke-linejoin:round;" d="M 718.58,245.2 L 676.06, 245.2 L 676.06, 270.71 L 718.58, 270.71 L 718.58, 245.2" />
      <path d="M 754.01,257.95 L 751.18, 255.12 L 748.34, 255.12 L 751.1801, 257.95 L 748.3401, 260.79 L 751.1701, 260.79 L 754.01, 257.95" style="stroke-linecap:round;stroke-linejoin:round;" />
      <path style="fill:none;stroke:#000000;stroke-width:0.85;stroke-linecap:round;stroke-linejoin:round;" d="M 768.19,263.62 C 771.32 263.62 773.86 261.08 773.86 257.95 C 773.86 254.82 771.32 252.28 768.19 252.28 L 759.69, 252.28 C 756.56 252.28 754.02 254.82 754.02 257.95 C 754.02 261.08 756.56 263.62 759.69 263.62 L 768.19, 263.62" />
      <text transform="matrix(1 0 0 1 670.6001 251.1533)" style="font-family:'Arial'; font-size:6px;">1</text>
      <text transform="matrix(1 0 0 1 720.7085 251.1533)" style="font-family:'Arial'; font-size:6px;">2</text>
      <text transform="matrix(1 0 0 1 675.3169 240.5234)" style="font-family:'Arial'; font-size:6px;">30A  DOOR R/R</text>
      <text transform="matrix(1 0 0 1 760.5996 259.6572)" style="font-family:'Arial'; font-size:6px;">10</text>
    </g><g ewd:figtype="rb" ewd:code="FUSE117" ewd:figID="31">
      <path style="fill:none;stroke:#000000;stroke-width:0.85;" d="M 637.79,428.03 L 676.06, 428.03" />
      <path style="fill:none;stroke:#000000;stroke-width:0.85;" d="M 676.06,428.03 L 683.15, 428.03" />
      <path style="fill:none;stroke:#000000;stroke-width:0.85;" d="M 711.49,428.03 L 718.58, 428.03" />
      <path style="fill:none;stroke:#000000;stroke-width:0.85;" d="M 718.58,428.03 L 754.01, 428.03" />
      <path style="fill:none;stroke:#000000;stroke-width:1.417;" d="M 709.07,427.03 C 709.07 427.03 702.94 417.53 693.77 427.91 C 690.08 432.09 685.56 429.04 685.56 429.04" />
      <path style="fill:none;stroke:#000000;stroke-width:1.417;" d="M 685.57,429.03 C 685.57 429.03 691.7 438.53 700.87 428.15 C 704.56 423.97 709.08 427.02 709.08 427.02" />
      <path style="fill:none;stroke:#000000;stroke-width:0.85;stroke-linecap:round;stroke-linejoin:round;" d="M 711.49,428.03 C 711.49 427.25 710.86 426.61 710.07 426.61 C 709.29 426.61 708.65 427.24 708.65 428.03 C 708.650048828125 428.819997558594 709.28 429.45 710.07 429.45 C 710.86 429.45 711.49 428.81 711.49 428.03" />
      <path style="fill:none;stroke:#000000;stroke-width:0.85;stroke-linecap:round;stroke-linejoin:round;" d="M 685.98,428.03 C 685.98 427.25 685.35 426.61 684.56 426.61 C 683.769995117187 426.609970703125 683.14 427.24 683.14 428.03 C 683.140029296875 428.819997558594 683.77 429.45 684.56 429.45 C 685.349995117188 429.450024414063 685.98 428.81 685.98 428.03" />
      <path style="fill:none;stroke:#000000;stroke-width:1.417;" d="M 685.57,429.03 C 685.57 429.03 690.25 435.1 697.32 428.03 C 704.390014648438 420.959997558594 709.07 427.03 709.07 427.03" />
      <path style="fill:none;stroke:#000000;stroke-width:1.417;stroke-linecap:round;stroke-linejoin:round;" d="M 718.58,415.27 L 676.06, 415.27 L 676.06, 440.78 L 718.58, 440.78 L 718.58, 415.27" />
      <path d="M 754.01,428.03 L 751.18, 425.2 L 748.34, 425.2 L 751.1801, 428.03 L 748.3401, 430.87 L 751.1701, 430.87 L 754.01, 428.03" style="stroke-linecap:round;stroke-linejoin:round;" />
      <path style="fill:none;stroke:#000000;stroke-width:0.85;stroke-linecap:round;stroke-linejoin:round;" d="M 768.19,433.7 C 771.32 433.7 773.86 431.16 773.86 428.03 C 773.86 424.9 771.32 422.36 768.19 422.36 L 759.69, 422.36 C 756.56 422.36 754.02 424.9 754.02 428.03 C 754.02 431.16 756.56 433.7 759.69 433.7 L 768.19, 433.7" />
      <text transform="matrix(1 0 0 1 670.6001 421.2324)" style="font-family:'Arial'; font-size:6px;">1</text>
      <text transform="matrix(1 0 0 1 720.7085 421.2324)" style="font-family:'Arial'; font-size:6px;">2</text>
      <text transform="matrix(1 0 0 1 680.9814 410.6025)" style="font-family:'Arial'; font-size:6px;">50A  A/PMP</text>
      <text transform="matrix(1 0 0 1 760.5996 429.7363)" style="font-family:'Arial'; font-size:6px;">10</text>
    </g><g ewd:figtype="rb" ewd:code="FUSE125" ewd:figID="32">
      <path style="fill:none;stroke:#000000;stroke-width:0.85;" d="M 966.61,470.55 L 718.58, 470.55" />
      <path style="fill:none;stroke:#000000;stroke-width:0.85;" d="M 718.58,470.55 L 711.49, 470.55" />
      <path style="fill:none;stroke:#000000;stroke-width:0.85;" d="M 683.15,470.55 L 676.06, 470.55" />
      <path style="fill:none;stroke:#000000;stroke-width:0.85;" d="M 676.06,470.55 L 637.79, 470.55" />
      <path style="fill:none;stroke:#000000;stroke-width:1.417;" d="M 709.07,469.55 C 709.07 469.55 702.94 460.05 693.77 470.43 C 690.08 474.61 685.56 471.56 685.56 471.56" />
      <path style="fill:none;stroke:#000000;stroke-width:1.417;" d="M 685.57,471.55 C 685.57 471.55 691.7 481.05 700.87 470.67 C 704.56 466.49 709.08 469.54 709.08 469.54" />
      <path style="fill:none;stroke:#000000;stroke-width:0.85;stroke-linecap:round;stroke-linejoin:round;" d="M 711.49,470.55 C 711.49 469.77 710.86 469.13 710.07 469.13 C 709.29 469.13 708.65 469.76 708.65 470.55 C 708.65 471.33 709.28 471.97 710.07 471.97 C 710.86 471.97 711.49 471.33 711.49 470.55" />
      <path style="fill:none;stroke:#000000;stroke-width:0.85;stroke-linecap:round;stroke-linejoin:round;" d="M 685.98,470.55 C 685.98 469.77 685.35 469.13 684.56 469.13 C 683.769995117187 469.130009765625 683.14 469.76 683.14 470.55 C 683.14 471.33 683.77 471.97 684.56 471.97 C 685.349995117188 471.970002441406 685.98 471.33 685.98 470.55" />
      <path style="fill:none;stroke:#000000;stroke-width:1.417;" d="M 685.57,471.55 C 685.57 471.55 690.25 477.62 697.32 470.55 C 704.39 463.48 709.07 469.55 709.07 469.55" />
      <path style="fill:none;stroke:#000000;stroke-width:1.417;stroke-linecap:round;stroke-linejoin:round;" d="M 718.58,457.79 L 676.06, 457.79 L 676.06, 483.3 L 718.58, 483.3 L 718.58, 457.79" />
      <path d="M 966.61,470.55 L 963.77, 467.72 L 960.94, 467.72 L 963.77, 470.55 L 960.94, 473.39 L 963.77, 473.39 L 966.61, 470.55" style="stroke-linecap:round;stroke-linejoin:round;" />
      <path style="fill:none;stroke:#000000;stroke-width:0.85;stroke-linecap:round;stroke-linejoin:round;" d="M 980.79,476.22 C 983.92 476.22 986.46 473.68 986.46 470.55 C 986.46 467.42 983.92 464.88 980.79 464.88 L 972.29, 464.88 C 969.16 464.88 966.62 467.42 966.62 470.55 C 966.62 473.68 969.16 476.22 972.29 476.22 L 980.79, 476.22" />
      <text transform="matrix(1 0 0 1 670.6001 463.752)" style="font-family:'Arial'; font-size:6px;">1</text>
      <text transform="matrix(1 0 0 1 720.7085 463.752)" style="font-family:'Arial'; font-size:6px;">2</text>
      <text transform="matrix(1 0 0 1 678.8135 453.1211)" style="font-family:'Arial'; font-size:6px;">80A  P/I NO.1</text>
      <text transform="matrix(1 0 0 1 973.1978 472.2559)" style="font-family:'Arial'; font-size:6px;">10</text>
    </g><g ewd:figtype="rb" ewd:code="FUSE121" ewd:figID="41">
      <path style="fill:none;stroke:#000000;stroke-width:0.85;" d="M 637.79,513.07 L 676.06, 513.07" />
      <path style="fill:none;stroke:#000000;stroke-width:0.85;" d="M 676.06,513.07 L 683.15, 513.07" />
      <path style="fill:none;stroke:#000000;stroke-width:0.85;" d="M 711.49,513.07 L 718.58, 513.07" />
      <path style="fill:none;stroke:#000000;stroke-width:0.85;" d="M 718.58,513.07 L 754.01, 513.07" />
      <path style="fill:none;stroke:#000000;stroke-width:1.417;" d="M 709.07,512.07 C 709.07 512.07 702.94 502.57 693.77 512.95 C 690.08 517.13 685.56 514.08 685.56 514.08" />
      <path style="fill:none;stroke:#000000;stroke-width:1.417;" d="M 685.57,514.07 C 685.57 514.07 691.7 523.57 700.87 513.19 C 704.56 509.01 709.08 512.06 709.08 512.06" />
      <path style="fill:none;stroke:#000000;stroke-width:0.85;stroke-linecap:round;stroke-linejoin:round;" d="M 711.49,513.07 C 711.49 512.29 710.86 511.65 710.07 511.65 C 709.29 511.65 708.65 512.28 708.65 513.07 C 708.650048828125 513.860014648438 709.28 514.49 710.07 514.49 C 710.86 514.49 711.49 513.85 711.49 513.07" />
      <path style="fill:none;stroke:#000000;stroke-width:0.85;stroke-linecap:round;stroke-linejoin:round;" d="M 685.98,513.07 C 685.98 512.29 685.35 511.65 684.56 511.65 C 683.769995117187 511.649987792969 683.14 512.28 683.14 513.07 C 683.140029296875 513.860014648438 683.77 514.49 684.56 514.49 C 685.349995117188 514.48998046875 685.98 513.85 685.98 513.07" />
      <path style="fill:none;stroke:#000000;stroke-width:1.417;" d="M 685.57,514.07 C 685.57 514.07 690.25 520.14 697.32 513.07 C 704.39 506 709.07 512.07 709.07 512.07" />
      <path style="fill:none;stroke:#000000;stroke-width:1.417;stroke-linecap:round;stroke-linejoin:round;" d="M 718.58,500.31 L 676.06, 500.31 L 676.06, 525.82 L 718.58, 525.82 L 718.58, 500.31" />
      <path d="M 754.01,513.07 L 751.18, 510.24 L 748.34, 510.24 L 751.1801, 513.07 L 748.3401, 515.9 L 751.1701, 515.9 L 754.01, 513.07" style="stroke-linecap:round;stroke-linejoin:round;" />
      <path style="fill:none;stroke:#000000;stroke-width:0.85;stroke-linecap:round;stroke-linejoin:round;" d="M 768.19,518.74 C 771.32 518.74 773.86 516.2 773.86 513.07 C 773.86 509.94 771.32 507.4 768.19 507.4 L 759.69, 507.4 C 756.56 507.4 754.02 509.94 754.02 513.07 C 754.02 516.2 756.56 518.74 759.69 518.74 L 768.19, 518.74" />
      <text transform="matrix(1 0 0 1 670.6001 506.2715)" style="font-family:'Arial'; font-size:6px;">1</text>
      <text transform="matrix(1 0 0 1 720.7085 506.2715)" style="font-family:'Arial'; font-size:6px;">2</text>
      <text transform="matrix(1 0 0 1 676.4814 495.6416)" style="font-family:'Arial'; font-size:6px;">60A  FAN NO.1</text>
      <text transform="matrix(1 0 0 1 760.5996 514.7754)" style="font-family:'Arial'; font-size:6px;">10</text>
    </g><g ewd:figtype="rb" ewd:code="FUSE122" ewd:figID="42">
      <path style="fill:none;stroke:#000000;stroke-width:0.85;" d="M 754.01,555.59 L 718.58, 555.59" />
      <path style="fill:none;stroke:#000000;stroke-width:0.85;" d="M 718.58,555.59 L 711.49, 555.59" />
      <path style="fill:none;stroke:#000000;stroke-width:0.85;" d="M 683.15,555.59 L 676.06, 555.59" />
      <path style="fill:none;stroke:#000000;stroke-width:0.85;" d="M 676.06,555.59 L 615.12, 555.59" />
      <path style="fill:none;stroke:#000000;stroke-width:1.417;" d="M 709.07,554.58 C 709.07 554.58 702.94 545.08 693.77 555.46 C 690.08 559.64 685.56 556.59 685.56 556.59" />
      <path style="fill:none;stroke:#000000;stroke-width:1.417;" d="M 685.57,556.59 C 685.57 556.59 691.7 566.09 700.87 555.71 C 704.56 551.53 709.08 554.58 709.08 554.58" />
      <path style="fill:none;stroke:#000000;stroke-width:0.85;stroke-linecap:round;stroke-linejoin:round;" d="M 711.49,555.59 C 711.49 554.81 710.86 554.17 710.07 554.17 C 709.29 554.17 708.65 554.8 708.65 555.59 C 708.65 556.3701 709.28 557.01 710.07 557.01 C 710.86 557.01 711.49 556.37 711.49 555.59" />
      <path style="fill:none;stroke:#000000;stroke-width:0.85;stroke-linecap:round;stroke-linejoin:round;" d="M 685.98,555.59 C 685.98 554.81 685.35 554.17 684.56 554.17 C 683.769995117187 554.169965820313 683.14 554.8 683.14 555.59 C 683.14 556.3701 683.77 557.01 684.56 557.01 C 685.349995117188 557.01001953125 685.98 556.37 685.98 555.59" />
      <path style="fill:none;stroke:#000000;stroke-width:1.417;" d="M 685.57,556.59 C 685.57 556.59 690.25 562.66 697.32 555.59 C 704.39 548.52 709.07 554.59 709.07 554.59" />
      <path style="fill:none;stroke:#000000;stroke-width:1.417;stroke-linecap:round;stroke-linejoin:round;" d="M 718.58,542.83 L 676.06, 542.83 L 676.06, 568.34 L 718.58, 568.34 L 718.58, 542.83" />
      <path d="M 754.01,555.59 L 751.18, 552.76 L 748.34, 552.76 L 751.1801, 555.59 L 748.3401, 558.42 L 751.1701, 558.42 L 754.01, 555.59" style="stroke-linecap:round;stroke-linejoin:round;" />
      <path style="fill:none;stroke:#000000;stroke-width:0.85;stroke-linecap:round;stroke-linejoin:round;" d="M 768.19,561.26 C 771.32 561.26 773.86 558.72 773.86 555.59 C 773.86 552.46 771.32 549.92 768.19 549.92 L 759.69, 549.92 C 756.56 549.92 754.02 552.46 754.02 555.59 C 754.02 558.72 756.56 561.26 759.69 561.26 L 768.19, 561.26" />
      <text transform="matrix(1 0 0 1 670.6001 548.791)" style="font-family:'Arial'; font-size:6px;">1</text>
      <text transform="matrix(1 0 0 1 720.7085 548.791)" style="font-family:'Arial'; font-size:6px;">2</text>
      <text transform="matrix(1 0 0 1 676.4814 538.1611)" style="font-family:'Arial'; font-size:6px;">60A  FAN NO.2</text>
      <text transform="matrix(1 0 0 1 760.5996 557.2949)" style="font-family:'Arial'; font-size:6px;">10</text>
    </g><g ewd:figtype="rb" ewd:code="FUSE124" ewd:figID="43">
      <path style="fill:none;stroke:#000000;stroke-width:0.85;" d="M 637.79,598.11 L 676.06, 598.11" />
      <path style="fill:none;stroke:#000000;stroke-width:0.85;" d="M 676.06,598.11 L 683.15, 598.11" />
      <path style="fill:none;stroke:#000000;stroke-width:0.85;" d="M 711.49,598.11 L 718.58, 598.11" />
      <path style="fill:none;stroke:#000000;stroke-width:0.85;" d="M 718.58,598.11 L 754.01, 598.11" />
      <path style="fill:none;stroke:#000000;stroke-width:1.417;" d="M 709.07,597.1 C 709.07 597.1 702.94 587.6 693.77 597.98 C 690.08 602.16 685.56 599.11 685.56 599.11" />
      <path style="fill:none;stroke:#000000;stroke-width:1.417;" d="M 685.57,599.11 C 685.57 599.11 691.7 608.61 700.87 598.23 C 704.56 594.05 709.08 597.1 709.08 597.1" />
      <path style="fill:none;stroke:#000000;stroke-width:0.85;stroke-linecap:round;stroke-linejoin:round;" d="M 711.49,598.11 C 711.49 597.33 710.86 596.69 710.07 596.69 C 709.29 596.69 708.65 597.32 708.65 598.11 C 708.65 598.89 709.28 599.53 710.07 599.53 C 710.86 599.53 711.49 598.89 711.49 598.11" />
      <path style="fill:none;stroke:#000000;stroke-width:0.85;stroke-linecap:round;stroke-linejoin:round;" d="M 685.98,598.11 C 685.98 597.33 685.35 596.69 684.56 596.69 C 683.769995117187 596.690004882812 683.14 597.32 683.14 598.11 C 683.14 598.89 683.77 599.53 684.56 599.53 C 685.349995117188 599.53005859375 685.98 598.89 685.98 598.11" />
      <path style="fill:none;stroke:#000000;stroke-width:1.417;" d="M 685.57,599.11 C 685.57 599.11 690.25 605.18 697.32 598.11 C 704.39 591.04 709.07 597.11 709.07 597.11" />
      <path style="fill:none;stroke:#000000;stroke-width:1.417;stroke-linecap:round;stroke-linejoin:round;" d="M 718.58,585.35 L 676.06, 585.35 L 676.06, 610.86 L 718.58, 610.86 L 718.58, 585.35" />
      <path d="M 754.01,598.11 L 751.18, 595.28 L 748.34, 595.28 L 751.1801, 598.11 L 748.3401, 600.94 L 751.1701, 600.94 L 754.01, 598.11" style="stroke-linecap:round;stroke-linejoin:round;" />
      <path style="fill:none;stroke:#000000;stroke-width:0.85;stroke-linecap:round;stroke-linejoin:round;" d="M 768.19,603.78 C 771.32 603.78 773.86 601.2401 773.86 598.11 C 773.86 594.98 771.32 592.44 768.19 592.44 L 759.69, 592.44 C 756.56 592.44 754.02 594.98 754.02 598.11 C 754.02 601.24 756.56 603.78 759.69 603.78 L 768.19, 603.78" />
      <text transform="matrix(1 0 0 1 670.6001 591.3115)" style="font-family:'Arial'; font-size:6px;">1</text>
      <text transform="matrix(1 0 0 1 720.7085 591.3115)" style="font-family:'Arial'; font-size:6px;">2</text>
      <text transform="matrix(1 0 0 1 681.1499 580.6807)" style="font-family:'Arial'; font-size:6px;">80A  GLOW</text>
      <text transform="matrix(1 0 0 1 760.5996 599.8154)" style="font-family:'Arial'; font-size:6px;">10</text>
    </g><g ewd:figtype="rb" ewd:code="FUSE127" ewd:figID="44">
      <path d="M 850.39,642.04 C 851.17 642.04 851.81 641.41 851.81 640.62 C 851.809995117188 639.829990234375 851.18 639.2 850.39 639.2 C 849.600029296875 639.200024414062 848.97 639.83 848.97 640.62 C 848.96994140625 641.409990234375 849.61 642.04 850.39 642.04" style="stroke-linecap:round;stroke-linejoin:round;" />
      <path style="fill:none;stroke:#000000;stroke-width:0.85;" d="M 676.06,640.63 L 683.15, 640.63" />
      <path style="fill:none;stroke:#000000;stroke-width:0.85;" d="M 711.49,640.63 L 718.58, 640.63" />
      <path style="fill:none;stroke:#000000;stroke-width:0.85;" d="M 718.58,640.63 L 966.61, 640.63" />
      <path style="fill:none;stroke:#000000;stroke-width:1.417;" d="M 709.07,639.62 C 709.07 639.62 702.94 630.12 693.77 640.5 C 690.08 644.68 685.56 641.63 685.56 641.63" />
      <path style="fill:none;stroke:#000000;stroke-width:1.417;" d="M 685.57,641.63 C 685.57 641.63 691.7 651.13 700.87 640.75 C 704.56 636.57 709.08 639.62 709.08 639.62" />
      <path style="fill:none;stroke:#000000;stroke-width:0.85;stroke-linecap:round;stroke-linejoin:round;" d="M 711.49,640.63 C 711.49 639.85 710.86 639.21 710.07 639.21 C 709.29 639.21 708.65 639.84 708.65 640.63 C 708.650048828125 641.420009765625 709.28 642.05 710.07 642.05 C 710.86 642.04 711.49 641.41 711.49 640.63" />
      <path style="fill:none;stroke:#000000;stroke-width:0.85;stroke-linecap:round;stroke-linejoin:round;" d="M 685.98,640.63 C 685.98 639.85 685.35 639.21 684.56 639.21 C 683.769995117187 639.210043945312 683.14 639.84 683.14 640.63 C 683.140029296875 641.420009765625 683.77 642.05 684.56 642.05 C 685.349995117188 642.049975585938 685.98 641.41 685.98 640.63" />
      <path style="fill:none;stroke:#000000;stroke-width:1.417;" d="M 685.57,641.63 C 685.57 641.63 690.25 647.7 697.32 640.63 C 704.390014648438 633.560009765625 709.07 639.63 709.07 639.63" />
      <path style="fill:none;stroke:#000000;stroke-width:1.417;stroke-linecap:round;stroke-linejoin:round;" d="M 718.58,627.87 L 676.06, 627.87 L 676.06, 653.38 L 718.58, 653.38 L 718.58, 627.87" />
      <path d="M 966.61,640.63 L 963.77, 637.8 L 960.94, 637.8 L 963.77, 640.63 L 960.94, 643.46 L 963.77, 643.46 L 966.61, 640.63" style="stroke-linecap:round;stroke-linejoin:round;" />
      <path style="fill:none;stroke:#000000;stroke-width:0.85;stroke-linecap:round;stroke-linejoin:round;" d="M 980.79,646.3 C 983.92 646.3 986.46 643.76 986.46 640.63 C 986.46 637.5 983.92 634.96 980.79 634.96 L 972.29, 634.96 C 969.16 634.96 966.62 637.5 966.62 640.63 C 966.62 643.76 969.16 646.3 972.29 646.3 L 980.79, 646.3" />
      <text transform="matrix(1 0 0 1 670.6001 633.8301)" style="font-family:'Arial'; font-size:6px;">1</text>
      <text transform="matrix(1 0 0 1 720.7085 633.8301)" style="font-family:'Arial'; font-size:6px;">2</text>
      <text transform="matrix(1 0 0 1 683.1465 623.2002)" style="font-family:'Arial'; font-size:6px;">150A  ALT</text>
      <text transform="matrix(1 0 0 1 973.1978 642.334)" style="font-family:'Arial'; font-size:6px;">10</text>
    </g><g ewd:figtype="w2w" ewd:code="HB2" ewd:pin_no="1" ewd:figID="75">
      <path style="fill:#FFFFFF;stroke:#FFFFFF;stroke-width:0;stroke-linecap:round;stroke-linejoin:round;" d="M 679.43,41.1 L 683.68, 45.35 L 679.43, 49.6 L 685.98, 49.6 L 685.98, 41.1 L 679.43, 41.1" />
      <path style="fill:#FFFFFF;stroke:#FFFFFF;stroke-width:0;stroke-linecap:round;stroke-linejoin:round;" d="M 676.6,41.1 L 680.85, 45.35 L 676.6, 49.6 L 683.15, 49.6 L 683.15, 41.1 L 676.6, 41.1" />
      <path style="fill:none;stroke:#000000;stroke-width:0.85;" d="M 678.9,41.1 L 683.15, 45.35 L 678.9, 49.6" />
      <path style="fill:none;stroke:#000000;stroke-width:0.85;" d="M 681.73,41.1 L 685.98, 45.35 L 681.73, 49.6" />
      <path style="fill:none;stroke:#000000;stroke-width:0.85;stroke-linecap:round;stroke-linejoin:round;" d="M 685.98,49.6 L 685.98, 41.1 L 705.82, 41.1 L 705.82, 49.6 L 685.98, 49.6" />
      <text transform="matrix(1 0 0 1 694.2378 38.9097)" style="font-family:'Arial'; font-size:6px;">1</text>
    </g><g ewd:figtype="rb" ewd:code="FUSE189" ewd:figID="12">
      <path style="fill:none;stroke:#000000;stroke-width:0.85;" d="M 272.13,215.43 L 310.4, 215.43" />
      <path style="fill:none;stroke:#000000;stroke-width:0.85;" d="M 310.39,215.43 L 317.48, 215.43" />
      <path style="fill:none;stroke:#000000;stroke-width:0.85;" d="M 345.83,215.43 L 352.92, 215.43" />
      <path style="fill:none;stroke:#000000;stroke-width:0.85;" d="M 352.91,215.43 L 388.34, 215.43" />
      <path style="fill:none;stroke:#000000;stroke-width:0.85;stroke-linecap:round;stroke-linejoin:round;" d="M 345.83,215.43 C 345.83 214.65 345.2 214.01 344.41 214.01 C 343.63 214.01 342.99 214.64 342.99 215.43 C 342.98998046875 216.219985351563 343.62 216.85 344.41 216.85 C 345.19 216.85 345.83 216.21 345.83 215.43" />
      <path style="fill:none;stroke:#000000;stroke-width:0.85;stroke-linecap:round;stroke-linejoin:round;" d="M 320.31,215.43 C 320.31 214.65 319.68 214.01 318.89 214.01 C 318.100029296875 214.009989013672 317.47 214.64 317.47 215.43 C 317.470002441406 216.219985351563 318.1 216.85 318.89 216.85 C 319.680029296875 216.850012207031 320.31 216.21 320.31 215.43" />
      <path style="fill:none;stroke:#000000;stroke-width:1.417;" d="M 319.9,216.43 C 319.9 216.43 324.58 222.5 331.65 215.43 C 338.72 208.36 343.4 214.43 343.4 214.43" />
      <path style="fill:none;stroke:#000000;stroke-width:1.417;stroke-linecap:round;stroke-linejoin:round;" d="M 352.91,202.68 L 310.39, 202.68 L 310.39, 228.19 L 352.91, 228.19 L 352.91, 202.68" />
      <path d="M 388.35,215.43 L 385.52, 212.6 L 382.68, 212.6 L 385.52, 215.43 L 382.68, 218.26 L 385.51, 218.26 L 388.35, 215.43" style="stroke-linecap:round;stroke-linejoin:round;" />
      <path style="fill:none;stroke:#000000;stroke-width:0.85;stroke-linecap:round;stroke-linejoin:round;" d="M 402.52,221.1 C 405.65 221.1 408.19 218.56 408.19 215.43 C 408.19 212.3 405.65 209.76 402.52 209.76 L 394.02, 209.76 C 390.89 209.76 388.35 212.3 388.35 215.43 C 388.35 218.56 390.89 221.1 394.02 221.1 L 402.52, 221.1" />
      <text transform="matrix(1 0 0 1 304.9307 208.6338)" style="font-family:'Arial'; font-size:6px;">1</text>
      <text transform="matrix(1 0 0 1 355.0386 208.6338)" style="font-family:'Arial'; font-size:6px;">2</text>
      <text transform="matrix(1 0 0 1 305.3135 198.0034)" style="font-family:'Arial'; font-size:6px;">15A  AIR PMP HTR</text>
      <text transform="matrix(1 0 0 1 394.9302 217.1377)" style="font-family:'Arial'; font-size:6px;">11</text>
    </g><g ewd:figtype="annex" ewd:code="" ewd:figID="1317">
      <path style="fill:none;stroke:#000000;stroke-width:0.85;" d="M 442.2,464.88 C 442.2 464.88 438.95 467.7 442.2 470.55 C 445.45 473.4 442.2 476.22 442.2 476.22" />
    </g><g ewd:figtype="annex" ewd:code="" ewd:figID="1318">
      <path style="fill:none;stroke:#000000;stroke-width:0.85;" d="M 442.2,422.36 C 442.2 422.36 438.95 425.18 442.2 428.03 C 445.45 430.88 442.2 433.7 442.2 433.7" />
    </g><g ewd:figtype="annex" ewd:code="" ewd:figID="1319">
      <path style="fill:none;stroke:#000000;stroke-width:0.85;" d="M 442.2,379.84 C 442.2 379.84 438.95 382.66 442.2 385.51 C 445.450024414063 388.36001953125 442.2 391.18 442.2 391.18" />
    </g><g ewd:figtype="annex" ewd:code="" ewd:figID="1322">
      <path style="fill:none;stroke:#000000;stroke-width:0.85;" d="M 442.2,209.76 C 442.2 209.76 438.95 212.58 442.2 215.43 C 445.450024414063 218.279985351562 442.2 221.1 442.2 221.1" />
    </g><g ewd:figtype="annex" ewd:code="" ewd:figID="1323">
      <path style="fill:none;stroke:#000000;stroke-width:0.85;" d="M 442.2,167.24 C 442.2 167.24 438.95 170.06 442.2 172.91 C 445.450024414063 175.760007324219 442.2 178.58 442.2 178.58" />
    </g><g ewd:figtype="annex" ewd:code="" ewd:figID="1325">
      <path style="fill:none;stroke:#000000;stroke-width:0.85;" d="M 442.2,252.28 C 442.2 252.28 438.95 255.1 442.2 257.95 C 445.450024414063 260.800024414062 442.2 263.62 442.2 263.62" />
    </g><g ewd:figtype="rb" ewd:code="" ewd:figID="1345">
      <path d="M 615.12,555.59 L 617.96, 552.76 L 620.79, 552.76 L 617.96, 555.59 L 620.79, 558.4301 L 617.96, 558.4301 L 615.12, 555.59" style="stroke-linecap:round;stroke-linejoin:round;" />
      <path style="fill:none;stroke:#000000;stroke-width:0.85;stroke-linecap:round;stroke-linejoin:round;" d="M 609.45,561.26 C 612.58 561.26 615.12 558.72 615.12 555.59 C 615.12 552.46 612.58 549.92 609.45 549.92 L 600.95, 549.92 C 597.82 549.92 595.28 552.46 595.28 555.59 C 595.28 558.72 597.82 561.26 600.95 561.26 L 609.45, 561.26" />
      <text transform="matrix(1 0 0 1 601.8599 557.2949)" style="font-family:'Arial'; font-size:6px;">10</text>
    </g><g ewd:figtype="comment" ewd:code="5" ewd:figID="1053">
      <text transform="matrix(1 0 0 1 289.1641 679.8955)" style="font-family:'Arial'; font-size:6px;" ewd:textID="11">*5 : Halogen Headlight Type</text>
    </g><g ewd:figtype="comment" ewd:code="14" ewd:figID="1052">
      <text transform="matrix(1 0 0 1 289.1641 688.3994)" style="font-family:'Arial'; font-size:6px;" ewd:textID="3">*14 : Diesel w/o Entry and Start System</text>
    </g><g ewd:figtype="comment" ewd:code="15" ewd:figID="1051">
      <text transform="matrix(1 0 0 1 289.1641 696.9033)" style="font-family:'Arial'; font-size:6px;" ewd:textID="4">*15 : Gasoline w/o Entry and Start System</text>
    </g><g ewd:figtype="comment" ewd:code="4" ewd:figID="1050">
      <text transform="matrix(1 0 0 1 289.1641 671.3916)" style="font-family:'Arial'; font-size:6px;" ewd:textID="10">*4 : w/ Entry and Start System</text>
    </g><g ewd:figtype="comment" ewd:code="2" ewd:figID="1049">
      <text transform="matrix(1 0 0 1 289.1641 662.8877)" style="font-family:'Arial'; font-size:6px;" ewd:textID="7">*2 : Refrigerator Van Type</text>
    </g><g ewd:figtype="comment" ewd:code="1" ewd:figID="1048">
      <text transform="matrix(1 0 0 1 289.1641 654.3828)" style="font-family:'Arial'; font-size:6px;" ewd:textID="1">*1 : Except Refrigerator Van Type</text>
    </g><g ewd:figtype="comment" ewd:code="6" ewd:figID="1042">
      <text transform="matrix(1 0 0 1 646.3296 705.4072)" style="font-family:'Arial'; font-size:6px;">*6 : 1TR-FE, 2TR-FE</text>
    </g><g ewd:figtype="comment" ewd:code="5" ewd:figID="1041">
      <text transform="matrix(1 0 0 1 646.3296 696.9033)" style="font-family:'Arial'; font-size:6px;" ewd:textID="11">*5 : Halogen Headlight Type</text>
    </g><g ewd:figtype="comment" ewd:code="4" ewd:figID="1040">
      <text transform="matrix(1 0 0 1 646.3296 688.3994)" style="font-family:'Arial'; font-size:6px;" ewd:textID="10">*4 : w/ Entry and Start System</text>
    </g><g ewd:figtype="comment" ewd:code="3" ewd:figID="1039">
      <text transform="matrix(1 0 0 1 646.3296 679.8955)" style="font-family:'Arial'; font-size:6px;" ewd:textID="9">*3 : w/o Entry and Start System</text>
    </g><g ewd:figtype="comment" ewd:code="2" ewd:figID="1038">
      <text transform="matrix(1 0 0 1 646.3296 671.3916)" style="font-family:'Arial'; font-size:6px;" ewd:textID="7">*2 : Refrigerator Van Type</text>
    </g><g ewd:figtype="comment" ewd:code="1" ewd:figID="1037">
      <text transform="matrix(1 0 0 1 646.3296 662.8867)" style="font-family:'Arial'; font-size:6px;" ewd:textID="1">*1 : Except Refrigerator Van Type</text>
    </g><path d="M 637.79,599.53 C 638.57 599.53 639.21 598.9 639.21 598.11 C 639.21 597.33 638.58 596.69 637.79 596.69 C 636.999956054687 596.690004882812 636.37 597.32 636.37 598.11 C 636.38 598.89 637.01 599.53 637.79 599.53" style="stroke-linecap:round;stroke-linejoin:round;" /><path d="M 637.79,557.01 C 638.57 557.01 639.21 556.37 639.21 555.59 C 639.21 554.81 638.58 554.17 637.79 554.17 C 636.999956054687 554.169965820313 636.37 554.8 636.37 555.59 C 636.38 556.37 637.01 557.01 637.79 557.01" style="stroke-linecap:round;stroke-linejoin:round;" /><path d="M 637.79,514.49 C 638.57 514.49 639.21 513.86 639.21 513.07 C 639.210043945312 512.280014648437 638.58 511.65 637.79 511.65 C 636.999956054687 511.649987792969 636.37 512.28 636.37 513.07 C 636.369990234375 513.860014648438 637.01 514.49 637.79 514.49" style="stroke-linecap:round;stroke-linejoin:round;" /><path d="M 637.79,216.85 C 638.57 216.85 639.21 216.22 639.21 215.43 C 639.210043945312 214.639985351563 638.58 214.01 637.79 214.01 C 636.999956054687 214.009989013672 636.37 214.64 636.37 215.43 C 636.369990234375 216.219985351563 637.01 216.85 637.79 216.85" style="stroke-linecap:round;stroke-linejoin:round;" /><path d="M 637.79,259.37 C 638.57 259.37 639.21 258.74 639.21 257.95 C 639.21 257.17 638.58 256.53 637.79 256.53 C 636.999956054687 256.529997558594 636.37 257.16 636.37 257.95 C 636.38 258.73 637.01 259.37 637.79 259.37" style="stroke-linecap:round;stroke-linejoin:round;" /><path d="M 637.79,301.89 C 638.57 301.89 639.21 301.26 639.21 300.47 C 639.210043945312 299.680002441406 638.58 299.05 637.79 299.05 C 636.999956054687 299.049975585937 636.37 299.68 636.37 300.47 C 636.369990234375 301.260002441406 637.01 301.89 637.79 301.89" style="stroke-linecap:round;stroke-linejoin:round;" /><path d="M 637.79,344.41 C 638.57 344.41 639.21 343.78 639.21 342.99 C 639.210043945312 342.19998046875 638.58 341.57 637.79 341.57 C 636.999956054687 341.570014648438 636.37 342.2 636.37 342.99 C 636.369990234375 343.77998046875 637.01 344.41 637.79 344.41" style="stroke-linecap:round;stroke-linejoin:round;" /><path d="M 637.79,471.97 C 638.57 471.97 639.21 471.34 639.21 470.55 C 639.21 469.77 638.58 469.13 637.79 469.13 C 636.999956054687 469.130009765625 636.37 469.76 636.37 470.55 C 636.38 471.33 637.01 471.97 637.79 471.97" style="stroke-linecap:round;stroke-linejoin:round;" /><path d="M 637.79,386.93 C 638.57 386.93 639.21 386.3 639.21 385.51 C 639.21 384.73 638.58 384.09 637.79 384.09 C 636.999956054687 384.089992675781 636.37 384.72 636.37 385.51 C 636.38 386.29 637.01 386.93 637.79 386.93" style="stroke-linecap:round;stroke-linejoin:round;" /><path d="M 637.79,429.45 C 638.57 429.45 639.21 428.82 639.21 428.03 C 639.21 427.25 638.58 426.61 637.79 426.61 C 636.999956054687 426.609970703125 636.37 427.24 636.37 428.03 C 636.38 428.81 637.01 429.45 637.79 429.45" style="stroke-linecap:round;stroke-linejoin:round;" /><path d="M 272.13,46.77 C 272.91 46.77 273.55 46.14 273.55 45.35 C 273.549975585937 44.5599969482422 272.92 43.93 272.13 43.93 C 271.340009765625 43.9300006103516 270.71 44.56 270.71 45.35 C 270.709982910156 46.1399969482422 271.34 46.77 272.13 46.77" style="stroke-linecap:round;stroke-linejoin:round;" /><path d="M 272.13,89.29 C 272.91 89.29 273.55 88.66 273.55 87.87 C 273.55 87.09 272.92 86.45 272.13 86.45 C 271.340009765625 86.4499938964844 270.71 87.07999 270.71 87.87 C 270.71 88.66 271.34 89.29 272.13 89.29" style="stroke-linecap:round;stroke-linejoin:round;" /><path d="M 272.13,131.81 C 272.91 131.81 273.55 131.18 273.55 130.39 C 273.55 129.61 272.92 128.97 272.13 128.97 C 271.340009765625 128.970002441406 270.71 129.6 270.71 130.39 C 270.71 131.17 271.34 131.81 272.13 131.81" style="stroke-linecap:round;stroke-linejoin:round;" /><path d="M 272.13,216.85 C 272.91 216.85 273.55 216.22 273.55 215.43 C 273.549975585937 214.639985351563 272.92 214.01 272.13 214.01 C 271.340009765625 214.009989013672 270.71 214.64 270.71 215.43 C 270.709982910156 216.219985351563 271.34 216.85 272.13 216.85" style="stroke-linecap:round;stroke-linejoin:round;" /><path d="M 272.13,174.33 C 272.91 174.33 273.55 173.7 273.55 172.91 C 273.549975585937 172.120007324219 272.92 171.49 272.13 171.49 C 271.340009765625 171.490010986328 270.71 172.12 270.71 172.91 C 270.709982910156 173.700007324219 271.34 174.33 272.13 174.33" style="stroke-linecap:round;stroke-linejoin:round;" /><path d="M 272.13,429.45 C 272.91 429.45 273.55 428.82 273.55 428.03 C 273.55 427.25 272.92 426.61 272.13 426.61 C 271.340009765625 426.609970703125 270.71 427.24 270.71 428.03 C 270.71 428.81 271.34 429.45 272.13 429.45" style="stroke-linecap:round;stroke-linejoin:round;" /><path d="M 272.13,471.97 C 272.91 471.97 273.55 471.34 273.55 470.55 C 273.55 469.77 272.92 469.13 272.13 469.13 C 271.340009765625 469.130009765625 270.71 469.76 270.71 470.55 C 270.71 471.33 271.34 471.97 272.13 471.97" style="stroke-linecap:round;stroke-linejoin:round;" /><path style="fill:none;stroke:#000000;stroke-width:0.85;" d="M 676.06,172.91 L 637.79, 172.91 L 637.79, 640.63 L 676.06, 640.63" /><text transform="matrix(1 0 0 1 422.3647 168.9487)" style="font-family:'Arial'; font-size:6px;">W</text><text transform="matrix(1 0 0 1 422.8628 211.4683)" style="font-family:'Arial'; font-size:6px;">G</text><text transform="matrix(1 0 0 1 555.2627 41.3896)" style="font-family:'Arial'; font-size:6px;">W-R</text><text transform="matrix(1 0 0 1 423.5278 381.5469)" style="font-family:'Arial'; font-size:6px;">L</text><text transform="matrix(1 0 0 1 423.0298 424.0664)" style="font-family:'Arial'; font-size:6px;">R</text><text transform="matrix(1 0 0 1 423.0298 466.5869)" style="font-family:'Arial'; font-size:6px;">R</text><text transform="matrix(1 0 0 1 487.231 62.6494)" style="font-family:'Arial'; font-size:6px;">W-R</text><text transform="matrix(1 0 0 1 422.3647 253.9883)" style="font-family:'Arial'; font-size:6px;">W</text><text transform="matrix(1 0 0 1 640.3018 62.6494)" style="font-family:'Arial'; font-size:6px;">W-R</text><text transform="matrix(1 0 0 1 488.394 137.7681)" style="font-family:'Arial'; font-size:6px;">(*5)</text><text transform="matrix(1 0 0 1 556.4263 137.7681)" style="font-family:'Arial'; font-size:6px;">(*5)</text><text transform="matrix(1 0 0 1 488.394 95.248)" style="font-family:'Arial'; font-size:6px;">(*4)</text><text transform="matrix(1 0 0 1 556.4263 95.248)" style="font-family:'Arial'; font-size:6px;">(*4)</text><text transform="matrix(1 0 0 1 486.7256 52.7285)" style="font-family:'Arial'; font-size:6px;">(*14)</text><text transform="matrix(1 0 0 1 554.7578 52.7285)" style="font-family:'Arial'; font-size:6px;">(*14)</text><text transform="matrix(1 0 0 1 488.394 562.9648)" style="font-family:'Arial'; font-size:6px;">(*1)</text><text transform="matrix(1 0 0 1 556.4253 562.9648)" style="font-family:'Arial'; font-size:6px;">(*1)</text><text transform="matrix(1 0 0 1 488.394 630.9961)" style="font-family:'Arial'; font-size:6px;">(*2)</text><text transform="matrix(1 0 0 1 556.4253 630.9961)" style="font-family:'Arial'; font-size:6px;">(*2)</text><text transform="matrix(1 0 0 1 639.7969 73.9883)" style="font-family:'Arial'; font-size:6px;">(*15)</text><text transform="matrix(1 0 0 1 486.7256 73.9883)" style="font-family:'Arial'; font-size:6px;">(*15)</text><text transform="matrix(1 0 0 1 554.7578 73.9883)" style="font-family:'Arial'; font-size:6px;">(*15)</text><text transform="matrix(1 0 0 1 555.2627 126.4292)" style="font-family:'Arial'; font-size:6px;">W-R</text><text transform="matrix(1 0 0 1 559.5913 83.9097)" style="font-family:'Arial'; font-size:6px;">L</text><text transform="matrix(1 0 0 1 487.231 126.4292)" style="font-family:'Arial'; font-size:6px;">W-R</text><text transform="matrix(1 0 0 1 491.5596 83.9097)" style="font-family:'Arial'; font-size:6px;">L</text><text transform="matrix(1 0 0 1 487.231 41.3896)" style="font-family:'Arial'; font-size:6px;">W-R</text><text transform="matrix(1 0 0 1 558.4282 551.626)" style="font-family:'Arial'; font-size:6px;">W</text><text transform="matrix(1 0 0 1 490.397 551.626)" style="font-family:'Arial'; font-size:6px;">W</text><text transform="matrix(1 0 0 1 558.4282 619.6572)" style="font-family:'Arial'; font-size:6px;">W</text><text transform="matrix(1 0 0 1 490.397 619.6572)" style="font-family:'Arial'; font-size:6px;">W</text><text transform="matrix(1 0 0 1 555.2627 62.6494)" style="font-family:'Arial'; font-size:6px;">W-R</text></svg>