﻿<?xml version="1.0" encoding="utf-8"?>
<!DOCTYPE svg PUBLIC "-//W3C//DTD SVG 1.0//EN" "http://www.w3.org/TR/2001/REC-SVG-20010904/DTD/svg10.dtd"[
	<!ENTITY ns_flows "http://ns.adobe.com/Flows/1.0/">
	<!ENTITY ns_svg "http://www.w3.org/2000/svg">
	<!ENTITY ns_xlink "http://www.w3.org/1999/xlink">
	<!ENTITY st0 "font-size:7px;font-family:'MS-PGothic';adobe-font-script:japanese;">
	<!ENTITY st1 "font-size:6px;font-family:'ArialMT';">
	<!-- White fill  -->
	<!ENTITY st2 "fill:#FFFFFF;stroke:#000000; stroke-width:1.41;stroke-linecap:round;stroke-linejoin:round;">
	<!-- Yellow fill  -->
	<!ENTITY st3 "fill:#FFFFCC;stroke:#FFFFCC; stroke-width:0.1;stroke-linecap:round;stroke-linejoin:round;">
	<!-- Gray fill  -->
	<!ENTITY st4 "fill:#CCCCCC;stroke:#CCCCCC; stroke-width:0.1;stroke-linecap:round;stroke-linejoin:round;">
	<!-- Light-blue fill -->
	<!ENTITY st5 "fill:#CCECF4;stroke:#000000; stroke-width:1.133;stroke-linecap:round;stroke-linejoin:round;">
	<!ENTITY st6 "fill:none;stroke-linecap:butt; stroke-linejoin:round;">
	<!ENTITY st7 "fill:none;stroke:#000000;stroke-linecap:round;stroke-linejoin:round;">
	<!ENTITY st8 "enable-background:new    ;">
	<!-- Black fill -->
	<!ENTITY st9 "fill:#000000;stroke:#000000; stroke-linecap:round;stroke-linejoin:round;">
	<!-- SRS note   -->
	<!ENTITY st10 "font-size:9px;font-family:'ArialMT';">
	<!ENTITY st11 "font-size:9px;font-family:'Svg Symbol';">
	<!ENTITY st12 "font-size:6px;font-family:'Svg Symbol';">
	<!ENTITY st13 "fill:none;stroke:#ff0000;stroke-linecap:round;stroke-linejoin:round;">
	<!-- Yellow fill  -->
	<!ENTITY st14 "fill:#FFFF00;stroke:#FFFF00; stroke-width:0.1;stroke-linecap:round;stroke-linejoin:round;">
	<!ENTITY st15 "font-size:6px;font-family:'MS-PGothic';adobe-font-script:japanese;">
	<!ENTITY st16 "1.00 0.00 0.00 1.00">
	<!ENTITY st17 "0.00 -1.00 1.00 0.00">
	<!ENTITY st18 "font-size:6px;font-family:'Arial';">
	<!ENTITY st19 "font-size:9px;font-family:'Arial';">
	<!ENTITY st20 "font-size:6px;font-family:'MS-PGothic','MS PGothic';adobe-font-script:japanese;">
	<!ENTITY st21 "font-size:7px;font-family:'MS-PGothic','MS PGothic';adobe-font-script:japanese;">
	<!ATTLIST svg
		xmlns:ewd CDATA #FIXED "http://shcl.co.jp/ewd"
		xmlns:a CDATA #FIXED "http://ns.adobe.com/AdobeSVGViewerExtensions/3.0/"
		ewd:ver CDATA #IMPLIED
	>
	<!ATTLIST a
		ewd:lineID CDATA #IMPLIED
		ewd:groupID CDATA #IMPLIED
		ewd:figtype CDATA #IMPLIED
		ewd:code CDATA #IMPLIED
		ewd:figID CDATA #IMPLIED
		ewd:pinNo CDATA #IMPLIED
		ewd:comment CDATA #IMPLIED >
	<!ATTLIST g
		ewd:lineID CDATA #IMPLIED
		ewd:groupID CDATA #IMPLIED
		ewd:figtype CDATA #IMPLIED
		ewd:code CDATA #IMPLIED
		ewd:figID CDATA #IMPLIED
		ewd:pinNo CDATA #IMPLIED
		ewd:comment CDATA #IMPLIED >
	<!ATTLIST text
		ewd:textID CDATA #IMPLIED >
	<!ATTLIST title
		ewd:textID CDATA #IMPLIED >
]>
<!-- Generator: Shintec Hozumi YS   -->
<svg onload="call_execInitLoadProc_svg('system')" style="overflow:visible;  enable-background:new 0 0 506.274 710.000" viewBox="0 0 506.274 710.000" height="710.000" width="506.274" xml:space="preserve" ewd:ver="L2.1.2.5" xmlns="&ns_svg;" xmlns:a="http://ns.adobe.com/AdobeSVGViewerExtensions/3.0/" xmlns:ewd="http://shcl.co.jp/ewd" xmlns:xlink="&ns_xlink;">
<path d=" M  206.09,  528.70  L  201.84,  528.70 " style="stroke-width: 1.42 ;&st7; " /><path d=" M  206.09,  477.71  L  201.84,  477.71 " style="stroke-width: 1.42 ;&st7; " /><path d=" M  206.09,  486.20  L  201.84,  486.20 " style="stroke-width: 1.42 ;&st7; " /><path d=" M  206.09,  520.20  L  201.84,  520.20 " style="stroke-width: 1.42 ;&st7; " /><path d=" M  155.10,  486.20  L  150.85,  486.20 " style="stroke-width: 1.42 ;&st7; " /><path d=" M  155.10,  477.71  L  150.85,  477.71 " style="stroke-width: 1.42 ;&st7; " /><path d=" M  121.10,  528.70  L  116.86,  528.70 " style="stroke-width: 1.42 ;&st7; " /><path d=" M  121.10,  520.20  L  116.86,  520.20 " style="stroke-width: 1.42 ;&st7; " /><path d=" M  121.10,  486.20  L  116.86,  486.20 " style="stroke-width: 1.42 ;&st7; " /><path d=" M  121.10,  477.71  L  116.86,  477.71 " style="stroke-width: 1.42 ;&st7; " /><path d=" M   33.99,  464.96  L   33.99,  477.71 " style="stroke-width: 0.85 ;&st7; " /><path d=" M   33.99,  435.21  L   33.99,  447.96 " style="stroke-width: 0.85 ;&st7; " /><path d=" M   33.99,   69.77  L   33.99,   78.27 " style="stroke-width: 0.85 ;&st7; " /><path d=" M  121.10,  171.76  L  116.86,  171.76 " style="stroke-width: 1.42 ;&st7; " /><path d=" M  121.10,  163.26  L  116.86,  163.26 " style="stroke-width: 1.42 ;&st7; " /><path d=" M   36.12,  103.77  L   31.87,  103.77 " style="stroke-width: 1.42 ;&st7; " /><path d=" M   36.12,  112.27  L   31.87,  112.27 " style="stroke-width: 1.42 ;&st7; " /><path d=" M  118.98,   69.77  L  118.98,   78.27 " style="stroke-width: 0.85 ;&st7; " /><path d=" M  297.45,  428.13  L  303.12,  405.47 " style="stroke-width: 1.42 ;&st7; " /><path d=" M  297.45,  435.21  L  297.45,  430.96 " style="stroke-width: 0.85 ;&st7; " /><path d=" M  297.45,  405.47  L  297.45,  401.22 " style="stroke-width: 0.85 ;&st7; " /><path d=" M  475.92,  171.76  L  467.42,  171.76 " style="stroke-width: 1.42 ;&st7; " /><path d=" M  467.42,  273.74  L  467.42,  269.49 " style="stroke-width: 0.85 ;&st7; " /><path d=" M  467.42,  243.99  L  467.42,  239.75 " style="stroke-width: 0.85 ;&st7; " /><path d=" M  384.56,  103.77  L  380.31,  103.77 " style="stroke-width: 1.42 ;&st7; " /><path d=" M  384.56,  112.27  L  380.31,  112.27 " style="stroke-width: 1.42 ;&st7; " /><path d=" M  427.05,  103.77  L  422.80,  103.77 " style="stroke-width: 1.42 ;&st7; " /><path d=" M  427.05,  112.27  L  422.80,  112.27 " style="stroke-width: 1.42 ;&st7; " /><path d=" M  458.92,  333.23  L  467.42,  333.23 " style="stroke-width: 1.42 ;&st7; " /><path d=" M  467.42,  266.66  L  473.09,  243.99 " style="stroke-width: 1.42 ;&st7; " /><path d=" M  384.56,  222.75  L  380.31,  222.75 " style="stroke-width: 1.42 ;&st7; " /><path d=" M  384.56,  180.26  L  380.31,  180.26 " style="stroke-width: 1.42 ;&st7; " /><path d=" M  384.56,  188.75  L  380.31,  188.75 " style="stroke-width: 1.42 ;&st7; " /><path d=" M  384.56,  231.25  L  380.31,  231.25 " style="stroke-width: 1.42 ;&st7; " /><path d=" M  467.42,   69.77  L  467.42,   78.27 " style="stroke-width: 0.85 ;&st7; " /><path d=" M  469.55,  103.77  L  465.30,  103.77 " style="stroke-width: 1.42 ;&st7; " /><path d=" M  469.55,  112.27  L  465.30,  112.27 " style="stroke-width: 1.42 ;&st7; " /><path d=" M  161.47,  256.74  L  152.97,  256.74 " style="stroke-width: 1.42 ;&st7; " /><path d=" M  365.44,  401.22  L  365.44,  409.72 " style="stroke-width: 0.85 ;&st7; " /><path d=" M  365.44,  426.71  L  365.44,  435.21 " style="stroke-width: 0.85 ;&st7; " /><path d=" M  121.10,  205.75  L  116.86,  205.75 " style="stroke-width: 1.42 ;&st7; " /><path d=" M  121.10,  214.25  L  116.86,  214.25 " style="stroke-width: 1.42 ;&st7; " /><path d=" M  121.10,  103.77  L  116.86,  103.77 " style="stroke-width: 1.42 ;&st7; " /><path d=" M  121.10,  112.27  L  116.86,  112.27 " style="stroke-width: 1.42 ;&st7; " /><path d=" M   33.99,  103.77  L   33.99,   78.27 " style="stroke-width: 0.85 ;&st7; " /><path d=" M  305.95,  435.21  L  305.95,  401.22  L  288.95,  401.22  L  288.95,  435.21  L  305.95,  435.21 " style="stroke-width: 1.42 ;&st7; " /><path d=" M  297.45,  350.23  L  297.45,  401.22 " style="stroke-width: 0.85 ;&st7; " /><path d=" M  263.46,  350.23  L  263.46,  452.21  L  297.45,  452.21  L  297.45,  435.21 " style="stroke-width: 0.85 ;&st7; " /><path d=" M  131.73,   78.27  L  131.73,   35.78  L  106.23,   35.78  L  106.23,   78.27  L  131.73,   78.27 " style="stroke-width: 1.42 ;&st7; " /><path d=" M   33.99,   98.87  L   31.16,   96.04  L   31.16,  100.29  L   33.99,  103.12  L   36.83,  100.29  L   36.83,   96.04  L   33.99,   98.87 " style="stroke-width: 0.28 ;&st9;" /><path d=" M   46.74,   78.27  L   46.74,   35.78  L   21.25,   35.78  L   21.25,   78.27  L   46.74,   78.27 " style="stroke-width: 1.42 ;&st7; " /><path d=" M   59.49,  477.71  L   59.49,  435.21  L   25.50,  435.21  L   25.50,  477.71  L   59.49,  477.71 " style="stroke-width: 1.42 ;&st7; " /><path d=" M  118.98,   98.87  L  116.15,   96.04  L  116.15,  100.29  L  118.98,  103.12  L  121.81,  100.29  L  121.81,   96.04  L  118.98,   98.87 " style="stroke-width: 0.28 ;&st9;" /><path d=" M  118.98,  520.20  L  118.98,  486.20 " style="stroke-width: 0.85 ;&st7; " /><path d=" M  118.98,  515.30  L  116.15,  512.47  L  116.15,  516.72  L  118.98,  519.55  L  121.81,  516.72  L  121.81,  512.47  L  118.98,  515.30 " style="stroke-width: 0.28 ;&st9;" /><path d=" M  118.98,  491.10  L  121.81,  493.93  L  121.81,  489.68  L  118.98,  486.85  L  116.15,  489.68  L  116.15,  493.93  L  118.98,  491.10 " style="stroke-width: 0.28 ;&st9;" /><path d=" M  152.97,  491.10  L  155.81,  493.93  L  155.81,  489.68  L  152.97,  486.85  L  150.14,  489.68  L  150.14,  493.93  L  152.97,  491.10 " style="stroke-width: 0.28 ;&st9;" /><path d=" M  118.98,   78.27  L  118.98,  103.77 " style="stroke-width: 0.85 ;&st7; " /><path d=" M   17.00,  299.24  L   17.00,  350.23  L  237.96,  350.23  L  237.96,  469.21  L  399.43,  469.21  L  399.43,  299.24  L   17.00,  299.24 " style="stroke-width: 1.42 ;&st7; " /><path d=" M  118.98,  205.75  L  118.98,  171.76 " style="stroke-width: 0.85 ;&st7; " /><path d=" M  118.98,  200.86  L  116.15,  198.02  L  116.15,  202.27  L  118.98,  205.11  L  121.81,  202.27  L  121.81,  198.02  L  118.98,  200.86 " style="stroke-width: 0.28 ;&st9;" /><path d=" M  118.98,  176.65  L  121.81,  179.48  L  121.81,  175.24  L  118.98,  172.40  L  116.15,  175.24  L  116.15,  179.48  L  118.98,  176.65 " style="stroke-width: 0.28 ;&st9;" /><path d=" M  203.97,  491.10  L  206.80,  493.93  L  206.80,  489.68  L  203.97,  486.85  L  201.13,  489.68  L  201.13,  493.93  L  203.97,  491.10 " style="stroke-width: 0.28 ;&st9;" /><path d=" M  203.97,  520.20  L  203.97,  486.20 " style="stroke-width: 0.85 ;&st7; " /><path d=" M  203.97,  515.30  L  201.13,  512.47  L  201.13,  516.72  L  203.97,  519.55  L  206.80,  516.72  L  206.80,  512.47  L  203.97,  515.30 " style="stroke-width: 0.28 ;&st9;" /><path d=" M  118.98,  503.20  L  152.97,  503.20  L  152.97,  486.20 " style="stroke-width: 0.85 ;&st7; " /><path d=" M  203.97,  697.25  L  203.97,  701.50 " style="stroke-width: 0.85 ;&st7; " /><path d=" M  195.47,  701.50  L  212.46,  701.50 " style="stroke-width: 0.85 ;&st7; " /><path d=" M  199.72,  704.33  L  208.22,  704.33 " style="stroke-width: 0.85 ;&st7; " /><path d=" M  201.13,  707.17  L  206.80,  707.17 " style="stroke-width: 0.85 ;&st7; " /><path d=" M  202.55,  710.00  L  205.38,  710.00 " style="stroke-width: 0.85 ;&st7; " /><path d=" M  373.94,  435.21  L  373.94,  401.22  L  356.94,  401.22  L  356.94,  435.21  L  373.94,  435.21 " style="stroke-width: 1.42 ;&st7; " /><path d=" M  365.44,  350.23  L  365.44,  401.22 " style="stroke-width: 0.85 ;&st7; " /><path d=" M  331.44,  350.23  L  331.44,  452.21  L  365.44,  452.21  L  365.44,  435.21 " style="stroke-width: 0.85 ;&st7; " /><path d=" M  237.96,  350.23  L  399.43,  350.23 " style="stroke-width: 1.42 ;&st7; " /><path d=" M  117.79,  502.20  L  117.52,  502.67  L  117.42,  503.20  L  117.52,  503.73  L  117.79,  504.20  L  118.20,  504.55  L  118.71,  504.74  L  119.25,  504.74  L  119.76,  504.55  L  120.17,  504.20  L  120.44,  503.73  L  120.54,  503.20  L  120.44,  502.67  L  120.17,  502.20  L  119.76,  501.85  L  119.25,  501.67  L  118.71,  501.67  L  118.20,  501.85  L  117.79,  502.20  L  118.18,  502.91  L  118.18,  503.49  L  118.56,  503.94  L  119.13,  504.04  L  119.63,  503.75  L  119.83,  503.20  L  119.63,  502.65  L  119.13,  502.37  L  118.56,  502.46  L  118.98,  503.20 " style="stroke-width: 0.85 ;&st7; " /><path d=" M  471.67,  177.42  L  467.42,  173.17  L  463.17,  177.42 " style="stroke-width: 1.42 ;&st7; " /><path d=" M  471.67,  180.82  L  467.42,  176.57  L  463.17,  180.82 " style="stroke-width: 1.42 ;&st7; " /><path d=" M  475.92,  273.74  L  475.92,  239.75  L  458.92,  239.75  L  458.92,  273.74  L  475.92,  273.74 " style="stroke-width: 1.42 ;&st7; " /><path d=" M  424.93,   98.87  L  422.10,   96.04  L  422.10,  100.29  L  424.93,  103.12  L  427.76,  100.29  L  427.76,   96.04  L  424.93,   98.87 " style="stroke-width: 0.28 ;&st9;" /><path d=" M  463.17,  324.16  L  467.42,  328.41  L  471.67,  324.16 " style="stroke-width: 1.42 ;&st7; " /><path d=" M  471.67,  327.56  L  467.42,  331.81  L  463.17,  327.56 " style="stroke-width: 1.42 ;&st7; " /><path d=" M  382.44,  103.77  L  382.44,   86.77  L  424.93,   86.77  L  424.93,  103.77 " style="stroke-width: 0.85 ;&st7; " /><path d=" M  467.42,   78.27  L  467.42,  103.77 " style="stroke-width: 0.85 ;&st7; " /><path d=" M  382.44,  193.65  L  385.27,  196.48  L  385.27,  192.23  L  382.44,  189.40  L  379.60,  192.23  L  379.60,  196.48  L  382.44,  193.65 " style="stroke-width: 0.28 ;&st9;" /><path d=" M  382.44,  217.85  L  379.60,  215.02  L  379.60,  219.27  L  382.44,  222.10  L  385.27,  219.27  L  385.27,  215.02  L  382.44,  217.85 " style="stroke-width: 0.28 ;&st9;" /><path d=" M  382.44,  222.75  L  382.44,  188.75 " style="stroke-width: 0.85 ;&st7; " /><path d=" M  480.17,   78.27  L  480.17,   35.78  L  454.67,   35.78  L  454.67,   78.27  L  480.17,   78.27 " style="stroke-width: 1.42 ;&st7; " /><path d=" M  467.42,   98.87  L  464.59,   96.04  L  464.59,  100.29  L  467.42,  103.12  L  470.25,  100.29  L  470.25,   96.04  L  467.42,   98.87 " style="stroke-width: 0.28 ;&st9;" /><path d=" M  382.44,   98.87  L  379.60,   96.04  L  379.60,  100.29  L  382.44,  103.12  L  385.27,  100.29  L  385.27,   96.04  L  382.44,   98.87 " style="stroke-width: 0.28 ;&st9;" /><path d=" M  157.22,  265.81  L  152.97,  261.56  L  148.73,  265.81 " style="stroke-width: 1.42 ;&st7; " /><path d=" M  157.22,  262.41  L  152.97,  258.16  L  148.73,  262.41 " style="stroke-width: 1.42 ;&st7; " /><path d=" M  388.81,  227.00  C  388.81   224.65   386.91   222.75   384.56   222.75 " style="stroke-width: 1.42 ;&st7; " /><path d=" M  376.06,  184.50  C  376.06   186.85   377.96   188.75   380.31   188.75 " style="stroke-width: 1.42 ;&st7; " /><path d=" M  467.42,   66.94  C  470.16    65.33   471.07    61.80   469.46    59.06 " style="stroke-width: 1.42 ;&st7; " /><path d=" M  469.46,   59.06  C  468.94    58.18   468.30    57.55   467.42    57.03 " style="stroke-width: 1.42 ;&st7; " /><path d=" M  468.84,   45.69  C  468.84    44.91   468.20    44.28   467.42    44.28 " style="stroke-width: 0.85 ;&st7; " /><path d=" M  467.42,   44.28  C  466.64    44.28   466.01    44.91   466.01    45.69 " style="stroke-width: 0.85 ;&st7; " /><path d=" M  466.01,   45.69  C  466.01    46.48   466.64    47.11   467.42    47.11 " style="stroke-width: 0.85 ;&st7; " /><path d=" M  467.42,   47.11  C  468.20    47.11   468.84    46.48   468.84    45.69 " style="stroke-width: 0.85 ;&st7; " /><path d=" M  468.84,   68.36  C  468.84    67.57   468.20    66.94   467.42    66.94 " style="stroke-width: 0.85 ;&st7; " /><path d=" M  467.42,   66.94  C  466.64    66.94   466.01    67.57   466.01    68.36 " style="stroke-width: 0.85 ;&st7; " /><path d=" M  466.01,   68.36  C  466.01    69.14   466.64    69.77   467.42    69.77 " style="stroke-width: 0.85 ;&st7; " /><path d=" M  467.42,   69.77  C  468.20    69.77   468.84    69.14   468.84    68.36 " style="stroke-width: 0.85 ;&st7; " /><path d=" M  469.55,  112.27  C  471.89   112.27   473.80   110.36   473.80   108.02 " style="stroke-width: 1.42 ;&st7; " /><path d=" M  465.30,  103.77  C  462.95   103.77   461.05   105.67   461.05   108.02 " style="stroke-width: 1.42 ;&st7; " /><path d=" M  461.05,  108.02  C  461.05   110.36   462.95   112.27   465.30   112.27 " style="stroke-width: 1.42 ;&st7; " /><path d=" M  473.80,  108.02  C  473.80   105.67   471.89   103.77   469.55   103.77 " style="stroke-width: 1.42 ;&st7; " /><path d=" M  384.56,  112.27  C  386.91   112.27   388.81   110.36   388.81   108.02 " style="stroke-width: 1.42 ;&st7; " /><path d=" M  210.34,  524.45  C  210.34   522.10   208.44   520.20   206.09   520.20 " style="stroke-width: 1.42 ;&st7; " /><path d=" M  365.44,  426.71  C  367.39   426.71   368.98   425.13   368.98   423.17 " style="stroke-width: 0.85 ;&st7; " /><path d=" M  368.98,  423.17  C  368.98   421.22   367.39   419.63   365.44   419.63 " style="stroke-width: 0.85 ;&st7; " /><path d=" M  365.44,  419.63  C  364.45   419.63   363.60   419.99   362.91   420.69 " style="stroke-width: 0.85 ;&st7; " /><path d=" M  362.91,  420.69  C  364.28   422.09   366.52   422.11   367.92   420.75 " style="stroke-width: 0.85 ;&st7; " /><path d=" M  367.92,  420.75  C  369.31   419.38   369.34   417.13   367.97   415.74 " style="stroke-width: 0.85 ;&st7; " /><path d=" M  367.97,  415.74  C  366.60   414.34   364.36   414.32   362.96   415.69 " style="stroke-width: 0.85 ;&st7; " /><path d=" M  362.96,  415.69  C  362.94   415.70   362.93   415.72   362.91   415.74 " style="stroke-width: 0.85 ;&st7; " /><path d=" M  362.91,  415.74  C  364.28   417.13   366.52   417.16   367.92   415.79 " style="stroke-width: 0.85 ;&st7; " /><path d=" M  367.92,  415.79  C  369.31   414.42   369.34   412.18   367.97   410.78 " style="stroke-width: 0.85 ;&st7; " /><path d=" M  367.97,  410.78  C  367.28   410.07   366.43   409.72   365.44   409.72 " style="stroke-width: 0.85 ;&st7; " /><path d=" M  116.86,  163.26  C  114.51   163.26   112.61   165.16   112.61   167.51 " style="stroke-width: 1.42 ;&st7; " /><path d=" M  112.61,  167.51  C  112.61   169.85   114.51   171.76   116.86   171.76 " style="stroke-width: 1.42 ;&st7; " /><path d=" M  121.10,  171.76  C  123.45   171.76   125.35   169.85   125.35   167.51 " style="stroke-width: 1.42 ;&st7; " /><path d=" M  125.35,  167.51  C  125.35   165.16   123.45   163.26   121.10   163.26 " style="stroke-width: 1.42 ;&st7; " /><path d=" M  112.61,  210.00  C  112.61   212.35   114.51   214.25   116.86   214.25 " style="stroke-width: 1.42 ;&st7; " /><path d=" M  121.10,  214.25  C  123.45   214.25   125.35   212.35   125.35   210.00 " style="stroke-width: 1.42 ;&st7; " /><path d=" M  125.35,  210.00  C  125.35   207.65   123.45   205.75   121.10   205.75 " style="stroke-width: 1.42 ;&st7; " /><path d=" M  116.86,  103.77  C  114.51   103.77   112.61   105.67   112.61   108.02 " style="stroke-width: 1.42 ;&st7; " /><path d=" M  112.61,  108.02  C  112.61   110.36   114.51   112.27   116.86   112.27 " style="stroke-width: 1.42 ;&st7; " /><path d=" M  201.84,  477.71  C  199.49   477.71   197.59   479.61   197.59   481.95 " style="stroke-width: 1.42 ;&st7; " /><path d=" M  197.59,  481.95  C  197.59   484.30   199.49   486.20   201.84   486.20 " style="stroke-width: 1.42 ;&st7; " /><path d=" M  206.09,  486.20  C  208.44   486.20   210.34   484.30   210.34   481.95 " style="stroke-width: 1.42 ;&st7; " /><path d=" M  210.34,  481.95  C  210.34   479.61   208.44   477.71   206.09   477.71 " style="stroke-width: 1.42 ;&st7; " /><path d=" M  206.09,  528.70  C  208.44   528.70   210.34   526.79   210.34   524.45 " style="stroke-width: 1.42 ;&st7; " /><path d=" M  116.86,  205.75  C  114.51   205.75   112.61   207.65   112.61   210.00 " style="stroke-width: 1.42 ;&st7; " /><path d=" M  201.84,  520.20  C  199.49   520.20   197.59   522.10   197.59   524.45 " style="stroke-width: 1.42 ;&st7; " /><path d=" M  150.85,  477.71  C  148.50   477.71   146.60   479.61   146.60   481.95 " style="stroke-width: 1.42 ;&st7; " /><path d=" M  146.60,  481.95  C  146.60   484.30   148.50   486.20   150.85   486.20 " style="stroke-width: 1.42 ;&st7; " /><path d=" M  155.10,  486.20  C  157.45   486.20   159.35   484.30   159.35   481.95 " style="stroke-width: 1.42 ;&st7; " /><path d=" M  159.35,  481.95  C  159.35   479.61   157.45   477.71   155.10   477.71 " style="stroke-width: 1.42 ;&st7; " /><path d=" M  197.59,  524.45  C  197.59   526.79   199.49   528.70   201.84   528.70 " style="stroke-width: 1.42 ;&st7; " /><path d=" M  125.35,  524.45  C  125.35   522.10   123.45   520.20   121.10   520.20 " style="stroke-width: 1.42 ;&st7; " /><path d=" M  121.10,  528.70  C  123.45   528.70   125.35   526.79   125.35   524.45 " style="stroke-width: 1.42 ;&st7; " /><path d=" M  112.61,  524.45  C  112.61   526.79   114.51   528.70   116.86   528.70 " style="stroke-width: 1.42 ;&st7; " /><path d=" M  116.86,  520.20  C  114.51   520.20   112.61   522.10   112.61   524.45 " style="stroke-width: 1.42 ;&st7; " /><path d=" M  125.35,  481.95  C  125.35   479.61   123.45   477.71   121.10   477.71 " style="stroke-width: 1.42 ;&st7; " /><path d=" M  112.61,  481.95  C  112.61   484.30   114.51   486.20   116.86   486.20 " style="stroke-width: 1.42 ;&st7; " /><path d=" M  121.10,  486.20  C  123.45   486.20   125.35   484.30   125.35   481.95 " style="stroke-width: 1.42 ;&st7; " /><path d=" M  116.86,  477.71  C  114.51   477.71   112.61   479.61   112.61   481.95 " style="stroke-width: 1.42 ;&st7; " /><path d=" M  121.10,  112.27  C  123.45   112.27   125.35   110.36   125.35   108.02 " style="stroke-width: 1.42 ;&st7; " /><path d=" M  125.35,  108.02  C  125.35   105.67   123.45   103.77   121.10   103.77 " style="stroke-width: 1.42 ;&st7; " /><path d=" M   33.99,  464.96  C   35.95   464.96    37.54   463.37    37.54   461.42 " style="stroke-width: 0.85 ;&st7; " /><path d=" M   37.54,  461.42  C   37.54   459.46    35.95   457.88    33.99   457.88 " style="stroke-width: 0.85 ;&st7; " /><path d=" M   33.99,  457.88  C   33.00   457.88    32.16   458.23    31.47   458.94 " style="stroke-width: 0.85 ;&st7; " /><path d=" M   31.46,  458.94  C   32.83   460.33    35.08   460.36    36.47   458.99 " style="stroke-width: 0.85 ;&st7; " /><path d=" M   36.47,  458.99  C   37.87   457.62    37.89   455.38    36.52   453.98 " style="stroke-width: 0.85 ;&st7; " /><path d=" M   36.52,  453.98  C   35.16   452.58    32.91   452.56    31.52   453.93 " style="stroke-width: 0.85 ;&st7; " /><path d=" M   31.52,  453.93  C   31.50   453.95    31.48   453.96    31.46   453.98 " style="stroke-width: 0.85 ;&st7; " /><path d=" M   31.46,  453.98  C   32.83   455.38    35.08   455.40    36.47   454.03 " style="stroke-width: 0.85 ;&st7; " /><path d=" M   36.47,  454.03  C   37.87   452.66    37.89   450.42    36.52   449.02 " style="stroke-width: 0.85 ;&st7; " /><path d=" M   36.52,  449.02  C   35.83   448.32    34.99   447.96    33.99   447.96 " style="stroke-width: 0.85 ;&st7; " /><path d=" M   33.99,   47.11  C   31.26    48.72    30.34    52.25    31.96    54.99 " style="stroke-width: 1.42 ;&st7; " /><path d=" M   31.96,   54.99  C   32.48    55.87    33.11    56.51    33.99    57.03 " style="stroke-width: 1.42 ;&st7; " /><path d=" M   33.99,   66.94  C   36.73    65.33    37.64    61.80    36.03    59.06 " style="stroke-width: 1.42 ;&st7; " /><path d=" M   36.03,   59.06  C   35.51    58.18    34.88    57.55    33.99    57.03 " style="stroke-width: 1.42 ;&st7; " /><path d=" M   35.41,   45.69  C   35.41    44.91    34.78    44.28    33.99    44.28 " style="stroke-width: 0.85 ;&st7; " /><path d=" M   33.99,   44.28  C   33.21    44.28    32.58    44.91    32.58    45.69 " style="stroke-width: 0.85 ;&st7; " /><path d=" M   32.58,   45.69  C   32.58    46.48    33.21    47.11    33.99    47.11 " style="stroke-width: 0.85 ;&st7; " /><path d=" M   33.99,   47.11  C   34.78    47.11    35.41    46.48    35.41    45.69 " style="stroke-width: 0.85 ;&st7; " /><path d=" M   35.41,   68.36  C   35.41    67.57    34.78    66.94    33.99    66.94 " style="stroke-width: 0.85 ;&st7; " /><path d=" M   33.99,   66.94  C   33.21    66.94    32.58    67.57    32.58    68.36 " style="stroke-width: 0.85 ;&st7; " /><path d=" M   32.58,   68.36  C   32.58    69.14    33.21    69.77    33.99    69.77 " style="stroke-width: 0.85 ;&st7; " /><path d=" M   33.99,   69.77  C   34.78    69.77    35.41    69.14    35.41    68.36 " style="stroke-width: 0.85 ;&st7; " /><path d=" M   27.62,  108.02  C   27.62   110.36    29.52   112.27    31.87   112.27 " style="stroke-width: 1.42 ;&st7; " /><path d=" M   40.37,  108.02  C   40.37   105.67    38.47   103.77    36.12   103.77 " style="stroke-width: 1.42 ;&st7; " /><path d=" M   36.12,  112.27  C   38.47   112.27    40.37   110.36    40.37   108.02 " style="stroke-width: 1.42 ;&st7; " /><path d=" M   31.87,  103.77  C   29.52   103.77    27.62   105.67    27.62   108.02 " style="stroke-width: 1.42 ;&st7; " /><path d=" M  120.40,   68.36  C  120.40    67.57   119.76    66.94   118.98    66.94 " style="stroke-width: 0.85 ;&st7; " /><path d=" M  118.98,   66.94  C  118.20    66.94   117.56    67.57   117.56    68.36 " style="stroke-width: 0.85 ;&st7; " /><path d=" M  117.56,   68.36  C  117.56    69.14   118.20    69.77   118.98    69.77 " style="stroke-width: 0.85 ;&st7; " /><path d=" M  118.98,   69.77  C  119.76    69.77   120.40    69.14   120.40    68.36 " style="stroke-width: 0.85 ;&st7; " /><path d=" M  120.40,   45.69  C  120.40    44.91   119.76    44.28   118.98    44.28 " style="stroke-width: 0.85 ;&st7; " /><path d=" M  118.98,   44.28  C  118.20    44.28   117.56    44.91   117.56    45.69 " style="stroke-width: 0.85 ;&st7; " /><path d=" M  117.56,   45.69  C  117.56    46.48   118.20    47.11   118.98    47.11 " style="stroke-width: 0.85 ;&st7; " /><path d=" M  118.98,   47.11  C  119.76    47.11   120.40    46.48   120.40    45.69 " style="stroke-width: 0.85 ;&st7; " /><path d=" M  118.98,   66.94  C  121.72    65.33   122.63    61.80   121.02    59.06 " style="stroke-width: 1.42 ;&st7; " /><path d=" M  121.02,   59.06  C  120.50    58.18   119.86    57.55   118.98    57.03 " style="stroke-width: 1.42 ;&st7; " /><path d=" M  118.98,   47.11  C  116.24    48.72   115.33    52.25   116.94    54.99 " style="stroke-width: 1.42 ;&st7; " /><path d=" M  116.94,   54.99  C  117.46    55.87   118.10    56.51   118.98    57.03 " style="stroke-width: 1.42 ;&st7; " /><path d=" M  298.87,  429.55  C  298.87   428.76   298.23   428.13   297.45   428.13 " style="stroke-width: 0.85 ;&st7; " /><path d=" M  297.45,  428.13  C  296.67   428.13   296.03   428.76   296.03   429.55 " style="stroke-width: 0.85 ;&st7; " /><path d=" M  296.03,  429.55  C  296.03   430.33   296.67   430.96   297.45   430.96 " style="stroke-width: 0.85 ;&st7; " /><path d=" M  297.45,  430.96  C  298.23   430.96   298.87   430.33   298.87   429.55 " style="stroke-width: 0.85 ;&st7; " /><path d=" M  298.87,  406.88  C  298.87   406.10   298.23   405.47   297.45   405.47 " style="stroke-width: 0.85 ;&st7; " /><path d=" M  297.45,  405.47  C  296.67   405.47   296.03   406.10   296.03   406.88 " style="stroke-width: 0.85 ;&st7; " /><path d=" M  296.03,  406.88  C  296.03   407.67   296.67   408.30   297.45   408.30 " style="stroke-width: 0.85 ;&st7; " /><path d=" M  297.45,  408.30  C  298.23   408.30   298.87   407.67   298.87   406.88 " style="stroke-width: 0.85 ;&st7; " /><path d=" M  467.42,   47.11  C  464.68    48.72   463.77    52.25   465.39    54.99 " style="stroke-width: 1.42 ;&st7; " /><path d=" M  465.39,   54.99  C  465.90    55.87   466.54    56.51   467.42    57.03 " style="stroke-width: 1.42 ;&st7; " /><path d=" M  468.84,  268.07  C  468.84   267.29   468.20   266.66   467.42   266.66 " style="stroke-width: 0.85 ;&st7; " /><path d=" M  467.42,  266.66  C  466.64   266.66   466.01   267.29   466.01   268.07 " style="stroke-width: 0.85 ;&st7; " /><path d=" M  466.01,  268.07  C  466.01   268.86   466.64   269.49   467.42   269.49 " style="stroke-width: 0.85 ;&st7; " /><path d=" M  467.42,  269.49  C  468.20   269.49   468.84   268.86   468.84   268.07 " style="stroke-width: 0.85 ;&st7; " /><path d=" M  468.84,  245.41  C  468.84   244.63   468.20   243.99   467.42   243.99 " style="stroke-width: 0.85 ;&st7; " /><path d=" M  467.42,  243.99  C  466.64   243.99   466.01   244.63   466.01   245.41 " style="stroke-width: 0.85 ;&st7; " /><path d=" M  466.01,  245.41  C  466.01   246.19   466.64   246.83   467.42   246.83 " style="stroke-width: 0.85 ;&st7; " /><path d=" M  467.42,  246.83  C  468.20   246.83   468.84   246.19   468.84   245.41 " style="stroke-width: 0.85 ;&st7; " /><path d=" M  388.81,  108.02  C  388.81   105.67   386.91   103.77   384.56   103.77 " style="stroke-width: 1.42 ;&st7; " /><path d=" M  376.06,  108.02  C  376.06   110.36   377.96   112.27   380.31   112.27 " style="stroke-width: 1.42 ;&st7; " /><path d=" M  380.31,  103.77  C  377.96   103.77   376.06   105.67   376.06   108.02 " style="stroke-width: 1.42 ;&st7; " /><path d=" M  422.80,  103.77  C  420.46   103.77   418.56   105.67   418.56   108.02 " style="stroke-width: 1.42 ;&st7; " /><path d=" M  427.05,  112.27  C  429.40   112.27   431.30   110.36   431.30   108.02 " style="stroke-width: 1.42 ;&st7; " /><path d=" M  431.30,  108.02  C  431.30   105.67   429.40   103.77   427.05   103.77 " style="stroke-width: 1.42 ;&st7; " /><path d=" M  418.56,  108.02  C  418.56   110.36   420.46   112.27   422.80   112.27 " style="stroke-width: 1.42 ;&st7; " /><path d=" M  380.31,  180.26  C  377.96   180.26   376.06   182.16   376.06   184.50 " style="stroke-width: 1.42 ;&st7; " /><path d=" M  384.56,  188.75  C  386.91   188.75   388.81   186.85   388.81   184.50 " style="stroke-width: 1.42 ;&st7; " /><path d=" M  388.81,  184.50  C  388.81   182.16   386.91   180.26   384.56   180.26 " style="stroke-width: 1.42 ;&st7; " /><path d=" M  380.31,  222.75  C  377.96   222.75   376.06   224.65   376.06   227.00 " style="stroke-width: 1.42 ;&st7; " /><path d=" M  376.06,  227.00  C  376.06   229.34   377.96   231.25   380.31   231.25 " style="stroke-width: 1.42 ;&st7; " /><path d=" M  384.56,  231.25  C  386.91   231.25   388.81   229.34   388.81   227.00 " style="stroke-width: 1.42 ;&st7; " /><text style="&st18;" transform="matrix(&st16;  449.43  169.48 )">17</text><text style="&st18;" transform="matrix(&st16;  461.41  281.93 )">1</text><text style="&st18;" transform="matrix(&st16;  460.63  236.06 )">2</text><text style="&st18;" transform="matrix(&st16;  366.57  109.99 )">18</text><text style="&st18;" transform="matrix(&st16;  421.18  109.99 )">5J</text><text style="&st18;" transform="matrix(&st16;  412.24  109.99 )">4</text><text style="&st18;" transform="matrix(&st16;  449.43  339.45 )">19</text><text style="&st18;" transform="matrix(&st17;  421.23  145.6 )">R-W</text><text style="&st18;" transform="matrix(&st16;  378.13  186.47 )">6A</text><text style="&st18;" transform="matrix(&st16;  378.13  228.97 )">6A</text><text style="&st18;" transform="matrix(&st16;  369.75  228.97 )">3</text><text style="&st18;" transform="matrix(&st16;  370.52  186.47 )">1</text><text style="&st18;" transform="matrix(&st16;  484.73  56.17 )">10A <tspan dy="6" x="0">STOP</tspan></text><text style="&st18;" transform="matrix(&st16;  463.68  109.99 )">5J</text><text style="&st18;" transform="matrix(&st16;  454.73  109.99 )">3</text><text style="&st18;" transform="matrix(&st16;  378.13  109.99 )">5S</text><text style="&st18;" transform="matrix(&st17;  483.53  276.26 )">B2</text><text style="&st18;" transform="matrix(&st16;  458.31  32.08 )">(BAT)</text><text ewd:textID="6" style="&st18;" transform="matrix(&st17;  490.64  276.26 )">Stop Lamp SW</text><text ewd:textID="4" style="&st18;" transform="matrix(&st16;  141.95  364.94 )">Shift Lock Control ECU</text><text ewd:textID="7" style="&st18;" transform="matrix(&st16;  62.63  457.01 )">Unlock <tspan dy="6" x="0">Warning SW</tspan></text><text ewd:textID="3" style="&st18;" transform="matrix(&st17;  44.46  470.13 )">Key <tspan dy="6" x="0">Interlock </tspan><tspan dy="6" x="0">Solenoid</tspan></text><text style="&st18;" transform="matrix(&st16;  27.21  485.9 )">3</text><text style="&st18;" transform="matrix(&st16;  27.21  431.52 )">4</text><text style="&st18;" transform="matrix(&st16;  138.94  254.46 )">1</text><text style="&st18;" transform="matrix(&st16;  129.16  227.55 )">B-R</text><text style="&st18;" transform="matrix(&st16;  129.16  278.54 )">B-R</text><text style="&st18;" transform="matrix(&st16;  130.18  238.88 )">(*1)</text><text style="&st18;" transform="matrix(&st16;  130.18  289.87 )">(*1)</text><text ewd:textID="1" style="&st18;" transform="matrix(&st16;  277.93  598.65 )">* 1 :RHD From Apr. 2012 Production Standard Body</text><text ewd:textID="2" style="&st18;" transform="matrix(&st16;  277.93  607.15 )">* 2 :Except *1</text><text style="&st18;" transform="matrix(&st17;  126.62  262.92 )">(*2)</text><text style="&st18;" transform="matrix(&st16;  62.63  449.91 )">H26</text><text style="&st18;" transform="matrix(&st16;  141.95  357.84 )">H22</text><text style="&st18;" transform="matrix(&st16;  375.64  295.54 )">7</text><text style="&st18;" transform="matrix(&st16;  27.2  295.54 )">6</text><text style="&st18;" transform="matrix(&st16;  112.96  295.54 )">1</text><text style="&st18;" transform="matrix(&st16;  112.19  358.42 )">8</text><text style="&st18;" transform="matrix(&st16;  24.03  358.42 )">12</text><text style="&st18;" transform="matrix(&st16;  375.65  306.87 )">STP</text><text style="&st18;" transform="matrix(&st16;  26.72  306.87 )">ACC</text><text style="&st18;" transform="matrix(&st16;  115.24  306.87 )">IG</text><text style="&st18;" transform="matrix(&st16;  356.78  346.53 )">SLS+</text><text style="&st18;" transform="matrix(&st16;  322.79  346.53 )">SLS-</text><text style="&st18;" transform="matrix(&st16;  116.65  346.53 )">E</text><text style="&st18;" transform="matrix(&st16;  25.34  346.53 )">KLS+</text><text style="&st18;" transform="matrix(&st16;  170.77  448.51 )">W-B</text><text style="&st18;" transform="matrix(&st17;  200.27  570.39 )">W-B</text><text style="&st18;" transform="matrix(&st17;  115.29  570.39 )">W-B</text><text style="&st18;" transform="matrix(&st17;  30.3  570.39 )">W-B</text><text style="&st18;" transform="matrix(&st17;  115.29  391.92 )">W-B</text><text style="&st18;" transform="matrix(&st17;  30.3  391.57 )">L-W</text><text style="&st18;" transform="matrix(&st17;  378.74  264.87 )">G-W</text><text style="&st18;" transform="matrix(&st17;  30.3  261.97 )">GR</text><text style="&st18;" transform="matrix(&st17;  30.3  151.49 )">GR</text><text style="&st18;" transform="matrix(&st17;  115.29  263.56 )">B-R</text><text style="&st18;" transform="matrix(&st17;  115.29  153.08 )">B-R</text><text style="&st18;" transform="matrix(&st16;  192.05  526.42 )">1</text><text style="&st18;" transform="matrix(&st16;  199.87  526.42 )">6F</text><text style="&st18;" transform="matrix(&st16;  191.28  483.92 )">9</text><text style="&st18;" transform="matrix(&st16;  199.87  483.92 )">6F</text><text style="&st18;" transform="matrix(&st16;  114.67  169.48 )">6B</text><text style="&st18;" transform="matrix(&st16;  106.29  169.48 )">5</text><text style="&st18;" transform="matrix(&st16;  114.67  211.97 )">6B</text><text style="&st18;" transform="matrix(&st16;  106.29  211.97 )">7</text><text style="&st18;" transform="matrix(&st16;  137.11  483.92 )">10</text><text style="&st18;" transform="matrix(&st16;  148.88  483.92 )">6F</text><text style="&st18;" transform="matrix(&st16;  114.88  483.92 )">6F</text><text style="&st18;" transform="matrix(&st16;  103.11  483.92 )">13</text><text style="&st18;" transform="matrix(&st16;  114.88  526.42 )">6F</text><text style="&st18;" transform="matrix(&st16;  103.11  526.42 )">15</text><text style="&st18;" transform="matrix(&st16;  106.29  109.99 )">7</text><text style="&st18;" transform="matrix(&st16;  114.67  109.99 )">5S</text><text style="&st18;" transform="matrix(&st16;  51.3  56.17 )">7.5A <tspan dy="6" x="0">ACC</tspan></text><text style="&st18;" transform="matrix(&st16;  295.12  346.53 )">E</text><text style="&st18;" transform="matrix(&st16;  21.3  109.99 )">4</text><text style="&st18;" transform="matrix(&st16;  29.69  109.99 )">5S</text><text ewd:textID="5" style="&st18;" transform="matrix(&st17;  381.58  448.77 )">Shift Lock Solenoid</text><text style="&st18;" transform="matrix(&st16;  136.29  56.17 )">7.5A <tspan dy="6" x="0">ECU-IG</tspan></text><text style="&st18;" transform="matrix(&st16;  24.39  32.08 )">(ACC)</text><text style="&st18;" transform="matrix(&st16;  112.9  32.08 )">(IG)</text><text style="&st18;" transform="matrix(&st16;  261.12  346.53 )">P</text><text style="&st18;" transform="matrix(&st17;  313.58  420.55 )">P</text><text style="&st18;" transform="matrix(&st17;  463.73  212.85 )">G-B</text><text style="&st18;" transform="matrix(&st17;  463.73  144.86 )">G-B</text><text style="&st18;" transform="matrix(&st17;  378.74  145.89 )">G-W</text><text style="&st18;" transform="matrix(&st17;  463.73  315.58 )">R-W</text><text style="&st18;" transform="matrix(&st17;  463.73  366.57 )">R-W</text></svg>