﻿<?xml version="1.0" encoding="utf-8"?>
<!DOCTYPE svg PUBLIC "-//W3C//DTD SVG 1.0//EN" "http://www.w3.org/TR/2001/REC-SVG-20010904/DTD/svg10.dtd"[
	<!ENTITY ns_flows "http://ns.adobe.com/Flows/1.0/">
	<!ENTITY ns_svg "http://www.w3.org/2000/svg">
	<!ENTITY ns_xlink "http://www.w3.org/1999/xlink">
	<!ENTITY st0 "font-size:7px;font-family:'MS-PGothic';adobe-font-script:japanese;">
	<!ENTITY st1 "font-size:6px;font-family:'ArialMT';">
	<!-- White fill  -->
	<!ENTITY st2 "fill:#FFFFFF;stroke:#000000; stroke-width:1.41;stroke-linecap:round;stroke-linejoin:round;">
	<!-- Yellow fill  -->
	<!ENTITY st3 "fill:#FFFFCC;stroke:#FFFFCC; stroke-width:0.1;stroke-linecap:round;stroke-linejoin:round;">
	<!-- Gray fill  -->
	<!ENTITY st4 "fill:#CCCCCC;stroke:#CCCCCC; stroke-width:0.1;stroke-linecap:round;stroke-linejoin:round;">
	<!-- Light-blue fill -->
	<!ENTITY st5 "fill:#CCECF4;stroke:#000000; stroke-width:1.133;stroke-linecap:round;stroke-linejoin:round;">
	<!ENTITY st6 "fill:none;stroke-linecap:butt; stroke-linejoin:round;">
	<!ENTITY st7 "fill:none;stroke:#000000;stroke-linecap:round;stroke-linejoin:round;">
	<!ENTITY st8 "enable-background:new    ;">
	<!-- Black fill -->
	<!ENTITY st9 "fill:#000000;stroke:#000000; stroke-linecap:round;stroke-linejoin:round;">
	<!-- SRS note   -->
	<!ENTITY st10 "font-size:9px;font-family:'ArialMT';">
	<!ENTITY st11 "font-size:9px;font-family:'Svg Symbol';">
	<!ENTITY st12 "font-size:6px;font-family:'Svg Symbol';">
	<!ENTITY st13 "fill:none;stroke:#ff0000;stroke-linecap:round;stroke-linejoin:round;">
	<!-- Yellow fill  -->
	<!ENTITY st14 "fill:#FFFF00;stroke:#FFFF00; stroke-width:0.1;stroke-linecap:round;stroke-linejoin:round;">
	<!ENTITY st15 "font-size:6px;font-family:'MS-PGothic';adobe-font-script:japanese;">
	<!ENTITY st16 "1.00 0.00 0.00 1.00">
	<!ENTITY st17 "0.00 -1.00 1.00 0.00">
	<!ENTITY st18 "font-size:6px;font-family:'Arial';">
	<!ENTITY st19 "font-size:9px;font-family:'Arial';">
	<!ENTITY st20 "font-size:6px;font-family:'MS-PGothic','MS PGothic';adobe-font-script:japanese;">
	<!ENTITY st21 "font-size:7px;font-family:'MS-PGothic','MS PGothic';adobe-font-script:japanese;">
	<!ATTLIST svg
		xmlns:ewd CDATA #FIXED "http://shcl.co.jp/ewd"
		xmlns:a CDATA #FIXED "http://ns.adobe.com/AdobeSVGViewerExtensions/3.0/"
		ewd:ver CDATA #IMPLIED
	>
	<!ATTLIST a
		ewd:lineID CDATA #IMPLIED
		ewd:groupID CDATA #IMPLIED
		ewd:figtype CDATA #IMPLIED
		ewd:code CDATA #IMPLIED
		ewd:figID CDATA #IMPLIED
		ewd:pinNo CDATA #IMPLIED
		ewd:comment CDATA #IMPLIED >
	<!ATTLIST g
		ewd:lineID CDATA #IMPLIED
		ewd:groupID CDATA #IMPLIED
		ewd:figtype CDATA #IMPLIED
		ewd:code CDATA #IMPLIED
		ewd:figID CDATA #IMPLIED
		ewd:pinNo CDATA #IMPLIED
		ewd:comment CDATA #IMPLIED >
	<!ATTLIST text
		ewd:textID CDATA #IMPLIED >
	<!ATTLIST title
		ewd:textID CDATA #IMPLIED >
]>
<!-- Generator: Shintec Hozumi YS   -->
<svg onload="call_execInitLoadProc_svg('system')" style="overflow:visible;  enable-background:new 0 0 1020.355 710.000" viewBox="0 0 1020.355 710.000" height="710.000" width="1020.355" xml:space="preserve" ewd:ver="L2.1.2.5" xmlns="&ns_svg;" xmlns:a="http://ns.adobe.com/AdobeSVGViewerExtensions/3.0/" xmlns:ewd="http://shcl.co.jp/ewd" xmlns:xlink="&ns_xlink;">
<path d=" M  127.48,  562.69  L  161.47,  562.69  L  161.47,  622.18  L  127.48,  622.18  L  127.48,  562.69 " style="&st5;" /><path d=" M  308.07,  324.73  L  303.82,  324.73 " style="stroke-width: 1.42 ;&st7; " /><path d=" M  282.58,  333.23  L  278.33,  333.23 " style="stroke-width: 1.42 ;&st7; " /><path d=" M  282.58,  324.73  L  278.33,  324.73 " style="stroke-width: 1.42 ;&st7; " /><path d=" M  280.45,  385.64  L  274.79,  362.97 " style="stroke-width: 1.42 ;&st7; " /><path d=" M  280.45,  392.72  L  280.45,  388.47 " style="stroke-width: 0.85 ;&st7; " /><path d=" M  280.45,  362.97  L  280.45,  358.73 " style="stroke-width: 0.85 ;&st7; " /><path d=" M  305.95,  358.73  L  305.95,  367.22 " style="stroke-width: 0.85 ;&st7; " /><path d=" M  305.95,  384.22  L  305.95,  392.72 " style="stroke-width: 0.85 ;&st7; " /><path d=" M  188.05,  107.24  L  188.05,  112.91 " style="stroke-width: 0.85 ;&st7; " /><path d=" M  188.05,   98.74  L  188.05,  104.41 " style="stroke-width: 0.85 ;&st7; " /><path d=" M  188.05,   90.24  L  188.05,   95.91 " style="stroke-width: 0.85 ;&st7; " /><path d=" M  188.05,   81.75  L  188.05,   87.41 " style="stroke-width: 0.85 ;&st7; " /><path d=" M  220.96,  137.76  L  208.22,  137.76 " style="stroke-width: 0.85 ;&st7; " /><path d=" M  220.96,   86.77  L  208.22,   86.77 " style="stroke-width: 0.85 ;&st7; " /><path d=" M  161.47,   86.77  L  177.05,   86.77 " style="stroke-width: 0.85 ;&st7; " /><path d=" M  177.05,  137.76  L  161.47,  137.76 " style="stroke-width: 0.85 ;&st7; " /><path d=" M  144.48,  596.69  L  144.48,  599.52 " style="stroke-width: 0.85 ;&st7; " /><path d=" M  144.48,  591.02  L  144.48,  593.85 " style="stroke-width: 0.85 ;&st7; " /><path d=" M  144.48,  585.35  L  144.48,  588.19 " style="stroke-width: 0.85 ;&st7; " /><path d=" M  144.48,  605.18  L  144.48,  630.68 " style="stroke-width: 0.85 ;&st7; " /><path d=" M  144.48,  579.69  L  144.48,  562.69 " style="stroke-width: 0.85 ;&st7; " /><path d=" M  135.98,  599.52  L  152.97,  599.52 " style="stroke-width: 0.85 ;&st7; " /><path d=" M  135.98,  579.69  L  152.97,  579.69 " style="stroke-width: 0.85 ;&st7; " /><path d=" M  288.95,  256.74  L  280.45,  256.74 " style="stroke-width: 1.42 ;&st7; " /><path d=" M  146.60,  452.21  L  142.35,  452.21 " style="stroke-width: 1.42 ;&st7; " /><path d=" M  146.60,  460.71  L  142.35,  460.71 " style="stroke-width: 1.42 ;&st7; " /><path d=" M  144.48,  409.72  L  144.48,  418.22 " style="stroke-width: 0.85 ;&st7; " /><path d=" M  146.60,  341.73  L  142.35,  341.73 " style="stroke-width: 1.42 ;&st7; " /><path d=" M  146.60,  350.23  L  142.35,  350.23 " style="stroke-width: 1.42 ;&st7; " /><path d=" M  152.97,  290.74  L  144.48,  290.74 " style="stroke-width: 1.42 ;&st7; " /><path d=" M   44.62,  452.21  L   40.37,  452.21 " style="stroke-width: 1.42 ;&st7; " /><path d=" M   44.62,  460.71  L   40.37,  460.71 " style="stroke-width: 1.42 ;&st7; " /><path d=" M   42.49,  409.72  L   42.49,  418.22 " style="stroke-width: 0.85 ;&st7; " /><path d=" M  271.95,   69.77  L  280.45,   69.77 " style="stroke-width: 1.42 ;&st7; " /><path d=" M   42.49,  341.73  L   42.49,  350.23 " style="stroke-width: 0.85 ;&st7; " /><path d=" M   44.62,  273.74  L   40.37,  273.74 " style="stroke-width: 1.42 ;&st7; " /><path d=" M   44.62,  282.24  L   40.37,  282.24 " style="stroke-width: 1.42 ;&st7; " /><path d=" M   42.49,  163.26  L   42.49,  171.76 " style="stroke-width: 0.85 ;&st7; " /><path d=" M   44.62,  103.77  L   40.37,  103.77 " style="stroke-width: 1.42 ;&st7; " /><path d=" M   44.62,  112.27  L   40.37,  112.27 " style="stroke-width: 1.42 ;&st7; " /><path d=" M   44.62,  197.25  L   40.37,  197.25 " style="stroke-width: 1.42 ;&st7; " /><path d=" M   44.62,  205.75  L   40.37,  205.75 " style="stroke-width: 1.42 ;&st7; " /><path d=" M  237.96,  632.10  L  233.71,  649.09 " style="stroke-width: 1.42 ;&st7; " /><path d=" M  291.78,  664.67  L  305.95,  664.67 " style="stroke-width: 0.85 ;&st7; " /><path d=" M  280.45,  647.68  L  280.45,  622.18 " style="stroke-width: 0.85 ;&st7; " /><path d=" M  239.38,  647.68  L  259.21,  647.68 " style="stroke-width: 0.85 ;&st7; " /><path d=" M  276.20,  647.68  L  284.70,  647.68 " style="stroke-width: 0.85 ;&st7; " /><path d=" M  288.95,  503.20  L  280.45,  503.20 " style="stroke-width: 1.42 ;&st7; " /><path d=" M  308.07,  426.71  L  303.82,  426.71 " style="stroke-width: 1.42 ;&st7; " /><path d=" M  308.07,  418.22  L  303.82,  418.22 " style="stroke-width: 1.42 ;&st7; " /><path d=" M  282.58,  426.71  L  278.33,  426.71 " style="stroke-width: 1.42 ;&st7; " /><path d=" M  282.58,  418.22  L  278.33,  418.22 " style="stroke-width: 1.42 ;&st7; " /><path d=" M  308.07,  333.23  L  303.82,  333.23 " style="stroke-width: 1.42 ;&st7; " /><path d=" M  280.45,  333.23  L  280.45,  358.73 " style="stroke-width: 0.85 ;&st7; " /><path d=" M  305.95,  333.23  L  305.95,  358.73 " style="stroke-width: 0.85 ;&st7; " /><path d=" M  305.95,  392.72  L  305.95,  418.22 " style="stroke-width: 0.85 ;&st7; " /><path d=" M  423.51,  710.00  L  426.35,  710.00 " style="stroke-width: 0.85 ;&st7; " /><path d=" M  422.10,  707.17  L  427.76,  707.17 " style="stroke-width: 0.85 ;&st7; " /><path d=" M  420.68,  704.33  L  429.18,  704.33 " style="stroke-width: 0.85 ;&st7; " /><path d=" M  416.43,  701.50  L  433.43,  701.50 " style="stroke-width: 0.85 ;&st7; " /><path d=" M  424.93,  697.25  L  424.93,  701.50 " style="stroke-width: 0.85 ;&st7; " /><path d=" M  280.45,  392.72  L  280.45,  418.22 " style="stroke-width: 0.85 ;&st7; " /><path d=" M  284.70,  508.87  L  280.45,  504.62  L  276.20,  508.87 " style="stroke-width: 1.42 ;&st7; " /><path d=" M  284.70,  512.27  L  280.45,  508.02  L  276.20,  512.27 " style="stroke-width: 1.42 ;&st7; " /><path d=" M  305.95,  413.32  L  303.12,  410.49  L  303.12,  414.74  L  305.95,  417.57  L  308.78,  414.74  L  308.78,  410.49  L  305.95,  413.32 " style="stroke-width: 0.28 ;&st9;" /><path d=" M  280.45,  413.32  L  277.62,  410.49  L  277.62,  414.74  L  280.45,  417.57  L  283.29,  414.74  L  283.29,  410.49  L  280.45,  413.32 " style="stroke-width: 0.28 ;&st9;" /><path d=" M  305.95,  338.12  L  308.78,  340.96  L  308.78,  336.71  L  305.95,  333.88  L  303.12,  336.71  L  303.12,  340.96  L  305.95,  338.12 " style="stroke-width: 0.28 ;&st9;" /><path d=" M  280.45,  338.12  L  283.29,  340.96  L  283.29,  336.71  L  280.45,  333.88  L  277.62,  336.71  L  277.62,  340.96  L  280.45,  338.12 " style="stroke-width: 0.28 ;&st9;" /><path d=" M  314.45,  358.73  L  271.95,  358.73  L  271.95,  392.72  L  314.45,  392.72  L  314.45,  358.73 " style="stroke-width: 1.42 ;&st7; " /><path d=" M  189.53,  115.24  L  179.70,  137.05  L  196.40,  119.92 " style="stroke-width: 1.42 ;&st7; " /><path d=" M  189.53,   64.25  L  179.70,   86.06  L  196.40,   68.93 " style="stroke-width: 1.42 ;&st7; " /><path d=" M  161.47,  171.76  L  220.96,  171.76  L  220.96,   52.78  L  161.47,   52.78  L  161.47,  171.76 " style="stroke-width: 1.42 ;&st7; " /><path d=" M  203.97,  147.68  L  203.97,  154.76  L  220.96,  154.76 " style="stroke-width: 0.85 ;&st7; " /><path d=" M  203.97,   96.69  L  203.97,  103.77  L  220.96,  103.77 " style="stroke-width: 0.85 ;&st7; " /><path d=" M  220.96,   69.77  L  203.97,   69.77  L  203.97,   76.86 " style="stroke-width: 0.85 ;&st7; " /><path d=" M  127.48,  562.69  L  161.47,  562.69  L  161.47,  622.18  L  127.48,  622.18  L  127.48,  562.69 " style="stroke-width: 1.42 ;&st7; " /><path d=" M  148.73,  605.18  L  148.73,  603.77  L  140.23,  603.77  L  140.23,  605.18  L  148.73,  605.18 " style="stroke-width: 1.42 ;&st7; " /><path d=" M  148.73,  585.35  L  140.23,  585.35  L  140.23,  583.94  L  148.73,  583.94  L  148.73,  585.35 " style="stroke-width: 1.42 ;&st7; " /><path d=" M  143.06,  639.18  L  145.89,  639.18 " style="stroke-width: 0.85 ;&st7; " /><path d=" M  141.64,  636.35  L  147.31,  636.35 " style="stroke-width: 0.85 ;&st7; " /><path d=" M  140.23,  633.51  L  148.73,  633.51 " style="stroke-width: 0.85 ;&st7; " /><path d=" M  135.98,  630.68  L  152.97,  630.68 " style="stroke-width: 0.85 ;&st7; " /><path d=" M  284.70,  265.81  L  280.45,  261.56  L  276.20,  265.81 " style="stroke-width: 1.42 ;&st7; " /><path d=" M  284.70,  262.41  L  280.45,  258.16  L  276.20,  262.41 " style="stroke-width: 1.42 ;&st7; " /><path d=" M  144.48,  562.69  L  144.48,  520.20 " style="stroke-width: 0.85 ;&st7; " /><path d=" M  144.48,  447.31  L  141.64,  444.48  L  141.64,  448.73  L  144.48,  451.56  L  147.31,  448.73  L  147.31,  444.48  L  144.48,  447.31 " style="stroke-width: 0.28 ;&st9;" /><path d=" M  157.22,  418.22  L  157.22,  375.72  L  131.73,  375.72  L  131.73,  418.22  L  157.22,  418.22 " style="stroke-width: 1.42 ;&st7; " /><path d=" M  144.48,  375.72  L  144.48,  384.22 " style="stroke-width: 0.85 ;&st7; " /><path d=" M  144.48,  355.12  L  147.31,  357.95  L  147.31,  353.71  L  144.48,  350.87  L  141.64,  353.71  L  141.64,  357.95  L  144.48,  355.12 " style="stroke-width: 0.28 ;&st9;" /><path d=" M  148.73,  299.80  L  144.48,  295.55  L  140.23,  299.80 " style="stroke-width: 1.42 ;&st7; " /><path d=" M  148.73,  296.40  L  144.48,  292.15  L  140.23,  296.40 " style="stroke-width: 1.42 ;&st7; " /><path d=" M  144.48,  350.23  L  144.48,  375.72 " style="stroke-width: 0.85 ;&st7; " /><path d=" M  144.48,  418.22  L  144.48,  452.21 " style="stroke-width: 0.85 ;&st7; " /><path d=" M  144.48,  562.69  L  144.48,  554.19  L  127.48,  537.20  L   42.49,  537.20  L   42.49,  520.20 " style="stroke-width: 0.85 ;&st7; " /><path d=" M   42.49,  447.31  L   39.66,  444.48  L   39.66,  448.73  L   42.49,  451.56  L   45.33,  448.73  L   45.33,  444.48  L   42.49,  447.31 " style="stroke-width: 0.28 ;&st9;" /><path d=" M   55.24,  418.22  L   55.24,  375.72  L   29.75,  375.72  L   29.75,  418.22  L   55.24,  418.22 " style="stroke-width: 1.42 ;&st7; " /><path d=" M   42.49,  375.72  L   42.49,  384.22 " style="stroke-width: 0.85 ;&st7; " /><path d=" M   42.49,  350.23  L   42.49,  375.72 " style="stroke-width: 0.85 ;&st7; " /><path d=" M   42.49,  418.22  L   42.49,  452.21 " style="stroke-width: 0.85 ;&st7; " /><path d=" M  276.20,   60.71  L  280.45,   64.96  L  284.70,   60.71 " style="stroke-width: 1.42 ;&st7; " /><path d=" M  284.70,   64.11  L  280.45,   68.36  L  276.20,   64.11 " style="stroke-width: 1.42 ;&st7; " /><path d=" M   55.24,  350.23  L   55.24,  307.73  L   29.75,  307.73  L   29.75,  350.23  L   55.24,  350.23 " style="stroke-width: 1.42 ;&st7; " /><path d=" M   42.49,  307.73  L   42.49,  316.23 " style="stroke-width: 0.85 ;&st7; " /><path d=" M   42.49,  282.24  L   42.49,  307.73 " style="stroke-width: 0.85 ;&st7; " /><path d=" M   42.49,  287.13  L   45.33,  289.97  L   45.33,  285.72  L   42.49,  282.88  L   39.66,  285.72  L   39.66,  289.97  L   42.49,  287.13 " style="stroke-width: 0.28 ;&st9;" /><path d=" M   55.24,  171.76  L   55.24,  129.26  L   29.75,  129.26  L   29.75,  171.76  L   55.24,  171.76 " style="stroke-width: 1.42 ;&st7; " /><path d=" M   42.49,  129.26  L   42.49,  137.76 " style="stroke-width: 0.85 ;&st7; " /><path d=" M   42.49,  117.16  L   45.33,  119.99  L   45.33,  115.75  L   42.49,  112.91  L   39.66,  115.75  L   39.66,  119.99  L   42.49,  117.16 " style="stroke-width: 0.28 ;&st9;" /><path d=" M   42.49,  192.36  L   39.66,  189.52  L   39.66,  193.77  L   42.49,  196.61  L   45.33,  193.77  L   45.33,  189.52  L   42.49,  192.36 " style="stroke-width: 0.28 ;&st9;" /><path d=" M   42.49,  112.27  L   42.49,  129.26 " style="stroke-width: 0.85 ;&st7; " /><path d=" M   42.49,  171.76  L   42.49,  197.25 " style="stroke-width: 0.85 ;&st7; " /><path d=" M  237.96,  622.18  L  237.96,  629.26 " style="stroke-width: 0.85 ;&st7; " /><path d=" M  287.82,  660.42  L  291.78,  660.42  L  291.78,  668.92  L  287.82,  668.92 " style="stroke-width: 1.42 ;&st7; " /><path d=" M  273.09,  660.42  L  269.12,  660.42  L  269.12,  668.92  L  273.09,  668.92 " style="stroke-width: 1.42 ;&st7; " /><path d=" M  314.45,  681.67  L  229.46,  681.67  L  229.46,  622.18  L  314.45,  622.18  L  314.45,  681.67 " style="stroke-width: 1.42 ;&st7; " /><path d=" M  254.96,  647.68  L  254.96,  664.67  L  269.12,  664.67 " style="stroke-width: 0.85 ;&st7; " /><path d=" M  301.70,  647.68  L  305.95,  647.68  L  305.95,  690.17 " style="stroke-width: 0.85 ;&st7; " /><path d=" M  304.53,  698.67  L  307.37,  698.67 " style="stroke-width: 0.85 ;&st7; " /><path d=" M  303.12,  695.84  L  308.78,  695.84 " style="stroke-width: 0.85 ;&st7; " /><path d=" M  301.70,  693.00  L  310.20,  693.00 " style="stroke-width: 0.85 ;&st7; " /><path d=" M  297.45,  690.17  L  314.45,  690.17 " style="stroke-width: 0.85 ;&st7; " /><path d=" M  253.76,  646.67  L  253.49,  647.14  L  253.40,  647.68  L  253.49,  648.21  L  253.76,  648.68  L  254.18,  649.03  L  254.69,  649.21  L  255.23,  649.21  L  255.74,  649.03  L  256.15,  648.68  L  256.42,  648.21  L  256.52,  647.68  L  256.42,  647.14  L  256.15,  646.67  L  255.74,  646.33  L  255.23,  646.14  L  254.69,  646.14  L  254.18,  646.33  L  253.76,  646.67  L  254.16,  647.39  L  254.16,  647.97  L  254.53,  648.41  L  255.10,  648.51  L  255.61,  648.22  L  255.81,  647.68  L  255.61,  647.13  L  255.10,  646.84  L  254.53,  646.94  L  254.96,  647.68 " style="stroke-width: 0.85 ;&st7; " /><path d=" M  304.76,  663.67  L  304.48,  664.14  L  304.39,  664.67  L  304.48,  665.21  L  304.76,  665.68  L  305.17,  666.02  L  305.68,  666.21  L  306.22,  666.21  L  306.73,  666.02  L  307.14,  665.68  L  307.41,  665.21  L  307.51,  664.67  L  307.41,  664.14  L  307.14,  663.67  L  306.73,  663.33  L  306.22,  663.14  L  305.68,  663.14  L  305.17,  663.33  L  304.76,  663.67  L  305.15,  664.38  L  305.15,  664.97  L  305.52,  665.41  L  306.10,  665.51  L  306.60,  665.22  L  306.80,  664.67  L  306.60,  664.13  L  306.10,  663.84  L  305.52,  663.94  L  305.95,  664.67 " style="stroke-width: 0.85 ;&st7; " /><path d=" M  279.26,  646.67  L  278.99,  647.14  L  278.89,  647.68  L  278.99,  648.21  L  279.26,  648.68  L  279.67,  649.03  L  280.18,  649.21  L  280.72,  649.21  L  281.23,  649.03  L  281.65,  648.68  L  281.92,  648.21  L  282.01,  647.68  L  281.92,  647.14  L  281.65,  646.67  L  281.23,  646.33  L  280.72,  646.14  L  280.18,  646.14  L  279.67,  646.33  L  279.26,  646.67  L  279.65,  647.39  L  279.65,  647.97  L  280.03,  648.41  L  280.60,  648.51  L  281.10,  648.22  L  281.30,  647.68  L  281.10,  647.13  L  280.60,  646.84  L  280.03,  646.94  L  280.45,  647.68 " style="stroke-width: 0.85 ;&st7; " /><path d=" M   42.49,  338.90  C   44.66   335.87    44.66   332.00    42.49   328.98 " style="stroke-width: 1.42 ;&st7; " /><path d=" M   42.49,  338.90  C   43.35   335.98    42.69   333.08    40.65   330.82 " style="stroke-width: 1.42 ;&st7; " /><path d=" M   40.37,  273.74  C   38.02   273.74    36.12   275.64    36.12   277.99 " style="stroke-width: 1.42 ;&st7; " /><path d=" M   36.12,  277.99  C   36.12   280.34    38.02   282.24    40.37   282.24 " style="stroke-width: 1.42 ;&st7; " /><path d=" M   44.62,  282.24  C   46.96   282.24    48.87   280.34    48.87   277.99 " style="stroke-width: 1.42 ;&st7; " /><path d=" M   48.87,  277.99  C   48.87   275.64    46.96   273.74    44.62   273.74 " style="stroke-width: 1.42 ;&st7; " /><path d=" M   42.49,  140.60  C   39.75   142.21    38.84   145.74    40.46   148.47 " style="stroke-width: 1.42 ;&st7; " /><path d=" M   40.46,  148.47  C   40.98   149.36    41.61   149.99    42.49   150.51 " style="stroke-width: 1.42 ;&st7; " /><path d=" M   42.49,  160.43  C   45.23   158.81    46.14   155.28    44.53   152.55 " style="stroke-width: 1.42 ;&st7; " /><path d=" M   44.53,  152.55  C   44.01   151.67    43.37   151.03    42.49   150.51 " style="stroke-width: 1.42 ;&st7; " /><path d=" M   43.91,  139.18  C   43.91   138.40    43.28   137.76    42.49   137.76 " style="stroke-width: 0.85 ;&st7; " /><path d=" M   42.49,  137.76  C   41.71   137.76    41.08   138.40    41.08   139.18 " style="stroke-width: 0.85 ;&st7; " /><path d=" M   41.08,  139.18  C   41.08   139.96    41.71   140.60    42.49   140.60 " style="stroke-width: 0.85 ;&st7; " /><path d=" M   42.49,  140.60  C   43.28   140.60    43.91   139.96    43.91   139.18 " style="stroke-width: 0.85 ;&st7; " /><path d=" M   43.91,  161.84  C   43.91   161.06    43.28   160.43    42.49   160.43 " style="stroke-width: 0.85 ;&st7; " /><path d=" M   42.49,  160.43  C   41.71   160.43    41.08   161.06    41.08   161.84 " style="stroke-width: 0.85 ;&st7; " /><path d=" M   41.08,  161.84  C   41.08   162.62    41.71   163.26    42.49   163.26 " style="stroke-width: 0.85 ;&st7; " /><path d=" M   42.49,  163.26  C   43.28   163.26    43.91   162.62    43.91   161.84 " style="stroke-width: 0.85 ;&st7; " /><path d=" M   40.37,  103.77  C   38.02   103.77    36.12   105.67    36.12   108.02 " style="stroke-width: 1.42 ;&st7; " /><path d=" M   36.12,  108.02  C   36.12   110.36    38.02   112.27    40.37   112.27 " style="stroke-width: 1.42 ;&st7; " /><path d=" M   44.62,  112.27  C   46.96   112.27    48.87   110.36    48.87   108.02 " style="stroke-width: 1.42 ;&st7; " /><path d=" M   48.87,  108.02  C   48.87   105.67    46.96   103.77    44.62   103.77 " style="stroke-width: 1.42 ;&st7; " /><path d=" M   40.37,  197.25  C   38.02   197.25    36.12   199.15    36.12   201.50 " style="stroke-width: 1.42 ;&st7; " /><path d=" M   36.12,  201.50  C   36.12   203.85    38.02   205.75    40.37   205.75 " style="stroke-width: 1.42 ;&st7; " /><path d=" M   44.62,  205.75  C   46.96   205.75    48.87   203.85    48.87   201.50 " style="stroke-width: 1.42 ;&st7; " /><path d=" M   48.87,  201.50  C   48.87   199.15    46.96   197.25    44.62   197.25 " style="stroke-width: 1.42 ;&st7; " /><path d=" M   42.49,  406.88  C   43.35   403.97    42.69   401.07    40.65   398.81 " style="stroke-width: 1.42 ;&st7; " /><path d=" M   42.49,  406.88  C   44.66   403.86    44.66   399.99    42.49   396.97 " style="stroke-width: 1.42 ;&st7; " /><path d=" M   42.49,  406.88  C   46.21   404.12    47.03   398.90    44.33   395.13 " style="stroke-width: 1.42 ;&st7; " /><path d=" M   42.49,  387.05  C   38.78   389.82    37.96   395.04    40.65   398.81 " style="stroke-width: 1.42 ;&st7; " /><path d=" M   42.49,  387.05  C   40.32   390.08    40.32   393.95    42.49   396.97 " style="stroke-width: 1.42 ;&st7; " /><path d=" M   42.49,  387.05  C   41.64   389.97    42.30   392.87    44.34   395.13 " style="stroke-width: 1.42 ;&st7; " /><path d=" M  144.48,  406.88  C  145.33   403.97   144.67   401.07   142.63   398.81 " style="stroke-width: 1.42 ;&st7; " /><path d=" M  144.48,  406.88  C  146.65   403.86   146.65   399.99   144.48   396.97 " style="stroke-width: 1.42 ;&st7; " /><path d=" M  144.48,  406.88  C  148.19   404.12   149.01   398.90   146.32   395.13 " style="stroke-width: 1.42 ;&st7; " /><path d=" M  144.48,  387.05  C  140.76   389.82   139.94   395.04   142.64   398.81 " style="stroke-width: 1.42 ;&st7; " /><path d=" M  144.48,  387.05  C  142.30   390.08   142.30   393.95   144.48   396.97 " style="stroke-width: 1.42 ;&st7; " /><path d=" M  144.48,  387.05  C  143.62   389.97   144.28   392.87   146.32   395.13 " style="stroke-width: 1.42 ;&st7; " /><path d=" M   42.49,  491.87  C   41.04   495.18    41.75   498.83    44.33   501.36 " style="stroke-width: 1.42 ;&st7; " /><path d=" M   42.49,  491.87  C   39.59   495.12    39.59   499.95    42.49   503.20 " style="stroke-width: 1.42 ;&st7; " /><path d=" M   42.49,  491.87  C   38.45   494.26    37.11   499.47    39.50   503.51 " style="stroke-width: 1.42 ;&st7; " /><path d=" M   39.50,  503.51  C   39.84   504.09    40.19   504.55    40.65   505.04 " style="stroke-width: 1.42 ;&st7; " /><path d=" M   42.50,  514.53  C   46.54   512.15    47.88   506.94    45.49   502.90 " style="stroke-width: 1.42 ;&st7; " /><path d=" M   45.49,  502.90  C   45.15   502.31    44.80   501.85    44.33   501.36 " style="stroke-width: 1.42 ;&st7; " /><path d=" M   42.50,  514.53  C   45.40   511.28    45.40   506.45    42.49   503.20 " style="stroke-width: 1.42 ;&st7; " /><path d=" M   42.50,  514.53  C   43.95   511.22    43.24   507.57    40.65   505.04 " style="stroke-width: 1.42 ;&st7; " /><path d=" M   45.33,  517.37  C   45.33   515.80    44.06   514.53    42.49   514.53 " style="stroke-width: 1.42 ;&st7; " /><path d=" M   42.49,  514.53  C   40.93   514.53    39.66   515.80    39.66   517.37 " style="stroke-width: 1.42 ;&st7; " /><path d=" M   39.66,  517.37  C   39.66   518.93    40.93   520.20    42.49   520.20 " style="stroke-width: 1.42 ;&st7; " /><path d=" M   42.49,  520.20  C   44.06   520.20    45.33   518.93    45.33   517.37 " style="stroke-width: 1.42 ;&st7; " /><path d=" M   45.33,  489.04  C   45.33   487.47    44.06   486.20    42.49   486.20 " style="stroke-width: 1.42 ;&st7; " /><path d=" M   42.49,  486.20  C   40.93   486.20    39.66   487.47    39.66   489.04 " style="stroke-width: 1.42 ;&st7; " /><path d=" M   39.66,  489.04  C   39.66   490.60    40.93   491.87    42.49   491.87 " style="stroke-width: 1.42 ;&st7; " /><path d=" M   42.49,  491.87  C   44.06   491.87    45.33   490.60    45.33   489.04 " style="stroke-width: 1.42 ;&st7; " /><path d=" M  144.48,  491.87  C  143.02   495.18   143.73   498.83   146.32   501.36 " style="stroke-width: 1.42 ;&st7; " /><path d=" M  144.48,  491.87  C  141.57   495.12   141.57   499.95   144.48   503.20 " style="stroke-width: 1.42 ;&st7; " /><path d=" M  144.48,  491.87  C  140.43   494.26   139.09   499.47   141.48   503.51 " style="stroke-width: 1.42 ;&st7; " /><path d=" M  141.48,  503.51  C  141.82   504.09   142.17   504.55   142.64   505.04 " style="stroke-width: 1.42 ;&st7; " /><path d=" M  144.48,  514.53  C  148.52   512.15   149.86   506.94   147.48   502.90 " style="stroke-width: 1.42 ;&st7; " /><path d=" M  147.48,  502.90  C  147.13   502.31   146.78   501.85   146.32   501.36 " style="stroke-width: 1.42 ;&st7; " /><path d=" M  144.48,  514.53  C  147.39   511.28   147.39   506.45   144.48   503.20 " style="stroke-width: 1.42 ;&st7; " /><path d=" M  144.48,  514.53  C  145.93   511.22   145.22   507.57   142.64   505.04 " style="stroke-width: 1.42 ;&st7; " /><path d=" M  147.31,  517.37  C  147.31   515.80   146.04   514.53   144.48   514.53 " style="stroke-width: 1.42 ;&st7; " /><path d=" M  144.48,  514.53  C  142.91   514.53   141.64   515.80   141.64   517.37 " style="stroke-width: 1.42 ;&st7; " /><path d=" M  141.64,  517.37  C  141.64   518.93   142.91   520.20   144.48   520.20 " style="stroke-width: 1.42 ;&st7; " /><path d=" M  144.48,  520.20  C  146.04   520.20   147.31   518.93   147.31   517.37 " style="stroke-width: 1.42 ;&st7; " /><path d=" M  147.31,  489.04  C  147.31   487.47   146.04   486.20   144.48   486.20 " style="stroke-width: 1.42 ;&st7; " /><path d=" M  144.48,  486.20  C  142.91   486.20   141.64   487.47   141.64   489.04 " style="stroke-width: 1.42 ;&st7; " /><path d=" M  141.64,  489.04  C  141.64   490.60   142.91   491.87   144.48   491.87 " style="stroke-width: 1.42 ;&st7; " /><path d=" M  144.48,  491.87  C  146.04   491.87   147.31   490.60   147.31   489.04 " style="stroke-width: 1.42 ;&st7; " /><path d=" M  284.99,  608.58  C  284.99   606.08   282.96   604.05   280.45   604.05 " style="stroke-width: 1.42 ;&st7; " /><path d=" M  280.45,  604.05  C  277.95   604.05   275.92   606.08   275.92   608.58 " style="stroke-width: 1.42 ;&st7; " /><path d=" M  275.92,  608.58  C  275.92   611.09   277.95   613.12   280.45   613.12 " style="stroke-width: 1.42 ;&st7; " /><path d=" M  280.45,  613.12  C  282.96   613.12   284.99   611.09   284.99   608.58 " style="stroke-width: 1.42 ;&st7; " /><path d=" M  242.49,  572.32  C  242.49   569.82   240.46   567.79   237.96   567.79 " style="stroke-width: 1.42 ;&st7; " /><path d=" M  237.96,  567.79  C  235.46   567.79   233.43   569.82   233.43   572.32 " style="stroke-width: 1.42 ;&st7; " /><path d=" M  233.43,  572.32  C  233.43   574.83   235.46   576.86   237.96   576.86 " style="stroke-width: 1.42 ;&st7; " /><path d=" M  237.96,  576.86  C  240.46   576.86   242.49   574.83   242.49   572.32 " style="stroke-width: 1.42 ;&st7; " /><path d=" M  265.23,  650.21  C  266.62   648.84   266.65   646.60   265.28   645.20 " style="stroke-width: 0.85 ;&st7; " /><path d=" M  265.28,  645.20  C  263.91   643.80   261.67   643.78   260.27   645.15 " style="stroke-width: 0.85 ;&st7; " /><path d=" M  260.27,  645.15  C  259.56   645.84   259.21   646.69   259.21   647.68 " style="stroke-width: 0.85 ;&st7; " /><path d=" M  301.70,  647.68  C  301.70   645.72   300.11   644.14   298.16   644.14 " style="stroke-width: 0.85 ;&st7; " /><path d=" M  298.16,  644.14  C  296.20   644.14   294.62   645.72   294.62   647.68 " style="stroke-width: 0.85 ;&st7; " /><path d=" M  294.62,  647.68  C  294.62   648.67   294.97   649.51   295.68   650.21 " style="stroke-width: 0.85 ;&st7; " /><path d=" M  295.68,  650.21  C  297.08   648.84   297.10   646.60   295.73   645.20 " style="stroke-width: 0.85 ;&st7; " /><path d=" M  295.73,  645.20  C  294.36   643.80   292.12   643.78   290.72   645.15 " style="stroke-width: 0.85 ;&st7; " /><path d=" M  290.72,  645.15  C  289.33   646.52   289.30   648.76   290.67   650.16 " style="stroke-width: 0.85 ;&st7; " /><path d=" M  290.67,  650.16  C  290.69   650.17   290.70   650.19   290.72   650.21 " style="stroke-width: 0.85 ;&st7; " /><path d=" M  290.72,  650.21  C  292.12   648.84   292.14   646.60   290.77   645.20 " style="stroke-width: 0.85 ;&st7; " /><path d=" M  290.77,  645.20  C  289.40   643.80   287.16   643.78   285.76   645.15 " style="stroke-width: 0.85 ;&st7; " /><path d=" M  285.76,  645.15  C  285.06   645.84   284.70   646.69   284.70   647.68 " style="stroke-width: 0.85 ;&st7; " /><path d=" M  276.20,  647.68  C  276.20   645.72   274.62   644.14   272.66   644.14 " style="stroke-width: 0.85 ;&st7; " /><path d=" M  272.66,  644.14  C  270.71   644.14   269.12   645.72   269.12   647.68 " style="stroke-width: 0.85 ;&st7; " /><path d=" M  269.12,  647.68  C  269.12   648.67   269.48   649.51   270.18   650.21 " style="stroke-width: 0.85 ;&st7; " /><path d=" M  270.18,  650.21  C  271.58   648.84   271.60   646.60   270.24   645.20 " style="stroke-width: 0.85 ;&st7; " /><path d=" M  270.24,  645.20  C  268.87   643.80   266.62   643.78   265.23   645.15 " style="stroke-width: 0.85 ;&st7; " /><path d=" M  265.23,  645.15  C  263.83   646.52   263.81   648.76   265.18   650.16 " style="stroke-width: 0.85 ;&st7; " /><path d=" M  265.18,  650.16  C  265.19   650.17   265.21   650.19   265.23   650.21 " style="stroke-width: 0.85 ;&st7; " /><path d=" M  242.49,  581.39  C  242.49   578.88   240.46   576.86   237.96   576.86 " style="stroke-width: 1.42 ;&st7; " /><path d=" M  237.96,  576.86  C  235.46   576.86   233.43   578.88   233.43   581.39 " style="stroke-width: 1.42 ;&st7; " /><path d=" M  233.43,  581.39  C  233.43   583.89   235.46   585.92   237.96   585.92 " style="stroke-width: 1.42 ;&st7; " /><path d=" M  237.96,  585.92  C  240.46   585.92   242.49   583.89   242.49   581.39 " style="stroke-width: 1.42 ;&st7; " /><path d=" M  242.49,  590.45  C  242.49   587.95   240.46   585.92   237.96   585.92 " style="stroke-width: 1.42 ;&st7; " /><path d=" M  237.96,  585.92  C  235.46   585.92   233.43   587.95   233.43   590.45 " style="stroke-width: 1.42 ;&st7; " /><path d=" M  233.43,  590.45  C  233.43   592.96   235.46   594.99   237.96   594.99 " style="stroke-width: 1.42 ;&st7; " /><path d=" M  237.96,  594.99  C  240.46   594.99   242.49   592.96   242.49   590.45 " style="stroke-width: 1.42 ;&st7; " /><path d=" M  242.49,  599.52  C  242.49   597.02   240.46   594.99   237.96   594.99 " style="stroke-width: 1.42 ;&st7; " /><path d=" M  237.96,  594.99  C  235.46   594.99   233.43   597.02   233.43   599.52 " style="stroke-width: 1.42 ;&st7; " /><path d=" M  233.43,  599.52  C  233.43   602.02   235.46   604.05   237.96   604.05 " style="stroke-width: 1.42 ;&st7; " /><path d=" M  237.96,  604.05  C  240.46   604.05   242.49   602.02   242.49   599.52 " style="stroke-width: 1.42 ;&st7; " /><path d=" M  242.49,  608.58  C  242.49   606.08   240.46   604.05   237.96   604.05 " style="stroke-width: 1.42 ;&st7; " /><path d=" M  237.96,  604.05  C  235.46   604.05   233.43   606.08   233.43   608.58 " style="stroke-width: 1.42 ;&st7; " /><path d=" M  233.43,  608.58  C  233.43   611.09   235.46   613.12   237.96   613.12 " style="stroke-width: 1.42 ;&st7; " /><path d=" M  237.96,  613.12  C  240.46   613.12   242.49   611.09   242.49   608.58 " style="stroke-width: 1.42 ;&st7; " /><path d=" M  242.49,  617.65  C  242.49   615.15   240.46   613.12   237.96   613.12 " style="stroke-width: 1.42 ;&st7; " /><path d=" M  237.96,  613.12  C  235.46   613.12   233.43   615.15   233.43   617.65 " style="stroke-width: 1.42 ;&st7; " /><path d=" M  233.43,  617.65  C  233.43   620.15   235.46   622.18   237.96   622.18 " style="stroke-width: 1.42 ;&st7; " /><path d=" M  237.96,  622.18  C  240.46   622.18   242.49   620.15   242.49   617.65 " style="stroke-width: 1.42 ;&st7; " /><path d=" M  284.99,  617.65  C  284.99   615.15   282.96   613.12   280.45   613.12 " style="stroke-width: 1.42 ;&st7; " /><path d=" M  280.45,  613.12  C  277.95   613.12   275.92   615.15   275.92   617.65 " style="stroke-width: 1.42 ;&st7; " /><path d=" M  275.92,  617.65  C  275.92   620.15   277.95   622.18   280.45   622.18 " style="stroke-width: 1.42 ;&st7; " /><path d=" M  280.45,  622.18  C  282.96   622.18   284.99   620.15   284.99   617.65 " style="stroke-width: 1.42 ;&st7; " /><path d=" M  239.38,  630.68  C  239.38   629.90   238.74   629.26   237.96   629.26 " style="stroke-width: 0.85 ;&st7; " /><path d=" M  237.96,  629.26  C  237.18   629.26   236.54   629.90   236.54   630.68 " style="stroke-width: 0.85 ;&st7; " /><path d=" M  236.54,  630.68  C  236.54   631.46   237.18   632.10   237.96   632.10 " style="stroke-width: 0.85 ;&st7; " /><path d=" M  237.96,  632.10  C  238.74   632.10   239.38   631.46   239.38   630.68 " style="stroke-width: 0.85 ;&st7; " /><path d=" M  239.38,  647.68  C  239.38   646.89   238.74   646.26   237.96   646.26 " style="stroke-width: 0.85 ;&st7; " /><path d=" M  237.96,  646.26  C  237.18   646.26   236.54   646.89   236.54   647.68 " style="stroke-width: 0.85 ;&st7; " /><path d=" M  236.54,  647.68  C  236.54   648.46   237.18   649.09   237.96   649.09 " style="stroke-width: 0.85 ;&st7; " /><path d=" M  237.96,  649.09  C  238.74   649.09   239.38   648.46   239.38   647.68 " style="stroke-width: 0.85 ;&st7; " /><path d=" M  288.95,  664.67  C  288.95   659.98   285.15   656.18   280.45   656.18 " style="stroke-width: 1.42 ;&st7; " /><path d=" M  280.45,  656.18  C  275.76   656.18   271.95   659.98   271.95   664.67 " style="stroke-width: 1.42 ;&st7; " /><path d=" M  271.95,  664.67  C  271.95   669.37   275.76   673.17   280.45   673.17 " style="stroke-width: 1.42 ;&st7; " /><path d=" M  280.45,  673.17  C  285.15   673.17   288.95   669.37   288.95   664.67 " style="stroke-width: 1.42 ;&st7; " /><path d=" M  312.32,  422.46  C  312.32   420.12   310.42   418.22   308.07   418.22 " style="stroke-width: 1.42 ;&st7; " /><path d=" M  308.07,  426.71  C  310.42   426.71   312.32   424.81   312.32   422.46 " style="stroke-width: 1.42 ;&st7; " /><path d=" M  299.57,  422.46  C  299.57   424.81   301.48   426.71   303.82   426.71 " style="stroke-width: 1.42 ;&st7; " /><path d=" M  303.82,  418.22  C  301.48   418.22   299.57   420.12   299.57   422.46 " style="stroke-width: 1.42 ;&st7; " /><path d=" M  286.83,  422.46  C  286.83   420.12   284.92   418.22   282.58   418.22 " style="stroke-width: 1.42 ;&st7; " /><path d=" M  282.58,  426.71  C  284.92   426.71   286.83   424.81   286.83   422.46 " style="stroke-width: 1.42 ;&st7; " /><path d=" M  274.08,  422.46  C  274.08   424.81   275.98   426.71   278.33   426.71 " style="stroke-width: 1.42 ;&st7; " /><path d=" M  278.33,  418.22  C  275.98   418.22   274.08   420.12   274.08   422.46 " style="stroke-width: 1.42 ;&st7; " /><path d=" M  312.32,  328.98  C  312.32   326.63   310.42   324.73   308.07   324.73 " style="stroke-width: 1.42 ;&st7; " /><path d=" M  308.07,  333.23  C  310.42   333.23   312.32   331.33   312.32   328.98 " style="stroke-width: 1.42 ;&st7; " /><path d=" M  299.57,  328.98  C  299.57   331.33   301.48   333.23   303.82   333.23 " style="stroke-width: 1.42 ;&st7; " /><path d=" M  303.82,  324.73  C  301.48   324.73   299.57   326.63   299.57   328.98 " style="stroke-width: 1.42 ;&st7; " /><path d=" M  286.83,  328.98  C  286.83   326.63   284.92   324.73   282.58   324.73 " style="stroke-width: 1.42 ;&st7; " /><path d=" M  282.58,  333.23  C  284.92   333.23   286.83   331.33   286.83   328.98 " style="stroke-width: 1.42 ;&st7; " /><path d=" M  274.08,  328.98  C  274.08   331.33   275.98   333.23   278.33   333.23 " style="stroke-width: 1.42 ;&st7; " /><path d=" M  278.33,  324.73  C  275.98   324.73   274.08   326.63   274.08   328.98 " style="stroke-width: 1.42 ;&st7; " /><path d=" M  281.87,  387.05  C  281.87   386.27   281.24   385.64   280.45   385.64 " style="stroke-width: 0.85 ;&st7; " /><path d=" M  280.45,  385.64  C  279.67   385.64   279.04   386.27   279.04   387.05 " style="stroke-width: 0.85 ;&st7; " /><path d=" M  279.04,  387.05  C  279.04   387.84   279.67   388.47   280.45   388.47 " style="stroke-width: 0.85 ;&st7; " /><path d=" M  280.45,  388.47  C  281.24   388.47   281.87   387.84   281.87   387.05 " style="stroke-width: 0.85 ;&st7; " /><path d=" M  281.87,  364.39  C  281.87   363.61   281.24   362.97   280.45   362.97 " style="stroke-width: 0.85 ;&st7; " /><path d=" M  280.45,  362.97  C  279.67   362.97   279.04   363.61   279.04   364.39 " style="stroke-width: 0.85 ;&st7; " /><path d=" M  279.04,  364.39  C  279.04   365.17   279.67   365.81   280.45   365.81 " style="stroke-width: 0.85 ;&st7; " /><path d=" M  280.45,  365.81  C  281.24   365.81   281.87   365.17   281.87   364.39 " style="stroke-width: 0.85 ;&st7; " /><path d=" M  303.42,  373.24  C  304.79   374.64   307.03   374.66   308.43   373.29 " style="stroke-width: 0.85 ;&st7; " /><path d=" M  308.43,  373.29  C  309.82   371.93   309.85   369.68   308.48   368.29 " style="stroke-width: 0.85 ;&st7; " /><path d=" M  308.48,  368.29  C  307.79   367.58   306.94   367.22   305.95   367.22 " style="stroke-width: 0.85 ;&st7; " /><path d=" M  303.42,  378.20  C  304.79   379.60   307.03   379.62   308.43   378.25 " style="stroke-width: 0.85 ;&st7; " /><path d=" M  308.43,  378.25  C  309.82   376.88   309.85   374.64   308.48   373.24 " style="stroke-width: 0.85 ;&st7; " /><path d=" M  308.48,  373.24  C  307.11   371.85   304.87   371.82   303.47   373.19 " style="stroke-width: 0.85 ;&st7; " /><path d=" M  303.47,  373.19  C  303.45   373.21   303.44   373.23   303.42   373.24 " style="stroke-width: 0.85 ;&st7; " /><path d=" M  305.95,  384.22  C  307.90   384.22   309.49   382.64   309.49   380.68 " style="stroke-width: 0.85 ;&st7; " /><path d=" M  309.49,  380.68  C  309.49   378.72   307.90   377.14   305.95   377.14 " style="stroke-width: 0.85 ;&st7; " /><path d=" M  305.95,  377.14  C  304.96   377.14   304.11   377.49   303.42   378.20 " style="stroke-width: 0.85 ;&st7; " /><path d=" M  196.40,   68.93  C  195.42    65.94   192.67    64.07   189.53    64.25 " style="stroke-width: 1.42 ;&st7; " /><path d=" M  196.40,  119.92  C  195.42   116.94   192.67   115.06   189.53   115.24 " style="stroke-width: 1.42 ;&st7; " /><path d=" M  208.22,   86.77  C  208.22    85.99   207.58    85.35   206.80    85.35 " style="stroke-width: 0.85 ;&st7; " /><path d=" M  206.80,   85.35  C  206.02    85.35   205.38    85.99   205.38    86.77 " style="stroke-width: 0.85 ;&st7; " /><path d=" M  205.38,   86.77  C  205.38    87.55   206.02    88.19   206.80    88.19 " style="stroke-width: 0.85 ;&st7; " /><path d=" M  206.80,   88.19  C  207.58    88.19   208.22    87.55   208.22    86.77 " style="stroke-width: 0.85 ;&st7; " /><path d=" M  205.38,   95.27  C  205.38    94.49   204.75    93.85   203.97    93.85 " style="stroke-width: 0.85 ;&st7; " /><path d=" M  203.97,   93.85  C  203.18    93.85   202.55    94.49   202.55    95.27 " style="stroke-width: 0.85 ;&st7; " /><path d=" M  202.55,   95.27  C  202.55    96.05   203.18    96.69   203.97    96.69 " style="stroke-width: 0.85 ;&st7; " /><path d=" M  203.97,   96.69  C  204.75    96.69   205.38    96.05   205.38    95.27 " style="stroke-width: 0.85 ;&st7; " /><path d=" M  205.38,  146.26  C  205.38   145.48   204.75   144.84   203.97   144.84 " style="stroke-width: 0.85 ;&st7; " /><path d=" M  203.97,  144.84  C  203.18   144.84   202.55   145.48   202.55   146.26 " style="stroke-width: 0.85 ;&st7; " /><path d=" M  202.55,  146.26  C  202.55   147.04   203.18   147.68   203.97   147.68 " style="stroke-width: 0.85 ;&st7; " /><path d=" M  203.97,  147.68  C  204.75   147.68   205.38   147.04   205.38   146.26 " style="stroke-width: 0.85 ;&st7; " /><path d=" M  208.22,  137.76  C  208.22   136.98   207.58   136.35   206.80   136.35 " style="stroke-width: 0.85 ;&st7; " /><path d=" M  206.80,  136.35  C  206.02   136.35   205.38   136.98   205.38   137.76 " style="stroke-width: 0.85 ;&st7; " /><path d=" M  205.38,  137.76  C  205.38   138.54   206.02   139.18   206.80   139.18 " style="stroke-width: 0.85 ;&st7; " /><path d=" M  206.80,  139.18  C  207.58   139.18   208.22   138.54   208.22   137.76 " style="stroke-width: 0.85 ;&st7; " /><path d=" M  205.38,   78.27  C  205.38    77.49   204.75    76.86   203.97    76.86 " style="stroke-width: 0.85 ;&st7; " /><path d=" M  203.97,   76.86  C  203.18    76.86   202.55    77.49   202.55    78.27 " style="stroke-width: 0.85 ;&st7; " /><path d=" M  202.55,   78.27  C  202.55    79.05   203.18    79.69   203.97    79.69 " style="stroke-width: 0.85 ;&st7; " /><path d=" M  203.97,   79.69  C  204.75    79.69   205.38    79.05   205.38    78.27 " style="stroke-width: 0.85 ;&st7; " /><path d=" M  179.89,   86.77  C  179.89    85.99   179.25    85.35   178.47    85.35 " style="stroke-width: 0.85 ;&st7; " /><path d=" M  178.47,   85.35  C  177.69    85.35   177.05    85.99   177.05    86.77 " style="stroke-width: 0.85 ;&st7; " /><path d=" M  177.05,   86.77  C  177.05    87.55   177.69    88.19   178.47    88.19 " style="stroke-width: 0.85 ;&st7; " /><path d=" M  178.47,   88.19  C  179.25    88.19   179.89    87.55   179.89    86.77 " style="stroke-width: 0.85 ;&st7; " /><path d=" M  179.89,  137.76  C  179.89   136.98   179.25   136.35   178.47   136.35 " style="stroke-width: 0.85 ;&st7; " /><path d=" M  178.47,  136.35  C  177.69   136.35   177.05   136.98   177.05   137.76 " style="stroke-width: 0.85 ;&st7; " /><path d=" M  177.05,  137.76  C  177.05   138.54   177.69   139.18   178.47   139.18 " style="stroke-width: 0.85 ;&st7; " /><path d=" M  178.47,  139.18  C  179.25   139.18   179.89   138.54   179.89   137.76 " style="stroke-width: 0.85 ;&st7; " /><path d=" M  142.35,  452.21  C  140.00   452.21   138.10   454.11   138.10   456.46 " style="stroke-width: 1.42 ;&st7; " /><path d=" M  138.10,  456.46  C  138.10   458.81   140.00   460.71   142.35   460.71 " style="stroke-width: 1.42 ;&st7; " /><path d=" M  146.60,  460.71  C  148.95   460.71   150.85   458.81   150.85   456.46 " style="stroke-width: 1.42 ;&st7; " /><path d=" M  150.85,  456.46  C  150.85   454.11   148.95   452.21   146.60   452.21 " style="stroke-width: 1.42 ;&st7; " /><path d=" M  145.89,  385.64  C  145.89   384.86   145.26   384.22   144.48   384.22 " style="stroke-width: 0.85 ;&st7; " /><path d=" M  144.48,  384.22  C  143.69   384.22   143.06   384.86   143.06   385.64 " style="stroke-width: 0.85 ;&st7; " /><path d=" M  143.06,  385.64  C  143.06   386.42   143.69   387.05   144.48   387.05 " style="stroke-width: 0.85 ;&st7; " /><path d=" M  144.48,  387.05  C  145.26   387.05   145.89   386.42   145.89   385.64 " style="stroke-width: 0.85 ;&st7; " /><path d=" M  145.89,  408.30  C  145.89   407.52   145.26   406.88   144.48   406.88 " style="stroke-width: 0.85 ;&st7; " /><path d=" M  144.48,  406.88  C  143.69   406.88   143.06   407.52   143.06   408.30 " style="stroke-width: 0.85 ;&st7; " /><path d=" M  143.06,  408.30  C  143.06   409.08   143.69   409.72   144.48   409.72 " style="stroke-width: 0.85 ;&st7; " /><path d=" M  144.48,  409.72  C  145.26   409.72   145.89   409.08   145.89   408.30 " style="stroke-width: 0.85 ;&st7; " /><path d=" M  142.35,  341.73  C  140.00   341.73   138.10   343.63   138.10   345.98 " style="stroke-width: 1.42 ;&st7; " /><path d=" M  138.10,  345.98  C  138.10   348.32   140.00   350.23   142.35   350.23 " style="stroke-width: 1.42 ;&st7; " /><path d=" M  146.60,  350.23  C  148.95   350.23   150.85   348.32   150.85   345.98 " style="stroke-width: 1.42 ;&st7; " /><path d=" M  150.85,  345.98  C  150.85   343.63   148.95   341.73   146.60   341.73 " style="stroke-width: 1.42 ;&st7; " /><path d=" M   40.37,  452.21  C   38.02   452.21    36.12   454.11    36.12   456.46 " style="stroke-width: 1.42 ;&st7; " /><path d=" M   36.12,  456.46  C   36.12   458.81    38.02   460.71    40.37   460.71 " style="stroke-width: 1.42 ;&st7; " /><path d=" M   44.62,  460.71  C   46.96   460.71    48.87   458.81    48.87   456.46 " style="stroke-width: 1.42 ;&st7; " /><path d=" M   48.87,  456.46  C   48.87   454.11    46.96   452.21    44.62   452.21 " style="stroke-width: 1.42 ;&st7; " /><path d=" M   43.91,  385.64  C   43.91   384.86    43.28   384.22    42.49   384.22 " style="stroke-width: 0.85 ;&st7; " /><path d=" M   42.49,  384.22  C   41.71   384.22    41.08   384.86    41.08   385.64 " style="stroke-width: 0.85 ;&st7; " /><path d=" M   41.08,  385.64  C   41.08   386.42    41.71   387.05    42.49   387.05 " style="stroke-width: 0.85 ;&st7; " /><path d=" M   42.49,  387.05  C   43.28   387.05    43.91   386.42    43.91   385.64 " style="stroke-width: 0.85 ;&st7; " /><path d=" M   43.91,  408.30  C   43.91   407.52    43.28   406.88    42.49   406.88 " style="stroke-width: 0.85 ;&st7; " /><path d=" M   42.49,  406.88  C   41.71   406.88    41.08   407.52    41.08   408.30 " style="stroke-width: 0.85 ;&st7; " /><path d=" M   41.08,  408.30  C   41.08   409.08    41.71   409.72    42.49   409.72 " style="stroke-width: 0.85 ;&st7; " /><path d=" M   42.49,  409.72  C   43.28   409.72    43.91   409.08    43.91   408.30 " style="stroke-width: 0.85 ;&st7; " /><path d=" M   43.91,  317.65  C   43.91   316.87    43.28   316.23    42.49   316.23 " style="stroke-width: 0.85 ;&st7; " /><path d=" M   42.49,  316.23  C   41.71   316.23    41.08   316.87    41.08   317.65 " style="stroke-width: 0.85 ;&st7; " /><path d=" M   41.08,  317.65  C   41.08   318.43    41.71   319.07    42.49   319.07 " style="stroke-width: 0.85 ;&st7; " /><path d=" M   42.49,  319.07  C   43.28   319.07    43.91   318.43    43.91   317.65 " style="stroke-width: 0.85 ;&st7; " /><path d=" M   43.91,  340.31  C   43.91   339.53    43.28   338.90    42.49   338.90 " style="stroke-width: 0.85 ;&st7; " /><path d=" M   42.49,  338.90  C   41.71   338.90    41.08   339.53    41.08   340.31 " style="stroke-width: 0.85 ;&st7; " /><path d=" M   41.08,  340.31  C   41.08   341.09    41.71   341.73    42.49   341.73 " style="stroke-width: 0.85 ;&st7; " /><path d=" M   42.49,  341.73  C   43.28   341.73    43.91   341.09    43.91   340.31 " style="stroke-width: 0.85 ;&st7; " /><path d=" M   42.49,  319.07  C   41.64   321.98    42.30   324.88    44.34   327.14 " style="stroke-width: 1.42 ;&st7; " /><path d=" M   42.49,  319.07  C   40.32   322.09    40.32   325.96    42.49   328.98 " style="stroke-width: 1.42 ;&st7; " /><path d=" M   42.49,  319.07  C   38.78   321.83    37.96   327.05    40.65   330.82 " style="stroke-width: 1.42 ;&st7; " /><path d=" M   42.49,  338.90  C   46.21   336.13    47.03   330.91    44.33   327.14 " style="stroke-width: 1.42 ;&st7; " /><text style="&st18;" transform="matrix(&st17;  38.8  476.81 )">W</text><text style="&st18;" transform="matrix(&st17;  140.78  476.81 )">W</text><text style="&st18;" transform="matrix(&st17;  276.76  463.04 )">B</text><text style="&st18;" transform="matrix(&st17;  140.78  324.07 )">W-R</text><text style="&st18;" transform="matrix(&st17;  140.78  230.59 )">W-R</text><text style="&st18;" transform="matrix(&st17;  276.76  225.22 )">R</text><text style="&st18;" transform="matrix(&st17;  276.76  293.21 )">R</text><text style="&st18;" transform="matrix(&st17;  302.25  284.71 )">R</text><text style="&st18;" transform="matrix(&st17;  302.25  468.41 )">W-B</text><text style="&st18;" transform="matrix(&st17;  313.59  288.42 )">(*3)</text><text style="&st18;" transform="matrix(&st17;  421.23  663.88 )">W-B</text><text style="&st18;" transform="matrix(&st16;  247.12  100.07 )">R-W</text><text style="&st18;" transform="matrix(&st16;  265.64  75.99 )">9</text><text style="&st18;" transform="matrix(&st16;  59.8  328.12 )">120A <tspan dy="6" x="0">MAIN4</tspan></text><text style="&st18;" transform="matrix(&st16;  38.15  279.96 )">1G</text><text style="&st18;" transform="matrix(&st16;  30.58  279.96 )">1</text><text style="&st18;" transform="matrix(&st16;  59.8  149.65 )">30A <tspan dy="6" x="0">AM1</tspan></text><text style="&st18;" transform="matrix(&st16;  38.4  109.99 )">5F</text><text style="&st18;" transform="matrix(&st16;  30.58  109.99 )">1</text><text style="&st18;" transform="matrix(&st16;  37.76  203.47 )">5G</text><text style="&st18;" transform="matrix(&st16;  30.58  203.47 )">1</text><text style="&st18;" transform="matrix(&st16;  111.63  83.07 )">W-L</text><text style="&st18;" transform="matrix(&st16;  495.23  204.89 )">(*3)</text><text style="&st18;" transform="matrix(&st16;  498.94  193.56 )">R</text><text style="&st18;" transform="matrix(&st16;  490.75  298.37 )">(*1,*2)</text><text style="&st18;" transform="matrix(&st16;  498.94  287.04 )">R</text><text style="&st18;" transform="matrix(&st16;  493.57  23.58 )">R-W</text><text style="&st18;" transform="matrix(&st16;  235.63  583.36 )">B</text><text style="&st18;" transform="matrix(&st16;  235.63  574.29 )">A</text><text style="&st18;" transform="matrix(&st16;  227.86  574.29 )">1</text><text style="&st18;" transform="matrix(&st16;  270.35  619.62 )">1</text><text style="&st18;" transform="matrix(&st17;  276.76  573.52 )">B</text><text style="&st18;" transform="matrix(&st16;  270.35  610.55 )">1</text><text style="&st18;" transform="matrix(&st16;  243.93  574.29 )">(*1)</text><text style="&st18;" transform="matrix(&st17;  38.8  246.84 )">B-G</text><text style="&st18;" transform="matrix(&st17;  50.13  247.52 )">(*15)</text><text style="&st18;" transform="matrix(&st17;  64.29  246.07 )">B-L</text><text style="&st18;" transform="matrix(&st17;  75.63  247.52 )">(*17)</text><text style="&st18;" transform="matrix(&st17;  13.3  243.1 )">W</text><text style="&st18;" transform="matrix(&st17;  24.63  247.52 )">(*18)</text><text style="&st18;" transform="matrix(&st16;  195.81  544.83 )">(*24)</text><text style="&st18;" transform="matrix(&st16;  197.64  508.0 )">B-L</text><text style="&st18;" transform="matrix(&st16;  195.81  519.33 )">(*23)</text><text style="&st18;" transform="matrix(&st17;  276.76  52.12 )">R-W</text><text style="&st18;" transform="matrix(&st16;  48.47  502.34 )">FL MAIN <tspan dy="6" x="0">3.0W</tspan></text><text style="&st18;" transform="matrix(&st16;  150.45  502.34 )">FL MAIN <tspan dy="6" x="0">2.0L</tspan></text><text ewd:textID="21" style="&st18;" transform="matrix(&st16;  167.45  186.47 )">Ignition SW</text><text style="&st18;" transform="matrix(&st16;  277.98  619.62 )">H</text><text style="&st18;" transform="matrix(&st16;  277.56  666.64 )">M</text><text style="&st18;" transform="matrix(&st16;  286.43  619.62 )">(*2,*3)</text><text style="&st18;" transform="matrix(&st17;  322.06  684.2 )">E1(A),(B),(C),(D),(E),(F), <tspan dy="6" x="-0.01">E2(G),(H)</tspan></text><text ewd:textID="25" style="&st18;" transform="matrix(&st17;  335.11  684.2 )">Starter</text><text style="&st18;" transform="matrix(&st16;  243.93  619.62 )">(*11)</text><text style="&st18;" transform="matrix(&st16;  235.84  619.62 )">F</text><text style="&st18;" transform="matrix(&st16;  227.86  619.62 )">1</text><text style="&st18;" transform="matrix(&st16;  243.93  610.55 )">(*10)</text><text style="&st18;" transform="matrix(&st16;  235.63  610.55 )">E</text><text style="&st18;" transform="matrix(&st16;  227.86  610.55 )">1</text><text style="&st18;" transform="matrix(&st16;  243.93  601.49 )">(*9)</text><text style="&st18;" transform="matrix(&st16;  235.49  601.49 )">D</text><text style="&st18;" transform="matrix(&st16;  227.86  601.49 )">1</text><text style="&st18;" transform="matrix(&st16;  243.93  592.42 )">(*22)</text><text style="&st18;" transform="matrix(&st16;  235.49  592.42 )">C</text><text style="&st18;" transform="matrix(&st16;  227.86  592.42 )">1</text><text style="&st18;" transform="matrix(&st16;  243.93  583.36 )">(*7)</text><text style="&st18;" transform="matrix(&st16;  277.7  610.55 )">G</text><text style="&st18;" transform="matrix(&st16;  286.43  610.55 )">(*1)</text><text style="&st18;" transform="matrix(&st16;  227.86  583.36 )">1</text><text style="&st18;" transform="matrix(&st16;  266.42  500.92 )">1</text><text style="&st18;" transform="matrix(&st16;  303.97  424.43 )">4</text><text ewd:textID="24" style="&st18;" transform="matrix(&st16;  317.59  374.87 )">ST <tspan dy="6" x="0">Relay</tspan></text><text style="&st18;" transform="matrix(&st16;  278.48  424.43 )">4</text><text style="&st18;" transform="matrix(&st16;  303.97  330.95 )">4</text><text style="&st18;" transform="matrix(&st16;  278.48  330.95 )">4</text><text style="&st18;" transform="matrix(&st16;  273.66  400.91 )">3</text><text style="&st18;" transform="matrix(&st16;  299.16  400.91 )">2</text><text style="&st18;" transform="matrix(&st16;  273.66  355.03 )">5</text><text style="&st18;" transform="matrix(&st16;  299.93  355.03 )">1</text><text style="&st18;" transform="matrix(&st16;  167.45  179.37 )">H25</text><text style="&st18;" transform="matrix(&st16;  206.69  151.07 )">ST2</text><text style="&st18;" transform="matrix(&st16;  208.1  134.07 )">IG2</text><text style="&st18;" transform="matrix(&st16;  207.47  100.08 )">ST1</text><text style="&st18;" transform="matrix(&st16;  208.88  83.08 )">IG1</text><text style="&st18;" transform="matrix(&st16;  204.99  66.08 )">ACC</text><text style="&st18;" transform="matrix(&st16;  163.6  83.08 )">AM1</text><text style="&st18;" transform="matrix(&st16;  163.6  134.07 )">AM2</text><text style="&st18;" transform="matrix(&st16;  223.8  100.08 )">1</text><text style="&st18;" transform="matrix(&st16;  154.68  134.07 )">7</text><text style="&st18;" transform="matrix(&st16;  154.68  83.08 )">2</text><text ewd:textID="18" style="&st18;" transform="matrix(&st16;  164.61  594.41 )">Battery</text><text style="&st18;" transform="matrix(&st16;  262.46  254.46 )">12</text><text style="&st18;" transform="matrix(&st16;  142.5  458.43 )">2</text><text style="&st18;" transform="matrix(&st16;  161.78  396.11 )">30A <tspan dy="6" x="0">AM2</tspan></text><text style="&st18;" transform="matrix(&st16;  138.46  426.41 )">1</text><text style="&st18;" transform="matrix(&st16;  137.68  372.03 )">2</text><text style="&st18;" transform="matrix(&st16;  142.5  347.95 )">2</text><text style="&st18;" transform="matrix(&st16;  130.44  288.46 )">1</text><text style="&st18;" transform="matrix(&st16;  38.43  458.43 )">1D</text><text style="&st18;" transform="matrix(&st16;  30.58  458.43 )">1</text><text style="&st18;" transform="matrix(&st16;  59.8  390.46 )">140A <tspan dy="6" x="0">ALT (*20) </tspan><tspan dy="6" x="0">150A </tspan><tspan dy="6" x="0">ALT (*19)</tspan></text><text style="&st18;" transform="matrix(&st16;  197.15  533.5 )">B-R</text><text style="&st18;" transform="matrix(&st16;  223.8  151.07 )">8</text></svg>