﻿<?xml version="1.0" encoding="utf-8"?>
<!DOCTYPE svg PUBLIC "-//W3C//DTD SVG 1.0//EN" "http://www.w3.org/TR/2001/REC-SVG-20010904/DTD/svg10.dtd"[
	<!ENTITY ns_flows "http://ns.adobe.com/Flows/1.0/">
	<!ENTITY ns_svg "http://www.w3.org/2000/svg">
	<!ENTITY ns_xlink "http://www.w3.org/1999/xlink">
	<!ENTITY st0 "font-size:7px;font-family:'MS-PGothic';adobe-font-script:japanese;">
	<!ENTITY st1 "font-size:6px;font-family:'ArialMT';">
	<!-- White fill  -->
	<!ENTITY st2 "fill:#FFFFFF;stroke:#000000; stroke-width:1.41;stroke-linecap:round;stroke-linejoin:round;">
	<!-- Yellow fill  -->
	<!ENTITY st3 "fill:#FFFFCC;stroke:#FFFFCC; stroke-width:0.1;stroke-linecap:round;stroke-linejoin:round;">
	<!-- Gray fill  -->
	<!ENTITY st4 "fill:#CCCCCC;stroke:#CCCCCC; stroke-width:0.1;stroke-linecap:round;stroke-linejoin:round;">
	<!-- Light-blue fill -->
	<!ENTITY st5 "fill:#CCECF4;stroke:#000000; stroke-width:1.133;stroke-linecap:round;stroke-linejoin:round;">
	<!ENTITY st6 "fill:none;stroke-linecap:butt; stroke-linejoin:round;">
	<!ENTITY st7 "fill:none;stroke:#000000;stroke-linecap:round;stroke-linejoin:round;">
	<!ENTITY st8 "enable-background:new    ;">
	<!-- Black fill -->
	<!ENTITY st9 "fill:#000000;stroke:#000000; stroke-linecap:round;stroke-linejoin:round;">
	<!-- SRS note   -->
	<!ENTITY st10 "font-size:9px;font-family:'ArialMT';">
	<!ENTITY st11 "font-size:9px;font-family:'Svg Symbol';">
	<!ENTITY st12 "font-size:6px;font-family:'Svg Symbol';">
	<!ENTITY st13 "fill:none;stroke:#ff0000;stroke-linecap:round;stroke-linejoin:round;">
	<!-- Yellow fill  -->
	<!ENTITY st14 "fill:#FFFF00;stroke:#FFFF00; stroke-width:0.1;stroke-linecap:round;stroke-linejoin:round;">
	<!ENTITY st15 "font-size:6px;font-family:'MS-PGothic';adobe-font-script:japanese;">
	<!ENTITY st16 "1.00 0.00 0.00 1.00">
	<!ENTITY st17 "0.00 -1.00 1.00 0.00">
	<!ENTITY st18 "font-size:6px;font-family:'Arial';">
	<!ENTITY st19 "font-size:9px;font-family:'Arial';">
	<!ENTITY st20 "font-size:6px;font-family:'MS-PGothic','MS PGothic';adobe-font-script:japanese;">
	<!ENTITY st21 "font-size:7px;font-family:'MS-PGothic','MS PGothic';adobe-font-script:japanese;">
	<!ATTLIST svg
		xmlns:ewd CDATA #FIXED "http://shcl.co.jp/ewd"
		xmlns:a CDATA #FIXED "http://ns.adobe.com/AdobeSVGViewerExtensions/3.0/"
		ewd:ver CDATA #IMPLIED
	>
	<!ATTLIST a
		ewd:lineID CDATA #IMPLIED
		ewd:groupID CDATA #IMPLIED
		ewd:figtype CDATA #IMPLIED
		ewd:code CDATA #IMPLIED
		ewd:figID CDATA #IMPLIED
		ewd:pinNo CDATA #IMPLIED
		ewd:comment CDATA #IMPLIED >
	<!ATTLIST g
		ewd:lineID CDATA #IMPLIED
		ewd:groupID CDATA #IMPLIED
		ewd:figtype CDATA #IMPLIED
		ewd:code CDATA #IMPLIED
		ewd:figID CDATA #IMPLIED
		ewd:pinNo CDATA #IMPLIED
		ewd:comment CDATA #IMPLIED >
	<!ATTLIST text
		ewd:textID CDATA #IMPLIED >
	<!ATTLIST title
		ewd:textID CDATA #IMPLIED >
]>
<!-- Generator: Shintec Hozumi YS   -->
<svg onload="call_execInitLoadProc_svg('system')" style="overflow:visible;  enable-background:new 0 0 2068.362 710.000" viewBox="0 0 2068.362 710.000" height="710.000" width="2068.362" xml:space="preserve" ewd:ver="L2.1.2.5" xmlns="&ns_svg;" xmlns:a="http://ns.adobe.com/AdobeSVGViewerExtensions/3.0/" xmlns:ewd="http://shcl.co.jp/ewd" xmlns:xlink="&ns_xlink;">
<path d=" M  101.98,  401.22  L   93.48,  401.22 " style="stroke-width: 1.42 ;&st7; " /><path d=" M  101.98,  316.23  L   93.48,  316.23 " style="stroke-width: 1.42 ;&st7; " /><path d=" M  155.10,  299.24  L  150.85,  299.24 " style="stroke-width: 1.42 ;&st7; " /><path d=" M  155.10,  307.73  L  150.85,  307.73 " style="stroke-width: 1.42 ;&st7; " /><path d=" M  189.09,  299.24  L  184.84,  299.24 " style="stroke-width: 1.42 ;&st7; " /><path d=" M  189.09,  307.73  L  184.84,  307.73 " style="stroke-width: 1.42 ;&st7; " /><path d=" M   93.48,  589.60  L   99.15,  566.94 " style="stroke-width: 1.42 ;&st7; " /><path d=" M   93.48,  596.69  L   93.48,  592.44 " style="stroke-width: 0.85 ;&st7; " /><path d=" M   93.48,  566.94  L   93.48,  545.69 " style="stroke-width: 0.85 ;&st7; " /><path d=" M  271.95,  452.21  L  280.45,  452.21 " style="stroke-width: 1.42 ;&st7; " /><path d=" M  195.47,  346.70  L  190.50,  341.73 " style="stroke-width: 1.42 ;&st7; " /><path d=" M  178.47,  353.76  L  183.44,  358.73 " style="stroke-width: 1.42 ;&st7; " /><path d=" M  190.50,  358.73  L  195.47,  353.76 " style="stroke-width: 1.42 ;&st7; " /><path d=" M  183.44,  341.73  L  178.47,  346.70 " style="stroke-width: 1.42 ;&st7; " /><path d=" M  161.47,  372.20  L  156.50,  367.22 " style="stroke-width: 1.42 ;&st7; " /><path d=" M  144.48,  379.25  L  149.44,  384.22 " style="stroke-width: 1.42 ;&st7; " /><path d=" M  156.50,  384.22  L  161.47,  379.25 " style="stroke-width: 1.42 ;&st7; " /><path d=" M  149.44,  367.22  L  144.48,  372.20 " style="stroke-width: 1.42 ;&st7; " /><path d=" M  169.97,   69.77  L  169.97,   78.27 " style="stroke-width: 0.85 ;&st7; " /><path d=" M  361.19,  568.36  L  361.19,  572.32 " style="stroke-width: 1.42 ;&st7; " /><path d=" M  352.69,  572.32  L  352.69,  568.36 " style="stroke-width: 1.42 ;&st7; " /><path d=" M  352.69,  568.36  L  361.19,  568.36 " style="stroke-width: 1.42 ;&st7; " /><path d=" M  361.19,  591.02  L  361.19,  587.05 " style="stroke-width: 1.42 ;&st7; " /><path d=" M  352.69,  587.05  L  352.69,  591.02 " style="stroke-width: 1.42 ;&st7; " /><path d=" M  352.69,  591.02  L  361.19,  591.02 " style="stroke-width: 1.42 ;&st7; " /><path d=" M  148.73,  587.05  L  148.73,  591.02 " style="stroke-width: 1.42 ;&st7; " /><path d=" M  157.22,  591.02  L  157.22,  587.05 " style="stroke-width: 1.42 ;&st7; " /><path d=" M  148.73,  568.36  L  157.22,  568.36 " style="stroke-width: 1.42 ;&st7; " /><path d=" M  157.22,  568.36  L  157.22,  572.32 " style="stroke-width: 1.42 ;&st7; " /><path d=" M  148.73,  572.32  L  148.73,  568.36 " style="stroke-width: 1.42 ;&st7; " /><path d=" M  148.73,  591.02  L  157.22,  591.02 " style="stroke-width: 1.42 ;&st7; " /><path d=" M   93.48,   69.77  L   93.48,   78.27 " style="stroke-width: 0.85 ;&st7; " /><path d=" M  144.48,  452.21  L  152.97,  452.21 " style="stroke-width: 1.42 ;&st7; " /><path d=" M  178.47,  452.21  L  186.97,  452.21 " style="stroke-width: 1.42 ;&st7; " /><path d=" M  212.46,  452.21  L  220.96,  452.21 " style="stroke-width: 1.42 ;&st7; " /><path d=" M  348.44,  452.21  L  356.94,  452.21 " style="stroke-width: 1.42 ;&st7; " /><path d=" M  382.44,  452.21  L  390.93,  452.21 " style="stroke-width: 1.42 ;&st7; " /><path d=" M   84.99,  452.21  L   93.48,  452.21 " style="stroke-width: 1.42 ;&st7; " /><path d=" M 2005.66,  214.25  L 2005.66,  171.76  L   76.49,  171.76  L   76.49,  214.25  L 2005.66,  214.25 " style="stroke-width: 1.42 ;&st7; " /><path d=" M  106.23,   78.27  L  106.23,   35.78  L   80.74,   35.78  L   80.74,   78.27  L  106.23,   78.27 " style="stroke-width: 1.42 ;&st7; " /><path d=" M   93.48,   78.27  L   93.48,  171.76 " style="stroke-width: 0.85 ;&st7; " /><path d=" M  407.93,  545.69  L  407.93,  622.18  L  339.94,  622.18  L  339.94,  545.69  L  407.93,  545.69 " style="stroke-width: 1.42 ;&st7; " /><path d=" M  237.96,  545.69  L  237.96,  622.18  L   76.49,  622.18  L   76.49,  545.69  L  237.96,  545.69 " style="stroke-width: 1.42 ;&st7; " /><path d=" M  148.73,  443.14  L  152.97,  447.39  L  157.22,  443.14 " style="stroke-width: 1.42 ;&st7; " /><path d=" M  157.22,  446.54  L  152.97,  450.79  L  148.73,  446.54 " style="stroke-width: 1.42 ;&st7; " /><path d=" M  182.72,  443.14  L  186.97,  447.39  L  191.22,  443.14 " style="stroke-width: 1.42 ;&st7; " /><path d=" M  191.22,  446.54  L  186.97,  450.79  L  182.72,  446.54 " style="stroke-width: 1.42 ;&st7; " /><path d=" M  216.71,  443.14  L  220.96,  447.39  L  225.21,  443.14 " style="stroke-width: 1.42 ;&st7; " /><path d=" M  225.21,  446.54  L  220.96,  450.79  L  216.71,  446.54 " style="stroke-width: 1.42 ;&st7; " /><path d=" M  352.69,  443.14  L  356.94,  447.39  L  361.19,  443.14 " style="stroke-width: 1.42 ;&st7; " /><path d=" M  361.19,  446.54  L  356.94,  450.79  L  352.69,  446.54 " style="stroke-width: 1.42 ;&st7; " /><path d=" M  386.69,  443.14  L  390.93,  447.39  L  395.18,  443.14 " style="stroke-width: 1.42 ;&st7; " /><path d=" M  395.18,  446.54  L  390.93,  450.79  L  386.69,  446.54 " style="stroke-width: 1.42 ;&st7; " /><path d=" M   89.24,  443.14  L   93.48,  447.39  L   97.73,  443.14 " style="stroke-width: 1.42 ;&st7; " /><path d=" M   97.73,  446.54  L   93.48,  450.79  L   89.24,  446.54 " style="stroke-width: 1.42 ;&st7; " /><path d=" M   97.73,  410.28  L   93.48,  406.03  L   89.24,  410.28 " style="stroke-width: 1.42 ;&st7; " /><path d=" M   97.73,  406.88  L   93.48,  402.63  L   89.24,  406.88 " style="stroke-width: 1.42 ;&st7; " /><path d=" M   97.73,  325.30  L   93.48,  321.05  L   89.24,  325.30 " style="stroke-width: 1.42 ;&st7; " /><path d=" M   97.73,  321.90  L   93.48,  317.65  L   89.24,  321.90 " style="stroke-width: 1.42 ;&st7; " /><path d=" M  152.97,  294.34  L  150.14,  291.51  L  150.14,  295.76  L  152.97,  298.59  L  155.81,  295.76  L  155.81,  291.51  L  152.97,  294.34 " style="stroke-width: 0.28 ;&st9;" /><path d=" M  186.97,  294.34  L  184.14,  291.51  L  184.14,  295.76  L  186.97,  298.59  L  189.80,  295.76  L  189.80,  291.51  L  186.97,  294.34 " style="stroke-width: 0.28 ;&st9;" /><path d=" M  152.97,  214.25  L  152.97,  299.24 " style="stroke-width: 0.85 ;&st7; " /><path d=" M  186.97,  214.25  L  186.97,  299.24 " style="stroke-width: 0.85 ;&st7; " /><path d=" M  152.97,  545.69  L  152.97,  568.36 " style="stroke-width: 0.85 ;&st7; " /><path d=" M  186.97,  545.69  L  186.97,  605.18  L  152.97,  605.18  L  152.97,  591.02 " style="stroke-width: 0.85 ;&st7; " /><path d=" M  356.94,  545.69  L  356.94,  568.36 " style="stroke-width: 0.85 ;&st7; " /><path d=" M  390.93,  545.69  L  390.93,  605.18  L  356.94,  605.18  L  356.94,  591.02 " style="stroke-width: 0.85 ;&st7; " /><path d=" M  220.96,  545.69  L  220.96,  613.68  L   93.48,  613.68  L   93.48,  596.69 " style="stroke-width: 0.85 ;&st7; " /><path d=" M  276.20,  443.14  L  280.45,  447.39  L  284.70,  443.14 " style="stroke-width: 1.42 ;&st7; " /><path d=" M  284.70,  446.54  L  280.45,  450.79  L  276.20,  446.54 " style="stroke-width: 1.42 ;&st7; " /><path d=" M  151.78,  264.24  L  151.51,  264.71  L  151.42,  265.24  L  151.51,  265.77  L  151.78,  266.24  L  152.20,  266.59  L  152.70,  266.78  L  153.25,  266.78  L  153.75,  266.59  L  154.17,  266.24  L  154.44,  265.77  L  154.53,  265.24  L  154.44,  264.71  L  154.17,  264.24  L  153.75,  263.89  L  153.25,  263.71  L  152.70,  263.71  L  152.20,  263.89  L  151.78,  264.24  L  152.18,  264.95  L  152.18,  265.53  L  152.55,  265.98  L  153.12,  266.08  L  153.63,  265.79  L  153.82,  265.24  L  153.63,  264.69  L  153.12,  264.41  L  152.55,  264.50  L  152.97,  265.24 " style="stroke-width: 0.85 ;&st7; " /><path d=" M  185.78,  247.24  L  185.50,  247.71  L  185.41,  248.24  L  185.50,  248.78  L  185.78,  249.25  L  186.19,  249.59  L  186.70,  249.78  L  187.24,  249.78  L  187.75,  249.59  L  188.16,  249.25  L  188.43,  248.78  L  188.53,  248.24  L  188.43,  247.71  L  188.16,  247.24  L  187.75,  246.90  L  187.24,  246.71  L  186.70,  246.71  L  186.19,  246.90  L  185.78,  247.24  L  186.17,  247.95  L  186.17,  248.54  L  186.54,  248.98  L  187.12,  249.08  L  187.62,  248.79  L  187.82,  248.24  L  187.62,  247.70  L  187.12,  247.41  L  186.54,  247.51  L  186.97,  248.24 " style="stroke-width: 0.85 ;&st7; " /><path d=" M  620.40,  299.24  L  620.40,  265.24  L  152.97,  265.24 " style="stroke-width: 0.85 ;&st7; " /><path d=" M  688.38,  299.24  L  688.38,  248.24  L  186.97,  248.24 " style="stroke-width: 0.85 ;&st7; " /><path d=" M  182.72,   78.27  L  182.72,   35.78  L  157.22,   35.78  L  157.22,   78.27  L  182.72,   78.27 " style="stroke-width: 1.42 ;&st7; " /><path d=" M  169.97,   78.27  L  169.97,  171.76 " style="stroke-width: 0.85 ;&st7; " /><path d=" M  169.97,   66.94  C  172.71    65.33   173.62    61.80   172.01    59.06 " style="stroke-width: 1.42 ;&st7; " /><path d=" M  172.01,   59.06  C  171.49    58.18   170.85    57.55   169.97    57.03 " style="stroke-width: 1.42 ;&st7; " /><path d=" M  169.97,   47.11  C  167.23    48.72   166.32    52.25   167.93    54.99 " style="stroke-width: 1.42 ;&st7; " /><path d=" M  167.93,   54.99  C  168.45    55.87   169.09    56.51   169.97    57.03 " style="stroke-width: 1.42 ;&st7; " /><path d=" M  171.39,   45.69  C  171.39    44.91   170.75    44.28   169.97    44.28 " style="stroke-width: 0.85 ;&st7; " /><path d=" M  169.97,   44.28  C  169.19    44.28   168.56    44.91   168.56    45.69 " style="stroke-width: 0.85 ;&st7; " /><path d=" M  168.56,   45.69  C  168.56    46.48   169.19    47.11   169.97    47.11 " style="stroke-width: 0.85 ;&st7; " /><path d=" M  169.97,   47.11  C  170.75    47.11   171.39    46.48   171.39    45.69 " style="stroke-width: 0.85 ;&st7; " /><path d=" M  171.39,   68.36  C  171.39    67.57   170.75    66.94   169.97    66.94 " style="stroke-width: 0.85 ;&st7; " /><path d=" M  169.97,   66.94  C  169.19    66.94   168.56    67.57   168.56    68.36 " style="stroke-width: 0.85 ;&st7; " /><path d=" M  168.56,   68.36  C  168.56    69.14   169.19    69.77   169.97    69.77 " style="stroke-width: 0.85 ;&st7; " /><path d=" M  169.97,   69.77  C  170.75    69.77   171.39    69.14   171.39    68.36 " style="stroke-width: 0.85 ;&st7; " /><path d=" M  365.44,  579.69  C  365.44   574.99   361.63   571.19   356.94   571.19 " style="stroke-width: 1.42 ;&st7; " /><path d=" M  356.94,  571.19  C  352.25   571.19   348.44   574.99   348.44   579.69 " style="stroke-width: 1.42 ;&st7; " /><path d=" M  348.44,  579.69  C  348.44   584.38   352.25   588.19   356.94   588.19 " style="stroke-width: 1.42 ;&st7; " /><path d=" M  356.94,  588.19  C  361.63   588.19   365.44   584.38   365.44   579.69 " style="stroke-width: 1.42 ;&st7; " /><path d=" M  161.47,  579.69  C  161.47   574.99   157.67   571.19   152.97   571.19 " style="stroke-width: 1.42 ;&st7; " /><path d=" M  152.97,  571.19  C  148.28   571.19   144.48   574.99   144.48   579.69 " style="stroke-width: 1.42 ;&st7; " /><path d=" M  144.48,  579.69  C  144.48   584.38   148.28   588.19   152.97   588.19 " style="stroke-width: 1.42 ;&st7; " /><path d=" M  152.97,  588.19  C  157.67   588.19   161.47   584.38   161.47   579.69 " style="stroke-width: 1.42 ;&st7; " /><path d=" M   93.48,   47.11  C   90.75    48.72    89.83    52.25    91.45    54.99 " style="stroke-width: 1.42 ;&st7; " /><path d=" M   91.45,   54.99  C   91.97    55.87    92.60    56.51    93.48    57.03 " style="stroke-width: 1.42 ;&st7; " /><path d=" M   93.48,   66.94  C   96.22    65.33    97.13    61.80    95.52    59.06 " style="stroke-width: 1.42 ;&st7; " /><path d=" M   95.52,   59.06  C   95.00    58.18    94.37    57.55    93.48    57.03 " style="stroke-width: 1.42 ;&st7; " /><path d=" M   94.90,   45.69  C   94.90    44.91    94.27    44.28    93.48    44.28 " style="stroke-width: 0.85 ;&st7; " /><path d=" M   93.48,   44.28  C   92.70    44.28    92.07    44.91    92.07    45.69 " style="stroke-width: 0.85 ;&st7; " /><path d=" M   92.07,   45.69  C   92.07    46.48    92.70    47.11    93.48    47.11 " style="stroke-width: 0.85 ;&st7; " /><path d=" M   93.48,   47.11  C   94.27    47.11    94.90    46.48    94.90    45.69 " style="stroke-width: 0.85 ;&st7; " /><path d=" M   94.90,   68.36  C   94.90    67.57    94.27    66.94    93.48    66.94 " style="stroke-width: 0.85 ;&st7; " /><path d=" M   93.48,   66.94  C   92.70    66.94    92.07    67.57    92.07    68.36 " style="stroke-width: 0.85 ;&st7; " /><path d=" M   92.07,   68.36  C   92.07    69.14    92.70    69.77    93.48    69.77 " style="stroke-width: 0.85 ;&st7; " /><path d=" M   93.48,   69.77  C   94.27    69.77    94.90    69.14    94.90    68.36 " style="stroke-width: 0.85 ;&st7; " /><path d=" M  150.85,  299.24  C  148.50   299.24   146.60   301.14   146.60   303.48 " style="stroke-width: 1.42 ;&st7; " /><path d=" M  146.60,  303.48  C  146.60   305.83   148.50   307.73   150.85   307.73 " style="stroke-width: 1.42 ;&st7; " /><path d=" M  155.10,  307.73  C  157.45   307.73   159.35   305.83   159.35   303.48 " style="stroke-width: 1.42 ;&st7; " /><path d=" M  159.35,  303.48  C  159.35   301.14   157.45   299.24   155.10   299.24 " style="stroke-width: 1.42 ;&st7; " /><path d=" M  184.84,  299.24  C  182.50   299.24   180.59   301.14   180.59   303.48 " style="stroke-width: 1.42 ;&st7; " /><path d=" M  180.59,  303.48  C  180.59   305.83   182.50   307.73   184.84   307.73 " style="stroke-width: 1.42 ;&st7; " /><path d=" M  189.09,  307.73  C  191.44   307.73   193.34   305.83   193.34   303.48 " style="stroke-width: 1.42 ;&st7; " /><path d=" M  193.34,  303.48  C  193.34   301.14   191.44   299.24   189.09   299.24 " style="stroke-width: 1.42 ;&st7; " /><path d=" M   94.90,  591.02  C   94.90   590.24    94.27   589.60    93.48   589.60 " style="stroke-width: 0.85 ;&st7; " /><path d=" M   93.48,  589.60  C   92.70   589.60    92.07   590.24    92.07   591.02 " style="stroke-width: 0.85 ;&st7; " /><path d=" M   92.07,  591.02  C   92.07   591.80    92.70   592.44    93.48   592.44 " style="stroke-width: 0.85 ;&st7; " /><path d=" M   93.48,  592.44  C   94.27   592.44    94.90   591.80    94.90   591.02 " style="stroke-width: 0.85 ;&st7; " /><path d=" M   94.90,  568.36  C   94.90   567.57    94.27   566.94    93.48   566.94 " style="stroke-width: 0.85 ;&st7; " /><path d=" M   93.48,  566.94  C   92.70   566.94    92.07   567.57    92.07   568.36 " style="stroke-width: 0.85 ;&st7; " /><path d=" M   92.07,  568.36  C   92.07   569.14    92.70   569.77    93.48   569.77 " style="stroke-width: 0.85 ;&st7; " /><path d=" M   93.48,  569.77  C   94.27   569.77    94.90   569.14    94.90   568.36 " style="stroke-width: 0.85 ;&st7; " /><path d=" M   98.02,  218.78  C   98.02   216.28    95.99   214.25    93.48   214.25 " style="stroke-width: 1.42 ;&st7; " /><path d=" M   93.48,  214.25  C   90.98   214.25    88.95   216.28    88.95   218.78 " style="stroke-width: 1.42 ;&st7; " /><path d=" M   88.95,  218.78  C   88.95   221.29    90.98   223.31    93.48   223.31 " style="stroke-width: 1.42 ;&st7; " /><path d=" M   93.48,  223.31  C   95.99   223.31    98.02   221.29    98.02   218.78 " style="stroke-width: 1.42 ;&st7; " /><text style="&st18;" transform="matrix(&st16;  146.18  542.0 )">4</text><text style="&st18;" transform="matrix(&st16;  180.95  542.0 )">1</text><text style="&st18;" transform="matrix(&st16;  214.17  542.0 )">7</text><text style="&st18;" transform="matrix(&st16;  350.15  542.0 )">4</text><text style="&st18;" transform="matrix(&st16;  384.92  542.0 )">1</text><text style="&st18;" transform="matrix(&st16;  146.19  222.44 )">2</text><text style="&st18;" transform="matrix(&st17;  245.6  509.38 )">(*2)</text><text style="&st18;" transform="matrix(&st17;  234.26  508.0 )">BR</text><text style="&st18;" transform="matrix(&st16;  180.18  222.44 )">3</text><text style="&st18;" transform="matrix(&st16;  218.49  346.53 )">R</text><text style="&st18;" transform="matrix(&st16;  83.35  210.55 )">LSWD</text><text style="&st18;" transform="matrix(&st16;  218.99  372.03 )">L</text><text style="&st18;" transform="matrix(&st16;  144.04  210.55 )">ACT+</text><text style="&st18;" transform="matrix(&st16;  178.03  210.55 )">ACT-</text><text style="&st18;" transform="matrix(&st16;  116.46  629.79 )">L1</text><text ewd:textID="1" style="&st18;" transform="matrix(&st16;  328.92  20.75 )">* 1 :w/ Power Window</text><text ewd:textID="2" style="&st18;" transform="matrix(&st16;  328.92  29.25 )">* 2 :w/o Power Window</text><text style="&st18;" transform="matrix(&st16;  354.42  629.79 )">K1</text><text style="&st18;" transform="matrix(&st16;  320.42  160.95 )">H7(A)</text><text style="&st18;" transform="matrix(&st16;  84.37  32.08 )">(BAT)</text><text style="&st18;" transform="matrix(&st16;  96.32  553.89 )">LSSR</text><text style="&st18;" transform="matrix(&st16;  155.81  553.89 )">L</text><text style="&st18;" transform="matrix(&st16;  189.8  553.89 )">UL</text><text style="&st18;" transform="matrix(&st16;  223.8  553.89 )">E</text><text style="&st18;" transform="matrix(&st16;  359.77  553.89 )">L</text><text style="&st18;" transform="matrix(&st16;  393.77  553.89 )">UL</text><text style="&st18;" transform="matrix(&st16;  493.72  686.47 )">W-B</text><text style="&st18;" transform="matrix(&st16;  91.15  220.75 )">A</text><text style="&st18;" transform="matrix(&st16;  78.65  220.75 )">20</text><text ewd:textID="31" style="&st18;" transform="matrix(&st16;  320.42  168.06 )">Integration Relay</text><text ewd:textID="27" style="&st18;" transform="matrix(&st16;  354.42  636.9 )">Door Lock Assembly (Front RH)</text><text ewd:textID="26" style="&st18;" transform="matrix(&st16;  116.46  636.9 )">Door Lock Assembly (Front LH)</text><text style="&st18;" transform="matrix(&st16;  110.79  56.17 )">30A <tspan dy="6" x="0">DOOR</tspan></text><text style="&st18;" transform="matrix(&st16;  86.69  168.07 )">4</text><text style="&st18;" transform="matrix(&st16;  84.72  179.39 )">ALTB</text><text style="&st18;" transform="matrix(&st16;  138.16  458.43 )">7</text><text style="&st18;" transform="matrix(&st16;  172.15  458.43 )">6</text><text style="&st18;" transform="matrix(&st16;  206.15  458.43 )">2</text><text style="&st18;" transform="matrix(&st16;  342.13  458.43 )">7</text><text style="&st18;" transform="matrix(&st16;  376.12  458.43 )">6</text><text style="&st18;" transform="matrix(&st16;  78.67  458.43 )">2</text><text style="&st18;" transform="matrix(&st16;  76.27  398.94 )">11</text><text style="&st18;" transform="matrix(&st16;  78.67  313.95 )">7</text><text style="&st18;" transform="matrix(&st16;  148.67  305.45 )">5B</text><text style="&st18;" transform="matrix(&st16;  136.33  305.45 )">33</text><text style="&st18;" transform="matrix(&st16;  182.66  305.45 )">5B</text><text style="&st18;" transform="matrix(&st16;  170.32  305.45 )">34</text><text style="&st18;" transform="matrix(&st16;  86.7  542.0 )">8</text><text style="&st18;" transform="matrix(&st16;  261.68  458.43 )">25</text><text style="&st18;" transform="matrix(&st17;  89.79  268.6 )">W</text><text style="&st18;" transform="matrix(&st17;  89.79  353.58 )">W</text><text style="&st18;" transform="matrix(&st17;  89.79  430.07 )">W</text><text style="&st18;" transform="matrix(&st17;  89.79  506.56 )">W</text><text style="&st18;" transform="matrix(&st17;  149.28  505.18 )">L</text><text style="&st18;" transform="matrix(&st17;  183.27  505.67 )">R</text><text style="&st18;" transform="matrix(&st17;  217.27  511.75 )">G(*1)</text><text style="&st18;" transform="matrix(&st17;  353.24  505.18 )">L</text><text style="&st18;" transform="matrix(&st17;  387.24  505.67 )">R</text><text style="&st18;" transform="matrix(&st17;  387.24  420.69 )">R</text><text style="&st18;" transform="matrix(&st17;  353.24  420.19 )">L</text><text style="&st18;" transform="matrix(&st17;  217.27  422.95 )">LG</text><text style="&st18;" transform="matrix(&st17;  183.27  420.69 )">R</text><text style="&st18;" transform="matrix(&st17;  149.28  420.19 )">L</text><text style="&st18;" transform="matrix(&st17;  149.28  326.71 )">L</text><text style="&st18;" transform="matrix(&st17;  183.27  327.2 )">R</text><text style="&st18;" transform="matrix(&st17;  276.76  422.95 )">LG</text><text style="&st18;" transform="matrix(&st17;  276.76  510.9 )">W-B</text><text style="&st18;" transform="matrix(&st16;  187.28  56.17 )">7.5A <tspan dy="6" x="0">ECU-IG</tspan></text><text style="&st18;" transform="matrix(&st16;  163.9  32.08 )">(IG)</text><text style="&st18;" transform="matrix(&st16;  163.18  168.07 )">5</text><text style="&st18;" transform="matrix(&st16;  163.9  179.39 )">SIG</text><text style="&st18;" transform="matrix(&st17;  64.29  294.09 )">W</text><text style="&st18;" transform="matrix(&st17;  101.12  271.42 )">(*3)</text><text style="&st18;" transform="matrix(&st17;  101.12  356.41 )">(*3)</text><text style="&st18;" transform="matrix(&st17;  75.62  296.92 )">(*4)</text><text ewd:textID="3" style="&st18;" transform="matrix(&st16;  328.92  37.75 )">* 3 :Before Oct. 2006 Production</text><text ewd:textID="4" style="&st18;" transform="matrix(&st16;  328.92  46.25 )">* 4 :From Oct. 2006 Production</text><text style="&st18;" transform="matrix(&st16;  354.04  581.66 )">M</text><text style="&st18;" transform="matrix(&st16;  150.08  581.66 )">M</text><text ewd:textID="35" style="&st18;" transform="matrix(&st17;  88.38  606.46 )">Unlock Detection</text><text ewd:textID="10" style="&st18;" transform="matrix(&st16;  328.92  63.24 )">*10 :From Aug. 2010 Production</text><text ewd:textID="9" style="&st18;" transform="matrix(&st16;  328.92  54.75 )">* 9 :Before Aug. 2010 Production</text><text ewd:textID="14" style="&st18;" transform="matrix(&st16;  328.92  80.24 )">*21 :From Apr. 2012 Production</text><text ewd:textID="13" style="&st18;" transform="matrix(&st16;  328.92  71.74 )">*20 :Before Apr. 2012 Production</text><text ewd:textID="15" style="&st18;" transform="matrix(&st16;  328.92  88.74 )">*22 :From Aug. 2010 Production <tspan dy="8.5" x="14.16">until Apr. 2012 Production</tspan></text></svg>