﻿<?xml version="1.0"?>
<!-- Generator: Adobe Illustrator 10.0, SVG Export Plug-In . SVG Version: 3.0.0 Build 77)  -->
<!DOCTYPE svg PUBLIC "-//W3C//DTD SVG 1.0//EN" "http://www.w3.org/TR/2001/REC-SVG-20010904/DTD/svg10.dtd"[
	<!ENTITY ns_flows "http://ns.adobe.com/Flows/1.0/">
	<!ENTITY ns_svg "http://www.w3.org/2000/svg">
	<!ENTITY ns_xlink "http://www.w3.org/1999/xlink">
	<!ENTITY st0 "fill:none;stroke:#000000;stroke-linecap:round;stroke-linejoin:round;">
	<!ENTITY st1 "fill:none;stroke:#000000;stroke-width:0.6;stroke-linecap:round;stroke-linejoin:round;">
	<!ENTITY st2 "fill:none;stroke:#000000;stroke-width:0.8;">
	<!ENTITY st3 "font-size:8px;">
	<!ENTITY st4 "font-family:'Arial';">
	<!ENTITY st5 "font-size:10px;">
	<!ENTITY st6 "font-size:14px;">
	<!ENTITY st7 "fill:none;stroke:#FFFFFF;stroke-width:0.2;">
	<!ATTLIST svg
		xmlns:ewd CDATA #FIXED "http://shcl.co.jp/ewd"
		xmlns:a CDATA #FIXED "http://ns.adobe.com/AdobeSVGViewerExtensions/3.0/"
		ewd:ver CDATA #IMPLIED>
	<!ATTLIST a
		ewd:innerGroupID CDATA #IMPLIED
		ewd:figtype CDATA #IMPLIED
		ewd:code CDATA #IMPLIED
		ewd:pinNo CDATA #IMPLIED>
]>
<svg width="1006.499" height="680.514" viewBox="0 0 1006.499 680.514" style="overflow:visible;enable-background:new 0 0 1006.499 680.514" xml:space="preserve" onload="call_execInitLoadProc_svg('inner')" ewd:ver="L2.1.2.5" xmlns="&ns_svg;" xmlns:ewd="http://shcl.co.jp/ewd" xmlns:a="http://ns.adobe.com/AdobeSVGViewerExtensions/3.0/" xmlns:xlink="&ns_xlink;">
<script type="text/javascript" xlink:href="../../../../../system/js/ewd/fig/svgfig.js"/>
<g id="WAKU">
	<path style="&st7;" d="M510.336,680.415V0.1H0.1v680.314H510.336z"/>
	<path style="&st7;" d="M1006.399,680.415V0.1H496.163v680.314H1006.399z"/>
</g>
<g id="レイヤ_xFF0D__1">
	<path style="&st1;" d="M364.35,305.237c0-0.782-0.634-1.416-1.417-1.416"/>
	<path style="&st1;" d="M362.933,303.821c-0.781,0-1.416,0.634-1.416,1.416"/>
	<path style="&st1;" d="M361.517,305.237c0,0.783,0.635,1.417,1.416,1.417"/>
	<path style="&st1;" d="M362.933,306.654c0.783,0,1.417-0.634,1.417-1.417"/>
	<path style="&st1;" d="M387.013,305.237c0-0.782-0.635-1.416-1.417-1.416"/>
	<path style="&st1;" d="M385.596,303.821c-0.782,0-1.416,0.634-1.416,1.416"/>
	<path style="&st1;" d="M384.18,305.237c0,0.783,0.634,1.417,1.416,1.417"/>
	<path style="&st1;" d="M385.596,306.654c0.782,0,1.417-0.634,1.417-1.417"/>
	<path style="&st1;" d="M364.35,339.232c0-0.782-0.634-1.417-1.417-1.417"/>
	<path style="&st1;" d="M362.933,337.815c-0.781,0-1.416,0.634-1.416,1.417"/>
	<path style="&st1;" d="M361.517,339.232c0,0.782,0.635,1.417,1.416,1.417"/>
	<path style="&st1;" d="M362.933,340.648c0.783,0,1.417-0.634,1.417-1.417"/>
	<path style="&st1;" d="M387.013,339.232c0-0.782-0.635-1.417-1.417-1.417"/>
	<path style="&st1;" d="M385.596,337.815c-0.782,0-1.416,0.634-1.416,1.417"/>
	<path style="&st1;" d="M384.18,339.232c0,0.782,0.634,1.417,1.416,1.417"/>
	<path style="&st1;" d="M385.596,340.648c0.782,0,1.417-0.634,1.417-1.417"/>
	<path style="&st1;" d="M166.05,169.26c0-0.782-0.634-1.417-1.416-1.417"/>
	<path style="&st1;" d="M164.634,167.844c-0.783,0-1.417,0.634-1.417,1.417"/>
	<path style="&st1;" d="M163.217,169.26c0,0.782,0.634,1.417,1.417,1.417"/>
	<path style="&st1;" d="M164.634,170.677c0.782,0,1.416-0.634,1.416-1.417"/>
	<path style="&st1;" d="M143.387,169.26c0-0.782-0.634-1.417-1.417-1.417"/>
	<path style="&st1;" d="M141.971,167.844c-0.782,0-1.417,0.634-1.417,1.417"/>
	<path style="&st1;" d="M140.554,169.26c0,0.782,0.634,1.417,1.417,1.417"/>
	<path style="&st1;" d="M141.971,170.677c0.782,0,1.417-0.634,1.417-1.417"/>
	<path style="&st0;" d="M163.217,169.26c-2.919-0.854-5.813-0.193-8.073,1.842"/>
	<path style="&st0;" d="M163.217,169.26c-3.023-2.171-6.892-2.171-9.915,0"/>
	<path style="&st0;" d="M163.217,169.26c-2.767-3.717-7.985-4.534-11.755-1.84"/>
	<path style="&st0;" d="M143.387,169.26c2.767,3.717,7.984,4.534,11.755,1.84"/>
	<path style="&st0;" d="M143.387,169.26c3.023,2.171,6.892,2.171,9.915,0"/>
	<path style="&st0;" d="M143.387,169.26c2.918,0.854,5.813,0.193,8.073-1.842"/>
	<path style="&st1;" d="M166.05,203.254c0-0.782-0.634-1.416-1.416-1.416"/>
	<path style="&st1;" d="M164.634,201.838c-0.783,0-1.417,0.634-1.417,1.416"/>
	<path style="&st1;" d="M163.217,203.254c0,0.782,0.634,1.417,1.417,1.417"/>
	<path style="&st1;" d="M164.634,204.671c0.782,0,1.416-0.634,1.416-1.417"/>
	<path style="&st1;" d="M143.387,203.254c0-0.782-0.634-1.416-1.417-1.416"/>
	<path style="&st1;" d="M141.971,201.838c-0.782,0-1.417,0.634-1.417,1.416"/>
	<path style="&st1;" d="M140.554,203.254c0,0.782,0.634,1.417,1.417,1.417"/>
	<path style="&st1;" d="M141.971,204.671c0.782,0,1.417-0.634,1.417-1.417"/>
	<path style="&st0;" d="M163.217,203.254c-2.919-0.854-5.813-0.193-8.073,1.843"/>
	<path style="&st0;" d="M163.217,203.254c-3.023-2.171-6.892-2.171-9.915,0"/>
	<path style="&st0;" d="M163.217,203.254c-2.767-3.717-7.985-4.534-11.755-1.84"/>
	<path style="&st0;" d="M143.387,203.254c2.767,3.718,7.984,4.534,11.755,1.84"/>
	<path style="&st0;" d="M143.387,203.254c3.023,2.171,6.892,2.171,9.915,0"/>
	<path style="&st0;" d="M143.387,203.254c2.918,0.854,5.813,0.193,8.073-1.842"/>
	<path style="&st1;" d="M166.05,237.249c0-0.782-0.634-1.417-1.416-1.417"/>
	<path style="&st1;" d="M164.634,235.833c-0.783,0-1.417,0.634-1.417,1.417"/>
	<path style="&st1;" d="M163.217,237.249c0,0.782,0.634,1.417,1.417,1.417"/>
	<path style="&st1;" d="M164.634,238.666c0.782,0,1.416-0.634,1.416-1.417"/>
	<path style="&st1;" d="M143.387,237.249c0-0.782-0.634-1.417-1.417-1.417"/>
	<path style="&st1;" d="M141.971,235.833c-0.782,0-1.417,0.634-1.417,1.417"/>
	<path style="&st1;" d="M140.554,237.249c0,0.782,0.634,1.417,1.417,1.417"/>
	<path style="&st1;" d="M141.971,238.666c0.782,0,1.417-0.634,1.417-1.417"/>
	<path style="&st0;" d="M163.217,237.249c-2.919-0.854-5.813-0.193-8.073,1.842"/>
	<path style="&st0;" d="M163.217,237.249c-3.023-2.171-6.892-2.171-9.915,0"/>
	<path style="&st0;" d="M163.217,237.249c-2.767-3.717-7.985-4.534-11.755-1.84"/>
	<path style="&st0;" d="M143.387,237.249c2.767,3.717,7.984,4.534,11.755,1.84"/>
	<path style="&st0;" d="M143.387,237.249c3.023,2.171,6.892,2.171,9.915,0"/>
	<path style="&st0;" d="M143.387,237.249c2.918,0.854,5.813,0.193,8.073-1.842"/>
	<path style="&st1;" d="M166.05,271.243c0-0.782-0.634-1.417-1.416-1.417"/>
	<path style="&st1;" d="M164.634,269.827c-0.783,0-1.417,0.634-1.417,1.417"/>
	<path style="&st1;" d="M163.217,271.243c0,0.782,0.634,1.417,1.417,1.417"/>
	<path style="&st1;" d="M164.634,272.66c0.782,0,1.416-0.634,1.416-1.417"/>
	<path style="&st1;" d="M143.387,271.243c0-0.782-0.634-1.417-1.417-1.417"/>
	<path style="&st1;" d="M141.971,269.827c-0.782,0-1.417,0.634-1.417,1.417"/>
	<path style="&st1;" d="M140.554,271.243c0,0.782,0.634,1.417,1.417,1.417"/>
	<path style="&st1;" d="M141.971,272.66c0.782,0,1.417-0.634,1.417-1.417"/>
	<path style="&st0;" d="M163.217,271.243c-2.919-0.854-5.813-0.193-8.073,1.842"/>
	<path style="&st0;" d="M163.217,271.243c-3.023-2.171-6.892-2.171-9.915,0"/>
	<path style="&st0;" d="M163.217,271.243c-2.767-3.717-7.985-4.534-11.755-1.84"/>
	<path style="&st0;" d="M143.387,271.243c2.767,3.717,7.984,4.534,11.755,1.84"/>
	<path style="&st0;" d="M143.387,271.243c3.023,2.171,6.892,2.171,9.915,0"/>
	<path style="&st0;" d="M143.387,271.243c2.918,0.854,5.813,0.193,8.073-1.842"/>
	<path style="&st1;" d="M166.05,305.237c0-0.782-0.634-1.416-1.416-1.416"/>
	<path style="&st1;" d="M164.634,303.821c-0.783,0-1.417,0.634-1.417,1.416"/>
	<path style="&st1;" d="M163.217,305.237c0,0.783,0.634,1.417,1.417,1.417"/>
	<path style="&st1;" d="M164.634,306.654c0.782,0,1.416-0.634,1.416-1.417"/>
	<path style="&st1;" d="M143.387,305.237c0-0.782-0.634-1.416-1.417-1.416"/>
	<path style="&st1;" d="M141.971,303.821c-0.782,0-1.417,0.634-1.417,1.416"/>
	<path style="&st1;" d="M140.554,305.237c0,0.783,0.634,1.417,1.417,1.417"/>
	<path style="&st1;" d="M141.971,306.654c0.782,0,1.417-0.634,1.417-1.417"/>
	<path style="&st1;" d="M387.013,169.26c0-0.782-0.635-1.417-1.417-1.417"/>
	<path style="&st1;" d="M385.596,167.844c-0.782,0-1.416,0.634-1.416,1.417"/>
	<path style="&st1;" d="M384.18,169.26c0,0.782,0.634,1.417,1.416,1.417"/>
	<path style="&st1;" d="M385.596,170.677c0.782,0,1.417-0.634,1.417-1.417"/>
	<path style="&st1;" d="M364.35,169.26c0-0.782-0.634-1.417-1.417-1.417"/>
	<path style="&st1;" d="M362.933,167.844c-0.781,0-1.416,0.634-1.416,1.417"/>
	<path style="&st1;" d="M361.517,169.26c0,0.782,0.635,1.417,1.416,1.417"/>
	<path style="&st1;" d="M362.933,170.677c0.783,0,1.417-0.634,1.417-1.417"/>
	<path style="&st0;" d="M384.18,237.249c-2.918-0.854-5.813-0.193-8.072,1.842"/>
	<path style="&st0;" d="M384.18,237.249c-3.023-2.171-6.892-2.171-9.915,0"/>
	<path style="&st0;" d="M384.18,237.249c-2.768-3.717-7.984-4.534-11.756-1.84"/>
	<path style="&st0;" d="M364.35,237.249c2.768,3.717,7.985,4.534,11.755,1.84"/>
	<path style="&st0;" d="M364.35,237.249c3.023,2.171,6.892,2.171,9.915,0"/>
	<path style="&st0;" d="M364.35,237.249c2.919,0.854,5.813,0.193,8.073-1.842"/>
	<path style="&st1;" d="M387.013,203.254c0-0.782-0.635-1.416-1.417-1.416"/>
	<path style="&st1;" d="M385.596,201.838c-0.782,0-1.416,0.634-1.416,1.416"/>
	<path style="&st1;" d="M384.18,203.254c0,0.782,0.634,1.417,1.416,1.417"/>
	<path style="&st1;" d="M385.596,204.671c0.782,0,1.417-0.634,1.417-1.417"/>
	<path style="&st1;" d="M364.35,203.254c0-0.782-0.634-1.416-1.417-1.416"/>
	<path style="&st1;" d="M362.933,201.838c-0.781,0-1.416,0.634-1.416,1.416"/>
	<path style="&st1;" d="M361.517,203.254c0,0.782,0.635,1.417,1.416,1.417"/>
	<path style="&st1;" d="M362.933,204.671c0.783,0,1.417-0.634,1.417-1.417"/>
	<path style="&st0;" d="M384.18,271.243c-2.918-0.854-5.813-0.193-8.072,1.842"/>
	<path style="&st0;" d="M384.18,271.243c-3.023-2.171-6.892-2.171-9.915,0"/>
	<path style="&st0;" d="M384.18,271.243c-2.768-3.717-7.984-4.534-11.756-1.84"/>
	<path style="&st0;" d="M364.35,271.243c2.768,3.717,7.985,4.534,11.755,1.84"/>
	<path style="&st0;" d="M364.35,271.243c3.023,2.171,6.892,2.171,9.915,0"/>
	<path style="&st0;" d="M364.35,271.243c2.919,0.854,5.813,0.193,8.073-1.842"/>
	<path style="&st1;" d="M387.013,237.249c0-0.782-0.635-1.417-1.417-1.417"/>
	<path style="&st1;" d="M385.596,235.833c-0.782,0-1.416,0.634-1.416,1.417"/>
	<path style="&st1;" d="M384.18,237.249c0,0.782,0.634,1.417,1.416,1.417"/>
	<path style="&st1;" d="M385.596,238.666c0.782,0,1.417-0.634,1.417-1.417"/>
	<path style="&st1;" d="M364.35,237.249c0-0.782-0.634-1.417-1.417-1.417"/>
	<path style="&st1;" d="M362.933,235.833c-0.781,0-1.416,0.634-1.416,1.417"/>
	<path style="&st1;" d="M361.517,237.249c0,0.782,0.635,1.417,1.416,1.417"/>
	<path style="&st1;" d="M362.933,238.666c0.783,0,1.417-0.634,1.417-1.417"/>
	<path style="&st0;" d="M384.18,305.237c-2.918-0.853-5.813-0.193-8.072,1.843"/>
	<path style="&st0;" d="M384.18,305.237c-3.023-2.171-6.892-2.171-9.915,0"/>
	<path style="&st0;" d="M384.18,305.237c-2.768-3.717-7.984-4.534-11.756-1.84"/>
	<path style="&st0;" d="M364.35,305.237c2.768,3.718,7.985,4.534,11.755,1.84"/>
	<path style="&st0;" d="M364.35,305.237c3.023,2.171,6.892,2.171,9.915,0"/>
	<path style="&st0;" d="M364.35,305.237c2.919,0.854,5.813,0.193,8.073-1.842"/>
	<path style="&st1;" d="M387.013,271.243c0-0.782-0.635-1.417-1.417-1.417"/>
	<path style="&st1;" d="M385.596,269.827c-0.782,0-1.416,0.634-1.416,1.417"/>
	<path style="&st1;" d="M384.18,271.243c0,0.782,0.634,1.417,1.416,1.417"/>
	<path style="&st1;" d="M385.596,272.66c0.782,0,1.417-0.634,1.417-1.417"/>
	<path style="&st1;" d="M364.35,271.243c0-0.782-0.634-1.417-1.417-1.417"/>
	<path style="&st1;" d="M362.933,269.827c-0.781,0-1.416,0.634-1.416,1.417"/>
	<path style="&st1;" d="M361.517,271.243c0,0.782,0.635,1.417,1.416,1.417"/>
	<path style="&st1;" d="M362.933,272.66c0.783,0,1.417-0.634,1.417-1.417"/>
	<path style="&st0;" d="M384.18,339.232c-2.918-0.854-5.813-0.193-8.072,1.842"/>
	<path style="&st0;" d="M384.18,339.232c-3.023-2.171-6.892-2.171-9.915,0"/>
	<path style="&st0;" d="M384.18,339.232c-2.768-3.717-7.984-4.534-11.756-1.84"/>
	<path style="&st0;" d="M364.35,339.232c2.768,3.717,7.985,4.534,11.755,1.84"/>
	<path style="&st0;" d="M364.35,339.232c3.023,2.171,6.892,2.171,9.915,0"/>
	<path style="&st0;" d="M364.35,339.232c2.919,0.854,5.813,0.193,8.073-1.842"/>
	<path style="&st0;" d="M364.35,203.254c3.023,2.171,6.892,2.171,9.915,0"/>
	<path style="&st0;" d="M364.35,203.254c2.919,0.854,5.813,0.193,8.073-1.842"/>
	<path style="&st0;" d="M384.18,203.254c-3.023-2.171-6.892-2.171-9.915,0"/>
	<path style="&st0;" d="M384.18,203.254c-2.918-0.854-5.813-0.193-8.072,1.843"/>
	<path style="&st0;" d="M364.35,203.254c2.768,3.718,7.985,4.534,11.755,1.84"/>
	<path style="&st0;" d="M384.18,203.254c-2.768-3.717-7.984-4.534-11.756-1.84"/>
	<path style="&st0;" d="M364.35,169.26c3.023,2.171,6.892,2.171,9.915,0"/>
	<path style="&st0;" d="M364.35,169.26c2.919,0.854,5.813,0.193,8.073-1.842"/>
	<path style="&st0;" d="M384.18,169.26c-3.023-2.171-6.892-2.171-9.915,0"/>
	<path style="&st0;" d="M384.18,169.26c-2.918-0.854-5.813-0.193-8.072,1.842"/>
	<path style="&st0;" d="M364.35,169.26c2.768,3.717,7.985,4.534,11.755,1.84"/>
	<path style="&st0;" d="M384.18,169.26c-2.768-3.717-7.984-4.534-11.756-1.84"/>
	<path style="&st0;" d="M143.387,305.237c3.023,2.171,6.892,2.171,9.915,0"/>
	<path style="&st0;" d="M143.387,305.237c2.918,0.854,5.813,0.193,8.073-1.842"/>
	<path style="&st0;" d="M163.217,305.237c-3.023-2.171-6.892-2.171-9.915,0"/>
	<path style="&st0;" d="M163.217,305.237c-2.919-0.853-5.813-0.193-8.073,1.843"/>
	<path style="&st0;" d="M143.387,305.237c2.767,3.718,7.984,4.534,11.755,1.84"/>
	<path style="&st0;" d="M163.217,305.237c-2.767-3.717-7.985-4.534-11.755-1.84"/>
	<path style="&st1;" d="M218.458,108.354c0-0.782-0.634-1.417-1.417-1.417"/>
	<path style="&st1;" d="M217.042,106.937c-0.782,0-1.417,0.635-1.417,1.417"/>
	<path style="&st1;" d="M215.625,108.354c0,0.783,0.634,1.417,1.417,1.417"/>
	<path style="&st1;" d="M217.042,109.77c0.782,0,1.417-0.634,1.417-1.417"/>
	<path style="&st1;" d="M218.458,85.691c0-0.782-0.634-1.417-1.417-1.417"/>
	<path style="&st1;" d="M217.042,84.274c-0.782,0-1.417,0.634-1.417,1.417"/>
	<path style="&st1;" d="M215.625,85.691c0,0.782,0.634,1.417,1.417,1.417"/>
	<path style="&st1;" d="M217.042,87.107c0.782,0,1.417-0.634,1.417-1.417"/>
	<path style="&st0;" d="M217.042,106.937c0.854-2.918,0.193-5.813-1.842-8.072"/>
	<path style="&st0;" d="M217.042,106.937c2.171-3.023,2.171-6.892,0-9.915"/>
	<path style="&st0;" d="M217.042,106.937c3.717-2.767,4.534-7.984,1.84-11.755"/>
	<path style="&st0;" d="M217.042,87.107c-3.717,2.767-4.534,7.985-1.84,11.755"/>
	<path style="&st0;" d="M217.042,87.107c-2.171,3.023-2.171,6.892,0,9.915"/>
	<path style="&st0;" d="M217.042,87.107c-0.854,2.918-0.193,5.813,1.842,8.073"/>
	<path style="&st1;" d="M364.35,135.266c0-0.782-0.634-1.417-1.417-1.417"/>
	<path style="&st1;" d="M362.933,133.85c-0.781,0-1.416,0.634-1.416,1.417"/>
	<path style="&st1;" d="M361.517,135.266c0,0.782,0.635,1.417,1.416,1.417"/>
	<path style="&st1;" d="M362.933,136.683c0.783,0,1.417-0.634,1.417-1.417"/>
	<path style="&st1;" d="M387.013,135.266c0-0.782-0.635-1.417-1.417-1.417"/>
	<path style="&st1;" d="M385.596,133.85c-0.782,0-1.416,0.634-1.416,1.417"/>
	<path style="&st1;" d="M384.18,135.266c0,0.782,0.634,1.417,1.416,1.417"/>
	<path style="&st1;" d="M385.596,136.683c0.782,0,1.417-0.634,1.417-1.417"/>
	<path style="&st0;" d="M364.35,135.266c3.023,2.171,6.892,2.171,9.915,0"/>
	<path style="&st0;" d="M364.35,135.266c2.919,0.854,5.813,0.193,8.073-1.842"/>
	<path style="&st0;" d="M384.18,135.266c-3.023-2.171-6.892-2.171-9.915,0"/>
	<path style="&st0;" d="M384.18,135.266c-2.918-0.854-5.813-0.193-8.072,1.842"/>
	<path style="&st0;" d="M364.35,135.266c2.768,3.717,7.985,4.534,11.755,1.84"/>
	<path style="&st0;" d="M384.18,135.266c-2.768-3.718-7.984-4.534-11.756-1.84"/>
	<path style="&st1;" d="M429.505,67.277H217.042"/>
	<path style="&st1;" d="M310.526,67.277v271.955h50.991"/>
	<path style="&st1;" d="M429.505,339.232h-42.492"/>
	<path style="&st1;" d="M429.505,305.237h-42.492"/>
	<path style="&st1;" d="M310.526,305.237h50.991"/>
	<path style="&st1;" d="M429.505,271.243h-42.492"/>
	<path style="&st1;" d="M310.526,271.243h50.991"/>
	<path style="&st1;" d="M429.505,237.249h-42.492"/>
	<path style="&st1;" d="M310.526,237.249h50.991"/>
	<path style="&st1;" d="M429.505,203.254h-42.492"/>
	<path style="&st1;" d="M310.526,203.254h50.991"/>
	<path style="&st1;" d="M429.505,169.26h-42.492"/>
	<path style="&st1;" d="M310.526,169.26h50.991"/>
	<path style="&st1;" d="M89.563,305.237h50.991"/>
	<path style="&st1;" d="M217.042,305.237H166.05"/>
	<path style="&st1;" d="M217.042,271.243H166.05"/>
	<path style="&st1;" d="M89.563,271.243h50.991"/>
	<path style="&st1;" d="M89.563,237.249h50.991"/>
	<path style="&st1;" d="M217.042,237.249H166.05"/>
	<path style="&st1;" d="M89.563,203.254h50.991"/>
	<path style="&st1;" d="M217.042,203.254H166.05"/>
	<path style="&st1;" d="M89.563,169.26h50.991"/>
	<path style="&st1;" d="M217.042,169.26H166.05"/>
	<path style="&st1;" d="M218.234,168.257l0.271,0.47l0.094,0.533l-0.094,0.533l-0.271,0.47l-0.414,0.346l-0.507,0.187h-0.544    l-0.507-0.187l-0.413-0.346l-0.272-0.47l-0.093-0.533l0.093-0.533l0.272-0.47l0.413-0.346l0.507-0.187h0.544l0.507,0.187    L218.234,168.257l-0.394,0.711v0.584l-0.374,0.444l-0.572,0.1l-0.504-0.289l-0.198-0.547l0.198-0.547l0.504-0.289l0.572,0.099    l-0.425,0.736"/>
	<path style="&st1;" d="M218.234,202.251l0.271,0.471l0.094,0.532l-0.094,0.533l-0.271,0.47l-0.414,0.346l-0.507,0.187h-0.544    l-0.507-0.187l-0.413-0.346l-0.272-0.47l-0.093-0.533l0.093-0.532l0.272-0.471l0.413-0.345l0.507-0.187h0.544l0.507,0.187    L218.234,202.251l-0.394,0.711v0.583l-0.374,0.445l-0.572,0.099l-0.504-0.289l-0.198-0.547l0.198-0.546l0.504-0.289l0.572,0.099    l-0.425,0.736"/>
	<path style="&st1;" d="M218.234,236.246l0.271,0.47l0.094,0.533l-0.094,0.533l-0.271,0.47l-0.414,0.346l-0.507,0.187h-0.544    l-0.507-0.187l-0.413-0.346l-0.272-0.47l-0.093-0.533l0.093-0.533l0.272-0.47l0.413-0.346l0.507-0.187h0.544l0.507,0.187    L218.234,236.246l-0.394,0.711v0.583l-0.374,0.445l-0.572,0.099l-0.504-0.289l-0.198-0.546l0.198-0.547l0.504-0.289l0.572,0.099    l-0.425,0.737"/>
	<path style="&st1;" d="M218.234,270.24l0.271,0.47l0.094,0.533l-0.094,0.533l-0.271,0.47l-0.414,0.346l-0.507,0.187h-0.544    l-0.507-0.187l-0.413-0.346l-0.272-0.47l-0.093-0.533l0.093-0.533l0.272-0.47l0.413-0.345l0.507-0.187h0.544l0.507,0.187    L218.234,270.24l-0.394,0.711v0.583l-0.374,0.445l-0.572,0.099l-0.504-0.289l-0.198-0.547l0.198-0.546l0.504-0.289l0.572,0.099    l-0.425,0.736"/>
	<path style="&st1;" d="M218.234,304.235l0.271,0.47l0.094,0.532l-0.094,0.533l-0.271,0.47l-0.414,0.346l-0.507,0.187h-0.544    l-0.507-0.187l-0.413-0.346l-0.272-0.47l-0.093-0.533l0.093-0.532l0.272-0.47l0.413-0.346l0.507-0.187h0.544l0.507,0.187    L218.234,304.235l-0.394,0.711v0.583l-0.374,0.445l-0.572,0.099l-0.504-0.289l-0.198-0.547l0.198-0.546l0.504-0.289l0.572,0.099    l-0.425,0.736"/>
	<path style="&st1;" d="M311.718,304.235l0.272,0.47l0.093,0.532l-0.093,0.533l-0.272,0.47l-0.414,0.346l-0.506,0.187h-0.545    l-0.506-0.187l-0.414-0.346l-0.272-0.47l-0.093-0.533l0.093-0.532l0.272-0.47l0.414-0.346l0.506-0.187h0.545l0.506,0.187    L311.718,304.235l-0.394,0.711v0.583l-0.374,0.445l-0.572,0.099l-0.504-0.289l-0.199-0.547l0.199-0.546l0.504-0.289l0.572,0.099    l-0.425,0.736"/>
	<path style="&st1;" d="M311.718,270.24l0.272,0.47l0.093,0.533l-0.093,0.533l-0.272,0.47l-0.414,0.346l-0.506,0.187h-0.545    l-0.506-0.187l-0.414-0.346l-0.272-0.47l-0.093-0.533l0.093-0.533l0.272-0.47l0.414-0.345l0.506-0.187h0.545l0.506,0.187    L311.718,270.24l-0.394,0.711v0.583l-0.374,0.445l-0.572,0.099l-0.504-0.289l-0.199-0.547l0.199-0.546l0.504-0.289l0.572,0.099    l-0.425,0.736"/>
	<path style="&st1;" d="M311.718,236.246l0.272,0.47l0.093,0.533l-0.093,0.533l-0.272,0.47l-0.414,0.346l-0.506,0.187h-0.545    l-0.506-0.187l-0.414-0.346l-0.272-0.47l-0.093-0.533l0.093-0.533l0.272-0.47l0.414-0.346l0.506-0.187h0.545l0.506,0.187    L311.718,236.246l-0.394,0.711v0.583l-0.374,0.445l-0.572,0.099l-0.504-0.289l-0.199-0.546l0.199-0.547l0.504-0.289l0.572,0.099    l-0.425,0.737"/>
	<path style="&st1;" d="M311.718,202.251l0.272,0.471l0.093,0.532l-0.093,0.533l-0.272,0.47l-0.414,0.346l-0.506,0.187h-0.545    l-0.506-0.187l-0.414-0.346l-0.272-0.47l-0.093-0.533l0.093-0.532l0.272-0.471l0.414-0.345l0.506-0.187h0.545l0.506,0.187    L311.718,202.251l-0.394,0.711v0.583l-0.374,0.445l-0.572,0.099l-0.504-0.289l-0.199-0.547l0.199-0.546l0.504-0.289l0.572,0.099    l-0.425,0.736"/>
	<path style="&st1;" d="M311.718,168.257l0.272,0.47l0.093,0.533l-0.093,0.533l-0.272,0.47l-0.414,0.346l-0.506,0.187h-0.545    l-0.506-0.187l-0.414-0.346l-0.272-0.47l-0.093-0.533l0.093-0.533l0.272-0.47l0.414-0.346l0.506-0.187h0.545l0.506,0.187    L311.718,168.257l-0.394,0.711v0.584l-0.374,0.444l-0.572,0.1l-0.504-0.289l-0.199-0.547l0.199-0.547l0.504-0.289l0.572,0.099    l-0.425,0.736"/>
	<path style="&st1;" d="M311.718,66.274l0.272,0.47l0.093,0.533l-0.093,0.533l-0.272,0.47l-0.414,0.345l-0.506,0.188h-0.545    l-0.506-0.188l-0.414-0.345l-0.272-0.47l-0.093-0.533l0.093-0.533l0.272-0.47l0.414-0.346l0.506-0.187h0.545l0.506,0.187    L311.718,66.274l-0.394,0.711v0.583l-0.374,0.444l-0.572,0.099l-0.504-0.289l-0.199-0.547l0.199-0.546l0.504-0.289l0.572,0.099    l-0.425,0.737"/>
	<path style="&st0;" d="M429.505,373.226H89.563V41.782h339.942V373.226"/>
	<path style="&st1;" d="M311.718,134.263l0.272,0.47l0.093,0.533l-0.093,0.532l-0.272,0.471l-0.414,0.345l-0.506,0.187h-0.545    l-0.506-0.187l-0.414-0.345l-0.272-0.471l-0.093-0.532l0.093-0.533l0.272-0.47l0.414-0.346l0.506-0.187h0.545l0.506,0.187    L311.718,134.263l-0.394,0.711v0.583l-0.374,0.445l-0.572,0.099l-0.504-0.289l-0.199-0.547l0.199-0.547l0.504-0.289l0.572,0.099    l-0.425,0.737"/>
	<path style="&st1;" d="M429.505,135.266h-42.492"/>
	<path style="&st1;" d="M310.526,135.266h50.991"/>
	<path style="&st1;" d="M89.563,135.266h127.479"/>
	<path style="&st1;" d="M218.234,134.263l0.271,0.47l0.094,0.533l-0.094,0.532l-0.271,0.471l-0.414,0.345l-0.507,0.187h-0.544    l-0.507-0.187l-0.413-0.345l-0.272-0.471l-0.093-0.532l0.093-0.533l0.272-0.47l0.413-0.346l0.507-0.187h0.544l0.507,0.187    L218.234,134.263l-0.394,0.711v0.583l-0.374,0.445l-0.572,0.099l-0.504-0.289l-0.198-0.547l0.198-0.547l0.504-0.289l0.572,0.099    l-0.425,0.737"/>
	<path style="&st1;" d="M217.042,109.77v229.462H89.563"/>
	<path style="&st1;" d="M217.042,84.274V67.277"/>
	<path style="&st0;" d="M805.621,111.43l22.663-5.666"/>
	<path style="&st1;" d="M798.539,111.43h4.249"/>
	<path style="&st1;" d="M828.284,111.43h4.249"/>
	<path style="&st1;" d="M832.533,145.423h-8.498"/>
	<path style="&st1;" d="M807.038,145.423h-8.499"/>
	<path style="&st0;" d="M805.621,247.402l22.663-5.666"/>
	<path style="&st1;" d="M798.539,247.402h4.249"/>
	<path style="&st1;" d="M828.284,247.402h4.249"/>
	<path style="&st1;" d="M832.533,281.396h-8.498"/>
	<path style="&st1;" d="M807.038,281.396h-8.499"/>
	<path style="&st0;" d="M805.621,383.375l22.663-5.666"/>
	<path style="&st1;" d="M798.539,383.375h4.249"/>
	<path style="&st1;" d="M828.284,383.375h4.249"/>
	<path style="&st1;" d="M832.533,417.369h-8.498"/>
	<path style="&st1;" d="M807.038,417.369h-8.499"/>
	<path style="&st0;" d="M805.621,519.348l22.663-5.666"/>
	<path style="&st1;" d="M798.539,519.348h4.249"/>
	<path style="&st1;" d="M828.284,519.348h4.249"/>
	<path style="&st1;" d="M832.533,553.341h-8.498"/>
	<path style="&st1;" d="M807.038,553.341h-8.499"/>
	<path style="&st1;" d="M805.621,111.43c0-0.782-0.634-1.417-1.416-1.417"/>
	<path style="&st1;" d="M804.205,110.013c-0.782,0-1.417,0.634-1.417,1.417"/>
	<path style="&st1;" d="M802.788,111.43c0,0.782,0.635,1.417,1.417,1.417"/>
	<path style="&st1;" d="M804.205,112.846c0.782,0,1.416-0.634,1.416-1.417"/>
	<path style="&st1;" d="M828.284,111.43c0-0.782-0.634-1.417-1.416-1.417"/>
	<path style="&st1;" d="M826.868,110.013c-0.782,0-1.417,0.634-1.417,1.417"/>
	<path style="&st1;" d="M825.451,111.43c0,0.782,0.635,1.417,1.417,1.417"/>
	<path style="&st1;" d="M826.868,112.846c0.782,0,1.416-0.634,1.416-1.417"/>
	<path style="&st1;" d="M824.035,145.423c0-1.956-1.585-3.541-3.541-3.541"/>
	<path style="&st1;" d="M820.494,141.882c-1.956,0-3.541,1.585-3.541,3.541"/>
	<path style="&st1;" d="M816.953,145.423c0,0.99,0.355,1.836,1.063,2.529"/>
	<path style="&st1;" d="M818.015,147.953c1.396-1.369,1.42-3.612,0.051-5.009"/>
	<path style="&st1;" d="M818.066,142.944c-1.369-1.397-3.611-1.42-5.009-0.051"/>
	<path style="&st1;" d="M813.057,142.893c-1.397,1.369-1.42,3.611-0.051,5.009"/>
	<path style="&st1;" d="M813.006,147.901c0.018,0.018,0.032,0.033,0.051,0.051"/>
	<path style="&st1;" d="M813.057,147.953c1.397-1.369,1.421-3.612,0.051-5.009"/>
	<path style="&st1;" d="M813.108,142.944c-1.368-1.397-3.61-1.42-5.008-0.051"/>
	<path style="&st1;" d="M808.1,142.893c-0.708,0.693-1.063,1.54-1.063,2.53"/>
	<path style="&st1;" d="M805.621,247.402c0-0.782-0.634-1.416-1.416-1.416"/>
	<path style="&st1;" d="M804.205,245.986c-0.782,0-1.417,0.634-1.417,1.416"/>
	<path style="&st1;" d="M802.788,247.402c0,0.782,0.635,1.417,1.417,1.417"/>
	<path style="&st1;" d="M804.205,248.819c0.782,0,1.416-0.634,1.416-1.417"/>
	<path style="&st1;" d="M828.284,247.402c0-0.782-0.634-1.416-1.416-1.416"/>
	<path style="&st1;" d="M826.868,245.986c-0.782,0-1.417,0.634-1.417,1.416"/>
	<path style="&st1;" d="M825.451,247.402c0,0.782,0.635,1.417,1.417,1.417"/>
	<path style="&st1;" d="M826.868,248.819c0.782,0,1.416-0.634,1.416-1.417"/>
	<path style="&st1;" d="M824.035,281.396c0-1.956-1.585-3.542-3.541-3.542"/>
	<path style="&st1;" d="M820.494,277.854c-1.956,0-3.541,1.586-3.541,3.542"/>
	<path style="&st1;" d="M816.953,281.396c0,0.99,0.355,1.836,1.063,2.529"/>
	<path style="&st1;" d="M818.015,283.925c1.396-1.369,1.42-3.612,0.051-5.009"/>
	<path style="&st1;" d="M818.066,278.917c-1.369-1.397-3.611-1.42-5.009-0.051"/>
	<path style="&st1;" d="M813.057,278.866c-1.397,1.369-1.42,3.611-0.051,5.008"/>
	<path style="&st1;" d="M813.006,283.874c0.018,0.018,0.032,0.033,0.051,0.051"/>
	<path style="&st1;" d="M813.057,283.925c1.397-1.369,1.421-3.612,0.051-5.009"/>
	<path style="&st1;" d="M813.108,278.917c-1.368-1.397-3.61-1.42-5.008-0.051"/>
	<path style="&st1;" d="M808.1,278.866c-0.708,0.693-1.063,1.539-1.063,2.53"/>
	<path style="&st1;" d="M805.621,383.375c0-0.781-0.634-1.416-1.416-1.416"/>
	<path style="&st1;" d="M804.205,381.959c-0.782,0-1.417,0.635-1.417,1.416"/>
	<path style="&st1;" d="M802.788,383.375c0,0.783,0.635,1.416,1.417,1.416"/>
	<path style="&st1;" d="M804.205,384.792c0.782,0,1.416-0.633,1.416-1.416"/>
	<path style="&st1;" d="M828.284,383.375c0-0.781-0.634-1.416-1.416-1.416"/>
	<path style="&st1;" d="M826.868,381.959c-0.782,0-1.417,0.635-1.417,1.416"/>
	<path style="&st1;" d="M825.451,383.375c0,0.783,0.635,1.416,1.417,1.416"/>
	<path style="&st1;" d="M826.868,384.792c0.782,0,1.416-0.633,1.416-1.416"/>
	<path style="&st1;" d="M824.035,417.369c0-1.956-1.585-3.541-3.541-3.541"/>
	<path style="&st1;" d="M820.494,413.828c-1.956,0-3.541,1.585-3.541,3.541"/>
	<path style="&st1;" d="M816.953,417.369c0,0.99,0.355,1.836,1.063,2.529"/>
	<path style="&st1;" d="M818.015,419.898c1.396-1.369,1.42-3.611,0.051-5.008"/>
	<path style="&st1;" d="M818.066,414.89c-1.369-1.397-3.611-1.42-5.009-0.051"/>
	<path style="&st1;" d="M813.057,414.839c-1.397,1.369-1.42,3.611-0.051,5.008"/>
	<path style="&st1;" d="M813.006,419.847c0.018,0.018,0.032,0.033,0.051,0.051"/>
	<path style="&st1;" d="M813.057,419.898c1.397-1.369,1.421-3.611,0.051-5.008"/>
	<path style="&st1;" d="M813.108,414.89c-1.368-1.397-3.61-1.42-5.008-0.051"/>
	<path style="&st1;" d="M808.1,414.839c-0.708,0.693-1.063,1.539-1.063,2.529"/>
	<path style="&st1;" d="M805.621,519.348c0-0.781-0.634-1.416-1.416-1.416"/>
	<path style="&st1;" d="M804.205,517.932c-0.782,0-1.417,0.635-1.417,1.416"/>
	<path style="&st1;" d="M802.788,519.348c0,0.781,0.635,1.416,1.417,1.416"/>
	<path style="&st1;" d="M804.205,520.764c0.782,0,1.416-0.635,1.416-1.416"/>
	<path style="&st1;" d="M828.284,519.348c0-0.781-0.634-1.416-1.416-1.416"/>
	<path style="&st1;" d="M826.868,517.932c-0.782,0-1.417,0.635-1.417,1.416"/>
	<path style="&st1;" d="M825.451,519.348c0,0.781,0.635,1.416,1.417,1.416"/>
	<path style="&st1;" d="M826.868,520.764c0.782,0,1.416-0.635,1.416-1.416"/>
	<path style="&st1;" d="M824.035,553.341c0-1.955-1.585-3.541-3.541-3.541"/>
	<path style="&st1;" d="M820.494,549.8c-1.956,0-3.541,1.586-3.541,3.541"/>
	<path style="&st1;" d="M816.953,553.341c0,0.99,0.355,1.836,1.063,2.529"/>
	<path style="&st1;" d="M818.015,555.871c1.396-1.369,1.42-3.611,0.051-5.008"/>
	<path style="&st1;" d="M818.066,550.863c-1.369-1.398-3.611-1.42-5.009-0.053"/>
	<path style="&st1;" d="M813.057,550.81c-1.397,1.371-1.42,3.613-0.051,5.01"/>
	<path style="&st1;" d="M813.006,555.82c0.018,0.018,0.032,0.033,0.051,0.051"/>
	<path style="&st1;" d="M813.057,555.871c1.397-1.369,1.421-3.611,0.051-5.008"/>
	<path style="&st1;" d="M813.108,550.863c-1.368-1.398-3.61-1.42-5.008-0.053"/>
	<path style="&st1;" d="M808.1,550.81c-0.708,0.695-1.063,1.541-1.063,2.531"/>
	<path style="&st0;" d="M693.723,111.43c-1.612-2.738-5.14-3.65-7.878-2.037"/>
	<path style="&st0;" d="M685.845,109.393c-0.883,0.52-1.518,1.155-2.037,2.037"/>
	<path style="&st0;" d="M673.893,111.43c1.613,2.738,5.141,3.65,7.878,2.037"/>
	<path style="&st0;" d="M681.771,113.467c0.883-0.52,1.518-1.155,2.037-2.037"/>
	<path style="&st1;" d="M696.556,111.43c0-0.782-0.635-1.417-1.416-1.417"/>
	<path style="&st1;" d="M695.14,110.013c-0.783,0-1.417,0.634-1.417,1.417"/>
	<path style="&st1;" d="M693.723,111.43c0,0.782,0.634,1.417,1.417,1.417"/>
	<path style="&st1;" d="M695.14,112.846c0.781,0,1.416-0.634,1.416-1.417"/>
	<path style="&st1;" d="M673.893,111.43c0-0.782-0.634-1.417-1.417-1.417"/>
	<path style="&st1;" d="M672.476,110.013c-0.781,0-1.416,0.634-1.416,1.417"/>
	<path style="&st1;" d="M671.06,111.43c0,0.782,0.635,1.417,1.416,1.417"/>
	<path style="&st1;" d="M672.476,112.846c0.783,0,1.417-0.634,1.417-1.417"/>
	<path style="&st0;" d="M693.723,247.402c-1.612-2.738-5.14-3.649-7.878-2.037"/>
	<path style="&st0;" d="M685.845,245.366c-0.883,0.52-1.518,1.155-2.037,2.037"/>
	<path style="&st0;" d="M673.893,247.402c1.613,2.738,5.141,3.65,7.878,2.037"/>
	<path style="&st0;" d="M681.771,249.439c0.883-0.52,1.518-1.155,2.037-2.037"/>
	<path style="&st1;" d="M696.556,247.402c0-0.782-0.635-1.416-1.416-1.416"/>
	<path style="&st1;" d="M695.14,245.986c-0.783,0-1.417,0.634-1.417,1.416"/>
	<path style="&st1;" d="M693.723,247.402c0,0.782,0.634,1.417,1.417,1.417"/>
	<path style="&st1;" d="M695.14,248.819c0.781,0,1.416-0.634,1.416-1.417"/>
	<path style="&st1;" d="M673.893,247.402c0-0.782-0.634-1.416-1.417-1.416"/>
	<path style="&st1;" d="M672.476,245.986c-0.781,0-1.416,0.634-1.416,1.416"/>
	<path style="&st1;" d="M671.06,247.402c0,0.782,0.635,1.417,1.416,1.417"/>
	<path style="&st1;" d="M672.476,248.819c0.783,0,1.417-0.634,1.417-1.417"/>
	<path style="&st0;" d="M693.723,383.375c-1.612-2.738-5.14-3.649-7.878-2.037"/>
	<path style="&st0;" d="M685.845,381.338c-0.883,0.52-1.518,1.155-2.037,2.037"/>
	<path style="&st0;" d="M673.893,383.375c1.613,2.738,5.141,3.65,7.878,2.037"/>
	<path style="&st0;" d="M681.771,385.413c0.883-0.52,1.518-1.154,2.037-2.037"/>
	<path style="&st1;" d="M696.556,383.375c0-0.781-0.635-1.416-1.416-1.416"/>
	<path style="&st1;" d="M695.14,381.959c-0.783,0-1.417,0.635-1.417,1.416"/>
	<path style="&st1;" d="M693.723,383.375c0,0.783,0.634,1.416,1.417,1.416"/>
	<path style="&st1;" d="M695.14,384.792c0.781,0,1.416-0.633,1.416-1.416"/>
	<path style="&st1;" d="M673.893,383.375c0-0.781-0.634-1.416-1.417-1.416"/>
	<path style="&st1;" d="M672.476,381.959c-0.781,0-1.416,0.635-1.416,1.416"/>
	<path style="&st1;" d="M671.06,383.375c0,0.783,0.635,1.416,1.416,1.416"/>
	<path style="&st1;" d="M672.476,384.792c0.783,0,1.417-0.633,1.417-1.416"/>
	<path style="&st1;" d="M696.556,519.348c0-0.781-0.635-1.416-1.416-1.416"/>
	<path style="&st1;" d="M695.14,517.932c-0.783,0-1.417,0.635-1.417,1.416"/>
	<path style="&st1;" d="M693.723,519.348c0,0.781,0.634,1.416,1.417,1.416"/>
	<path style="&st1;" d="M695.14,520.764c0.781,0,1.416-0.635,1.416-1.416"/>
	<path style="&st1;" d="M673.893,519.348c0-0.781-0.634-1.416-1.417-1.416"/>
	<path style="&st1;" d="M672.476,517.932c-0.781,0-1.416,0.635-1.416,1.416"/>
	<path style="&st1;" d="M671.06,519.348c0,0.781,0.635,1.416,1.416,1.416"/>
	<path style="&st1;" d="M672.476,520.764c0.783,0,1.417-0.635,1.417-1.416"/>
	<path style="&st0;" d="M832.533,153.921v-50.99h-33.994v50.99H832.533"/>
	<path style="&st1;" d="M832.533,145.423h93.484"/>
	<path style="&st1;" d="M926.017,111.43h-93.484"/>
	<path style="&st1;" d="M798.539,111.43H696.556"/>
	<path style="&st0;" d="M832.533,289.894v-50.99h-33.994v50.99H832.533"/>
	<path style="&st1;" d="M926.017,247.402h-93.484"/>
	<path style="&st1;" d="M926.017,281.396h-93.484"/>
	<path style="&st1;" d="M696.556,247.402h101.982"/>
	<path style="&st0;" d="M832.533,425.867v-50.989h-33.994v50.989H832.533"/>
	<path style="&st1;" d="M926.017,383.375h-93.484"/>
	<path style="&st1;" d="M926.017,417.369h-93.484"/>
	<path style="&st1;" d="M696.556,383.375h101.982"/>
	<path style="&st0;" d="M832.533,561.839V510.85h-33.994v50.989H832.533"/>
	<path style="&st1;" d="M926.017,519.348h-93.484"/>
	<path style="&st1;" d="M926.017,553.341h-93.484"/>
	<path style="&st1;" d="M696.556,519.348h101.982"/>
	<path style="&st1;" d="M798.539,553.341h-33.994v33.993h161.473"/>
	<path style="&st1;" d="M620.069,247.402h50.991"/>
	<path style="&st1;" d="M671.06,519.348h-50.991V111.962"/>
	<path style="&st1;" d="M620.069,383.375h50.991"/>
	<path style="&st1;" d="M763.352,110.427l-0.272,0.471l-0.093,0.532l0.093,0.533l0.272,0.47l0.414,0.346l0.507,0.187h0.544    l0.507-0.187l0.413-0.346l0.272-0.47l0.094-0.533l-0.094-0.532l-0.272-0.471l-0.413-0.346l-0.507-0.187h-0.544l-0.507,0.187    L763.352,110.427l0.394,0.711v0.583l0.374,0.444l0.572,0.1l0.504-0.289l0.199-0.547l-0.199-0.547l-0.504-0.289l-0.572,0.1    l0.425,0.736"/>
	<path style="&st1;" d="M763.352,246.399l-0.272,0.471l-0.093,0.532l0.093,0.533l0.272,0.47l0.414,0.346l0.507,0.187h0.544    l0.507-0.187l0.413-0.346l0.272-0.47l0.094-0.533l-0.094-0.532l-0.272-0.471l-0.413-0.345l-0.507-0.187h-0.544l-0.507,0.187    L763.352,246.399l0.394,0.711v0.583l0.374,0.445l0.572,0.099l0.504-0.289l0.199-0.547l-0.199-0.546l-0.504-0.289l-0.572,0.099    l0.425,0.736"/>
	<path style="&st1;" d="M763.352,382.374l-0.272,0.47l-0.093,0.532l0.093,0.533l0.272,0.47l0.414,0.346l0.507,0.187h0.544    l0.507-0.187l0.413-0.346l0.272-0.47l0.094-0.533l-0.094-0.532l-0.272-0.47l-0.413-0.346l-0.507-0.188h-0.544l-0.507,0.188    L763.352,382.374l0.394,0.711v0.583l0.374,0.444l0.572,0.1l0.504-0.289l0.199-0.547l-0.199-0.547l-0.504-0.289l-0.572,0.1    l0.425,0.736"/>
	<path style="&st1;" d="M763.352,518.346l-0.272,0.469l-0.093,0.533l0.093,0.533l0.272,0.469l0.414,0.348l0.507,0.186h0.544    l0.507-0.186l0.413-0.348l0.272-0.469l0.094-0.533l-0.094-0.533l-0.272-0.469L765.324,518l-0.507-0.188h-0.544L763.766,518    L763.352,518.346l0.394,0.709v0.586l0.374,0.443l0.572,0.1l0.504-0.289l0.199-0.547l-0.199-0.547l-0.504-0.289l-0.572,0.1    l0.425,0.736"/>
	<path style="&st1;" d="M618.876,382.374l-0.271,0.47l-0.094,0.532l0.094,0.533l0.271,0.47l0.413,0.346l0.507,0.187h0.545    l0.506-0.187l0.414-0.346l0.271-0.47l0.094-0.533l-0.094-0.532l-0.271-0.47l-0.414-0.346l-0.506-0.188h-0.545l-0.507,0.188    L618.876,382.374l0.394,0.711v0.583l0.374,0.444l0.572,0.1l0.504-0.289l0.198-0.547l-0.198-0.547l-0.504-0.289l-0.572,0.1    l0.425,0.736"/>
	<path style="&st1;" d="M618.876,246.399l-0.271,0.471l-0.094,0.532l0.094,0.533l0.271,0.47l0.413,0.346l0.507,0.187h0.545    l0.506-0.187l0.414-0.346l0.271-0.47l0.094-0.533l-0.094-0.532l-0.271-0.471l-0.414-0.345l-0.506-0.187h-0.545l-0.507,0.187    L618.876,246.399l0.394,0.711v0.583l0.374,0.445l0.572,0.099l0.504-0.289l0.198-0.547l-0.198-0.546l-0.504-0.289l-0.572,0.099    l0.425,0.736"/>
	<path style="&st1;" d="M764.544,111.43V77.437h161.473"/>
	<path style="&st1;" d="M764.544,485.355h161.473"/>
	<path style="&st1;" d="M764.544,281.396h33.994"/>
	<path style="&st1;" d="M764.544,383.375v-33.993h161.473"/>
	<path style="&st1;" d="M926.017,213.409H764.544v101.979h161.473"/>
	<path style="&st1;" d="M763.352,280.393l-0.272,0.47l-0.093,0.533l0.093,0.532l0.272,0.471l0.414,0.345l0.507,0.187h0.544    l0.507-0.187l0.413-0.345l0.272-0.471l0.094-0.532l-0.094-0.533l-0.272-0.47l-0.413-0.346l-0.507-0.187h-0.544l-0.507,0.187    L763.352,280.393l0.394,0.711v0.583l0.374,0.445l0.572,0.099l0.504-0.289l0.199-0.547l-0.199-0.547l-0.504-0.289l-0.572,0.099    l0.425,0.737"/>
	<path style="&st1;" d="M763.352,552.337l-0.272,0.471l-0.093,0.533l0.093,0.531l0.272,0.471l0.414,0.346l0.507,0.188h0.544    l0.507-0.188l0.413-0.346l0.272-0.471l0.094-0.531l-0.094-0.533l-0.272-0.471l-0.413-0.344l-0.507-0.188h-0.544l-0.507,0.188    L763.352,552.337l0.394,0.711v0.584l0.374,0.445l0.572,0.1l0.504-0.289l0.199-0.547l-0.199-0.547l-0.504-0.289l-0.572,0.1    l0.425,0.736"/>
	<path style="&st1;" d="M764.544,553.341V468.36h99.149v-84.984"/>
	<path style="&st1;" d="M763.352,484.351l-0.272,0.471l-0.093,0.533l0.093,0.533l0.272,0.469l0.414,0.346l0.507,0.188h0.544    l0.507-0.188l0.413-0.346l0.272-0.469l0.094-0.533l-0.094-0.533l-0.272-0.471l-0.413-0.346l-0.507-0.186h-0.544l-0.507,0.186    L763.352,484.351l0.394,0.713v0.582l0.374,0.445l0.572,0.1l0.504-0.289l0.199-0.547l-0.199-0.547l-0.504-0.289l-0.572,0.1    l0.425,0.736"/>
	<path style="&st1;" d="M862.5,382.374l-0.271,0.47l-0.094,0.532l0.094,0.533l0.271,0.47l0.414,0.346l0.507,0.187h0.544    l0.507-0.187l0.413-0.346l0.272-0.47l0.094-0.533l-0.094-0.532l-0.272-0.47l-0.413-0.346l-0.507-0.188h-0.544l-0.507,0.188    L862.5,382.374l0.395,0.711v0.583l0.373,0.444l0.572,0.1l0.505-0.289l0.198-0.547l-0.198-0.547l-0.505-0.289l-0.572,0.1    l0.426,0.736"/>
	<path style="&st1;" d="M893.663,382.374l-0.271,0.47l-0.094,0.532l0.094,0.533l0.271,0.47l0.414,0.346l0.507,0.187h0.544    l0.507-0.187l0.413-0.346l0.272-0.47l0.094-0.533l-0.094-0.532l-0.272-0.47l-0.413-0.346l-0.507-0.188h-0.544l-0.507,0.188    L893.663,382.374l0.395,0.711v0.583l0.373,0.444l0.572,0.1l0.505-0.289l0.198-0.547l-0.198-0.547l-0.505-0.289l-0.572,0.1    l0.426,0.736"/>
	<path style="&st1;" d="M618.876,110.427l-0.271,0.471l-0.094,0.532l0.094,0.533l0.271,0.47l0.413,0.346l0.507,0.187h0.545    l0.506-0.187l0.414-0.346l0.271-0.47l0.094-0.533l-0.094-0.532l-0.271-0.471l-0.414-0.346l-0.506-0.187h-0.545l-0.507,0.187    L618.876,110.427l0.394,0.711v0.583l0.374,0.444l0.572,0.1l0.504-0.289l0.198-0.547l-0.198-0.547l-0.504-0.289l-0.572,0.1    l0.425,0.736"/>
	<path style="&st1;" d="M586.075,111.43h84.985"/>
	<path style="&st0;" d="M586.075,60.439v557.693h339.942V60.439"/>
	<path style="&st1;" d="M926.017,451.362H764.544v-33.993h33.994"/>
	<path style="&st1;" d="M926.017,179.416H764.544v-33.993h33.994"/>
	<path style="&st0;" d="M586.075,60.439h339.942"/>
	<path style="&st1;" d="M894.856,383.375v16.996h31.161"/>
	<path style="&st1;" d="M893.663,76.435l-0.271,0.47l-0.094,0.532l0.094,0.533l0.271,0.47l0.414,0.346l0.507,0.187h0.544    l0.507-0.187l0.413-0.346l0.272-0.47l0.094-0.533l-0.094-0.532l-0.272-0.47l-0.413-0.346l-0.507-0.188h-0.544l-0.507,0.188    L893.663,76.435l0.395,0.711v0.583l0.373,0.444l0.572,0.1l0.505-0.289l0.198-0.547l-0.198-0.547l-0.505-0.289l-0.572,0.1    l0.426,0.736"/>
	<path style="&st1;" d="M894.856,77.437v16.996h31.161"/>
	<path style="&st1;" d="M893.663,110.428l-0.271,0.47l-0.094,0.532l0.094,0.533l0.271,0.47l0.414,0.346l0.507,0.187h0.544    l0.507-0.187l0.413-0.346l0.272-0.47l0.094-0.533l-0.094-0.532l-0.272-0.47l-0.413-0.346l-0.507-0.188h-0.544l-0.507,0.188    L893.663,110.428l0.395,0.711v0.583l0.373,0.444l0.572,0.1l0.505-0.289l0.198-0.547l-0.198-0.547l-0.505-0.289l-0.572,0.1    l0.426,0.736"/>
	<path style="&st1;" d="M894.856,111.43v16.997h31.161"/>
	<path style="&st1;" d="M893.663,144.421l-0.271,0.47l-0.094,0.532l0.094,0.533l0.271,0.47l0.414,0.346l0.507,0.187h0.544    l0.507-0.187l0.413-0.346l0.272-0.47l0.094-0.533l-0.094-0.532l-0.272-0.47l-0.413-0.346l-0.507-0.188h-0.544l-0.507,0.188    L893.663,144.421l0.395,0.711v0.583l0.373,0.444l0.572,0.1l0.505-0.289l0.198-0.547l-0.198-0.547l-0.505-0.289l-0.572,0.1    l0.426,0.736"/>
	<path style="&st1;" d="M894.856,145.423v16.997h31.161"/>
	<path style="&st1;" d="M893.663,178.414l-0.271,0.47l-0.094,0.532l0.094,0.533l0.271,0.47l0.414,0.346l0.507,0.187h0.544    l0.507-0.187l0.413-0.346l0.272-0.47l0.094-0.533l-0.094-0.532l-0.272-0.47l-0.413-0.346l-0.507-0.188h-0.544l-0.507,0.188    L893.663,178.414l0.395,0.711v0.583l0.373,0.444l0.572,0.1l0.505-0.289l0.198-0.547l-0.198-0.547l-0.505-0.289l-0.572,0.1    l0.426,0.736"/>
	<path style="&st1;" d="M894.856,179.416v16.997h31.161"/>
	<path style="&st1;" d="M893.663,212.407l-0.271,0.47l-0.094,0.532l0.094,0.533l0.271,0.47l0.414,0.346l0.507,0.187h0.544    l0.507-0.187l0.413-0.346l0.272-0.47l0.094-0.533l-0.094-0.532l-0.272-0.47l-0.413-0.346l-0.507-0.188h-0.544l-0.507,0.188    L893.663,212.407l0.395,0.711v0.583l0.373,0.444l0.572,0.1l0.505-0.289l0.198-0.547l-0.198-0.547l-0.505-0.289l-0.572,0.1    l0.426,0.736"/>
	<path style="&st1;" d="M894.856,213.409v16.997h31.161"/>
	<path style="&st1;" d="M893.663,246.4l-0.271,0.47l-0.094,0.532l0.094,0.533l0.271,0.47l0.414,0.346l0.507,0.187h0.544    l0.507-0.187l0.413-0.346l0.272-0.47l0.094-0.533l-0.094-0.532l-0.272-0.47l-0.413-0.346l-0.507-0.188h-0.544l-0.507,0.188    L893.663,246.4l0.395,0.711v0.583l0.373,0.444l0.572,0.1l0.505-0.289l0.198-0.547l-0.198-0.547l-0.505-0.289l-0.572,0.1    l0.426,0.736"/>
	<path style="&st1;" d="M894.856,247.402v16.997h31.161"/>
	<path style="&st1;" d="M893.663,280.393l-0.271,0.47l-0.094,0.532l0.094,0.533l0.271,0.47l0.414,0.346l0.507,0.187h0.544    l0.507-0.187l0.413-0.346l0.272-0.47l0.094-0.533l-0.094-0.532l-0.272-0.47l-0.413-0.346l-0.507-0.188h-0.544l-0.507,0.188    L893.663,280.393l0.395,0.711v0.583l0.373,0.444l0.572,0.1l0.505-0.289l0.198-0.547l-0.198-0.547l-0.505-0.289l-0.572,0.1    l0.426,0.736"/>
	<path style="&st1;" d="M894.856,281.395v16.997h31.161"/>
	<path style="&st1;" d="M893.663,314.386l-0.271,0.47l-0.094,0.532l0.094,0.533l0.271,0.47l0.414,0.346l0.507,0.187h0.544    l0.507-0.187l0.413-0.346l0.272-0.47l0.094-0.533l-0.094-0.532l-0.272-0.47l-0.413-0.346l-0.507-0.188h-0.544l-0.507,0.188    L893.663,314.386l0.395,0.711v0.583l0.373,0.444l0.572,0.1l0.505-0.289l0.198-0.547l-0.198-0.547l-0.505-0.289l-0.572,0.1    l0.426,0.736"/>
	<path style="&st1;" d="M894.856,315.388v16.997h31.161"/>
	<path style="&st1;" d="M893.663,348.38l-0.271,0.469l-0.094,0.533l0.094,0.533l0.271,0.469l0.414,0.346l0.507,0.188h0.544    l0.507-0.188l0.413-0.346l0.272-0.469l0.094-0.533l-0.094-0.533l-0.272-0.469l-0.413-0.346l-0.507-0.188h-0.544l-0.507,0.188    L893.663,348.38l0.395,0.711v0.582l0.373,0.445l0.572,0.1l0.505-0.289l0.198-0.547l-0.198-0.547l-0.505-0.289l-0.572,0.1    l0.426,0.736"/>
	<path style="&st1;" d="M894.856,349.382v16.996h31.161"/>
	<path style="&st1;" d="M893.663,416.365l-0.271,0.471l-0.094,0.531l0.094,0.533l0.271,0.471l0.414,0.346l0.507,0.186h0.544    l0.507-0.186l0.413-0.346l0.272-0.471l0.094-0.533l-0.094-0.531l-0.272-0.471l-0.413-0.346l-0.507-0.188h-0.544l-0.507,0.188    L893.663,416.365l0.395,0.711v0.584l0.373,0.443l0.572,0.1l0.505-0.289l0.198-0.547l-0.198-0.547l-0.505-0.289l-0.572,0.1    l0.426,0.736"/>
	<path style="&st1;" d="M894.856,417.367v16.998h31.161"/>
	<path style="&st1;" d="M893.663,450.358l-0.271,0.471l-0.094,0.531l0.094,0.533l0.271,0.471l0.414,0.346l0.507,0.186h0.544    l0.507-0.186l0.413-0.346l0.272-0.471l0.094-0.533l-0.094-0.531l-0.272-0.471l-0.413-0.346l-0.507-0.188h-0.544l-0.507,0.188    L893.663,450.358l0.395,0.711v0.584l0.373,0.443l0.572,0.1l0.505-0.289l0.198-0.547l-0.198-0.547l-0.505-0.289l-0.572,0.1    l0.426,0.736"/>
	<path style="&st1;" d="M894.856,451.36v16.998h31.161"/>
	<path style="&st1;" d="M893.663,484.349l-0.271,0.471l-0.094,0.531l0.094,0.533l0.271,0.471l0.414,0.346l0.507,0.186h0.544    l0.507-0.186l0.413-0.346l0.272-0.471l0.094-0.533l-0.094-0.531l-0.272-0.471l-0.413-0.346l-0.507-0.188h-0.544l-0.507,0.188    L893.663,484.349l0.395,0.711v0.584l0.373,0.443l0.572,0.1l0.505-0.289l0.198-0.547l-0.198-0.547l-0.505-0.289l-0.572,0.1    l0.426,0.736"/>
	<path style="&st1;" d="M894.856,485.351v17h31.161"/>
	<path style="&st1;" d="M893.663,518.342l-0.271,0.471l-0.094,0.531l0.094,0.533l0.271,0.471l0.414,0.346l0.507,0.186h0.544    l0.507-0.186l0.413-0.346l0.272-0.471l0.094-0.533l-0.094-0.531l-0.272-0.471l-0.413-0.346l-0.507-0.188h-0.544l-0.507,0.188    L893.663,518.342l0.395,0.711v0.584l0.373,0.443l0.572,0.1l0.505-0.289l0.198-0.547l-0.198-0.547l-0.505-0.289l-0.572,0.1    l0.426,0.736"/>
	<path style="&st1;" d="M894.856,519.344v17h31.161"/>
	<path style="&st1;" d="M893.663,552.335l-0.271,0.471l-0.094,0.531l0.094,0.533l0.271,0.471l0.414,0.346l0.507,0.186h0.544    l0.507-0.186l0.413-0.346l0.272-0.471l0.094-0.533l-0.094-0.531l-0.272-0.471l-0.413-0.346l-0.507-0.188h-0.544l-0.507,0.188    L893.663,552.335l0.395,0.711v0.584l0.373,0.443l0.572,0.1l0.505-0.289l0.198-0.547l-0.198-0.547l-0.505-0.289l-0.572,0.1    l0.426,0.736"/>
	<path style="&st1;" d="M894.856,553.337v17h31.161"/>
	<path style="&st1;" d="M893.663,586.327l-0.271,0.471l-0.094,0.531l0.094,0.533l0.271,0.471l0.414,0.346l0.507,0.186h0.544    l0.507-0.186l0.413-0.346l0.272-0.471l0.094-0.533l-0.094-0.531l-0.272-0.471l-0.413-0.346l-0.507-0.188h-0.544l-0.507,0.188    L893.663,586.327l0.395,0.711v0.584l0.373,0.443l0.572,0.1l0.505-0.289l0.198-0.547l-0.198-0.547l-0.505-0.289l-0.572,0.1    l0.426,0.736"/>
	<path style="&st1;" d="M894.856,587.329v17.021h31.161"/>
</g>
<g id="キャプション">
	<text transform="matrix(0.88 0 0 1 102.2183 62.7573)"><tspan x="0" y="0" style="&st4; &st6;">Unit A</tspan></text>
	<g>
		<text transform="matrix(0.88 0 0 1 126.1558 155.436)"><tspan x="0" y="0" style="&st4; &st3;">50A A/PUMP (*1)</tspan></text>
	</g>
	<g>
		<text transform="matrix(0.88 0 0 1 126.1558 163.373)"><tspan x="0" y="0" style="&st4; &st3;">80A GLOW (*2)</tspan></text>
	</g>
	<g>
		<text transform="matrix(0.88 0 0 1 135.3032 197.585)"><tspan x="0" y="0" style="&st4; &st3;">50A MAIN3</tspan></text>
	</g>
	<g>
		<text transform="matrix(0.88 0 0 1 358.0259 129.5967)"><tspan x="0" y="0" style="&st4; &st3;">50A PTC1</tspan></text>
	</g>
	<g>
		<text transform="matrix(0.88 0 0 1 354.3091 163.5908)"><tspan x="0" y="0" style="&st4; &st3;">120A MAIN4</tspan></text>
	</g>
	<g>
		<text transform="matrix(0.88 0 0 1 359.7896 231.5796)"><tspan x="0" y="0" style="&st4; &st3;">40A HTR</tspan></text>
	</g>
	<g>
		<text transform="matrix(0.88 0 0 1 353.9204 299.5679)"><tspan x="0" y="0" style="&st4; &st3;">30A RR CLR</tspan></text>
	</g>
	<g>
		<text transform="matrix(0.88 0 0 1 358.0259 333.5625)"><tspan x="0" y="0" style="&st4; &st3;">50A PTC2</tspan></text>
	</g>
	<g>
		<text transform="matrix(0.88 0 0 1 223.9482 94.564)"><tspan x="0" y="0" style="&st4; &st3;">140A ALT (*4)</tspan><tspan x="0" y="8" style="&st4; &st3;">150A ALT (*3)</tspan></text>
	</g>
	<g>
		<text transform="matrix(0.88 0 0 1 137.0635 231.5791)"><tspan x="0" y="0" style="&st4; &st3;">50A FAN2</tspan></text>
	</g>
	<g>
		<text transform="matrix(0.88 0 0 1 137.0635 265.5737)"><tspan x="0" y="0" style="&st4; &st3;">30A FAN3</tspan></text>
	</g>
	<g>
		<text transform="matrix(0.88 0 0 1 137.0635 299.5679)"><tspan x="0" y="0" style="&st4; &st3;">50A FAN1</tspan></text>
	</g>
	<text transform="matrix(1 0 0 1 61.8813 137.9233)"><tspan x="0" y="0" style="&st4; &st3;">1</tspan></text>
	<a ewd:code="1D" ewd:figtype="jbc" style="cursor:pointer;">
		<path style="fill:#FFFFFF;stroke:#000000;stroke-width:0.8;" d="M78.503,140.656c2.977,0,5.39-2.413,5.39-5.39c0-2.978-2.414-5.391-5.39-5.391h-4.582     c-2.977,0-5.39,2.413-5.39,5.391c0,2.977,2.414,5.39,5.39,5.39H78.503z"/>
		<text transform="matrix(1 0 0 1 71.0991 138.0591)"><tspan x="0" y="0" style="&st4; &st3;">1D</tspan></text>
	</a>
	<text transform="matrix(1 0 0 1 437.0298 69.9346)"><tspan x="0" y="0" style="&st4; &st3;">1</tspan></text>
	<a ewd:code="1A" ewd:figtype="jbc" style="cursor:pointer;">
		<path style="fill:#FFFFFF;stroke:#000000;stroke-width:0.8;" d="M453.652,72.667c2.977,0,5.39-2.414,5.39-5.39c0-2.977-2.413-5.391-5.39-5.391h-4.582     c-2.977,0-5.391,2.414-5.391,5.391c0,2.977,2.414,5.39,5.391,5.39H453.652z"/>
		<text transform="matrix(1 0 0 1 446.4683 70.0703)"><tspan x="0" y="0" style="&st4; &st3;">1A</tspan></text>
	</a>
	<text transform="matrix(1 0 0 1 437.0298 137.9233)"><tspan x="0" y="0" style="&st4; &st3;">1</tspan></text>
	<a ewd:code="1F" ewd:figtype="jbc" style="cursor:pointer;">
		<path style="fill:#FFFFFF;stroke:#000000;stroke-width:0.8;" d="M453.652,140.656c2.977,0,5.39-2.413,5.39-5.39c0-2.978-2.413-5.391-5.39-5.391h-4.582     c-2.977,0-5.391,2.413-5.391,5.391c0,2.977,2.414,5.39,5.391,5.39H453.652z"/>
		<text transform="matrix(1 0 0 1 446.6929 138.0591)"><tspan x="0" y="0" style="&st4; &st3;">1F</tspan></text>
	</a>
	<text transform="matrix(1 0 0 1 437.0298 171.9175)"><tspan x="0" y="0" style="&st4; &st3;">1</tspan></text>
	<a ewd:code="1G" ewd:figtype="jbc" style="cursor:pointer;">
		<path style="fill:#FFFFFF;stroke:#000000;stroke-width:0.8;" d="M453.652,174.65c2.977,0,5.39-2.414,5.39-5.39c0-2.977-2.413-5.391-5.39-5.391h-4.582     c-2.977,0-5.391,2.414-5.391,5.391c0,2.977,2.414,5.39,5.391,5.39H453.652z"/>
		<text transform="matrix(1 0 0 1 446.0249 172.0532)"><tspan x="0" y="0" style="&st4; &st3;">1G</tspan></text>
	</a>
	<text transform="matrix(1 0 0 1 437.0298 205.9116)"><tspan x="0" y="0" style="&st4; &st3;">1</tspan></text>
	<a ewd:code="1B" ewd:figtype="jbc" style="cursor:pointer;">
		<path style="fill:#FFFFFF;stroke:#000000;stroke-width:0.8;" d="M453.652,208.645c2.977,0,5.39-2.413,5.39-5.39c0-2.977-2.413-5.39-5.39-5.39h-4.582     c-2.977,0-5.391,2.413-5.391,5.39c0,2.977,2.414,5.39,5.391,5.39H453.652z"/>
		<text transform="matrix(1 0 0 1 446.4683 206.0474)"><tspan x="0" y="0" style="&st4; &st3;">1B</tspan></text>
	</a>
	<text transform="matrix(1 0 0 1 437.0298 239.9063)"><tspan x="0" y="0" style="&st4; &st3;">2</tspan></text>
	<a ewd:code="1B" ewd:figtype="jbc" style="cursor:pointer;">
		<path style="fill:#FFFFFF;stroke:#000000;stroke-width:0.8;" d="M453.652,242.639c2.977,0,5.39-2.414,5.39-5.39c0-2.977-2.413-5.391-5.39-5.391h-4.582     c-2.977,0-5.391,2.414-5.391,5.391c0,2.977,2.414,5.39,5.391,5.39H453.652z"/>
		<text transform="matrix(1 0 0 1 446.4683 240.042)"><tspan x="0" y="0" style="&st4; &st3;">1B</tspan></text>
	</a>
	<text transform="matrix(1 0 0 1 437.0298 273.9004)"><tspan x="0" y="0" style="&st4; &st3;">1</tspan></text>
	<a ewd:code="1C" ewd:figtype="jbc" style="cursor:pointer;">
		<path style="fill:#FFFFFF;stroke:#000000;stroke-width:0.8;" d="M453.652,276.633c2.977,0,5.39-2.414,5.39-5.39c0-2.977-2.413-5.391-5.39-5.391h-4.582     c-2.977,0-5.391,2.414-5.391,5.391c0,2.977,2.414,5.39,5.391,5.39H453.652z"/>
		<text transform="matrix(1 0 0 1 446.2476 274.0361)"><tspan x="0" y="0" style="&st4; &st3;">1C</tspan></text>
	</a>
	<text transform="matrix(1 0 0 1 437.0298 307.8945)"><tspan x="0" y="0" style="&st4; &st3;">2</tspan></text>
	<a ewd:code="1C" ewd:figtype="jbc" style="cursor:pointer;">
		<path style="fill:#FFFFFF;stroke:#000000;stroke-width:0.8;" d="M453.652,310.627c2.977,0,5.39-2.413,5.39-5.39c0-2.977-2.413-5.39-5.39-5.39h-4.582     c-2.977,0-5.391,2.413-5.391,5.39c0,2.977,2.414,5.39,5.391,5.39H453.652z"/>
		<text transform="matrix(1 0 0 1 446.2476 308.0303)"><tspan x="0" y="0" style="&st4; &st3;">1C</tspan></text>
	</a>
	<text transform="matrix(1 0 0 1 437.0298 341.8892)"><tspan x="0" y="0" style="&st4; &st3;">1</tspan></text>
	<a ewd:code="1H" ewd:figtype="jbc" style="cursor:pointer;">
		<path style="fill:#FFFFFF;stroke:#000000;stroke-width:0.8;" d="M453.652,344.622c2.977,0,5.39-2.414,5.39-5.39c0-2.977-2.413-5.391-5.39-5.391h-4.582     c-2.977,0-5.391,2.414-5.391,5.391c0,2.977,2.414,5.39,5.391,5.39H453.652z"/>
		<text transform="matrix(1 0 0 1 446.2476 342.0249)"><tspan x="0" y="0" style="&st4; &st3;">1H</tspan></text>
	</a>
	<text transform="matrix(1 0 0 1 61.8813 171.9175)"><tspan x="0" y="0" style="&st4; &st3;">1</tspan></text>
	<a ewd:code="1E" ewd:figtype="jbc" style="cursor:pointer;">
		<path style="fill:#FFFFFF;stroke:#000000;stroke-width:0.8;" d="M78.503,174.65c2.977,0,5.39-2.414,5.39-5.39c0-2.977-2.414-5.391-5.39-5.391h-4.582     c-2.977,0-5.39,2.414-5.39,5.391c0,2.977,2.414,5.39,5.39,5.39H78.503z"/>
		<text transform="matrix(1 0 0 1 71.3198 172.0532)"><tspan x="0" y="0" style="&st4; &st3;">1E</tspan></text>
	</a>
	<text transform="matrix(1 0 0 1 61.8813 205.9116)"><tspan x="0" y="0" style="&st4; &st3;">3</tspan></text>
	<a ewd:code="1B" ewd:figtype="jbc" style="cursor:pointer;">
		<path style="fill:#FFFFFF;stroke:#000000;stroke-width:0.8;" d="M78.503,208.645c2.977,0,5.39-2.413,5.39-5.39c0-2.977-2.414-5.39-5.39-5.39h-4.582     c-2.977,0-5.39,2.413-5.39,5.39c0,2.977,2.414,5.39,5.39,5.39H78.503z"/>
		<text transform="matrix(1 0 0 1 71.3198 206.0474)"><tspan x="0" y="0" style="&st4; &st3;">1B</tspan></text>
	</a>
	<text transform="matrix(1 0 0 1 61.8813 239.9063)"><tspan x="0" y="0" style="&st4; &st3;">4</tspan></text>
	<a ewd:code="1B" ewd:figtype="jbc" style="cursor:pointer;">
		<path style="fill:#FFFFFF;stroke:#000000;stroke-width:0.8;" d="M78.503,242.639c2.977,0,5.39-2.414,5.39-5.39c0-2.977-2.414-5.391-5.39-5.391h-4.582     c-2.977,0-5.39,2.414-5.39,5.391c0,2.977,2.414,5.39,5.39,5.39H78.503z"/>
		<text transform="matrix(1 0 0 1 71.3198 240.042)"><tspan x="0" y="0" style="&st4; &st3;">1B</tspan></text>
	</a>
	<text transform="matrix(1 0 0 1 61.8813 273.9004)"><tspan x="0" y="0" style="&st4; &st3;">3</tspan></text>
	<a ewd:code="1C" ewd:figtype="jbc" style="cursor:pointer;">
		<path style="fill:#FFFFFF;stroke:#000000;stroke-width:0.8;" d="M78.503,276.633c2.977,0,5.39-2.414,5.39-5.39c0-2.977-2.414-5.391-5.39-5.391h-4.582     c-2.977,0-5.39,2.414-5.39,5.391c0,2.977,2.414,5.39,5.39,5.39H78.503z"/>
		<text transform="matrix(1 0 0 1 71.0991 274.0361)"><tspan x="0" y="0" style="&st4; &st3;">1C</tspan></text>
	</a>
	<text transform="matrix(1 0 0 1 61.8813 307.8945)"><tspan x="0" y="0" style="&st4; &st3;">4</tspan></text>
	<a ewd:code="1C" ewd:figtype="jbc" style="cursor:pointer;">
		<path style="fill:#FFFFFF;stroke:#000000;stroke-width:0.8;" d="M78.503,310.627c2.977,0,5.39-2.413,5.39-5.39c0-2.977-2.414-5.39-5.39-5.39h-4.582     c-2.977,0-5.39,2.413-5.39,5.39c0,2.977,2.414,5.39,5.39,5.39H78.503z"/>
		<text transform="matrix(1 0 0 1 71.0991 308.0303)"><tspan x="0" y="0" style="&st4; &st3;">1C</tspan></text>
	</a>
	<g>
		<text transform="matrix(0.88 0 0 1 109.2183 394.7573)"><tspan x="0" y="0" style="&st4; &st5;">* 1:1TR-FE, 2TR-FE</tspan></text>
	</g>
	<g>
		<text transform="matrix(0.88 0 0 1 109.2183 404.6792)"><tspan x="0" y="0" style="&st4; &st5;">* 2:1KD-FTV, 2KD-FTV, 5L-E</tspan></text>
	</g>
	<g>
		<text transform="matrix(0.88 0 0 1 109.2183 414.6001)"><tspan x="0" y="0" style="&st4; &st5;">* 3:Refrigerator Van Type, *1</tspan></text>
	</g>
	<g>
		<text transform="matrix(0.88 0 0 1 109.2183 424.521)"><tspan x="0" y="0" style="&st4; &st5;">* 4:Except Refrigerator Van Type</tspan></text>
	</g>
	<g>
		<text transform="matrix(0.88 0 0 1 695.6128 107.624)"><tspan x="0" y="0" style="&st4; &st3;">2</tspan></text>
	</g>
	<g>
		<text transform="matrix(0.88 0 0 1 668.228 107.624)"><tspan x="0" y="0" style="&st4; &st3;">1</tspan></text>
	</g>
	<g>
		<text transform="matrix(0.88 0 0 1 662.8081 122.7681)"><tspan x="0" y="0" style="&st4; &st3;">15A A/F (*1)</tspan><tspan x="0" y="8" style="&st4; &st3;">25A EDU (*3)</tspan></text>
	</g>
	<g>
		<text transform="matrix(0.88 0 0 1 795.2046 235.5024)"><tspan x="0" y="0" style="&st4; &st3;">HORN Relay</tspan></text>
	</g>
	<g>
		<text transform="matrix(0.88 0 0 1 796.769 371.4751)"><tspan x="0" y="0" style="&st4; &st3;">MAIN Relay</tspan></text>
	</g>
	<g>
		<text transform="matrix(0 -0.88 1 0 760.6147 543.9487)"><tspan x="0" y="0" style="&st4; &st3;">(*2)</tspan></text>
	</g>
	<g>
		<text transform="matrix(0.88 0 0 1 809.0298 465.4224)"><tspan x="0" y="0" style="&st4; &st3;">(*4)</tspan></text>
	</g>
	<g>
		<text transform="matrix(0.88 0 0 1 905.312 74.2764)"><tspan x="0" y="0" style="&st4; &st3;">(*4)</tspan></text>
	</g>
	<g>
		<text transform="matrix(0.88 0 0 1 905.312 91.2725)"><tspan x="0" y="0" style="&st4; &st3;">(*3)</tspan></text>
	</g>
	<g>
		<text transform="matrix(0.88 0 0 1 905.312 108.2686)"><tspan x="0" y="0" style="&st4; &st3;">(*4)</tspan></text>
	</g>
	<g>
		<text transform="matrix(0.88 0 0 1 905.312 125.2646)"><tspan x="0" y="0" style="&st4; &st3;">(*3)</tspan></text>
	</g>
	<g>
		<text transform="matrix(0.88 0 0 1 905.312 142.2607)"><tspan x="0" y="0" style="&st4; &st3;">(*4)</tspan></text>
	</g>
	<g>
		<text transform="matrix(0.88 0 0 1 905.312 159.2568)"><tspan x="0" y="0" style="&st4; &st3;">(*3)</tspan></text>
	</g>
	<g>
		<text transform="matrix(0.88 0 0 1 905.312 176.2529)"><tspan x="0" y="0" style="&st4; &st3;">(*4)</tspan></text>
	</g>
	<g>
		<text transform="matrix(0.88 0 0 1 905.312 193.249)"><tspan x="0" y="0" style="&st4; &st3;">(*3)</tspan></text>
	</g>
	<g>
		<text transform="matrix(0.88 0 0 1 905.312 210.2451)"><tspan x="0" y="0" style="&st4; &st3;">(*4)</tspan></text>
	</g>
	<g>
		<text transform="matrix(0.88 0 0 1 905.312 227.2412)"><tspan x="0" y="0" style="&st4; &st3;">(*3)</tspan></text>
	</g>
	<g>
		<text transform="matrix(0.88 0 0 1 905.312 244.2373)"><tspan x="0" y="0" style="&st4; &st3;">(*4)</tspan></text>
	</g>
	<g>
		<text transform="matrix(0.88 0 0 1 905.312 261.2334)"><tspan x="0" y="0" style="&st4; &st3;">(*3)</tspan></text>
	</g>
	<g>
		<text transform="matrix(0.88 0 0 1 905.312 278.2295)"><tspan x="0" y="0" style="&st4; &st3;">(*4)</tspan></text>
	</g>
	<g>
		<text transform="matrix(0.88 0 0 1 905.312 295.2256)"><tspan x="0" y="0" style="&st4; &st3;">(*3)</tspan></text>
	</g>
	<g>
		<text transform="matrix(0.88 0 0 1 905.312 312.2217)"><tspan x="0" y="0" style="&st4; &st3;">(*4)</tspan></text>
	</g>
	<g>
		<text transform="matrix(0.88 0 0 1 905.312 329.2183)"><tspan x="0" y="0" style="&st4; &st3;">(*3)</tspan></text>
	</g>
	<g>
		<text transform="matrix(0.88 0 0 1 905.312 346.2144)"><tspan x="0" y="0" style="&st4; &st3;">(*4)</tspan></text>
	</g>
	<g>
		<text transform="matrix(0.88 0 0 1 905.312 363.2104)"><tspan x="0" y="0" style="&st4; &st3;">(*3)</tspan></text>
	</g>
	<g>
		<text transform="matrix(0.88 0 0 1 905.312 380.2065)"><tspan x="0" y="0" style="&st4; &st3;">(*4)</tspan></text>
	</g>
	<g>
		<text transform="matrix(0.88 0 0 1 905.312 397.2026)"><tspan x="0" y="0" style="&st4; &st3;">(*3)</tspan></text>
	</g>
	<g>
		<text transform="matrix(0.88 0 0 1 905.312 414.1987)"><tspan x="0" y="0" style="&st4; &st3;">(*4)</tspan></text>
	</g>
	<g>
		<text transform="matrix(0.88 0 0 1 905.312 431.1948)"><tspan x="0" y="0" style="&st4; &st3;">(*3)</tspan></text>
	</g>
	<g>
		<text transform="matrix(0.88 0 0 1 905.312 448.1909)"><tspan x="0" y="0" style="&st4; &st3;">(*4)</tspan></text>
	</g>
	<g>
		<text transform="matrix(0.88 0 0 1 905.312 465.187)"><tspan x="0" y="0" style="&st4; &st3;">(*3)</tspan></text>
	</g>
	<g>
		<text transform="matrix(0.88 0 0 1 905.312 482.1831)"><tspan x="0" y="0" style="&st4; &st3;">(*4)</tspan></text>
	</g>
	<g>
		<text transform="matrix(0.88 0 0 1 905.312 499.1792)"><tspan x="0" y="0" style="&st4; &st3;">(*3)</tspan></text>
	</g>
	<g>
		<text transform="matrix(0.88 0 0 1 905.312 516.1753)"><tspan x="0" y="0" style="&st4; &st3;">(*4)</tspan></text>
	</g>
	<g>
		<text transform="matrix(0.88 0 0 1 905.312 533.1714)"><tspan x="0" y="0" style="&st4; &st3;">(*3)</tspan></text>
	</g>
	<g>
		<text transform="matrix(0.88 0 0 1 905.312 550.1675)"><tspan x="0" y="0" style="&st4; &st3;">(*4)</tspan></text>
	</g>
	<g>
		<text transform="matrix(0.88 0 0 1 905.312 567.1636)"><tspan x="0" y="0" style="&st4; &st3;">(*3)</tspan></text>
	</g>
	<g>
		<text transform="matrix(0.88 0 0 1 905.312 584.1597)"><tspan x="0" y="0" style="&st4; &st3;">(*4)</tspan></text>
	</g>
	<g>
		<text transform="matrix(0.88 0 0 1 905.312 601.1558)"><tspan x="0" y="0" style="&st4; &st3;">(*3)</tspan></text>
	</g>
	<g>
		<text transform="matrix(0.88 0 0 1 657.9907 258.7407)"><tspan x="0" y="0" style="&st4; &st3;">15A HAZ-HORN</tspan></text>
	</g>
	<g>
		<text transform="matrix(0.88 0 0 1 589.9731 630.9624)"><tspan x="0" y="0" style="&st4; &st5;">* 1:1TR-FE, 2TR-FE</tspan></text>
	</g>
	<g>
		<text transform="matrix(0.88 0 0 1 589.9731 640.8843)"><tspan x="0" y="0" style="&st4; &st5;">* 2:1KD-FTV w/o DPF, 2KD-FTV, 5L-E</tspan></text>
	</g>
	<g>
		<text transform="matrix(0.88 0 0 1 589.9731 650.8052)"><tspan x="0" y="0" style="&st4; &st5;">* 3:1KD-FTV w/ DPF</tspan></text>
	</g>
	<g>
		<text transform="matrix(0.88 0 0 1 589.9731 660.7261)"><tspan x="0" y="0" style="&st4; &st5;">* 4:Except *3</tspan></text>
	</g>
	<g>
		<text transform="matrix(0.88 0 0 1 589.9731 670.647)"><tspan x="0" y="0" style="&st4; &st5;">* 5:1KD-FTV w/o DPF, 2KD-FTV</tspan></text>
	</g>
	<g>
		<text transform="matrix(0.88 0 0 1 661.5815 395.2788)"><tspan x="0" y="0" style="&st4; &st3;">20A EFI (*1)</tspan><tspan x="0" y="8" style="&st4; &st3;">25A EFI (*2,*3)</tspan></text>
	</g>
	<g>
		<text transform="matrix(0.88 0 0 1 787.2808 492.2886)"><tspan x="0" y="0" style="&st4; &st3;">C/OPN Relay (*1)</tspan><tspan x="0" y="8" style="&st4; &st3;">EDU Relay (*5)</tspan><tspan x="0" y="16" style="&st4; &st3;">A/F Relay (*3)</tspan></text>
	</g>
	<g>
		<text transform="matrix(0.88 0 0 1 789.6147 84.4771)"><tspan x="0" y="0" style="&st4; &st3;">A/F Relay (*1)</tspan><tspan x="0" y="8" style="&st4; &st3;">FAN3 Relay (*2)</tspan><tspan x="0" y="16" style="&st4; &st3;">EDU Relay (*3)</tspan></text>
	</g>
	<g>
		<text transform="matrix(0.88 0 0 1 695.6128 243.5967)"><tspan x="0" y="0" style="&st4; &st3;">2</tspan></text>
	</g>
	<g>
		<text transform="matrix(0.88 0 0 1 668.228 243.5967)"><tspan x="0" y="0" style="&st4; &st3;">1</tspan></text>
	</g>
	<g>
		<text transform="matrix(0.88 0 0 1 695.6128 379.5708)"><tspan x="0" y="0" style="&st4; &st3;">2</tspan></text>
	</g>
	<g>
		<text transform="matrix(0.88 0 0 1 668.228 379.5708)"><tspan x="0" y="0" style="&st4; &st3;">1</tspan></text>
	</g>
	<text transform="matrix(0.88 0 0 1 602.145 81.7441)"><tspan x="0" y="0" style="&st4; &st6;">Unit B</tspan></text>
	<text transform="matrix(1 0 0 1 933.5415 80.0938)"><tspan x="0" y="0" style="&st4; &st3;">1</tspan></text>
	<a ewd:code="1I" ewd:figtype="jbc" style="cursor:pointer;">
		<path style="fill:#FFFFFF;stroke:#000000;stroke-width:0.8;" d="M950.163,82.826c2.978,0,5.391-2.413,5.391-5.39c0-2.978-2.413-5.391-5.391-5.391h-4.581     c-2.978,0-5.391,2.413-5.391,5.391c0,2.977,2.413,5.39,5.391,5.39H950.163z"/>
		<text transform="matrix(1 0 0 1 944.5366 80.2295)"><tspan x="0" y="0" style="&st4; &st3;">1I</tspan></text>
	</a>
	<text transform="matrix(1 0 0 1 558.394 114.0869)"><tspan x="0" y="0" style="&st4; &st3;">1</tspan></text>
	<a ewd:code="1K" ewd:figtype="jbc" style="cursor:pointer;">
		<path style="fill:#FFFFFF;stroke:#000000;stroke-width:0.8;" d="M575.015,116.819c2.977,0,5.391-2.413,5.391-5.39c0-2.978-2.414-5.391-5.391-5.391h-4.582     c-2.977,0-5.391,2.413-5.391,5.391c0,2.977,2.414,5.39,5.391,5.39H575.015z"/>
		<text transform="matrix(1 0 0 1 567.8315 114.2227)"><tspan x="0" y="0" style="&st4; &st3;">1K</tspan></text>
	</a>
	<text transform="matrix(1 0 0 1 933.5415 97.0903)"><tspan x="0" y="0" style="&st4; &st3;">1</tspan></text>
	<a ewd:code="1L" ewd:figtype="jbc" style="cursor:pointer;">
		<path style="fill:#FFFFFF;stroke:#000000;stroke-width:0.8;" d="M950.163,99.823c2.978,0,5.391-2.413,5.391-5.39c0-2.978-2.413-5.391-5.391-5.391h-4.581     c-2.978,0-5.391,2.413-5.391,5.391c0,2.977,2.413,5.39,5.391,5.39H950.163z"/>
		<text transform="matrix(1 0 0 1 943.4233 97.2261)"><tspan x="0" y="0" style="&st4; &st3;">1L</tspan></text>
	</a>
	<text transform="matrix(1 0 0 1 933.5415 114.0869)"><tspan x="0" y="0" style="&st4; &st3;">4</tspan></text>
	<a ewd:code="1I" ewd:figtype="jbc" style="cursor:pointer;">
		<path style="fill:#FFFFFF;stroke:#000000;stroke-width:0.8;" d="M950.163,116.819c2.978,0,5.391-2.413,5.391-5.39c0-2.978-2.413-5.391-5.391-5.391h-4.581     c-2.978,0-5.391,2.413-5.391,5.391c0,2.977,2.413,5.39,5.391,5.39H950.163z"/>
		<text transform="matrix(1 0 0 1 944.5366 114.2227)"><tspan x="0" y="0" style="&st4; &st3;">1I</tspan></text>
	</a>
	<text transform="matrix(1 0 0 1 933.5415 131.0835)"><tspan x="0" y="0" style="&st4; &st3;">4</tspan></text>
	<a ewd:code="1L" ewd:figtype="jbc" style="cursor:pointer;">
		<path style="fill:#FFFFFF;stroke:#000000;stroke-width:0.8;" d="M950.163,133.816c2.978,0,5.391-2.413,5.391-5.39c0-2.978-2.413-5.391-5.391-5.391h-4.581     c-2.978,0-5.391,2.413-5.391,5.391c0,2.977,2.413,5.39,5.391,5.39H950.163z"/>
		<text transform="matrix(1 0 0 1 943.4233 131.2192)"><tspan x="0" y="0" style="&st4; &st3;">1L</tspan></text>
	</a>
	<text transform="matrix(1 0 0 1 933.5415 147.8652)"><tspan x="0" y="0" style="&st4; &st3;">3</tspan></text>
	<a ewd:code="1I" ewd:figtype="jbc" style="cursor:pointer;">
		<path style="fill:#FFFFFF;stroke:#000000;stroke-width:0.8;" d="M950.163,150.598c2.978,0,5.391-2.413,5.391-5.39c0-2.978-2.413-5.391-5.391-5.391h-4.581     c-2.978,0-5.391,2.413-5.391,5.391c0,2.977,2.413,5.39,5.391,5.39H950.163z"/>
		<text transform="matrix(1 0 0 1 944.5366 148.001)"><tspan x="0" y="0" style="&st4; &st3;">1I</tspan></text>
	</a>
	<text transform="matrix(1 0 0 1 933.5415 165.0767)"><tspan x="0" y="0" style="&st4; &st3;">3</tspan></text>
	<a ewd:code="1L" ewd:figtype="jbc" style="cursor:pointer;">
		<path style="fill:#FFFFFF;stroke:#000000;stroke-width:0.8;" d="M950.163,167.809c2.978,0,5.391-2.413,5.391-5.39c0-2.978-2.413-5.391-5.391-5.391h-4.581     c-2.978,0-5.391,2.413-5.391,5.391c0,2.977,2.413,5.39,5.391,5.39H950.163z"/>
		<text transform="matrix(1 0 0 1 943.4233 165.2124)"><tspan x="0" y="0" style="&st4; &st3;">1L</tspan></text>
	</a>
	<text transform="matrix(1 0 0 1 933.5415 182.0732)"><tspan x="0" y="0" style="&st4; &st3;">2</tspan></text>
	<a ewd:code="1I" ewd:figtype="jbc" style="cursor:pointer;">
		<path style="fill:#FFFFFF;stroke:#000000;stroke-width:0.8;" d="M950.163,184.806c2.978,0,5.391-2.413,5.391-5.39c0-2.978-2.413-5.391-5.391-5.391h-4.581     c-2.978,0-5.391,2.413-5.391,5.391c0,2.977,2.413,5.39,5.391,5.39H950.163z"/>
		<text transform="matrix(1 0 0 1 944.5366 182.209)"><tspan x="0" y="0" style="&st4; &st3;">1I</tspan></text>
	</a>
	<text transform="matrix(1 0 0 1 933.5415 199.0698)"><tspan x="0" y="0" style="&st4; &st3;">2</tspan></text>
	<a ewd:code="1L" ewd:figtype="jbc" style="cursor:pointer;">
		<path style="fill:#FFFFFF;stroke:#000000;stroke-width:0.8;" d="M950.163,201.802c2.978,0,5.391-2.413,5.391-5.39c0-2.978-2.413-5.391-5.391-5.391h-4.581     c-2.978,0-5.391,2.413-5.391,5.391c0,2.977,2.413,5.39,5.391,5.39H950.163z"/>
		<text transform="matrix(1 0 0 1 943.4233 199.2056)"><tspan x="0" y="0" style="&st4; &st3;">1L</tspan></text>
	</a>
	<text transform="matrix(1 0 0 1 933.5415 216.0664)"><tspan x="0" y="0" style="&st4; &st3;">5</tspan></text>
	<a ewd:code="1I" ewd:figtype="jbc" style="cursor:pointer;">
		<path style="fill:#FFFFFF;stroke:#000000;stroke-width:0.8;" d="M950.163,218.799c2.978,0,5.391-2.413,5.391-5.39c0-2.978-2.413-5.391-5.391-5.391h-4.581     c-2.978,0-5.391,2.413-5.391,5.391c0,2.977,2.413,5.39,5.391,5.39H950.163z"/>
		<text transform="matrix(1 0 0 1 944.5366 216.2021)"><tspan x="0" y="0" style="&st4; &st3;">1I</tspan></text>
	</a>
	<text transform="matrix(1 0 0 1 933.5415 233.063)"><tspan x="0" y="0" style="&st4; &st3;">5</tspan></text>
	<a ewd:code="1L" ewd:figtype="jbc" style="cursor:pointer;">
		<path style="fill:#FFFFFF;stroke:#000000;stroke-width:0.8;" d="M950.163,235.795c2.978,0,5.391-2.413,5.391-5.39c0-2.978-2.413-5.391-5.391-5.391h-4.581     c-2.978,0-5.391,2.413-5.391,5.391c0,2.977,2.413,5.39,5.391,5.39H950.163z"/>
		<text transform="matrix(1 0 0 1 943.4233 233.1987)"><tspan x="0" y="0" style="&st4; &st3;">1L</tspan></text>
	</a>
	<text transform="matrix(1 0 0 1 933.5415 250.0596)"><tspan x="0" y="0" style="&st4; &st3;">8</tspan></text>
	<a ewd:code="1I" ewd:figtype="jbc" style="cursor:pointer;">
		<path style="fill:#FFFFFF;stroke:#000000;stroke-width:0.8;" d="M950.163,252.792c2.978,0,5.391-2.413,5.391-5.39c0-2.978-2.413-5.391-5.391-5.391h-4.581     c-2.978,0-5.391,2.413-5.391,5.391c0,2.977,2.413,5.39,5.391,5.39H950.163z"/>
		<text transform="matrix(1 0 0 1 944.5366 250.1953)"><tspan x="0" y="0" style="&st4; &st3;">1I</tspan></text>
	</a>
	<text transform="matrix(1 0 0 1 933.5415 267.0562)"><tspan x="0" y="0" style="&st4; &st3;">8</tspan></text>
	<a ewd:code="1L" ewd:figtype="jbc" style="cursor:pointer;">
		<path style="fill:#FFFFFF;stroke:#000000;stroke-width:0.8;" d="M950.163,269.789c2.978,0,5.391-2.413,5.391-5.39c0-2.978-2.413-5.391-5.391-5.391h-4.581     c-2.978,0-5.391,2.413-5.391,5.391c0,2.977,2.413,5.39,5.391,5.39H950.163z"/>
		<text transform="matrix(1 0 0 1 943.4233 267.1919)"><tspan x="0" y="0" style="&st4; &st3;">1L</tspan></text>
	</a>
	<text transform="matrix(1 0 0 1 933.5415 284.0527)"><tspan x="0" y="0" style="&st4; &st3;">7</tspan></text>
	<a ewd:code="1I" ewd:figtype="jbc" style="cursor:pointer;">
		<path style="fill:#FFFFFF;stroke:#000000;stroke-width:0.8;" d="M950.163,286.785c2.978,0,5.391-2.413,5.391-5.39c0-2.978-2.413-5.391-5.391-5.391h-4.581     c-2.978,0-5.391,2.413-5.391,5.391c0,2.977,2.413,5.39,5.391,5.39H950.163z"/>
		<text transform="matrix(1 0 0 1 944.5366 284.1885)"><tspan x="0" y="0" style="&st4; &st3;">1I</tspan></text>
	</a>
	<text transform="matrix(1 0 0 1 933.5415 301.0493)"><tspan x="0" y="0" style="&st4; &st3;">7</tspan></text>
	<a ewd:code="1L" ewd:figtype="jbc" style="cursor:pointer;">
		<path style="fill:#FFFFFF;stroke:#000000;stroke-width:0.8;" d="M950.163,303.782c2.978,0,5.391-2.413,5.391-5.39c0-2.978-2.413-5.391-5.391-5.391h-4.581     c-2.978,0-5.391,2.413-5.391,5.391c0,2.977,2.413,5.39,5.391,5.39H950.163z"/>
		<text transform="matrix(1 0 0 1 943.4233 301.1851)"><tspan x="0" y="0" style="&st4; &st3;">1L</tspan></text>
	</a>
	<text transform="matrix(1 0 0 1 933.5415 318.0459)"><tspan x="0" y="0" style="&st4; &st3;">6</tspan></text>
	<a ewd:code="1I" ewd:figtype="jbc" style="cursor:pointer;">
		<path style="fill:#FFFFFF;stroke:#000000;stroke-width:0.8;" d="M950.163,320.778c2.978,0,5.391-2.413,5.391-5.39c0-2.978-2.413-5.391-5.391-5.391h-4.581     c-2.978,0-5.391,2.413-5.391,5.391c0,2.977,2.413,5.39,5.391,5.39H950.163z"/>
		<text transform="matrix(1 0 0 1 944.5366 318.1816)"><tspan x="0" y="0" style="&st4; &st3;">1I</tspan></text>
	</a>
	<text transform="matrix(1 0 0 1 933.5415 335.0425)"><tspan x="0" y="0" style="&st4; &st3;">6</tspan></text>
	<a ewd:code="1L" ewd:figtype="jbc" style="cursor:pointer;">
		<path style="fill:#FFFFFF;stroke:#000000;stroke-width:0.8;" d="M950.163,337.775c2.978,0,5.391-2.413,5.391-5.39c0-2.978-2.413-5.391-5.391-5.391h-4.581     c-2.978,0-5.391,2.413-5.391,5.391c0,2.977,2.413,5.39,5.391,5.39H950.163z"/>
		<text transform="matrix(1 0 0 1 943.4233 335.1782)"><tspan x="0" y="0" style="&st4; &st3;">1L</tspan></text>
	</a>
	<text transform="matrix(1 0 0 1 933.5415 352.0396)"><tspan x="0" y="0" style="&st4; &st3;">1</tspan></text>
	<a ewd:code="1J" ewd:figtype="jbc" style="cursor:pointer;">
		<path style="fill:#FFFFFF;stroke:#000000;stroke-width:0.8;" d="M950.163,354.772c2.978,0,5.391-2.413,5.391-5.39c0-2.978-2.413-5.391-5.391-5.391h-4.581     c-2.978,0-5.391,2.413-5.391,5.391c0,2.977,2.413,5.39,5.391,5.39H950.163z"/>
		<text transform="matrix(1 0 0 1 943.6479 352.1753)"><tspan x="0" y="0" style="&st4; &st3;">1J</tspan></text>
	</a>
	<text transform="matrix(1 0 0 1 933.5415 369.0366)"><tspan x="0" y="0" style="&st4; &st3;">1</tspan></text>
	<a ewd:code="1M" ewd:figtype="jbc" style="cursor:pointer;">
		<path style="fill:#FFFFFF;stroke:#000000;stroke-width:0.8;" d="M950.163,371.769c2.978,0,5.391-2.414,5.391-5.391c0-2.977-2.413-5.391-5.391-5.391h-4.581     c-2.978,0-5.391,2.414-5.391,5.391c0,2.977,2.413,5.391,5.391,5.391H950.163z"/>
		<text transform="matrix(1 0 0 1 942.3159 369.1714)"><tspan x="0" y="0" style="&st4; &st3;">1M</tspan></text>
	</a>
	<text transform="matrix(1 0 0 1 933.5415 386.0327)"><tspan x="0" y="0" style="&st4; &st3;">4</tspan></text>
	<a ewd:code="1J" ewd:figtype="jbc" style="cursor:pointer;">
		<path style="fill:#FFFFFF;stroke:#000000;stroke-width:0.8;" d="M950.163,388.765c2.978,0,5.391-2.413,5.391-5.39c0-2.978-2.413-5.391-5.391-5.391h-4.581     c-2.978,0-5.391,2.413-5.391,5.391c0,2.977,2.413,5.39,5.391,5.39H950.163z"/>
		<text transform="matrix(1 0 0 1 943.6479 386.1685)"><tspan x="0" y="0" style="&st4; &st3;">1J</tspan></text>
	</a>
	<text transform="matrix(1 0 0 1 933.5415 403.0288)"><tspan x="0" y="0" style="&st4; &st3;">4</tspan></text>
	<a ewd:code="1M" ewd:figtype="jbc" style="cursor:pointer;">
		<path style="fill:#FFFFFF;stroke:#000000;stroke-width:0.8;" d="M950.163,405.761c2.978,0,5.391-2.413,5.391-5.39c0-2.978-2.413-5.391-5.391-5.391h-4.581     c-2.978,0-5.391,2.413-5.391,5.391c0,2.977,2.413,5.39,5.391,5.39H950.163z"/>
		<text transform="matrix(1 0 0 1 942.3159 403.1646)"><tspan x="0" y="0" style="&st4; &st3;">1M</tspan></text>
	</a>
	<text transform="matrix(1 0 0 1 933.5415 420.0259)"><tspan x="0" y="0" style="&st4; &st3;">3</tspan></text>
	<a ewd:code="1J" ewd:figtype="jbc" style="cursor:pointer;">
		<path style="fill:#FFFFFF;stroke:#000000;stroke-width:0.8;" d="M950.163,422.758c2.978,0,5.391-2.413,5.391-5.39c0-2.978-2.413-5.391-5.391-5.391h-4.581     c-2.978,0-5.391,2.413-5.391,5.391c0,2.977,2.413,5.39,5.391,5.39H950.163z"/>
		<text transform="matrix(1 0 0 1 943.6479 420.1616)"><tspan x="0" y="0" style="&st4; &st3;">1J</tspan></text>
	</a>
	<text transform="matrix(1 0 0 1 933.5415 437.022)"><tspan x="0" y="0" style="&st4; &st3;">3</tspan></text>
	<a ewd:code="1M" ewd:figtype="jbc" style="cursor:pointer;">
		<path style="fill:#FFFFFF;stroke:#000000;stroke-width:0.8;" d="M950.163,439.754c2.978,0,5.391-2.413,5.391-5.39c0-2.978-2.413-5.391-5.391-5.391h-4.581     c-2.978,0-5.391,2.413-5.391,5.391c0,2.977,2.413,5.39,5.391,5.39H950.163z"/>
		<text transform="matrix(1 0 0 1 942.3159 437.1577)"><tspan x="0" y="0" style="&st4; &st3;">1M</tspan></text>
	</a>
	<text transform="matrix(1 0 0 1 933.5415 454.019)"><tspan x="0" y="0" style="&st4; &st3;">2</tspan></text>
	<a ewd:code="1J" ewd:figtype="jbc" style="cursor:pointer;">
		<path style="fill:#FFFFFF;stroke:#000000;stroke-width:0.8;" d="M950.163,456.751c2.978,0,5.391-2.413,5.391-5.39c0-2.978-2.413-5.391-5.391-5.391h-4.581     c-2.978,0-5.391,2.413-5.391,5.391c0,2.977,2.413,5.39,5.391,5.39H950.163z"/>
		<text transform="matrix(1 0 0 1 943.6479 454.1548)"><tspan x="0" y="0" style="&st4; &st3;">1J</tspan></text>
	</a>
	<text transform="matrix(1 0 0 1 933.5415 471.0151)"><tspan x="0" y="0" style="&st4; &st3;">2</tspan></text>
	<a ewd:code="1M" ewd:figtype="jbc" style="cursor:pointer;">
		<path style="fill:#FFFFFF;stroke:#000000;stroke-width:0.8;" d="M950.163,473.748c2.978,0,5.391-2.413,5.391-5.39c0-2.978-2.413-5.391-5.391-5.391h-4.581     c-2.978,0-5.391,2.413-5.391,5.391c0,2.977,2.413,5.39,5.391,5.39H950.163z"/>
		<text transform="matrix(1 0 0 1 942.3159 471.1509)"><tspan x="0" y="0" style="&st4; &st3;">1M</tspan></text>
	</a>
	<text transform="matrix(1 0 0 1 933.5415 488.0122)"><tspan x="0" y="0" style="&st4; &st3;">5</tspan></text>
	<a ewd:code="1J" ewd:figtype="jbc" style="cursor:pointer;">
		<path style="fill:#FFFFFF;stroke:#000000;stroke-width:0.8;" d="M950.163,490.745c2.978,0,5.391-2.413,5.391-5.39c0-2.978-2.413-5.391-5.391-5.391h-4.581     c-2.978,0-5.391,2.413-5.391,5.391c0,2.977,2.413,5.39,5.391,5.39H950.163z"/>
		<text transform="matrix(1 0 0 1 943.6479 488.1479)"><tspan x="0" y="0" style="&st4; &st3;">1J</tspan></text>
	</a>
	<text transform="matrix(1 0 0 1 933.5415 505.0083)"><tspan x="0" y="0" style="&st4; &st3;">5</tspan></text>
	<a ewd:code="1M" ewd:figtype="jbc" style="cursor:pointer;">
		<path style="fill:#FFFFFF;stroke:#000000;stroke-width:0.8;" d="M950.163,507.741c2.978,0,5.391-2.413,5.391-5.39c0-2.978-2.413-5.391-5.391-5.391h-4.581     c-2.978,0-5.391,2.413-5.391,5.391c0,2.977,2.413,5.39,5.391,5.39H950.163z"/>
		<text transform="matrix(1 0 0 1 942.3159 505.144)"><tspan x="0" y="0" style="&st4; &st3;">1M</tspan></text>
	</a>
	<text transform="matrix(1 0 0 1 933.5415 522.0054)"><tspan x="0" y="0" style="&st4; &st3;">8</tspan></text>
	<a ewd:code="1J" ewd:figtype="jbc" style="cursor:pointer;">
		<path style="fill:#FFFFFF;stroke:#000000;stroke-width:0.8;" d="M950.163,524.738c2.978,0,5.391-2.413,5.391-5.39c0-2.978-2.413-5.391-5.391-5.391h-4.581     c-2.978,0-5.391,2.413-5.391,5.391c0,2.977,2.413,5.39,5.391,5.39H950.163z"/>
		<text transform="matrix(1 0 0 1 943.6479 522.1411)"><tspan x="0" y="0" style="&st4; &st3;">1J</tspan></text>
	</a>
	<text transform="matrix(1 0 0 1 933.5415 539.0015)"><tspan x="0" y="0" style="&st4; &st3;">8</tspan></text>
	<a ewd:code="1M" ewd:figtype="jbc" style="cursor:pointer;">
		<path style="fill:#FFFFFF;stroke:#000000;stroke-width:0.8;" d="M950.163,541.734c2.978,0,5.391-2.413,5.391-5.39c0-2.978-2.413-5.391-5.391-5.391h-4.581     c-2.978,0-5.391,2.413-5.391,5.391c0,2.977,2.413,5.39,5.391,5.39H950.163z"/>
		<text transform="matrix(1 0 0 1 942.3159 539.1372)"><tspan x="0" y="0" style="&st4; &st3;">1M</tspan></text>
	</a>
	<text transform="matrix(1 0 0 1 933.5415 555.9985)"><tspan x="0" y="0" style="&st4; &st3;">7</tspan></text>
	<a ewd:code="1J" ewd:figtype="jbc" style="cursor:pointer;">
		<path style="fill:#FFFFFF;stroke:#000000;stroke-width:0.8;" d="M950.163,558.731c2.978,0,5.391-2.413,5.391-5.39c0-2.978-2.413-5.391-5.391-5.391h-4.581     c-2.978,0-5.391,2.413-5.391,5.391c0,2.977,2.413,5.39,5.391,5.39H950.163z"/>
		<text transform="matrix(1 0 0 1 943.6479 556.1343)"><tspan x="0" y="0" style="&st4; &st3;">1J</tspan></text>
	</a>
	<text transform="matrix(1 0 0 1 933.5415 572.9946)"><tspan x="0" y="0" style="&st4; &st3;">7</tspan></text>
	<a ewd:code="1M" ewd:figtype="jbc" style="cursor:pointer;">
		<path style="fill:#FFFFFF;stroke:#000000;stroke-width:0.8;" d="M950.163,575.727c2.978,0,5.391-2.413,5.391-5.39c0-2.978-2.413-5.391-5.391-5.391h-4.581     c-2.978,0-5.391,2.413-5.391,5.391c0,2.977,2.413,5.39,5.391,5.39H950.163z"/>
		<text transform="matrix(1 0 0 1 942.3159 573.1304)"><tspan x="0" y="0" style="&st4; &st3;">1M</tspan></text>
	</a>
	<text transform="matrix(1 0 0 1 933.5415 589.9917)"><tspan x="0" y="0" style="&st4; &st3;">6</tspan></text>
	<a ewd:code="1J" ewd:figtype="jbc" style="cursor:pointer;">
		<path style="fill:#FFFFFF;stroke:#000000;stroke-width:0.8;" d="M950.163,592.724c2.978,0,5.391-2.413,5.391-5.39c0-2.978-2.413-5.391-5.391-5.391h-4.581     c-2.978,0-5.391,2.413-5.391,5.391c0,2.977,2.413,5.39,5.391,5.39H950.163z"/>
		<text transform="matrix(1 0 0 1 943.6479 590.1274)"><tspan x="0" y="0" style="&st4; &st3;">1J</tspan></text>
	</a>
	<text transform="matrix(1 0 0 1 933.5415 606.9888)"><tspan x="0" y="0" style="&st4; &st3;">6</tspan></text>
	<a ewd:code="1M" ewd:figtype="jbc" style="cursor:pointer;">
		<path style="fill:#FFFFFF;stroke:#000000;stroke-width:0.8;" d="M950.163,609.721c2.978,0,5.391-2.413,5.391-5.39c0-2.978-2.413-5.391-5.391-5.391h-4.581     c-2.978,0-5.391,2.413-5.391,5.391c0,2.977,2.413,5.39,5.391,5.39H950.163z"/>
		<text transform="matrix(1 0 0 1 942.3159 607.1245)"><tspan x="0" y="0" style="&st4; &st3;">1M</tspan></text>
	</a>
</g>
</svg>