﻿<?xml version="1.0"?>
<!-- Generator: Adobe Illustrator 10.0, SVG Export Plug-In . SVG Version: 3.0.0 Build 77)  -->
<!DOCTYPE svg PUBLIC "-//W3C//DTD SVG 1.0//EN" "http://www.w3.org/TR/2001/REC-SVG-20010904/DTD/svg10.dtd"[
	<!ENTITY ns_flows "http://ns.adobe.com/Flows/1.0/">
	<!ENTITY ns_svg "http://www.w3.org/2000/svg">
	<!ENTITY ns_xlink "http://www.w3.org/1999/xlink">
	<!ENTITY st0 "fill:none;stroke:#000000;stroke-linecap:round;stroke-linejoin:round;">
	<!ENTITY st1 "fill:none;stroke:#000000;stroke-width:0.6;stroke-linecap:round;stroke-linejoin:round;">
	<!ENTITY st2 "fill:none;stroke:#000000;">
	<!ENTITY st3 "font-family:'Arial';font-weight:bold;">
	<!ENTITY st4 "font-size:8px;">
	<!ENTITY st5 "font-family:'Arial';">
	<!ENTITY st6 "font-size:10px;">
	<!ENTITY st7 "fill:none;stroke:#FFFFFF;stroke-width:0.2;">
	<!ATTLIST svg
		xmlns:ewd CDATA #FIXED "http://shcl.co.jp/ewd"
		xmlns:a CDATA #FIXED "http://ns.adobe.com/AdobeSVGViewerExtensions/3.0/"
		ewd:ver CDATA #IMPLIED>
	<!ATTLIST a
		ewd:innerGroupID CDATA #IMPLIED
		ewd:figtype CDATA #IMPLIED
		ewd:code CDATA #IMPLIED
		ewd:pinNo CDATA #IMPLIED>
]>
<svg width="510.436" height="680.514" viewBox="0 0 510.436 680.514" style="overflow:visible;enable-background:new 0 0 510.436 680.514" xml:space="preserve" onload="call_execInitLoadProc_svg('inner')" ewd:ver="L2.1.2.5" xmlns="&ns_svg;" xmlns:ewd="http://shcl.co.jp/ewd" xmlns:a="http://ns.adobe.com/AdobeSVGViewerExtensions/3.0/" xmlns:xlink="&ns_xlink;">
<script type="text/javascript" xlink:href="../../../../../system/js/ewd/fig/svgfig.js"/>
<g id="WAKU">
	<path style="&st7;" d="M510.336,680.415V0.1H0.1v680.314H510.336z"/>
</g>
<g id="レイヤ_xFF0D__1">
	<path style="&st1;" d="M327.338,377.347h-10.623"/>
	<path style="&st1;" d="M312.466,377.347h-10.623"/>
	<path style="&st0;" d="M312.466,373.097v8.499"/>
	<path style="&st0;" d="M316.715,373.097v8.499"/>
	<path style="&st0;" d="M131.871,130.888V598.31h254.958V130.888H131.871"/>
	<path style="&st1;" d="M250.851,351.851h8.498l1.417-2.833l2.833,5.666l2.833-5.666l2.833,5.666l2.832-5.666l2.834,5.666    l1.415-2.833h8.499"/>
	<path style="&st1;" d="M250.851,377.347h8.498l1.417-2.834l2.833,5.667l2.833-5.667l2.833,5.667l2.832-5.667l2.834,5.667    l1.415-2.833h8.499"/>
	<path style="&st1;" d="M293.344,377.347h8.499"/>
	<path style="&st1;" d="M284.845,351.851h8.499v25.496h-8.499"/>
	<path style="&st1;" d="M242.353,351.851h8.499"/>
	<path style="&st1;" d="M242.353,377.347h8.499"/>
	<path style="&st1;" d="M335.837,377.347h-8.499"/>
	<path style="&st0;" d="M242.353,343.353v42.493h93.485v-42.493H242.353"/>
	<path style="&st1;" d="M292.152,376.343l-0.272,0.471l-0.093,0.533l0.093,0.532l0.272,0.47l0.413,0.346l0.507,0.188h0.544    l0.507-0.188l0.414-0.346l0.271-0.47l0.095-0.532l-0.095-0.533l-0.271-0.471l-0.414-0.345l-0.507-0.187h-0.544l-0.507,0.187    L292.152,376.343l0.394,0.712v0.583l0.374,0.445l0.571,0.1l0.505-0.29l0.198-0.546l-0.198-0.547l-0.505-0.289l-0.571,0.099    l0.425,0.737"/>
	<path style="&st1;" d="M386.829,377.347h-50.991"/>
	<path style="&st1;" d="M242.353,351.851H131.871"/>
	<path style="&st1;" d="M174.364,351.851V147.885h-42.493"/>
	<path style="&st1;" d="M131.871,173.381h42.493"/>
	<path style="&st1;" d="M131.871,198.876h42.493"/>
	<path style="&st1;" d="M131.871,224.373h42.493"/>
	<path style="&st1;" d="M131.871,249.868h42.493"/>
	<path style="&st1;" d="M131.871,275.364h42.493"/>
	<path style="&st1;" d="M131.871,300.859h42.493"/>
	<path style="&st1;" d="M131.871,326.355h42.493"/>
	<path style="&st1;" d="M131.871,377.347h110.481"/>
	<path style="&st1;" d="M174.364,377.347v203.966h-42.493"/>
	<path style="&st1;" d="M174.364,402.842h-42.493"/>
	<path style="&st1;" d="M174.364,428.338h-42.493"/>
	<path style="&st1;" d="M174.364,453.834h-42.493"/>
	<path style="&st1;" d="M174.364,479.33h-42.493"/>
	<path style="&st1;" d="M174.364,504.826h-42.493"/>
	<path style="&st1;" d="M174.364,530.322h-42.493"/>
	<path style="&st1;" d="M174.364,555.817h-42.493"/>
	<path style="&st1;" d="M173.171,172.378l-0.272,0.47l-0.094,0.533l0.094,0.533l0.272,0.47l0.414,0.345l0.507,0.187h0.544    l0.507-0.187l0.414-0.345l0.272-0.47l0.093-0.533l-0.093-0.533l-0.272-0.47l-0.414-0.346l-0.507-0.187h-0.544l-0.507,0.187    L173.171,172.378l0.394,0.711v0.583l0.374,0.445l0.572,0.099l0.504-0.289l0.198-0.547l-0.198-0.547l-0.504-0.289l-0.572,0.099    l0.425,0.737"/>
	<path style="&st1;" d="M173.171,197.874l-0.272,0.47l-0.094,0.533l0.094,0.533l0.272,0.47l0.414,0.346l0.507,0.187h0.544    l0.507-0.187l0.414-0.346l0.272-0.47l0.093-0.533l-0.093-0.533l-0.272-0.47l-0.414-0.345l-0.507-0.187h-0.544l-0.507,0.187    L173.171,197.874l0.394,0.711v0.584l0.374,0.445l0.572,0.099l0.504-0.289l0.198-0.547l-0.198-0.547l-0.504-0.289l-0.572,0.099    l0.425,0.736"/>
	<path style="&st1;" d="M173.171,223.37l-0.272,0.47l-0.094,0.533l0.094,0.532l0.272,0.47l0.414,0.346l0.507,0.187h0.544    l0.507-0.187l0.414-0.346l0.272-0.47l0.093-0.532l-0.093-0.533l-0.272-0.47l-0.414-0.346l-0.507-0.187h-0.544l-0.507,0.187    L173.171,223.37l0.394,0.711v0.583l0.374,0.445l0.572,0.099l0.504-0.289l0.198-0.546l-0.198-0.547l-0.504-0.289l-0.572,0.099    l0.425,0.737"/>
	<path style="&st1;" d="M173.171,248.865l-0.272,0.47l-0.094,0.533l0.094,0.533l0.272,0.47l0.414,0.346l0.507,0.187h0.544    l0.507-0.187l0.414-0.346l0.272-0.47l0.093-0.533l-0.093-0.533l-0.272-0.47l-0.414-0.346l-0.507-0.187h-0.544l-0.507,0.187    L173.171,248.865l0.394,0.711v0.583l0.374,0.445l0.572,0.099l0.504-0.289l0.198-0.546l-0.198-0.547l-0.504-0.289l-0.572,0.099    l0.425,0.737"/>
	<path style="&st1;" d="M173.171,274.361l-0.272,0.47l-0.094,0.533l0.094,0.533l0.272,0.47l0.414,0.346l0.507,0.187h0.544    l0.507-0.187l0.414-0.346l0.272-0.47l0.093-0.533l-0.093-0.533l-0.272-0.47l-0.414-0.346l-0.507-0.187h-0.544l-0.507,0.187    L173.171,274.361l0.394,0.711v0.584l0.374,0.444l0.572,0.099l0.504-0.289l0.198-0.547l-0.198-0.547l-0.504-0.289l-0.572,0.1    l0.425,0.736"/>
	<path style="&st1;" d="M173.171,299.856l-0.272,0.471l-0.094,0.532l0.094,0.533l0.272,0.47l0.414,0.346l0.507,0.187h0.544    l0.507-0.187l0.414-0.346l0.272-0.47l0.093-0.533l-0.093-0.532l-0.272-0.471l-0.414-0.345l-0.507-0.187h-0.544l-0.507,0.187    L173.171,299.856l0.394,0.711v0.583l0.374,0.445l0.572,0.099l0.504-0.289l0.198-0.547l-0.198-0.547l-0.504-0.289l-0.572,0.099    l0.425,0.736"/>
	<path style="&st1;" d="M173.171,325.353l-0.272,0.47l-0.094,0.532l0.094,0.533l0.272,0.47l0.414,0.346l0.507,0.187h0.544    l0.507-0.187l0.414-0.346l0.272-0.47l0.093-0.533l-0.093-0.532l-0.272-0.47l-0.414-0.346l-0.507-0.187h-0.544l-0.507,0.187    L173.171,325.353l0.394,0.711v0.583l0.374,0.445l0.572,0.099l0.504-0.289l0.198-0.547l-0.198-0.546l-0.504-0.289l-0.572,0.099    l0.425,0.736"/>
	<path style="&st1;" d="M173.171,350.848l-0.272,0.47l-0.094,0.533l0.094,0.532l0.272,0.471l0.414,0.345l0.507,0.188h0.544    l0.507-0.188l0.414-0.345l0.272-0.471l0.093-0.532l-0.093-0.533l-0.272-0.47l-0.414-0.346l-0.507-0.187h-0.544l-0.507,0.187    L173.171,350.848l0.394,0.711v0.584l0.374,0.444l0.572,0.1l0.504-0.289l0.198-0.547l-0.198-0.547l-0.504-0.289l-0.572,0.099    l0.425,0.737"/>
	<path style="&st1;" d="M173.171,376.343l-0.272,0.471l-0.094,0.533l0.094,0.532l0.272,0.47l0.414,0.346l0.507,0.188h0.544    l0.507-0.188l0.414-0.346l0.272-0.47l0.093-0.532l-0.093-0.533l-0.272-0.471l-0.414-0.345l-0.507-0.187h-0.544l-0.507,0.187    L173.171,376.343l0.394,0.712v0.583l0.374,0.445l0.572,0.1l0.504-0.29l0.198-0.546l-0.198-0.547l-0.504-0.289l-0.572,0.099    l0.425,0.737"/>
	<path style="&st1;" d="M173.171,401.839l-0.272,0.471l-0.094,0.532l0.094,0.533l0.272,0.47l0.414,0.346l0.507,0.188h0.544    l0.507-0.188l0.414-0.346l0.272-0.47l0.093-0.533l-0.093-0.532l-0.272-0.471l-0.414-0.346l-0.507-0.187h-0.544l-0.507,0.187    L173.171,401.839l0.394,0.712v0.583l0.374,0.445l0.572,0.099l0.504-0.289l0.198-0.547l-0.198-0.546l-0.504-0.289l-0.572,0.099    l0.425,0.736"/>
	<path style="&st1;" d="M173.171,427.335l-0.272,0.47l-0.094,0.533l0.094,0.532l0.272,0.471l0.414,0.346l0.507,0.187h0.544    l0.507-0.187l0.414-0.346l0.272-0.471l0.093-0.532l-0.093-0.533l-0.272-0.47l-0.414-0.346l-0.507-0.188h-0.544l-0.507,0.188    L173.171,427.335l0.394,0.711v0.584l0.374,0.444l0.572,0.099l0.504-0.289l0.198-0.546l-0.198-0.547l-0.504-0.289l-0.572,0.099    l0.425,0.737"/>
	<path style="&st1;" d="M173.171,452.831l-0.272,0.471l-0.094,0.533l0.094,0.532l0.272,0.471l0.414,0.346l0.507,0.186h0.544    l0.507-0.186l0.414-0.346l0.272-0.471l0.093-0.532l-0.093-0.533l-0.272-0.471l-0.414-0.346l-0.507-0.187h-0.544l-0.507,0.187    L173.171,452.831l0.394,0.712v0.583l0.374,0.444l0.572,0.1l0.504-0.289l0.198-0.546l-0.198-0.548l-0.504-0.289l-0.572,0.1    l0.425,0.737"/>
	<path style="&st1;" d="M173.171,478.327l-0.272,0.471l-0.094,0.532l0.094,0.533l0.272,0.47l0.414,0.346l0.507,0.187h0.544    l0.507-0.187l0.414-0.346l0.272-0.47l0.093-0.533l-0.093-0.532l-0.272-0.471l-0.414-0.346l-0.507-0.187h-0.544l-0.507,0.187    L173.171,478.327l0.394,0.712v0.583l0.374,0.445l0.572,0.099l0.504-0.289l0.198-0.547l-0.198-0.547l-0.504-0.289l-0.572,0.1    l0.425,0.736"/>
	<path style="&st1;" d="M173.171,503.823l-0.272,0.47l-0.094,0.533l0.094,0.532l0.272,0.47l0.414,0.346l0.507,0.188h0.544    l0.507-0.188l0.414-0.346l0.272-0.47l0.093-0.532l-0.093-0.533l-0.272-0.47l-0.414-0.346l-0.507-0.187h-0.544l-0.507,0.187    L173.171,503.823l0.394,0.711v0.584l0.374,0.444l0.572,0.1l0.504-0.29l0.198-0.546l-0.198-0.547l-0.504-0.289l-0.572,0.099    l0.425,0.737"/>
	<path style="&st1;" d="M173.171,529.318l-0.272,0.471l-0.094,0.533l0.094,0.532l0.272,0.47l0.414,0.346l0.507,0.187h0.544    l0.507-0.187l0.414-0.346l0.272-0.47l0.093-0.532l-0.093-0.533l-0.272-0.471l-0.414-0.346l-0.507-0.187h-0.544l-0.507,0.187    L173.171,529.318l0.394,0.712v0.583l0.374,0.445l0.572,0.099l0.504-0.289l0.198-0.546l-0.198-0.547l-0.504-0.29l-0.572,0.1    l0.425,0.737"/>
	<path style="&st1;" d="M173.171,554.814l-0.272,0.471l-0.094,0.532l0.094,0.533l0.272,0.47l0.414,0.346l0.507,0.187h0.544    l0.507-0.187l0.414-0.346l0.272-0.47l0.093-0.533l-0.093-0.532l-0.272-0.471l-0.414-0.346l-0.507-0.187h-0.544l-0.507,0.187    L173.171,554.814l0.394,0.711v0.584l0.374,0.444l0.572,0.1l0.504-0.289l0.198-0.547l-0.198-0.547l-0.504-0.289l-0.572,0.1    l0.425,0.736"/>
	<path style="&st0;" d="M208.358,130.888V598.31"/>
</g>
<g id="キャプション">
	<g>
		<text transform="matrix(0.88 0 0 1 235.7441 348.0454)"><tspan x="0" y="0" style="&st5; &st4;">3</tspan></text>
	</g>
	<g>
		<text transform="matrix(1 0 0 1 273.0522 338.2573)"><tspan x="0" y="0" style="&st5; &st4;">ST-Plug</tspan></text>
	</g>
	<g>
		<text transform="matrix(0.88 0 0 1 125.0107 141.0073)"><tspan x="0" y="0" style="&st5; &st4;">2</tspan></text>
	</g>
	<g>
		<text transform="matrix(0.88 0 0 1 125.0107 166.6738)"><tspan x="0" y="0" style="&st5; &st4;">2</tspan></text>
	</g>
	<g>
		<text transform="matrix(0.88 0 0 1 125.0107 192.0073)"><tspan x="0" y="0" style="&st5; &st4;">2</tspan></text>
	</g>
	<g>
		<text transform="matrix(0.88 0 0 1 125.0107 370.5073)"><tspan x="0" y="0" style="&st5; &st4;">1</tspan></text>
	</g>
	<g>
		<text transform="matrix(0.88 0 0 1 124.7607 396.5073)"><tspan x="0" y="0" style="&st5; &st4;">1</tspan></text>
	</g>
	<g>
		<text transform="matrix(0.88 0 0 1 124.7607 422.0073)"><tspan x="0" y="0" style="&st5; &st4;">1</tspan></text>
	</g>
	<g>
		<text transform="matrix(0.88 0 0 1 215.2183 114.1118)"><tspan x="0" y="0" style="&st3; &st6;">H3(A), H4(B), H5(C), H6(D)</tspan></text>
	</g>
	<g>
		<text transform="matrix(0.88 0 0 1 235.7441 373.5405)"><tspan x="0" y="0" style="&st5; &st4;">2</tspan></text>
	</g>
	<g>
		<text transform="matrix(0.88 0 0 1 338.6704 373.5405)"><tspan x="0" y="0" style="&st5; &st4;">1</tspan></text>
	</g>
	<g>
		<path style="&st2;" d="M126.815,152.941c2.792,0,5.056-2.264,5.056-5.056c0-2.792-2.264-5.056-5.056-5.056     c-2.792,0-5.056,2.264-5.056,5.056C121.759,150.677,124.023,152.941,126.815,152.941z"/>
		<g>
			<text transform="matrix(0.88 0 0 1 124.4526 150.5908)"><tspan x="0" y="0" style="&st5; &st4;">A</tspan></text>
		</g>
	</g>
	<g>
		<path style="&st2;" d="M126.815,178.437c2.792,0,5.056-2.264,5.056-5.056c0-2.792-2.264-5.056-5.056-5.056     c-2.792,0-5.056,2.263-5.056,5.056C121.759,176.173,124.023,178.437,126.815,178.437z"/>
		<g>
			<text transform="matrix(0.88 0 0 1 124.4526 176.0864)"><tspan x="0" y="0" style="&st5; &st4;">B</tspan></text>
		</g>
	</g>
	<g>
		<path style="&st2;" d="M126.815,203.933c2.792,0,5.056-2.264,5.056-5.056s-2.264-5.056-5.056-5.056     c-2.792,0-5.056,2.264-5.056,5.056S124.023,203.933,126.815,203.933z"/>
		<g>
			<text transform="matrix(0.88 0 0 1 124.2583 201.582)"><tspan x="0" y="0" style="&st5; &st4;">C</tspan></text>
		</g>
	</g>
	<path style="&st2;" d="M391.884,382.403c2.793,0,5.056-2.265,5.056-5.056c0-2.793-2.263-5.057-5.056-5.057    c-2.792,0-5.056,2.264-5.056,5.057C386.829,380.138,389.092,382.403,391.884,382.403z"/>
	<g>
		<text transform="matrix(0.88 0 0 1 389.3276 380.0522)"><tspan x="0" y="0" style="&st5; &st4;">D</tspan></text>
	</g>
	<g>
		<path style="&st2;" d="M126.815,382.403c2.792,0,5.056-2.265,5.056-5.056c0-2.793-2.264-5.057-5.056-5.057     c-2.792,0-5.056,2.264-5.056,5.057C121.759,380.138,124.023,382.403,126.815,382.403z"/>
		<g>
			<text transform="matrix(0.88 0 0 1 124.4526 380.0522)"><tspan x="0" y="0" style="&st5; &st4;">A</tspan></text>
		</g>
	</g>
	<g>
		<path style="&st2;" d="M126.815,407.898c2.792,0,5.056-2.264,5.056-5.056s-2.264-5.056-5.056-5.056     c-2.792,0-5.056,2.264-5.056,5.056S124.023,407.898,126.815,407.898z"/>
		<g>
			<text transform="matrix(0.88 0 0 1 124.4526 405.5474)"><tspan x="0" y="0" style="&st5; &st4;">B</tspan></text>
		</g>
	</g>
	<g>
		<path style="&st2;" d="M126.815,433.394c2.792,0,5.056-2.264,5.056-5.056s-2.264-5.056-5.056-5.056     c-2.792,0-5.056,2.264-5.056,5.056S124.023,433.394,126.815,433.394z"/>
		<g>
			<text transform="matrix(0.88 0 0 1 124.2583 431.0435)"><tspan x="0" y="0" style="&st5; &st4;">C</tspan></text>
		</g>
	</g>
	<g>
		<text transform="matrix(0.88 0 0 1 389.7603 371.0073)"><tspan x="0" y="0" style="&st5; &st4;">1</tspan></text>
	</g>
	<g>
		<text transform="matrix(0.88 0 0 1 215.2183 124.0332)"><tspan x="0" y="0" style="&st5; &st6;">Junction Connector</tspan></text>
	</g>
</g>
</svg>