﻿<?xml version="1.0" encoding="utf-8"?>
<!-- Generator: Adobe Illustrator 10.0, SVG Export Plug-In . SVG Version: 3.0.0 Build 77)  -->
<!DOCTYPE svg PUBLIC "-//W3C//DTD SVG 1.0//EN" "http://www.w3.org/TR/2001/REC-SVG-20010904/DTD/svg10.dtd"[
	<!ENTITY ns_flows "http://ns.adobe.com/Flows/1.0/">
	<!ENTITY ns_svg "http://www.w3.org/2000/svg">
	<!ENTITY ns_xlink "http://www.w3.org/1999/xlink">
	<!ENTITY st0 "fill:none;stroke:#000000;stroke-width:0.245;stroke-linecap:round;stroke-linejoin:round;">
	<!ENTITY st1 "fill:none;stroke:#FFFFFF;stroke-width:1.05;stroke-linecap:round;stroke-linejoin:round;">
	<!ENTITY st2 "fill:none;stroke:#000000;stroke-width:0.5;">
	<!ENTITY st3 "fill:none;stroke:#FFFFFF;stroke-width:2;">
	<!ENTITY st4 "fill:none;stroke:#000000;stroke-width:0.525;stroke-linecap:round;stroke-linejoin:round;">
	<!ENTITY st5 "fill:none;stroke:#000000;stroke-width:0.525;">
	<!ENTITY st6 "fill:#FFFFFF;stroke:#000000;stroke-width:0.525;stroke-linecap:round;stroke-linejoin:round;">
	<!ENTITY st7 "fill:#FFFFFF;">
	<!ENTITY st8 "fill:none;">
	<!ENTITY st9 "fill:#FFFFFF;stroke:#FFFFFF;stroke-width:1.05;stroke-linecap:round;stroke-linejoin:round;">
	<!ENTITY st10 "font-family:'Arial';">
	<!ENTITY st11 "font-size:10px;">
  <!ATTLIST svg
     xmlns:ewd CDATA #FIXED "http://shcl.co.jp/ewd"
     xmlns:a CDATA #FIXED "http://ns.adobe.com/AdobeSVGViewerExtensions/3.0/"
     ewd:ver CDATA #IMPLIED >
  <!ATTLIST a
     ewd:innerGroupID CDATA #IMPLIED 
     ewd:figtype CDATA #IMPLIED 
     ewd:code CDATA #IMPLIED 
     ewd:pinNo CDATA #IMPLIED >
]>
<svg xmlns="&ns_svg;" xmlns:xlink="&ns_xlink;" xmlns:a="http://ns.adobe.com/AdobeSVGViewerExtensions/3.0/" width="519" height="348" viewBox="0 0 519 348" style="overflow:visible;enable-background:new 0 0 519 348" xml:space="preserve" xmlns:ewd="http://shcl.co.jp/ewd" onload="call_execInitLoadProc_svg('location')" ewd:ver="2.0">
  <script type="text/javascript" xlink:href="../../../../../system/js/ewd/fig/svgfig.js" />
	<g id="レイヤー_5">
	</g>
	<g id="ColorItem">
		<a ewd:code="6" ewd:figtype="jb" style="cursor:pointer;fill:#0000ff;" onmouseover="text_mouse_over(evt)" onmouseout="text_mouse_out(evt)">
			
		
			<text id="jb:6" transform="matrix(1 0 0 1 422.4707 31.7339)"><tspan x="0" y="0" style="&st10; &st11;">Center J/B</tspan></text></a>
		<a ewd:code="12" ewd:figtype="jb" style="cursor:pointer;fill:#0000ff;" onmouseover="text_mouse_over(evt)" onmouseout="text_mouse_out(evt)">
			
		
			<text id="jb:12" transform="matrix(1 0 0 1 10.1338 277.8008)"><tspan x="0" y="0" style="&st10; &st11;">Instrument Panel R/B and </tspan><tspan x="0" y="10" style="&st10; &st11;">Instrument Panel J/B No.2</tspan></text></a>
		<a ewd:code="13" ewd:figtype="jb" style="cursor:pointer;fill:#0000ff;" onmouseover="text_mouse_over(evt)" onmouseout="text_mouse_out(evt)">
			
		
			<text id="jb:13" transform="matrix(1 0 0 1 10.1338 201.4219)"><tspan x="0" y="0" style="&st10; &st11;">Instrument Panel J/B</tspan></text></a>
		<a ewd:code="JCCAN" ewd:figtype="jb" style="cursor:pointer;fill:#0000ff;" onmouseover="text_mouse_over(evt)" onmouseout="text_mouse_out(evt)">
			
		
			<text id="jb:JCCAN" transform="matrix(1 0 0 1 10.1338 235.7324)"><tspan x="0" y="0" style="&st10; &st11;">Junction Connector </tspan><tspan x="0" y="10" style="&st10; &st11;">(CAN)</tspan></text></a>
		<a ewd:code="JCCAN2" ewd:figtype="jb" style="cursor:pointer;fill:#0000ff;" onmouseover="text_mouse_over(evt)" onmouseout="text_mouse_out(evt)">
			
		
			<text id="jb:JCCAN2" transform="matrix(1 0 0 1 417.4229 124.2158)"><tspan x="0" y="0" style="&st10; &st11;">Junction Connector </tspan><tspan x="0" y="10" style="&st10; &st11;">(CAN2)</tspan></text></a>
	</g>
	<g id="z35088">
		<path style="&st0;" d="M267.997,122.608l5.414,0.744v5.615" />
		<path style="&st4;" d="M273.411,128.967l-5.414-0.744v-5.614l1.681-1.064l5.414,0.744v5.615L273.411,128.967z" />
		<path style="&st0;" d="M273.411,123.352l1.681-1.064" />
		<g>
			<path style="&st0;" d="M249.086,217.514l3.587,0.336v2.8" />
			<path style="&st4;" d="M252.673,220.649l-3.587-0.335v-2.801" />
			<path style="&st0;" d="M245.673,217.187l2.363,0.28v2.801" />
			<path style="&st4;" d="M248.036,220.268l-2.363-0.281v-2.8" />
			<path style="&st0;" d="M242.195,216.812l2.363,0.281v2.8" />
			<path style="&st4;" d="M244.558,219.893l-2.363-0.281v-2.8" />
			<path style="&st0;" d="M245.673,219.986l1.597-1.066" />
			<path style="&st0;" d="M241.269,215.108l12.368,1.238" />
			<path style="&st0;" d="M253.605,222.734l-12.425-1.35" />
			<path style="&st4;" d="M240.426,213.63l4.164-2.596" />
			<path style="&st4;" d="M248.764,210.474l12.28,1.23" />
			<path style="&st0;" d="M263.94,219.358l-4.39,2.683" />
			<path style="&st0;" d="M258.111,215.457l4.363-2.594" />
			<path style="&st0;" d="M253.629,216.39l1.88-1.172" />
			<path style="&st0;" d="M259.747,212.577l1.327-0.826" />
			<path style="&st0;" d="M241.269,215.108l1.93-1.166" />
			<path style="&st4;" d="M247.423,211.314l1.313-0.816" />
			<path style="&st4;" d="M244.711,211.084l2.647,0.265" />
			<path style="&st0;" d="M259.717,212.587l1.313,0.132" />
			<path style="&st4;" d="M261.03,212.719l1.443,0.145" />
			<path style="&st0;" d="M240.336,213.666l2.8,0.28" />
			<path style="&st0;" d="M255.539,215.188l2.56,0.258" />
			<path style="&st0;" d="M253.629,216.39v6.141" />
			<path style="&st0;" d="M241.204,215.105v5.03" />
			<path style="&st0;" d="M241.204,220.136v1.251" />
			<path style="&st0;" d="M258.099,215.446l1.429,6.567" />
			<path style="&st4;" d="M262.474,212.863l1.4,6.363" />
			<path style="&st0;" d="M239.752,220.013l1.458,0.147" />
			<path style="&st0;" d="M255.386,221.595l4.141,0.419" />
			<path style="&st0;" d="M253.605,222.734l1.807-1.126" />
			<path style="&st0;" d="M255.605,215.385v6.14" />
			<path style="&st4;" d="M240.336,213.666l-0.554,6.348" />
			<path style="&st4;" d="M261.043,211.704v0.942" />
			<path style="&st0;" d="M259.491,222.041l-5.775,0.704" />
			<path style="&st4;" d="M253.483,224.102l-17.216-1.911" />
			<path style="&st4;" d="M260.242,223.22l-6.759,0.882" />
			<path style="&st4;" d="M260.242,223.22l6.257-4.095" />
			<path style="&st4;" d="M263.654,217.695l2.494,0.232" />
			<path style="&st0;" d="M266.261,217.884l-2.475,1.514" />
			<path style="&st4;" d="M266.239,217.931l0.26,1.194" />
			<path style="&st0;" d="M241.204,221.387l-4.938-0.536" />
			<path style="&st4;" d="M236.267,220.878v1.313" />
			<path style="&st4;" d="M236.267,220.878l3.5-2.185" />
			<path style="&st0;" d="M250.683,219.248l-1.597,1.066" />
			<path style="&st0;" d="M250.683,219.248v-1.517" />
			<path style="&st0;" d="M247.271,218.92v-1.487" />
			<path style="&st0;" d="M252.673,219.453l-1.99-0.205" />
			<path style="&st0;" d="M248.007,219.012l-0.736-0.092" />
			<path style="&st0;" d="M242.195,219.611l1.597-1.065" />
			<path style="&st0;" d="M243.792,218.546v-1.487" />
			<path style="&st0;" d="M244.529,218.637l-0.736-0.091" />
		</g>
		<g>
			<path style="&st4;" d="M351.172,206.232l-8.353-0.519v-6.984l2.355-1.375l8.353,0.52v6.983L351.172,206.232z" />
			<path style="&st0;" d="M342.819,198.729l8.353,0.52v6.983" />
			<path style="&st0;" d="M351.172,199.249l2.355-1.375" />
		</g>
		<g>
			<path style="&st4;" d="M197.433,195.552l2.798,0.396c0.288,0.004,0.422,0.196,0.422,0.369v1.42c0,0.269,0.154,0.578,0.423,0.927&#xD;&#xA;				l4.261,5.007c0.23,0.232,0.358,0.392,0.655,0.396l1.938,0.274l0.123,0.493l1.069,0.151" />
			<path style="&st0;" d="M209.116,204.971l-4.337,1.997" />
			<path style="&st4;" d="M212.089,204.929l-2.044-0.29c-0.141-0.002-0.235,0.012-0.336,0.059l-0.593,0.273" />
			<path style="&st4;" d="M212.54,204.763l2.847-1.313c0.353-0.136,0.416-0.063,0.614-0.061l2.365,0.335v0.34l1.104,0.155" />
			<path style="&st4;" d="M215.573,215.902v1.688c0,0.358-0.026,0.589-0.307,0.738l-2.227,1.149&#xD;&#xA;				c-0.538,0.197-0.614,0.172-0.972,0.115l-0.796-0.154" />
			<path style="&st0;" d="M205.893,207.265c0.077-0.286,0.173-0.305,0.327-0.399l0.596-0.31c0.116-0.047,0.19-0.121,0.499-0.071&#xD;&#xA;				l5.009,0.778c0.614,0.161,1.1,0.731,1.1,1.601v9.06c0,0.46-0.204,0.79-0.665,0.989l-0.233,0.084l-0.337-0.021" />
			<path style="&st4;" d="M168.486,199.672l-3.429,2.388c-0.512,0.353-0.589,0.914-0.589,1.324v9.621&#xD;&#xA;				c0,0.793,0.282,1.232,1.024,1.421l7.236,1.063c0.209,0.03,0.506-0.062,0.659-0.206l0.174-0.163&#xD;&#xA;				c0.153-0.144,0.45-0.236,0.66-0.206l10.129,1.489c0.209,0.03,0.453,0.214,0.541,0.407l0.067,0.147&#xD;&#xA;				c0.088,0.192,0.332,0.376,0.541,0.406l2.787,0.41c0.209,0.03,0.505-0.063,0.658-0.208l0.169-0.161&#xD;&#xA;				c0.152-0.145,0.448-0.237,0.658-0.207l8.102,1.191c0.209,0.03,0.452,0.214,0.539,0.408l0.064,0.145&#xD;&#xA;				c0.086,0.193,0.329,0.377,0.539,0.408l5.554,0.814c0.486,0.058,1.011,0.129,1.343,0.133l2.054,0.045&#xD;&#xA;				c0.444-0.051,0.886-0.148,1.267-0.271l3.147-1.17" />
			<path style="&st0;" d="M215.521,207.533v-0.486c0-0.435-0.333-0.644-0.614-0.698l-0.793-0.138v-0.538&#xD;&#xA;				c0-0.23-0.077-0.359-0.256-0.412l-1.766-0.227" />
			<path style="&st4;" d="M219.469,204.22l0.563-0.259l1.041,0.146c0.283,0.003,0.487,0.227,0.487,0.586v5.169&#xD;&#xA;				c0,0.205-0.077,0.485-0.179,0.792l-0.72,2.283c-0.1,0.238-0.135,0.341-0.373,0.491l-4.614,2.961" />
			<path style="&st0;" d="M212.979,205.942l0.852-0.392" />
			<path style="&st0;" d="M214.011,208.294l3.572-1.646l1.303,0.166c0.115,0.002,0.115,0.04,0.115,0.193v0.691&#xD;&#xA;				c0,0-1.786,0.496-1.517,5.125l-0.154,0.036l-1.017-0.187" />
			<path style="&st0;" d="M213.551,213.138l3.34-0.917c0,0,0.192,0.003,0.269,0.177" />
			<path style="&st0;" d="M215.739,207.984l0.864,0.146c0.096,0.001,0.134,0.06,0.134,0.231v3.378" />
			<path style="&st0;" d="M216.679,211.682l-0.595-0.085" />
			<path style="&st0;" d="M216.238,211.541c-0.115-0.615,0.173-2.09,0.461-2.682" />
			<path style="&st0;" d="M216.199,212.462c0.058,0.423,0.384,1.463,1.075,1.74l0.135,0.29l-1.708,1.283l-2.169,1.125" />
			<path style="&st0;" d="M217.063,214.065c1.554-0.844,2.111-4.157,1.439-5.911" />
			<path style="&st0;" d="M218.791,207.851c0.365,0.522,0.595,2.329,0.077,4.089" />
			<path style="&st0;" d="M218.119,208.551c0.058,0.365,0.115,0.616,0.02,1.114l-0.615,1.969" />
			<path style="&st0;" d="M175.799,198.842l-3.611-0.513" />
			<path style="&st0;" d="M189.773,200.49" />
			<path style="&st4;" d="M171.174,199.321l-1.775-0.253c-0.224-0.003-0.354,0.002-0.494,0.099l-0.617,0.367&#xD;&#xA;				c-0.135,0.135-0.135,0.273-0.135,0.37" />
			<path style="&st0;" d="M179.095,200.452l-7.921-1.131" />
			<path style="&st0;" d="M181.968,198.465l-3.429,2.389c-0.457,0.303-0.572,0.532-0.572,1.011c0,0,0,1.479,0,1.978&#xD;&#xA;				c0,0.768-0.547,0.987-0.921,0.909l-12.284-1.748" />
			<path style="&st0;" d="M180.795,205.483" />
			<path style="&st0;" d="M186.027,198.116l-2.855-0.404c-0.147-0.024-0.249-0.001-0.32,0.021l-0.948,0.443&#xD;&#xA;				c-0.101,0.047-0.146,0.09-0.194,0.214l-0.103,0.328" />
			<path style="&st4;" d="M183.869,197.305l-2.524,0.127h0l-4.583-0.648c-0.254-0.055-0.424-0.008-0.554,0.046l-3.363,1.55&#xD;&#xA;				l-0.636-0.059l-1.921,0.885" />
			<path style="&st4;" d="M183.802,197.447l0.921-1.869c0.211-0.381,0.25-0.573,0.575-0.762l5.259-3.541&#xD;&#xA;				c0.172-0.094,0.172-0.305,0.23-0.516c0,0,0.192-0.707,0.634-1.028l1.094-0.657c0.172-0.075,0.422-0.091,0.518-0.07l2.399,0.279&#xD;&#xA;				c0.825,0.164,1.574,0.826,1.612,1.536v2.476" />
			<path style="&st0;" d="M192.285,189.531l1.919,0.197c0.71,0.124,1.695,0.626,1.78,1.345c0.002,0.02,0.004,0.04,0.005,0.06&#xD;&#xA;				c0.039,0.75,0,0.595,0,0.595" />
			<path style="&st0;" d="M191.786,190.389v2.477c0,0.307,0.173,0.481,0.499,0.524" />
			<path style="&st0;" d="M197.224,195.736l-3.418,1.575c-0.235,0.086-0.216,0.221-0.216,0.394v0.365c0,0,0.077,0.115,0.25,0.156&#xD;&#xA;				c0,0,0.633,0.142,0.633,0.891v1.958" />
			<path style="&st4;" d="M196.663,193.379l0.229,0.356c0.077,0.135,0.115,0.136,0.25,0.176c0.134,0.04,0.21,0.099,0.21,0.291v1.15&#xD;&#xA;				c0,0.212-0.005,0.31-0.127,0.384" />
			<path style="&st0;" d="M195.816,192.052l0.847,1.327" />
			<path style="&st0;" d="M191.805,199.083l1.67-0.823" />
			<path style="&st0;" d="M194.646,201.384l3.876,4.426c0.25,0.253,0.346,0.312,0.653,0.392l6.603,0.984" />
			<path style="&st0;" d="M206.315,207.021l-3.608,2.354c-0.326,0.208-0.556,0.436-0.787,0.7l-1.42,1.767" />
			<path style="&st0;" d="M212.131,208.304l-2.879,1.633c-0.307,0.169-0.595,0.186-1.037,0.256l-2.706,0.235&#xD;&#xA;				c-0.48-0.007-0.768,0.009-1.094-0.053l-1.824-0.292" />
			<path style="&st0;" d="M186.45,202.493l-7.907-1.118" />
			<path style="&st0;" d="M186.662,202.934v1.977c0,0.154,0.096,0.559,0.345,0.83l3.762,4.443c0.25,0.214,0.557,0.391,0.998,0.473&#xD;&#xA;				l8.33,1.276" />
			<path style="&st0;" d="M187.141,202.537l4.126-2.328" />
			<path style="&st0;" d="M212.376,207.059l1.688-0.777" />
			<path style="&st0;" d="M186.489,198.44l-1.171,0.657c-0.134,0.075-0.153,0.209-0.153,0.362v0.557" />
			<path style="&st0;" d="M186.105,198.686v-0.711c0-0.076,0.192-0.189,0.192-0.189c2.745-1.404,6.653-3.661,9.059-5.797&#xD;&#xA;				c0.192-0.171,0.115-0.344,0.115-0.344" />
			<path style="&st0;" d="M186.393,198.189l3.033,0.461v0.384l0.288,0.311c0,0,0.223,0.082,0.524-0.059l0.674-0.333l0.586,0.107&#xD;&#xA;				c0.269,0.003,0.883,0.51,0.883,1.335c0,0.826,0,1.65,0,1.65c0,0.154,0.096,0.405,0.269,0.618l3.493,4.094&#xD;&#xA;				c0.077,0.116,0.192,0.194,0.461,0.236l7.752,1.243" />
			<path style="&st0;" d="M189.905,199.443l-1.708,0.957c-0.134,0.075-0.365,0.092-0.653,0.069l-2.246-0.317" />
			<path style="&st0;" d="M175.99,199.363v-0.556l1.267-0.618c0.077-0.056,0.192-0.055,0.384-0.033l2.726,0.438&#xD;&#xA;				c0.173,0.002,0.211,0.118,0.211,0.291v0.402" />
			<path style="&st0;" d="M183.514,197.693l1.555-0.825l0.307-0.496" />
			<path style="&st0;" d="M192.939,191.661c-0.043-0.129-0.068-0.266-0.068-0.405c0-0.53,0.353-0.885,0.787-0.792&#xD;&#xA;				s0.787,0.597,0.787,1.127s-0.352,0.885-0.787,0.792c-0.053-0.011-0.105-0.028-0.155-0.052" />
		</g>
		<g>
			<path style="&st4;" d="M334.653,157.206v-3.096l-4.976-0.498l-4.987,2.719v3.097l4.976,0.498L334.653,157.206z" />
			<path style="&st0;" d="M329.666,159.925v-3.097l-4.976-0.498" />
			<path style="&st0;" d="M329.666,156.828l4.987-2.719" />
			<path style="&st0;" d="M330.88,156.755l-0.732,0.386v1.825" />
			<path style="&st0;" d="M332.007,156.154l-0.732,0.386l-0.001,1.825" />
			<path style="&st0;" d="M333.101,155.53l-0.732,0.387l-0.001,1.825" />
			<path style="&st0;" d="M334.161,154.983l-0.732,0.387v1.825" />
		</g>
		<g>
			<path style="&st6;" d="M331.436,153.601v-0.526l0.242-0.071c0.313-0.143,0.327-0.413,0.327-0.57v-2.42&#xD;&#xA;				c0,0,0.128-0.114,0.128-0.484v-1.708c0-0.256-0.143-0.256-0.277-0.271v-2.591l0.106-0.071v-0.626l0.058-0.114&#xD;&#xA;				c0.085-0.114,0.113-0.199,0.113-0.484v-1.623c0-0.213-0.186-0.213-0.186-0.213v-2.534c0-0.342-0.156-0.327-0.27-0.342h-0.242&#xD;&#xA;				v-0.925c0-0.114,0.014-0.213,0.128-0.256v-0.085c0-0.171-0.199-0.185-0.37-0.214l-2.677-0.285&#xD;&#xA;				c-0.086-0.009-0.247,0.014-0.375,0.07l-0.194,0.129l-0.002,0.017l-0.297-0.031c-0.145-0.015-0.185,0.054-0.185,0.24v0.259&#xD;&#xA;				c0,0.085-0.029,0.1-0.143,0.143l-0.596,0.291l-0.657-0.077c-0.185,0-0.228,0.083-0.228,0.226v0.244&#xD;&#xA;				c-0.129,0-0.229,0.014-0.328,0.071l-0.413,0.185v0.271l0.162,0.021v0.249c0,0-0.17,0.012-0.29,0.39l0.015-0.048l-0.36,1.136&#xD;&#xA;				c-0.032,0.1-0.068,0.288-0.068,0.478v14.938c0,0.171,0.049,0.303,0.22,0.303l2.886,0.342c0.185,0.021,0.284-0.038,0.284-0.171&#xD;&#xA;				v-0.323l0.57-0.417h0.811c0.129,0,0.214-0.029,0.214-0.157v-0.612l1.054,0.142c0.209,0,0.185-0.085,0.185-0.203l0.001-0.338&#xD;&#xA;				l0.568-0.349h0.769c0.129,0.007,0.242,0.007,0.242-0.121v-0.769l-0.911-0.114" />
			<path style="&st0;" d="M329.328,154.327v0.964h0.214" />
			<path style="&st0;" d="M330.78,153.715v1.238" />
			<path style="&st0;" d="M331.35,154.604v-0.377" />
			<path style="&st0;" d="M331.436,153.899v-0.299" />
			<path style="&st0;" d="M328.374,138.496l-1.648-0.193" />
			<path style="&st0;" d="M328.73,139.066l-2.89-0.37" />
			<path style="&st0;" d="M327.947,156.538v-0.379" />
			<path style="&st0;" d="M327.022,140.062l-0.385,1.011c-0.057,0.214-0.085,0.328-0.085,0.556v14.008" />
			<path style="&st0;" d="M327.292,140.546v-0.484c0-0.185-0.171-0.279-0.377-0.299l-1.346-0.128" />
			<path style="&st0;" d="M331.278,137.836l-1.836,0.974v0.683" />
			<path style="&st0;" d="M330.36,139.692v-0.869" />
			<path style="&st0;" d="M328.475,140.632v-0.57l0.611-0.37" />
			<path style="&st0;" d="M331.678,139.336l-2.947,1.637c-0.156,0.099-0.256,0.271-0.256,0.583v1.466" />
			<path style="&st0;" d="M331.678,141.087l-1.603-0.185" />
			<path style="&st0;" d="M328.317,145.97v-1.595c0-0.199,0.017-0.336,0.157-0.413l3.388-1.851" />
			<path style="&st0;" d="M328.317,151.892v-1.594c0-0.199,0.017-0.336,0.157-0.413l3.388-1.851" />
			<path style="&st0;" d="M328.317,154.625v-1.594c0-0.199,0.017-0.336,0.157-0.413l1.608-0.879" />
			<path style="&st0;" d="M328.317,148.894v-1.595c0-0.199,0.017-0.336,0.157-0.413l3.043-1.663" />
			<path style="&st0;" d="M330.458,153.456v-1.594c0-0.199,0.018-0.336,0.157-0.413l1.083-0.591" />
			<path style="&st0;" d="M326.937,154.711l1.267,0.114c0.129,0.029,0.335-0.004,0.435-0.058l2.798-1.522" />
			<path style="&st0;" d="M328.232,141.125l-1.317-0.131" />
			<path style="&st0;" d="M326.253,141.314l-1.552-0.135" />
		</g>
		<g>
			<g>
				<g>
					<path style="&st0;" d="M147.26,167.383l-3.639-0.449" />
					<path style="&st0;" d="M147.391,167.383v1.388" />
					<path style="&st0;" d="M151.302,169.254l-3.912-0.482" />
					<path style="&st0;" d="M152.477,168.606l-1.174,0.647" />
					<path style="&st0;" d="M150.563,168.5v-14.568l-2.304-0.284" />
					<path style="&st0;" d="M148.781,153.711v13.983l1.782,0.22" />
					<path style="&st0;" d="M146.695,166.513v-13.004l-2.304-0.284" />
					<path style="&st0;" d="M144.913,153.289v12.418l1.782,0.219" />
					<path style="&st0;" d="M163.738,154.487l4.108-2.265" />
					<path style="&st0;" d="M143.349,181.396l2.325,0.286c0.391,0.043,0.665-0.034,0.988-0.213l1.695-0.935" />
					<path style="&st6;" d="M143.622,175.771l-1.34,0.739c-0.331,0.183-0.411,0.302-0.411,0.693v3.521c0,0.413,0.094,0.5,0.41,0.539&#xD;&#xA;						l1.068,0.132" />
					<path style="&st0;" d="M143.917,175.609l-0.295,0.163" />
					<path style="&st0;" d="M150.692,176.15l-1.635,0.901c-0.331,0.183-0.412,0.302-0.412,0.694v3.521&#xD;&#xA;						c0,0.412,0.094,0.499,0.41,0.538l3.394,0.419c0.391,0.043,0.665-0.034,0.988-0.213l1.696-0.936" />
					<path style="&st0;" d="M143.621,175.076l1.079,0.132c0.216,0.024,0.366-0.019,0.545-0.116l0.934-0.516" />
					<path style="&st6;" d="M143.621,171.923l-0.791,0.436c-0.182,0.101-0.227,0.167-0.227,0.383v1.94&#xD;&#xA;						c0,0.228,0.052,0.275,0.226,0.297l0.791,0.098" />
					<path style="&st0;" d="M143.731,171.862l-0.11,0.061" />
					<path style="&st0;" d="M146.6,169.254l-0.901,0.496c-0.182,0.101-0.227,0.167-0.227,0.383v1.94&#xD;&#xA;						c0,0.227,0.052,0.275,0.226,0.297l1.87,0.23c0.216,0.024,0.367-0.019,0.545-0.117l0.934-0.516" />
					<path style="&st6;" d="M143.622,175.076v0.696" />
					<path style="&st0;" d="M150.175,170.247l-0.901,0.497c-0.182,0.101-0.227,0.167-0.227,0.383v1.94&#xD;&#xA;						c0,0.228,0.052,0.275,0.226,0.297l1.87,0.23" />
					<path style="&st0;" d="M152.614,170.247l-1.121,0.618c-0.227,0.125-0.282,0.208-0.282,0.476v3.816&#xD;&#xA;						c0,0.283,0.064,0.343,0.281,0.37l3.201,0.416c0.268,0.029,0.456-0.023,0.678-0.146l0.143-0.079" />
					<path style="&st0;" d="M147.986,172.737l-0.901,0.497c-0.182,0.101-0.227,0.167-0.227,0.382v1.94&#xD;&#xA;						c0,0.227,0.052,0.275,0.226,0.297l1.87,0.23c0.215,0.023,0.366-0.019,0.544-0.117l0.935-0.515" />
					<path style="&st6;" d="M163.547,185.006l-20.199-2.49" />
					<path style="&st6;" d="M143.349,181.506v1.01" />
					<path style="&st0;" d="M151.06,153.515l-6.937-0.855" />
					<path style="&st0;" d="M163.547,159.534v-3.781c0-1.174-0.879-1.5-1.465-1.565l-9.605-1.195" />
					<path style="&st0;" d="M163.547,184.244v-4.303" />
					<path style="&st0;" d="M151.302,153.641l1.174-0.647" />
					<path style="&st0;" d="M164.103,174.693l0.782,0.098l3.095-1.697" />
					<path style="&st0;" d="M168.453,166.349l-3.014,1.645h-0.619v0.342h-0.717" />
					<path style="&st0;" d="M164.103,160.415l0.717,0.032v-0.424h0.489l2.984-1.584" />
					<path style="&st0;" d="M144.947,144.717l1.39,0.116c0.685,0,1.108-0.033,1.695-0.228l1.239-0.554l0.261,1.336&#xD;&#xA;						c0.098,0.293,0.065,0.652,0.065,0.978v3.358c0,0.26,0.065,0.358,0.326,0.424l1.989,0.619" />
					<path style="&st0;" d="M144.831,151.726c0.276,0.064,0.59,0.115,0.886,0.115v-0.848l2.379,0.228v0.815l3.488,0.423&#xD;&#xA;						c0.391,0,0.685,0.033,1.141-0.195l2.314-1.271v-0.652c0-0.079-0.018-0.143-0.048-0.194" />
					<path style="&st0;" d="M151.976,150.863v1.174" />
					<path style="&st0;" d="M150.053,149.625l1.271-0.065" />
					<path style="&st0;" d="M154.584,150.244l-1.793,0.88c-0.195,0.13-0.195,0.391-0.195,0.587" />
					<path style="&st0;" d="M149.173,142.453l-0.783,0.392c-0.815,0.261-1.141,0.423-2.608,0.293l-1.239-0.141&#xD;&#xA;						c-0.456-0.065-0.847-0.326-0.608-0.565" />
					<path style="&st0;" d="M144.087,142.681c0.424-0.261,0.88-0.521,1.402-0.489" />
					<path style="&st0;" d="M155.857,146.061l1.433,0.119c0.684,0,1.108-0.032,1.695-0.228l1.239-0.554l0.261,1.336&#xD;&#xA;						c0.098,0.293,0.065,0.652,0.065,0.978v3.358c0,0.261,0.065,0.358,0.326,0.424l2.315,1.152" />
					<path style="&st0;" d="M155.915,150.244v0.25c0,1.304-0.07,1.662-0.417,1.662v0.717c0,0,0.391,0.315,1.173,0.315v-0.848&#xD;&#xA;						l2.38,0.229v0.815l3.488,0.424c0.392,0,0.685,0.032,1.141-0.196l2.314-1.271v-0.652c0-0.069-0.013-0.127-0.037-0.175" />
					<path style="&st4;" d="M163.547,185.006l4.467-2.464v-9.381l-0.034-0.066l0.295-0.162v-1.01l0.717-0.413v-4.477l-0.522-0.195&#xD;&#xA;						v-0.457l-0.018-0.031l0.54-0.295v-5.346l-0.652-0.163v-2.021l-0.047-0.084l0.7-0.372v-5.423l-0.62-0.086v-0.261&#xD;&#xA;						c0-0.326-0.229-0.554-0.587-0.62l-1.743-0.208l-0.087,0.044c-0.089-0.178-0.326-0.223-0.582-0.249l-2.217-0.293&#xD;&#xA;						c-0.359-0.032-0.587-0.293-0.75-0.782l-1.467-5.542c-0.13-0.586-0.315-1-0.88-1.108l-3.097-0.326&#xD;&#xA;						c-0.717-0.098-1.402-0.152-1.695,0.033l-0.619,0.336c-0.196,0.163-0.293,0.326-0.293,0.771v1.011&#xD;&#xA;						c0,0.359,0.326,0.554,0.978,0.652l0.523,0.044l0.058,0.185v3.999l-0.922-0.097c-0.096-0.161-0.324-0.205-0.571-0.229&#xD;&#xA;						l-2.216-0.293c-0.359-0.033-0.587-0.293-0.75-0.782l-1.467-5.542c-0.13-0.587-0.315-1-0.88-1.108l-3.097-0.326&#xD;&#xA;						c-0.717-0.098-1.402-0.152-1.695,0.033l-0.62,0.336c-0.195,0.163-0.293,0.326-0.293,0.771v1.011&#xD;&#xA;						c0,0.358,0.326,0.554,0.978,0.652l0.566,0.047l0.015,0.181v5.151c0,0.359-0.646,0.587-1.526,0.587v0.717l0.587,0.131&#xD;&#xA;						c0,0,0.353,0.138,0.809,0.243l0.13,0.029l-1.613,0.889V166.9l0.273,0.034v4.988" />
					<path style="&st0;" d="M160.973,151.255l1.326-0.717" />
					<path style="&st0;" d="M165.538,151.591l-1.793,0.88c-0.196,0.13-0.196,0.391-0.196,0.586" />
					<path style="&st0;" d="M160.126,143.8l-0.783,0.391c-0.815,0.261-1.141,0.424-2.608,0.294l-1.238-0.142&#xD;&#xA;						c-0.457-0.065-0.848-0.326-0.608-0.565" />
					<path style="&st0;" d="M155.041,144.028c0.424-0.261,0.88-0.521,1.402-0.489" />
					<path style="&st0;" d="M156.649,157.435v14.569l3.955,0.495" />
					<path style="&st0;" d="M157.279,157.112l-0.63,0.323" />
					<path style="&st0;" d="M160.604,172.499l0.63-0.323" />
					<path style="&st0;" d="M160.063,171.854v-13.365l-2.874-0.36" />
					<path style="&st0;" d="M157.73,158.197v12.878l2.333,0.292" />
					<path style="&st0;" d="M157.73,171.075l-0.541,0.292" />
					<path style="&st0;" d="M156.684,171.103l-0.909,0.501c-0.227,0.125-0.282,0.208-0.282,0.476v3.556&#xD;&#xA;						c0,0.283,0.064,0.343,0.281,0.37l5.874,0.612c0.268,0.029,0.456-0.023,0.678-0.146l0.817-0.45" />
					<path style="&st0;" d="M156.282,158.75l-2.874-0.36v2.514" />
					<path style="&st0;" d="M155.024,158.655v4.523l1.219,0.153" />
					<path style="&st0;" d="M155.057,163.235l-1.418,0.729" />
					<path style="&st0;" d="M156.586,156.862v-2.623l-2.875-0.326v1.767" />
					<path style="&st0;" d="M154.676,154.074v1.907l1.871,0.217" />
					<path style="&st0;" d="M154.709,155.954l-0.499,0.232" />
					<path style="&st0;" d="M161.672,157.514v-2.623l-2.875-0.326v1.767" />
					<path style="&st0;" d="M159.762,154.726v1.907l1.871,0.217" />
					<path style="&st0;" d="M159.794,156.605l-0.499,0.232" />
				</g>
			</g>
			<path style="&st0;" d="M148.746,167.704l-0.54,0.292" />
			<path style="&st0;" d="M144.891,165.688l-0.541,0.292" />
		</g>
		<g>
			<path style="&st9;" d="M167.621,185.397l-2.623-0.323v-9.001l2.516-1.396l2.623,0.324v9.008L167.621,185.397z" />
			<path style="&st0;" d="M167.606,185.092v-8.695l2.53-1.395" />
			<path style="&st0;" d="M167.606,176.396l-2.623-0.323" />
			<path style="&st4;" d="M167.621,185.397l-2.623-0.323v-9.001l2.516-1.396l2.623,0.324v9.008L167.621,185.397z" />
			<path style="&st0;" d="M165.607,176.635l1.607,0.199v0.532" />
			<path style="&st0;" d="M165.607,177.688l1.607,0.198v0.532" />
			<path style="&st0;" d="M165.607,178.74l1.607,0.198v0.533" />
			<path style="&st0;" d="M165.607,179.792l1.607,0.199v0.532" />
			<path style="&st0;" d="M165.607,180.845l1.607,0.198v0.533" />
			<path style="&st0;" d="M165.607,181.897l1.607,0.198v0.533" />
			<path style="&st0;" d="M165.607,182.95l1.607,0.198v0.533" />
			<path style="&st0;" d="M165.607,184.002l1.607,0.199v0.532" />
		</g>
		<g>
			<path style="&st6;" d="M267.184,167.366c0.146,0.015,0.321,0.134,0.39,0.265l1.583,3.038c0.068,0.131,0.099,0.355,0.067,0.5&#xD;&#xA;				l-1.334,6.177c-0.031,0.145-0.176,0.25-0.322,0.234l-3.408-0.354c-0.146-0.016-0.322-0.135-0.39-0.266l-1.583-3.038&#xD;&#xA;				c-0.068-0.131-0.098-0.355-0.067-0.5l1.333-6.178c0.032-0.144,0.177-0.25,0.323-0.234L267.184,167.366z" />
			<path style="&st0;" d="M266.003,174.095l1.83,3.513" />
			<path style="&st0;" d="M266.003,174.095l1.446-6.701" />
			<path style="&st0;" d="M266.003,174.095l-3.94-0.41" />
			<path style="&st7;" d="M263.816,177.533l-0.64-1.229l0.292-1.351l2.119,0.221l0.651,1.249l-0.012-0.021l-0.292,1.351&#xD;&#xA;				L263.816,177.533z" />
			<path style="&st4;" d="M266.238,176.424l-0.012-0.021l-0.292,1.351l-2.118-0.221l-0.64-1.229l0.292-1.351" />
			<path style="&st0;" d="M263.468,174.954l2.119,0.221l0.651,1.249" />
			<path style="&st0;" d="M265.296,176.525l0.639,1.229" />
			<path style="&st0;" d="M265.296,176.525l0.291-1.35" />
			<path style="&st0;" d="M265.296,176.525l-2.12-0.221" />
		</g>
		<g>
			<g>
				<g>
					<path style="&st1;" d="M238.978,152.893c-0.002,0.281-0.269,0.486-0.592,0.456l-37.173-3.663&#xD;&#xA;						c-0.324-0.031-0.589-0.286-0.587-0.567l0.077-5.603c0.002-0.281,0.268-0.487,0.591-0.456l37.175,3.663&#xD;&#xA;						c0.322,0.03,0.586,0.286,0.585,0.567L238.978,152.893z" />
					<path style="&st1;" d="M394.033,118.523c-70.767-11.19-140.77-16.841-244.742-23.665c-0.742-0.049-2.612,0.025-3.325,0.087&#xD;&#xA;						c-8.05,0.7-22.803,4.337-23.538,4.55c-6.65,1.925-8.797,5.613-8.797,5.613c-6.253,12.247-6.953,27.462-6.953,27.462&#xD;&#xA;						c0.175,3.5,1.75,5.075,5.775,5.6c4.025,0.525,67.2,8.925,87.5,10.675" />
					<path style="&st1;" d="M207.91,184.214" />
					<path style="&st1;" d="M99.679,47.87c0,0,23.275,27.3,39.375,48.125" />
					<path style="&st1;" d="M110.091,130.033c-0.175,1.75,0,2.45,1.138,2.538l8.487,0.875c0.875,0.087,1.772,0.169,1.925-1.138&#xD;&#xA;						c1.662-14.175,4.375-20.125,4.725-21.525c0.35-1.4,0.35-1.837-0.731-1.837l-8.281-0.438c-0.962,0-1.837,0.262-2.45,2.538&#xD;&#xA;						c-0.612,2.275-2.625,8.487-3.85,16.537l10.85,0.963" />
					<path style="&st1;" d="M154.396,99.204c-1.865,0.08-4.2,0.117-7.35,1.05c-3.15,0.934-8.866,3.267-11.083,4.667&#xD;&#xA;						c-2.217,1.4-3.15,1.983-4.434,4.55c-1.284,2.566-2.917,6.883-3.15,8.4c-0.233,1.516,0.583,2.449,2.566,2.566l70.117,6.65&#xD;&#xA;						c1.05,0.117,1.05-0.35,1.283-1.283s1.4-5.717,3.384-9.45c1.983-3.733,3.5-4.55,6.183-6.183c2.683-1.634,9.1-5.25,9.1-5.25&#xD;&#xA;						c1.517-0.817,1.05-1.284-0.583-1.634C218.796,102.938,168.046,98.621,154.396,99.204z" />
					<path style="&st1;" d="M135.496,104.921l-14.816-0.934c-2.1-0.233-3.967-1.284-1.633-2.8" />
					<path style="&st1;" d="M200.625,149.119l-0.845,0.833c-1.05,2.217-1.4,4.084-1.75,8.05c-0.35,3.967-0.285,7.984,2.049,13.934&#xD;&#xA;						s8.575,14.059,10.675,16.625c0,0,2.275,5.6,4.725,7.875" />
					<path style="&st1;" d="M214.478,193.568c1.295,3.522,3.065,6.835,3.968,8.066c1.284,1.75,2.917,2.684,5.717,3.033&#xD;&#xA;						c0,0,42.933,4.9,45.5,5.018l0.604-0.135" />
					<path style="&st1;" d="M239.796,153.568c8.634,0.934,48.65,4.55,57.517,5.25" />
					<path style="&st1;" d="M282.146,157.769c-1.75,1.167-3.033,2.8-4.083,6.184c-1.05,3.383-6.417,19.133-7.117,22.75&#xD;&#xA;						c-0.7,3.616-0.35,5.483-0.116,6.3s-0.234,1.4-1.517,1.517c-1.283,0.116-12.01,1.043-17.96-2.457" />
					<path style="&st1;" d="M215.413,137.235l-10.85-0.934c0.583-9.217,3.85-17.15,4.2-17.967c0.35-0.816,0.583-0.816,1.05-0.933&#xD;&#xA;						l9.1,0.583c0.817,0,1.41,0.354,0.7,2.216c-3.733,9.8-4.2,17.034-4.433,19.367c-0.233,2.333-0.816,2.566-2.1,2.566l-8.983-0.816&#xD;&#xA;						c-0.7,0-1.167-0.701-1.05-2.451" />
					<path style="&st1;" d="M277.829,143.418l-10.85-0.933c0.583-9.217,3.85-17.15,4.2-17.967c0.35-0.817,0.583-0.817,1.05-0.934&#xD;&#xA;						l9.1,0.583c0.817,0,1.41,0.354,0.7,2.217c-3.733,9.8-4.2,17.033-4.434,19.367c-0.233,2.333-0.816,2.567-2.1,2.567l-8.983-0.817&#xD;&#xA;						c-0.699,0-1.167-0.7-1.05-2.45" />
					<path style="&st1;" d="M219.73,140.151c-0.233,2.683,0.583,3.383,1.633,3.616c0,0,32.783,3.384,35.117,3.5&#xD;&#xA;						c2.333,0.117,3.617-0.583,3.966-2.917c0.35-2.333,1.517-10.967,3.851-19.717c0.524-1.968,0.116-2.566-1.867-2.917l-34.766-3.15&#xD;&#xA;						c-1.167,0-1.983,0.35-2.684,2.684c-0.7,2.333-2.684,13.3-2.8,17.383c-0.047,1.637,0.233,2.45,1.983,2.684l34.65,3.383&#xD;&#xA;						c0.816,0,1.633-0.934,1.866-2.217" />
					<path style="&st1;" d="M209.58,111.802c16.567,1.167,66.85,6.883,73.967,7.583c7.116,0.7,10.705-0.805,17.149-1.517&#xD;&#xA;						c23.217-2.566,33.601-1.866,68.017,9.45c8.378,2.755,17.384,4.083,20.067,3.85c2.683-0.233,4.2-0.583,5.017-0.934&#xD;&#xA;						c0.816-0.35,6.532-2.215,6.532-2.215" />
					<path style="&st1;" d="M356.004,160.225c-0.005,0.113-0.007,0.228-0.007,0.343c0,1.867,0,2.8,0.35,3.267" />
					<path style="&st1;" d="M370.347,127.902c-1.634,0.933-2.8,2.217-3.033,3.383c-0.233,1.167-0.233,1.167-0.233,1.167&#xD;&#xA;						s2.128,0.365,1.4,2.1c-1.518,3.617-4.434,16.683-5.134,19.367c-0.565,2.169-3.342,3.042-5.371,3.236" />
					<path style="&st1;" d="M366.886,155.381c-0.174,1.736,0.003,2.431,1.149,2.524l8.555,0.914&#xD;&#xA;						c0.882,0.091,1.785,0.177,1.938-1.119c1.657-14.057,4.383-19.947,4.734-21.335c0.351-1.387,0.35-1.822-0.74-1.827l-8.346-0.478&#xD;&#xA;						c-0.97-0.005-1.852,0.25-2.466,2.505s-2.634,8.409-3.858,16.391l10.936,1.012" />
					<path style="&st1;" d="M113.562,138.404c-0.35,3.5-0.816,6.066-0.117,9.8c0.7,3.734,4.606,13.695,11.667,22.984&#xD;&#xA;						c2.217,2.916,5.604,4.531,8.4,5.133c23.333,5.017,63.351,10.033,74.9,11.2" />
					<path style="&st1;" d="M129.079,174.804c-0.35,0.933-0.724,1.601,0.35,4.433c4.201,11.082,10.85,19.483,12.833,21.116&#xD;&#xA;						c1.983,1.634,3.967,2.1,6.183,2.45c2.217,0.35,59.734,8.867,66.851,9.567" />
					<path style="&st1;" d="M296.496,222.87l7.816,0.7c2.333,0,4.2-0.35,5.95-1.633s2.683-2.333,2.683-2.333&#xD;&#xA;						c0.817-0.584,1.283-1.051,2.801-0.935c1.517,0.117,57.166,3.968,58.566,3.968c1.399,0,1.983-0.233,3.383-0.817&#xD;&#xA;						c1.4-0.583,1.983-0.35,3.15-0.35l18.2,1.05" />
					<path style="&st1;" d="M367.429,215.17c-0.7-1.75,0-2.916,1.283-2.916l22.517-0.233c1.167,0,2.217,0.467,3.034,2.217&#xD;&#xA;						c0.816,1.75,4.637,8.446,6.183,9.683c0.584,0.468,1.283,0.584,2.45,0.233c0,0,1.916-0.377,7.467-1.633&#xD;&#xA;						c3.092-0.7,13.241-3.15,13.241-3.15" />
					<path style="&st1;" d="M373.379,212.37c0.35,2.217,3.85,6.884,5.134,8.4" />
					<path style="&st1;" d="M338.729,220.188c-2.8-1.167-6.649-7-6.649-7c-0.7-1.05-0.583-2.101-0.583-2.684v-2.217&#xD;&#xA;						c0-0.583-0.117-0.816-0.7-0.816c-0.584,0-6.3-1.167-7.584-1.75c-1.283-0.583-5.6-1.983-10.149-8.75c0,0-2.158-3.15-3.384-4.375&#xD;&#xA;						c-1.225-1.226-2.1-1.75-3.325-1.926" />
					<path style="&st1;" d="M323.212,205.721c-2.917-3.268-2.436-2.893-4.199-5.95c-0.412-0.715-0.809-2.021-0.459-4.297l0.7-2.362" />
					<path style="&st1;" d="M331.263,207.587c3.5,0.7,18.9,0.351,21.816,0.117c2.917-0.233,7.35-2.334,8.283-3.384&#xD;&#xA;						s1.634-1.867,1.983-2.333c0.35-0.467,0.7-0.583,2.217-0.583l30.684,0.7c1.283-0.117,2.1-1.515,2.1-3.617&#xD;&#xA;						c0-0.817-0.35-1.283-1.4-1.983c-1.05-0.7-9.217-7.233-14.116-20.534c-0.982-2.665-0.233-5.133,0.116-7&#xD;&#xA;						c0.351-1.867,1.283-5.134,1.283-5.134" />
					<path style="&st1;" d="M348.529,163.137c0,0,25.199,2.217,28,2.217c2.8,0,4.199-0.117,6.3-1.05l22.225-7.234&#xD;&#xA;						c0,0,2.101-2.45,2.101-3.15" />
					<path style="&st1;" d="M360.779,131.055c0.116,0.467,0.116,1.517-0.233,3.5c-0.351,1.983-2.8,13.3-3.15,16.333&#xD;&#xA;						c-0.087,0.758-0.263,1.589-0.545,2.395" />
					<path style="&st1;" d="M360.662,133.039c-2.566-0.583-9.333-2.1-10.733-2.333c-1.399-0.234-2.684-0.7-4.55-1.4&#xD;&#xA;						c-1.866-0.7-5.833-2.1-11.434-1.633c-5.6,0.467-21.7,1.05-23.566,0.934c-1.866-0.117-2.1-0.233-2.684,1.983&#xD;&#xA;						c-0.583,2.217-3.733,9.45-7.583,15.167c-1.121,1.665-0.301,3.527,0.583,3.615c3.5,0.35,25.784,1.633,50.051,4.783" />
					<path style="&st1;" d="M341.293,157.889c-1.152-0.432-2.378-0.648-3.817-0.792c0,0-1.515-0.7-3.745-1.801&#xD;&#xA;						c-10.876-5.366-24.776-3.458-27.226-2.881c-2.448,0.577-3.457,1.585-4.609,4.106c-1.152,2.521-2.521,4.681-2.736,9.939&#xD;&#xA;						c-0.217,5.257-0.217,9.219,4.177,13.973c0,0,2.414,2.93,8.218,5.679c1.662,0.788,10.588,5.688,19.425,11.638" />
					<path style="&st1;" d="M322.082,182.418c-1.715,0.43-3.597,0.534-5.782,0.534c-5.113,0-9.579-0.937-12.1-2.304" />
					<path style="&st1;" d="M335.36,161.703c-0.063,1.523-0.135,2.624-0.262,3.892c-0.1,0.997-1.577,4.853-3.646,8.446" />
					<path style="&st1;" d="M334.019,155.944c0.897,0.942,1.235,1.969,1.346,3.061" />
					<path style="&st1;" d="M344.895,165.811c-0.145,1.8-0.293,3.193-2.161,4.61c-0.729,0.553-1.255,1.428-1.692,2.653&#xD;&#xA;						c-0.438,1.225-5.337,11.462-12.337,13.388" />
					<path style="&st1;" d="M343.525,158.681c-0.216-0.576-1.152-0.72-1.872-0.792l-1.873,0.648c0,0-1.985,1.038-1.009,4.538&#xD;&#xA;						c0.864,3.097,3.556,4.209,5.834,2.881c0.864-0.504,1.297-1.369,1.152-2.953" />
					<path style="&st1;" d="M344.678,164.443c0,0,0-1.297,1.368-1.729c0.55-0.173,1.72-0.463,3.103-0.845l0.571,0.197&#xD;&#xA;						c0.933-0.258,1.608-0.466,2.611-0.802c0,0,0.27-0.135,0.413-0.567" />
					<path style="&st1;" d="M349.749,154.939c1.717-0.973,3.439-1.824,4.436-1.949c2.305-0.288,4.105,2.089,3.817,3.601&#xD;&#xA;						c-0.288,1.513-1.801,2.593-2.593,3.025c-0.91,0.497-2.081,0.954-3.295,1.359" />
					<path style="&st1;" d="M342.733,158.752c0.288,0.216,0.937-0.144,1.944-0.72c0.344-0.196,1.287-0.809,2.474-1.544l0.072-0.36&#xD;&#xA;						c0.793-0.491,1.694-1.036,2.598-1.548c0,0,0.259-0.004,0.475,0.068" />
					<path style="&st1;" d="M347.151,156.488c-0.673,1.328-0.385,3.994,1.997,5.381" />
					<path style="&st1;" d="M301.896,156.52c0,0,0.576,0.072,0.792,0.072s0.36,0.216,0.648,0.792c0,0,2.233,4.898,2.737,5.618&#xD;&#xA;						s0.576,0.36,0.576,0.36" />
					<path style="&st1;" d="M327.752,165.523c0.433,0,1.225-0.36,1.729-0.937c0.505-0.576,4.97-4.033,4.97-4.033&#xD;&#xA;						c0.505-0.216,0.937-0.144,1.44,0.144l0.721,0.648c0,0,1.08-0.072,1.944,0.288" />
					<path style="&st1;" d="M300.023,161.057c-0.793,0-1.153-0.072-1.297-1.008c-0.145-0.937-0.36-1.945-2.161-2.593&#xD;&#xA;						c-1.8-0.648-7.778-2.666-7.778-2.666h-0.359l-2.377-0.936c0,0-4.682-2.593-5.618-3.097c-0.937-0.504-1.225-1.008-1.081-2.449&#xD;&#xA;						c0.145-1.44,0.361-2.593,0.937-3.457c0.576-0.864,1.152-0.936,2.089-0.576l6.338,3.169l0.648,0.216l2.017,1.153l0.145,0.432&#xD;&#xA;						c0,0,6.05,3.385,7.49,4.105c1.44,0.721,2.089,0.792,3.025,0.36s1.08-0.432,1.584-0.144" />
					<path style="&st1;" d="M289.003,147.661c-1.368,1.801-2.664,4.538-3.097,5.978" />
					<path style="&st1;" d="M261.029,196.736c0.35,2.334,10.15,9.684,16.1,12.484" />
					<path style="&st1;" d="M314.179,199.236l-4.025-0.175c-1.574,0-2.625,0.175-3.675,1.575l-1.925,2.1&#xD;&#xA;						c-0.7,0.525-1.408,1.234-5.95,0.525c0,0-9.45-0.351-17.325-2.101c-3.397-0.755-7.884-5.355-9.166-6.758" />
					<path style="&st1;" d="M366.496,132.22c-4.084-1.284-20.184-9.917-40.134-10.85s-29.517,0.933-34.184,1.517" />
					<path style="&st1;" d="M307.813,128.837l-8.05-3.034" />
					<path style="&st1;" d="M293.112,119.153l-2.917,2.917c-0.816,0.933-0.467,1.517-0.116,1.983c0,0-3.15,3.967-5.717,20.883" />
					<path style="&st1;" d="M298.596,125.687c-1.283,4.317-3.384,13.767-3.617,19.134" />
					<path style="&st1;" d="M288.428,154.791c-0.099,1.462,0.135,2.979,0.835,3.446" />
					<path style="&st1;" d="M353.429,190.087c-0.933-1.167-1.166-2.101,1.167-1.984c2.333,0.117,16.45,1.401,18.55,1.634&#xD;&#xA;						c2.101,0.233,2.8,0.817,3.851,2.45c1.05,1.633,4.199,5.6,5.25,6.533c1.05,0.933,0.466,1.517-0.934,1.4" />
					<path style="&st1;" d="M354.596,188.337c-0.233,0.467,0.313,1.693,1.283,3.149c1.4,2.101,3.267,4.783,3.267,4.783&#xD;&#xA;						c1.05,1.283,1.983,1.283,3.5,1.4c1.517,0.116,14,0.933,19.601,1.05" />
					<path style="&st1;" d="M374.313,188.803c0.35-1.283-0.584-5.6-1.634-7.933c-1.05-2.334-2.566-2.218-3.5-2.218&#xD;&#xA;						c-0.933,0-12.716-1.166-14.233-1.166c-1.517,0-1.399,1.283-1.166,2.566" />
					<path style="&st1;" d="M393.445,130.353c0.817,1.05,0.612,2.312,0.117,3.267c-7.934,15.283-7.233,23.1-7.467,25.317&#xD;&#xA;						c-0.233,2.216-0.816,3.5-1.634,4.55" />
					<path style="&st1;" d="M268.223,211.452c-30.1-2.757-77.006-7.854-119.719-14.657c-6.349-1.012-8.575-2.276-12.075-5.776" />
					<path style="&st1;" d="M279.931,212.48c-2.442-0.204-5.074-0.432-7.877-0.682" />
					<path style="&st1;" d="M270.945,209.686l-0.699,1.518c-0.233,0.699-0.117,1.283,0.466,2.1l2.801,3.966" />
					<path style="&st1;" d="M255.779,206.652c-4.2-3.732-4.783-9.916-5.133-11.55c-0.35-1.633-0.583-2.1-1.983-2.217l-32.9-3.617&#xD;&#xA;						c-0.816,0-0.933,0.817-0.583,2.101" />
					<path style="&st1;" d="M228.596,190.902l0.583,5.366c0.35,1.4,0.933,2.567,1.4,3.384c0.467,0.816,0.583,1.866,0.583,2.566" />
					<path style="&st1;" d="M254.962,205.719l-20.066-2.333" />
					<path style="&st1;" d="M205.146,187.053l-0.933,14.233c0,0.933-0.467,1.516-1.867,1.399" />
					<path style="&st1;" d="M399.512,201.054c-0.116,3.5-0.117,8.167-4.2,10.617" />
					<path style="&st1;" d="M207.479,111.57c-5.075-0.35-67.609-6.126-70-6.3" />
					<path style="&st1;" d="M87.429,60.12c8.225,9.1,20.125,23.275,22.75,26.6s5.075,9.1,6.3,15.225" />
					<path style="&st1;" d="M170.904,165.295c-0.35-1.925,0.7-2.275,2.45-2.1l11.725,1.75c1.225,0.175,1.925,1.05,2.45,2.625&#xD;&#xA;						c0.525,1.575,1.4,3.5,2.1,4.9s0,2.275-2.45,2.1" />
					<path style="&st1;" d="M291.411,208.344l-8.032-0.532" />
					<path style="&st1;" d="M313.354,218.146c-2.625-1.75-4.314-4.323-5.774-6.825c-0.817-1.4-1.283-2.1-2.917-2.1l-2.885-0.191" />
					<path style="&st1;" d="M283.079,169.145c-0.525,5.25,0.875,20.125,15.575,28.525" />
					<path style="&st1;" d="M333.127,211.848c12.955,0.836,27.197,1.691,32.902,1.807" />
					<path style="&st1;" d="M307.929,210.154c0,0,10.23,0.718,22.29,1.505" />
					<path style="&st1;" d="M337.386,87.218c6.225-2.264,12.451-1.98,22.92,5.093l33.673,26.598&#xD;&#xA;						c3.961,3.679,6.508,8.489,8.771,16.695c0,0,20.939,81.493,23.485,94.227c2.547,12.733,3.962,26.314,3.962,31.408v10.47&#xD;&#xA;						c-0.283,2.829-1.697,6.508-5.942,10.47c0,0-11.602,9.903-14.147,11.602" />
					<path style="&st1;" d="M145.412,201.987v38.733c0,6.066,0.177,10.732-7.7,15.633l-14,8.4" />
					<path style="&st1;" d="M414.504,221.471l-2.45-11.9c-0.35-2.45-1.809-3.5-3.792-4.9l-6.066-4.316&#xD;&#xA;						c-1.75-1.283-1.983-1.283-2.684-1.283l-1.399,0.117" />
				</g>
				<path style="&st1;" d="M305.954,223.736l11.55,6.825c0.7,0.7,0.7,1.4,0.7,2.1c0,0.7-0.176,2.101-0.7,3.15l-4.2,11.2&#xD;&#xA;					c-0.875,1.225-1.925,1.75-3.325,2.625l-13.649,8.05c-1.75,1.05-3.15,1.225-5.075-0.175l-6.125-3.851&#xD;&#xA;					c-1.575-1.05-1.925-2.274-2.101-4.375l-0.875-13.3c-0.175-2.274-1.225-3.675-2.625-4.375" />
				<path style="&st1;" d="M269.903,236.512c0,0-3.324-0.7-6.3,7.524c-0.549,1.518-1.225,2.625-2.8,2.801l-15.75,3.324&#xD;&#xA;					c-2.275,0.351-3.85-0.699-4.2-3.675c-0.35-2.975-1.75-9.274-2.8-11.899s-2.275-2.801-3.85-3.15l-3.325-0.7&#xD;&#xA;					c-1.575-0.35-2.45-0.875-3.675-2.1l-5.95-7c-1.75-1.925-4.025-3.5-4.2-5.25s-0.35-3.851-0.35-3.851&#xD;&#xA;					c0-1.399,0.35-1.75,1.575-1.574l67.55,7.524c2.449,0.351,4.024,0.875,5.774,2.275l2.8,2.1c1.4,1.226,2.45,0.875,4.2,0.351" />
				<path style="&st1;" d="M300.879,203.962l-0.175,4.55c0,1.225-1.051,1.575-1.575,3.85c-0.525,2.275-1.05,5.075-3.15,6.3&#xD;&#xA;					c-2.1,1.226-3.149,0.7-4.55-1.05s-2.275-2.8-1.225-5.075l1.225-2.274c0.525-0.7,0.35-2.45,0.35-3.325l-0.524-3.675" />
				<path style="&st1;" d="M286.879,202.212c-2.8,0-4.375,0.524-4.9,2.8c-0.524,2.274-1.925,4.55-1.925,4.55&#xD;&#xA;					c-1.05,1.05-2.8,0.875-3.675,0.875l-4.375-0.525l-1.736-0.36" />
				<path style="&st1;" d="M255.204,155.486c-2.275,1.75-2.975,5.25-3.325,7c-0.35,1.75-1.575,25.2-1.575,26.775&#xD;&#xA;					s0.7,4.55,2.625,6.825c1.925,2.274,7.175,7.875,16.1,13.475" />
				<path style="&st1;" d="M319.104,152.901c-6.041-0.21-11.775,4.821-12.811,11.239c-0.057,0.346-0.095,0.689-0.121,1.029h-0.002&#xD;&#xA;					l-0.004,0.061c-0.005,0.068-0.009,0.137-0.013,0.205l-0.021,0.332c0,0.649-0.135,3.106-0.135,3.106&#xD;&#xA;					c-0.029,0.67,0.088,1.313,0.176,1.75l0.189,0.495c0.426,0.814,0.7,1.4,0.584,2.333l-0.336,2.596&#xD;&#xA;					c-0.104,0.584,0.043,0.831,0.568,0.919l8.443,1.182c0.569,0.043,0.714,0.073,0.744-0.481l0.219-1.557&#xD;&#xA;					c5.569-0.455,10.614-5.229,11.578-11.208C329.199,158.485,325.143,153.112,319.104,152.901z" />
				<path style="&st1;" d="M319.405,198.426c2.249,2.58,4.836,4.603,8.744,5.186c5.862,0.875,10.588,0.963,10.588,0.963&#xD;&#xA;					c4.987,0.087,11.638,0.524,15.138-5.95" />
				<path style="&st1;" d="M316.162,194.249c0.464,0.626,0.92,1.247,1.379,1.854" />
				<path style="&st1;" d="M343.142,171.586l7.35,5.163c0.438,0.438,0.787,0.963,0.787,0.963s1.138,0.438,1.4,0.524&#xD;&#xA;					c0.263,0.088,0.787,0.525,0.7,1.226c0,0,0,3.237-0.175,4.725c-0.165,1.401-0.438,2.013-0.438,2.013&#xD;&#xA;					c-0.351,1.487-5.426,10.149-8.75,11.813" />
				<path style="&st1;" d="M344.454,167.824c1.75,0.962,3.675,2.45,4.899,3.587c0.642,0.595,1.138,2.012,1.226,2.625l-0.088,2.712" />
				<path style="&st1;" d="M349.879,172.461c1.662,1.575,2.975,3.237,3.237,6.038" />
				<path style="&st1;" d="M351.278,177.712c0.788,1.487,0.351,3.063,0.263,4.55c-0.087,1.487-1.925,6.825-4.813,9.013&#xD;&#xA;					s-4.287,2.012-6.912,2.012" />
				<path style="&st1;" d="M330.104,188.036l12.425,0.525c2.45,0,4.9-0.525,6.65-2.8" />
			</g>
			<path style="&st1;" d="M234.204,231.437l48.008,6.767" />
			<path style="&st1;" d="M288.512,221.403v4.667c0,1.633,0.233,2.333,1.634,3.032l2.566,1.167c1.167,0.934,1.867,2.334,1.634,4.2&#xD;&#xA;				c0,0-1.167,14.467-0.934,22.4" />
		</g>
		<g>
			<g>
				<g>
					<path style="&st0;" d="M238.978,152.893c-0.002,0.281-0.269,0.486-0.592,0.456l-37.173-3.663&#xD;&#xA;						c-0.324-0.031-0.589-0.286-0.587-0.567l0.077-5.603c0.002-0.281,0.268-0.487,0.591-0.456l37.175,3.663&#xD;&#xA;						c0.322,0.03,0.586,0.286,0.585,0.567L238.978,152.893z" />
					<path style="&st0;" d="M394.033,118.523c-70.767-11.19-140.77-16.841-244.742-23.665c-0.742-0.049-2.612,0.025-3.325,0.087&#xD;&#xA;						c-8.05,0.7-22.803,4.337-23.538,4.55c-6.65,1.925-8.797,5.613-8.797,5.613c-6.253,12.247-6.953,27.462-6.953,27.462&#xD;&#xA;						c0.175,3.5,1.75,5.075,5.775,5.6c4.025,0.525,67.2,8.925,87.5,10.675" />
					<path style="&st0;" d="M207.91,184.214" />
					<path style="&st0;" d="M99.679,47.87c0,0,23.275,27.3,39.375,48.125" />
					<path style="&st0;" d="M110.091,130.033c-0.175,1.75,0,2.45,1.138,2.538l8.487,0.875c0.875,0.087,1.772,0.169,1.925-1.138&#xD;&#xA;						c1.662-14.175,4.375-20.125,4.725-21.525c0.35-1.4,0.35-1.837-0.731-1.837l-8.281-0.438c-0.962,0-1.837,0.262-2.45,2.538&#xD;&#xA;						c-0.612,2.275-2.625,8.487-3.85,16.537l10.85,0.963" />
					<path style="&st0;" d="M154.396,99.204c-1.865,0.08-4.2,0.117-7.35,1.05c-3.15,0.934-8.866,3.267-11.083,4.667&#xD;&#xA;						c-2.217,1.4-3.15,1.983-4.434,4.55c-1.284,2.566-2.917,6.883-3.15,8.4c-0.233,1.516,0.583,2.449,2.566,2.566l70.117,6.65&#xD;&#xA;						c1.05,0.117,1.05-0.35,1.283-1.283s1.4-5.717,3.384-9.45c1.983-3.733,3.5-4.55,6.183-6.183c2.683-1.634,9.1-5.25,9.1-5.25&#xD;&#xA;						c1.517-0.817,1.05-1.284-0.583-1.634C218.796,102.938,168.046,98.621,154.396,99.204z" />
					<path style="&st0;" d="M135.496,104.921l-14.816-0.934c-2.1-0.233-3.967-1.284-1.633-2.8" />
					<path style="&st0;" d="M200.625,149.119l-0.845,0.833c-1.05,2.217-1.4,4.084-1.75,8.05c-0.35,3.967-0.285,7.984,2.049,13.934&#xD;&#xA;						s8.575,14.059,10.675,16.625c0,0,2.275,5.6,4.725,7.875" />
					<path style="&st0;" d="M214.478,193.568c1.295,3.522,3.065,6.835,3.968,8.066c1.284,1.75,2.917,2.684,5.717,3.033&#xD;&#xA;						c0,0,42.933,4.9,45.5,5.018l0.604-0.135" />
					<path style="&st0;" d="M239.796,153.568c8.634,0.934,48.65,4.55,57.517,5.25" />
					<path style="&st0;" d="M282.146,157.769c-1.75,1.167-3.033,2.8-4.083,6.184c-1.05,3.383-6.417,19.133-7.117,22.75&#xD;&#xA;						c-0.7,3.616-0.35,5.483-0.116,6.3s-0.234,1.4-1.517,1.517c-1.283,0.116-12.01,1.043-17.96-2.457" />
					<path style="&st0;" d="M215.413,137.235l-10.85-0.934c0.583-9.217,3.85-17.15,4.2-17.967c0.35-0.816,0.583-0.816,1.05-0.933&#xD;&#xA;						l9.1,0.583c0.817,0,1.41,0.354,0.7,2.216c-3.733,9.8-4.2,17.034-4.433,19.367c-0.233,2.333-0.816,2.566-2.1,2.566l-8.983-0.816&#xD;&#xA;						c-0.7,0-1.167-0.701-1.05-2.451" />
					<path style="&st0;" d="M277.829,143.418l-10.85-0.933c0.583-9.217,3.85-17.15,4.2-17.967c0.35-0.817,0.583-0.817,1.05-0.934&#xD;&#xA;						l9.1,0.583c0.817,0,1.41,0.354,0.7,2.217c-3.733,9.8-4.2,17.033-4.434,19.367c-0.233,2.333-0.816,2.567-2.1,2.567l-8.983-0.817&#xD;&#xA;						c-0.699,0-1.167-0.7-1.05-2.45" />
					<path style="&st0;" d="M219.73,140.151c-0.233,2.683,0.583,3.383,1.633,3.616c0,0,32.783,3.384,35.117,3.5&#xD;&#xA;						c2.333,0.117,3.617-0.583,3.966-2.917c0.35-2.333,1.517-10.967,3.851-19.717c0.524-1.968,0.116-2.566-1.867-2.917l-34.766-3.15&#xD;&#xA;						c-1.167,0-1.983,0.35-2.684,2.684c-0.7,2.333-2.684,13.3-2.8,17.383c-0.047,1.637,0.233,2.45,1.983,2.684l34.65,3.383&#xD;&#xA;						c0.816,0,1.633-0.934,1.866-2.217" />
					<path style="&st0;" d="M209.58,111.802c16.567,1.167,66.85,6.883,73.967,7.583c7.116,0.7,10.705-0.805,17.149-1.517&#xD;&#xA;						c23.217-2.566,33.601-1.866,68.017,9.45c8.378,2.755,17.384,4.083,20.067,3.85c2.683-0.233,4.2-0.583,5.017-0.934&#xD;&#xA;						c0.816-0.35,6.532-2.215,6.532-2.215" />
					<path style="&st0;" d="M356.004,160.225c-0.005,0.113-0.007,0.228-0.007,0.343c0,1.867,0,2.8,0.35,3.267" />
					<path style="&st0;" d="M370.347,127.902c-1.634,0.933-2.8,2.217-3.033,3.383c-0.233,1.167-0.233,1.167-0.233,1.167&#xD;&#xA;						s2.128,0.365,1.4,2.1c-1.518,3.617-4.434,16.683-5.134,19.367c-0.565,2.169-3.342,3.042-5.371,3.236" />
					<path style="&st0;" d="M366.886,155.381c-0.174,1.736,0.003,2.431,1.149,2.524l8.555,0.914&#xD;&#xA;						c0.882,0.091,1.785,0.177,1.938-1.119c1.657-14.057,4.383-19.947,4.734-21.335c0.351-1.387,0.35-1.822-0.74-1.827l-8.346-0.478&#xD;&#xA;						c-0.97-0.005-1.852,0.25-2.466,2.505s-2.634,8.409-3.858,16.391l10.936,1.012" />
					<path style="&st0;" d="M113.562,138.404c-0.35,3.5-0.816,6.066-0.117,9.8c0.7,3.734,4.606,13.695,11.667,22.984&#xD;&#xA;						c2.217,2.916,5.604,4.531,8.4,5.133c23.333,5.017,63.351,10.033,74.9,11.2" />
					<path style="&st0;" d="M129.079,174.804c-0.35,0.933-0.724,1.601,0.35,4.433c4.201,11.082,10.85,19.483,12.833,21.116&#xD;&#xA;						c1.983,1.634,3.967,2.1,6.183,2.45c2.217,0.35,59.734,8.867,66.851,9.567" />
					<path style="&st0;" d="M296.496,222.87l7.816,0.7c2.333,0,4.2-0.35,5.95-1.633s2.683-2.333,2.683-2.333&#xD;&#xA;						c0.817-0.584,1.283-1.051,2.801-0.935c1.517,0.117,57.166,3.968,58.566,3.968c1.399,0,1.983-0.233,3.383-0.817&#xD;&#xA;						c1.4-0.583,1.983-0.35,3.15-0.35l18.2,1.05" />
					<path style="&st0;" d="M367.429,215.17c-0.7-1.75,0-2.916,1.283-2.916l22.517-0.233c1.167,0,2.217,0.467,3.034,2.217&#xD;&#xA;						c0.816,1.75,4.637,8.446,6.183,9.683c0.584,0.468,1.283,0.584,2.45,0.233c0,0,1.916-0.377,7.467-1.633&#xD;&#xA;						c3.092-0.7,13.241-3.15,13.241-3.15" />
					<path style="&st0;" d="M373.379,212.37c0.35,2.217,3.85,6.884,5.134,8.4" />
					<path style="&st0;" d="M338.729,220.188c-2.8-1.167-6.649-7-6.649-7c-0.7-1.05-0.583-2.101-0.583-2.684v-2.217&#xD;&#xA;						c0-0.583-0.117-0.816-0.7-0.816c-0.584,0-6.3-1.167-7.584-1.75c-1.283-0.583-5.6-1.983-10.149-8.75c0,0-2.158-3.15-3.384-4.375&#xD;&#xA;						c-1.225-1.226-2.1-1.75-3.325-1.926" />
					<path style="&st0;" d="M323.212,205.721c-2.917-3.268-2.436-2.893-4.199-5.95c-0.412-0.715-0.809-2.021-0.459-4.297l0.7-2.362" />
					<path style="&st0;" d="M331.263,207.587c3.5,0.7,18.9,0.351,21.816,0.117c2.917-0.233,7.35-2.334,8.283-3.384&#xD;&#xA;						s1.634-1.867,1.983-2.333c0.35-0.467,0.7-0.583,2.217-0.583l30.684,0.7c1.283-0.117,2.1-1.515,2.1-3.617&#xD;&#xA;						c0-0.817-0.35-1.283-1.4-1.983c-1.05-0.7-9.217-7.233-14.116-20.534c-0.982-2.665-0.233-5.133,0.116-7&#xD;&#xA;						c0.351-1.867,1.283-5.134,1.283-5.134" />
					<path style="&st0;" d="M348.529,163.137c0,0,25.199,2.217,28,2.217c2.8,0,4.199-0.117,6.3-1.05l22.225-7.234&#xD;&#xA;						c0,0,2.101-2.45,2.101-3.15" />
					<path style="&st0;" d="M360.779,131.055c0.116,0.467,0.116,1.517-0.233,3.5c-0.351,1.983-2.8,13.3-3.15,16.333&#xD;&#xA;						c-0.087,0.758-0.263,1.589-0.545,2.395" />
					<path style="&st0;" d="M360.662,133.039c-2.566-0.583-9.333-2.1-10.733-2.333c-1.399-0.234-2.684-0.7-4.55-1.4&#xD;&#xA;						c-1.866-0.7-5.833-2.1-11.434-1.633c-5.6,0.467-21.7,1.05-23.566,0.934c-1.866-0.117-2.1-0.233-2.684,1.983&#xD;&#xA;						c-0.583,2.217-3.733,9.45-7.583,15.167c-1.121,1.665-0.301,3.527,0.583,3.615c3.5,0.35,25.784,1.633,50.051,4.783" />
					<path style="&st0;" d="M341.293,157.889c-1.152-0.432-2.378-0.648-3.817-0.792c0,0-1.515-0.7-3.745-1.801&#xD;&#xA;						c-10.876-5.366-24.776-3.458-27.226-2.881c-2.448,0.577-3.457,1.585-4.609,4.106c-1.152,2.521-2.521,4.681-2.736,9.939&#xD;&#xA;						c-0.217,5.257-0.217,9.219,4.177,13.973c0,0,2.414,2.93,8.218,5.679c1.662,0.788,10.588,5.688,19.425,11.638" />
					<path style="&st0;" d="M322.082,182.418c-1.715,0.43-3.597,0.534-5.782,0.534c-5.113,0-9.579-0.937-12.1-2.304" />
					<path style="&st0;" d="M335.36,161.703c-0.063,1.523-0.135,2.624-0.262,3.892c-0.1,0.997-1.577,4.853-3.646,8.446" />
					<path style="&st0;" d="M334.019,155.944c0.897,0.942,1.235,1.969,1.346,3.061" />
					<path style="&st0;" d="M344.895,165.811c-0.145,1.8-0.293,3.193-2.161,4.61c-0.729,0.553-1.255,1.428-1.692,2.653&#xD;&#xA;						c-0.438,1.225-5.337,11.462-12.337,13.388" />
					<path style="&st0;" d="M343.525,158.681c-0.216-0.576-1.152-0.72-1.872-0.792l-1.873,0.648c0,0-1.985,1.038-1.009,4.538&#xD;&#xA;						c0.864,3.097,3.556,4.209,5.834,2.881c0.864-0.504,1.297-1.369,1.152-2.953" />
					<path style="&st0;" d="M344.678,164.443c0,0,0-1.297,1.368-1.729c0.55-0.173,1.72-0.463,3.103-0.845l0.571,0.197&#xD;&#xA;						c0.933-0.258,1.608-0.466,2.611-0.802c0,0,0.27-0.135,0.413-0.567" />
					<path style="&st0;" d="M349.749,154.939c1.717-0.973,3.439-1.824,4.436-1.949c2.305-0.288,4.105,2.089,3.817,3.601&#xD;&#xA;						c-0.288,1.513-1.801,2.593-2.593,3.025c-0.91,0.497-2.081,0.954-3.295,1.359" />
					<path style="&st0;" d="M342.733,158.752c0.288,0.216,0.937-0.144,1.944-0.72c0.344-0.196,1.287-0.809,2.474-1.544l0.072-0.36&#xD;&#xA;						c0.793-0.491,1.694-1.036,2.598-1.548c0,0,0.259-0.004,0.475,0.068" />
					<path style="&st0;" d="M347.151,156.488c-0.673,1.328-0.385,3.994,1.997,5.381" />
					<path style="&st0;" d="M301.896,156.52c0,0,0.576,0.072,0.792,0.072s0.36,0.216,0.648,0.792c0,0,2.233,4.898,2.737,5.618&#xD;&#xA;						s0.576,0.36,0.576,0.36" />
					<path style="&st0;" d="M327.752,165.523c0.433,0,1.225-0.36,1.729-0.937c0.505-0.576,4.97-4.033,4.97-4.033&#xD;&#xA;						c0.505-0.216,0.937-0.144,1.44,0.144l0.721,0.648c0,0,1.08-0.072,1.944,0.288" />
					<path style="&st0;" d="M300.023,161.057c-0.793,0-1.153-0.072-1.297-1.008c-0.145-0.937-0.36-1.945-2.161-2.593&#xD;&#xA;						c-1.8-0.648-7.778-2.666-7.778-2.666h-0.359l-2.377-0.936c0,0-4.682-2.593-5.618-3.097c-0.937-0.504-1.225-1.008-1.081-2.449&#xD;&#xA;						c0.145-1.44,0.361-2.593,0.937-3.457c0.576-0.864,1.152-0.936,2.089-0.576l6.338,3.169l0.648,0.216l2.017,1.153l0.145,0.432&#xD;&#xA;						c0,0,6.05,3.385,7.49,4.105c1.44,0.721,2.089,0.792,3.025,0.36s1.08-0.432,1.584-0.144" />
					<path style="&st0;" d="M289.003,147.661c-1.368,1.801-2.664,4.538-3.097,5.978" />
					<path style="&st0;" d="M261.029,196.736c0.35,2.334,10.15,9.684,16.1,12.484" />
					<path style="&st0;" d="M314.179,199.236l-4.025-0.175c-1.574,0-2.625,0.175-3.675,1.575l-1.925,2.1&#xD;&#xA;						c-0.7,0.525-1.408,1.234-5.95,0.525c0,0-9.45-0.351-17.325-2.101c-3.397-0.755-7.884-5.355-9.166-6.758" />
					<path style="&st0;" d="M366.496,132.22c-4.084-1.284-20.184-9.917-40.134-10.85s-29.517,0.933-34.184,1.517" />
					<path style="&st0;" d="M307.813,128.837l-8.05-3.034" />
					<path style="&st0;" d="M293.112,119.153l-2.917,2.917c-0.816,0.933-0.467,1.517-0.116,1.983c0,0-3.15,3.967-5.717,20.883" />
					<path style="&st0;" d="M298.596,125.687c-1.283,4.317-3.384,13.767-3.617,19.134" />
					<path style="&st0;" d="M288.428,154.791c-0.099,1.462,0.135,2.979,0.835,3.446" />
					<path style="&st0;" d="M353.429,190.087c-0.933-1.167-1.166-2.101,1.167-1.984c2.333,0.117,16.45,1.401,18.55,1.634&#xD;&#xA;						c2.101,0.233,2.8,0.817,3.851,2.45c1.05,1.633,4.199,5.6,5.25,6.533c1.05,0.933,0.466,1.517-0.934,1.4" />
					<path style="&st0;" d="M354.596,188.337c-0.233,0.467,0.313,1.693,1.283,3.149c1.4,2.101,3.267,4.783,3.267,4.783&#xD;&#xA;						c1.05,1.283,1.983,1.283,3.5,1.4c1.517,0.116,14,0.933,19.601,1.05" />
					<path style="&st0;" d="M374.313,188.803c0.35-1.283-0.584-5.6-1.634-7.933c-1.05-2.334-2.566-2.218-3.5-2.218&#xD;&#xA;						c-0.933,0-12.716-1.166-14.233-1.166c-1.517,0-1.399,1.283-1.166,2.566" />
					<path style="&st0;" d="M393.445,130.353c0.817,1.05,0.612,2.312,0.117,3.267c-7.934,15.283-7.233,23.1-7.467,25.317&#xD;&#xA;						c-0.233,2.216-0.816,3.5-1.634,4.55" />
					<path style="&st0;" d="M268.223,211.452c-30.1-2.757-77.006-7.854-119.719-14.657c-6.349-1.012-8.575-2.276-12.075-5.776" />
					<path style="&st0;" d="M279.931,212.48c-2.442-0.204-5.074-0.432-7.877-0.682" />
					<path style="&st0;" d="M270.945,209.686l-0.699,1.518c-0.233,0.699-0.117,1.283,0.466,2.1l2.801,3.966" />
					<path style="&st0;" d="M255.779,206.652c-4.2-3.732-4.783-9.916-5.133-11.55c-0.35-1.633-0.583-2.1-1.983-2.217l-32.9-3.617&#xD;&#xA;						c-0.816,0-0.933,0.817-0.583,2.101" />
					<path style="&st0;" d="M228.596,190.902l0.583,5.366c0.35,1.4,0.933,2.567,1.4,3.384c0.467,0.816,0.583,1.866,0.583,2.566" />
					<path style="&st0;" d="M254.962,205.719l-20.066-2.333" />
					<path style="&st0;" d="M205.146,187.053l-0.933,14.233c0,0.933-0.467,1.516-1.867,1.399" />
					<path style="&st0;" d="M399.512,201.054c-0.116,3.5-0.117,8.167-4.2,10.617" />
					<path style="&st0;" d="M207.479,111.57c-5.075-0.35-67.609-6.126-70-6.3" />
					<path style="&st0;" d="M87.429,60.12c8.225,9.1,20.125,23.275,22.75,26.6s5.075,9.1,6.3,15.225" />
					<path style="&st0;" d="M170.904,165.295c-0.35-1.925,0.7-2.275,2.45-2.1l11.725,1.75c1.225,0.175,1.925,1.05,2.45,2.625&#xD;&#xA;						c0.525,1.575,1.4,3.5,2.1,4.9s0,2.275-2.45,2.1" />
					<path style="&st0;" d="M291.411,208.344l-8.032-0.532" />
					<path style="&st0;" d="M313.354,218.146c-2.625-1.75-4.314-4.323-5.774-6.825c-0.817-1.4-1.283-2.1-2.917-2.1l-2.885-0.191" />
					<path style="&st0;" d="M283.079,169.145c-0.525,5.25,0.875,20.125,15.575,28.525" />
					<path style="&st0;" d="M333.127,211.848c12.955,0.836,27.197,1.691,32.902,1.807" />
					<path style="&st0;" d="M307.929,210.154c0,0,10.23,0.718,22.29,1.505" />
					<path style="&st0;" d="M337.386,87.218c6.225-2.264,12.451-1.98,22.92,5.093l33.673,26.598&#xD;&#xA;						c3.961,3.679,6.508,8.489,8.771,16.695c0,0,20.939,81.493,23.485,94.227c2.547,12.733,3.962,26.314,3.962,31.408v10.47&#xD;&#xA;						c-0.283,2.829-1.697,6.508-5.942,10.47c0,0-11.602,9.903-14.147,11.602" />
					<path style="&st0;" d="M145.412,201.987v38.733c0,6.066,0.177,10.732-7.7,15.633l-14,8.4" />
					<path style="&st0;" d="M414.504,221.471l-2.45-11.9c-0.35-2.45-1.809-3.5-3.792-4.9l-6.066-4.316&#xD;&#xA;						c-1.75-1.283-1.983-1.283-2.684-1.283l-1.399,0.117" />
				</g>
				<path style="&st0;" d="M305.954,223.736l11.55,6.825c0.7,0.7,0.7,1.4,0.7,2.1c0,0.7-0.176,2.101-0.7,3.15l-4.2,11.2&#xD;&#xA;					c-0.875,1.225-1.925,1.75-3.325,2.625l-13.649,8.05c-1.75,1.05-3.15,1.225-5.075-0.175l-6.125-3.851&#xD;&#xA;					c-1.575-1.05-1.925-2.274-2.101-4.375l-0.875-13.3c-0.175-2.274-1.225-3.675-2.625-4.375" />
				<path style="&st0;" d="M269.903,236.512c0,0-3.324-0.7-6.3,7.524c-0.549,1.518-1.225,2.625-2.8,2.801l-15.75,3.324&#xD;&#xA;					c-2.275,0.351-3.85-0.699-4.2-3.675c-0.35-2.975-1.75-9.274-2.8-11.899s-2.275-2.801-3.85-3.15l-3.325-0.7&#xD;&#xA;					c-1.575-0.35-2.45-0.875-3.675-2.1l-5.95-7c-1.75-1.925-4.025-3.5-4.2-5.25s-0.35-3.851-0.35-3.851&#xD;&#xA;					c0-1.399,0.35-1.75,1.575-1.574l67.55,7.524c2.449,0.351,4.024,0.875,5.774,2.275l2.8,2.1c1.4,1.226,2.45,0.875,4.2,0.351" />
				<path style="&st0;" d="M300.879,203.962l-0.175,4.55c0,1.225-1.051,1.575-1.575,3.85c-0.525,2.275-1.05,5.075-3.15,6.3&#xD;&#xA;					c-2.1,1.226-3.149,0.7-4.55-1.05s-2.275-2.8-1.225-5.075l1.225-2.274c0.525-0.7,0.35-2.45,0.35-3.325l-0.524-3.675" />
				<path style="&st0;" d="M286.879,202.212c-2.8,0-4.375,0.524-4.9,2.8c-0.524,2.274-1.925,4.55-1.925,4.55&#xD;&#xA;					c-1.05,1.05-2.8,0.875-3.675,0.875l-4.375-0.525l-1.736-0.36" />
				<path style="&st0;" d="M255.204,155.486c-2.275,1.75-2.975,5.25-3.325,7c-0.35,1.75-1.575,25.2-1.575,26.775&#xD;&#xA;					s0.7,4.55,2.625,6.825c1.925,2.274,7.175,7.875,16.1,13.475" />
				<path style="&st0;" d="M319.104,152.901c-6.041-0.21-11.775,4.821-12.811,11.239c-0.057,0.346-0.095,0.689-0.121,1.029h-0.002&#xD;&#xA;					l-0.004,0.061c-0.005,0.068-0.009,0.137-0.013,0.205l-0.021,0.332c0,0.649-0.135,3.106-0.135,3.106&#xD;&#xA;					c-0.029,0.67,0.088,1.313,0.176,1.75l0.189,0.495c0.426,0.814,0.7,1.4,0.584,2.333l-0.336,2.596&#xD;&#xA;					c-0.104,0.584,0.043,0.831,0.568,0.919l8.443,1.182c0.569,0.043,0.714,0.073,0.744-0.481l0.219-1.557&#xD;&#xA;					c5.569-0.455,10.614-5.229,11.578-11.208C329.199,158.485,325.143,153.112,319.104,152.901z" />
				<path style="&st0;" d="M319.405,198.426c2.249,2.58,4.836,4.603,8.744,5.186c5.862,0.875,10.588,0.963,10.588,0.963&#xD;&#xA;					c4.987,0.087,11.638,0.524,15.138-5.95" />
				<path style="&st0;" d="M316.162,194.249c0.464,0.626,0.92,1.247,1.379,1.854" />
				<path style="&st0;" d="M343.142,171.586l7.35,5.163c0.438,0.438,0.787,0.963,0.787,0.963s1.138,0.438,1.4,0.524&#xD;&#xA;					c0.263,0.088,0.787,0.525,0.7,1.226c0,0,0,3.237-0.175,4.725c-0.165,1.401-0.438,2.013-0.438,2.013&#xD;&#xA;					c-0.351,1.487-5.426,10.149-8.75,11.813" />
				<path style="&st0;" d="M344.454,167.824c1.75,0.962,3.675,2.45,4.899,3.587c0.642,0.595,1.138,2.012,1.226,2.625l-0.088,2.712" />
				<path style="&st0;" d="M349.879,172.461c1.662,1.575,2.975,3.237,3.237,6.038" />
				<path style="&st0;" d="M351.278,177.712c0.788,1.487,0.351,3.063,0.263,4.55c-0.087,1.487-1.925,6.825-4.813,9.013&#xD;&#xA;					s-4.287,2.012-6.912,2.012" />
				<path style="&st0;" d="M330.104,188.036l12.425,0.525c2.45,0,4.9-0.525,6.65-2.8" />
			</g>
			<path style="&st0;" d="M234.204,231.437l48.008,6.767" />
			<path style="&st0;" d="M288.512,221.403v4.667c0,1.633,0.233,2.333,1.634,3.032l2.566,1.167c1.167,0.934,1.867,2.334,1.634,4.2&#xD;&#xA;				c0,0-1.167,14.467-0.934,22.4" />
		</g>
		<g>
			<g>
				<path style="&st0;" d="M339.161,240.92l-7.002-0.902" />
				<path style="&st0;" d="M343.431,241.469l2.833-1.341" />
				<path style="&st0;" d="M343.431,251.418v-9.947l-0.703-0.091" />
				<path style="&st0;" d="M342.385,251.913v5.397" />
				<path style="&st0;" d="M342.386,251.913l0.988-0.469" />
				<path style="&st0;" d="M342.385,251.913l-10.807-1.394" />
				<path style="&st0;" d="M343.361,251.451l-10.84-1.397" />
				<path style="&st0;" d="M342.441,240.601l3.077-1.456" />
				<path style="&st0;" d="M339.161,240.92l0.866-0.631l1.806-0.854" />
				<path style="&st0;" d="M345.443,240.094l-2.716,1.286l-0.286-0.779l-2.414-0.312" />
				<path style="&st0;" d="M344.319,248.219v-4.508l1.596-0.756" />
				<path style="&st0;" d="M344.319,253.948v-4.508l1.596-0.756" />
				<path style="&st4;" d="M341.871,239.416l-6.364-0.82c-0.179-0.022-0.458,0.021-0.621,0.098l-2.485,1.178&#xD;&#xA;					c-0.162,0.076-0.296,0.286-0.296,0.467v9.498c0,0.091-0.066,0.195-0.147,0.233l-0.68,0.323&#xD;&#xA;					c-0.081,0.038-0.147,0.143-0.147,0.233v5.486c0,0.09,0.073,0.174,0.162,0.185l10.93,1.409c0.09,0.011,0.23-0.011,0.312-0.049&#xD;&#xA;					l3.824-1.784c0.082-0.038,0.148-0.144,0.148-0.232" />
				<path style="&st0;" d="M346.506,255.641" />
				<path style="&st4;" d="M346.506,255.641l0.001-15.464c0-0.09-0.073-0.173-0.163-0.185l-0.529-0.067v-0.001l-0.296-0.779&#xD;&#xA;					l-2.414-0.312l-1.233,0.583" />
			</g>
			<g>
				<path style="&st0;" d="M373.927,244.586l-0.866,2.594" />
				<path style="&st0;" d="M373.061,247.18l-11.486-1.481" />
				<path style="&st0;" d="M374.516,252.703l-1.455-5.523" />
				<path style="&st4;" d="M361.666,244.071l-0.472,1.416c-0.029,0.084-0.034,0.227-0.011,0.313l0.482,1.83" />
				<path style="&st4;" d="M373.217,244.051l-10.906-1.406c-0.089-0.011-0.186,0.049-0.214,0.135l-0.431,1.292" />
				<path style="&st4;" d="M375.196,248.445l-1.087-4.126c-0.023-0.087-0.041-0.158-0.041-0.158c0-0.001-0.073-0.01-0.162-0.021&#xD;&#xA;					l-0.689-0.09" />
				<path style="&st4;" d="M361.666,247.631l1.069,4.059c0.022,0.087,0.113,0.167,0.204,0.18l11.594,1.495&#xD;&#xA;					c0.089,0.012,0.186-0.05,0.214-0.135l0.903-2.707c0.028-0.086,0.033-0.227,0.011-0.313l-0.465-1.764" />
				<path style="&st4;" d="M361.602,247.646" />
			</g>
			<path style="&st5;" d="M382.852,266.762h-59.706v-38.824h59.706V266.762z" />
		</g>
		<path style="&st8;" d="M0,0" />
		<path style="&st8;" d="M519,348" />
	</g>
	<g id="z85a97">
		<path style="&st3;" d="M189.66,298.059V279.66l59.862-62.945" />
		<path style="&st2;" d="M189.66,298.059V279.66l59.862-62.945" />
		<g>
			<path style="&st3;" d="M414.559,165.244h-16.439l-50.145,36.576" />
			<path style="&st2;" d="M414.559,165.244h-16.439l-50.145,36.576" />
		</g>
		<g>
			<path style="&st3;" d="M107.412,237.615h16.5l43.303-56.197" />
			<path style="&st2;" d="M107.412,237.615h16.5l43.303-56.197" />
		</g>
		<g>
			<path style="&st3;" d="M114.096,198.305h16.5l23.009-29.959" />
			<path style="&st2;" d="M114.096,198.305h16.5l23.009-29.959" />
		</g>
		<g>
			<path style="&st3;" d="M137.431,279.684h16.5l32.714-67.959" />
			<path style="&st2;" d="M137.431,279.684h16.5l32.714-67.959" />
		</g>
		<path style="&st3;" d="M361.951,34.101v16.5l-96.225,120.144" />
		<path style="&st2;" d="M361.951,34.101v16.5l-96.225,120.144" />
		<path style="&st3;" d="M446.091,34.101v16.5l-117.142,95.745" />
		<path style="&st2;" d="M446.091,34.101v16.5l-117.142,95.745" />
		<path style="&st3;" d="M266.787,34.101v16.5l4.917,75.187" />
		<path style="&st2;" d="M266.787,34.101v16.5l4.917,75.187" />
		<path style="&st3;" d="M395.964,300.101v-16.5l-28.088-34.681" />
		<path style="&st2;" d="M395.964,300.101v-16.5l-28.088-34.681" />
		<path style="&st3;" d="M302.861,300.101v-16.5l34.497-35.681" />
		<path style="&st2;" d="M302.861,300.101v-16.5l34.497-35.681" />
		<g>
			<path style="&st3;" d="M414.588,126.139h-16.439l-66.142,30.299" />
			<path style="&st2;" d="M414.588,126.139h-16.439l-66.142,30.299" />
		</g>
	</g>
	<g id="Texts">
		<text transform="matrix(1 0 0 1 8.5596 30.3462)"><tspan x="0" y="0" style="&st10; &st11;">* 1:Refer to the Service Bulletin</tspan></text>
		<text transform="matrix(1 0 0 1 23.5693 40.2681)"><tspan x="0" y="0" style="&st10; &st11;">for the installation position of the parts.</tspan></text>
		<text transform="matrix(1 0 0 1 365.4805 237.9307)"><tspan x="0" y="0" style="&st10; &st11;">*1</tspan></text>
		<text transform="matrix(1 0 0 1 256.1797 307.9805)"><tspan x="0" y="0" style="&st10; &st11;">Smart Key Computer</tspan><tspan x="0" y="10" style="&st10; &st11;">Assembly</tspan></text>
		<text transform="matrix(1 0 0 1 357.6094 307.9805)"><tspan x="0" y="0" style="&st10; &st11;">Transponder Key</tspan><tspan x="0" y="10" style="&st10; &st11;">ECU</tspan></text>
		<text transform="matrix(1 0 0 1 237.6147 32.2515)"><tspan x="0" y="0" style="&st10; &st11;">A/C Amplifier</tspan></text>
		<text transform="matrix(1 0 0 1 310.543 31.7339)"><tspan x="0" y="0" style="&st10; &st11;">Shift Lock Control ECU</tspan></text>
		<text transform="matrix(1 0 0 1 417.3936 163.6211)"><tspan x="0" y="0" style="&st10; &st11;">Transmission Control </tspan><tspan x="0" y="10" style="&st10; &st11;">ECU</tspan></text>
		<text transform="matrix(1 0 0 1 134.9136 307.9805)"><tspan x="0" y="0" style="&st10; &st11;">Airbag Sensor Assembly </tspan><tspan x="0" y="10" style="&st10; &st11;">Center</tspan></text>
	</g>
</svg>