﻿<?xml version="1.0"?>
<!-- Generator: Adobe Illustrator 10.0, SVG Export Plug-In . SVG Version: 3.0.0 Build 77)  -->
<!DOCTYPE svg PUBLIC "-//W3C//DTD SVG 1.0//EN" "http://www.w3.org/TR/2001/REC-SVG-20010904/DTD/svg10.dtd"[
	<!ENTITY ns_flows "http://ns.adobe.com/Flows/1.0/">
	<!ENTITY ns_svg "http://www.w3.org/2000/svg">
	<!ENTITY ns_xlink "http://www.w3.org/1999/xlink">
	<!ENTITY st0 "fill:none;stroke:#000000;stroke-linecap:round;stroke-linejoin:round;">
	<!ENTITY st1 "fill:none;stroke:#000000;stroke-width:0.6;stroke-linecap:round;stroke-linejoin:round;">
	<!ENTITY st2 "font-size:6px;">
	<!ENTITY st3 "font-family:'Arial';">
	<!ATTLIST svg
		ewd:ver CDATA #IMPLIED
		xmlns:ewd CDATA #FIXED "http://shcl.co.jp/ewd"
		xmlns:a CDATA #FIXED "http://ns.adobe.com/AdobeSVGViewerExtensions/3.0/">
	<!ATTLIST g
		ewd:pinNo CDATA #IMPLIED>
]>
<svg width="36.127" height="42.927" viewBox="0 0 36.127 42.927" style="overflow:visible;enable-background:new 0 0 36.127 42.927" xml:space="preserve" onload="call_execInitLoadProc_svg('connector')" ewd:ver="2.1.2.9" xmlns="&ns_svg;" xmlns:ewd="http://shcl.co.jp/ewd" xmlns:a="http://ns.adobe.com/AdobeSVGViewerExtensions/3.0/" xmlns:xlink="&ns_xlink;">
<script type="text/javascript" xlink:href="../../../../../system/js/ewd/fig/svgfig.js"/>
<g id="レイヤー_1">
	<path style="&st1;" d="M31.803,20.755v15.439"/>
	<path style="&st1;" d="M4.324,20.755v15.439"/>
	<path style="&st1;" d="M7.157,39.027H28.97"/>
	<path style="&st1;" d="M2.2,16.647h3.258"/>
	<path style="&st0;" d="M4.183,4.466h0.566"/>
	<path style="&st1;" d="M12.398,4.608v1.275"/>
	<path style="&st1;" d="M23.729,4.608v1.275"/>
	<path style="&st0;" d="M2.058,6.591v10.057"/>
	<path style="&st0;" d="M34.069,6.591v10.057"/>
	<path style="&st0;" d="M10.415,0.5h15.297"/>
	<path style="&st0;" d="M31.378,4.466h0.567"/>
	<path style="&st1;" d="M14.664,0.5v3.258"/>
	<path style="&st1;" d="M21.463,0.5v3.258"/>
	<path style="&st1;" d="M13.248,3.758h9.631"/>
	<path style="&st1;" d="M13.248,5.174h9.631"/>
	<path style="&st0;" d="M2.058,20.041v13.887"/>
	<path style="&st0;" d="M34.069,20.041v13.887"/>
	<path style="&st0;" d="M7.582,3.333v1.133"/>
	<path style="&st0;" d="M28.545,3.333v1.133"/>
	<path style="&st1;" d="M2.2,20.047h1.416"/>
	<path style="&st1;" d="M32.511,20.047h1.417"/>
	<path style="&st0;" d="M14.562,42.427h7.003"/>
	<path style="&st1;" d="M11.973,35.344h12.181"/>
	<path style="&st0;" d="M25.814,41.288l4.572-2.64"/>
	<path style="&st0;" d="M5.741,38.647l4.572,2.64"/>
	<path style="&st1;" d="M12.398,16.647h11.332"/>
	<path style="&st1;" d="M30.67,16.647h3.258"/>
	<path style="&st0;" d="M4.183,4.466c-1.173,0-2.125,0.951-2.125,2.125"/>
	<path style="&st0;" d="M34.069,6.591c0-1.173-0.951-2.125-2.125-2.125"/>
	<path style="&st0;" d="M5.458,5.174c0-0.391-0.317-0.708-0.708-0.708"/>
	<path style="&st0;" d="M31.378,4.466c-0.391,0-0.708,0.317-0.708,0.708"/>
	<path style="&st1;" d="M13.248,3.758c-0.47,0-0.85,0.381-0.85,0.85"/>
	<path style="&st1;" d="M23.729,4.608c0-0.469-0.38-0.85-0.85-0.85"/>
	<path style="&st1;" d="M23.729,6.024c0-0.47-0.38-0.85-0.85-0.85"/>
	<path style="&st1;" d="M13.248,5.174c-0.47,0-0.85,0.38-0.85,0.85"/>
	<path style="&st0;" d="M10.415,0.5c-1.564,0-2.833,1.269-2.833,2.833"/>
	<path style="&st0;" d="M28.545,3.333c0-1.564-1.269-2.833-2.833-2.833"/>
	<path style="&st0;" d="M7.582,4.466c0,0.782,0.634,1.417,1.417,1.417"/>
	<path style="&st0;" d="M27.129,5.883c0.782,0,1.417-0.634,1.417-1.417"/>
	<path style="&st0;" d="M2.2,16.647c-0.938,0-1.7,0.761-1.7,1.7"/>
	<path style="&st0;" d="M0.5,18.347c0,0.939,0.761,1.7,1.7,1.7"/>
	<path style="&st0;" d="M33.928,20.047c0.938,0,1.7-0.761,1.7-1.7"/>
	<path style="&st0;" d="M35.627,18.347c0-0.939-0.761-1.7-1.7-1.7"/>
	<path style="&st0;" d="M4.324,36.194c0,1.043,0.513,1.932,1.417,2.453"/>
	<path style="&st1;" d="M28.97,39.027c0.521,0,0.965-0.119,1.417-0.38"/>
	<path style="&st1;" d="M4.324,20.755c0-0.391-0.317-0.708-0.708-0.708"/>
	<path style="&st1;" d="M32.511,20.047c-0.391,0-0.708,0.317-0.708,0.708"/>
	<path style="&st1;" d="M31.095,22.03c0.391,0,0.708-0.317,0.708-0.708"/>
	<path style="&st1;" d="M4.324,21.322c0,0.391,0.317,0.708,0.708,0.708"/>
	<path style="&st1;" d="M5.032,31.945c-0.391,0-0.708,0.317-0.708,0.708"/>
	<path style="&st1;" d="M31.803,32.653c0-0.391-0.317-0.708-0.708-0.708"/>
	<path style="&st0;" d="M2.058,33.928c0,1.252,1.015,2.267,2.266,2.267"/>
	<path style="&st0;" d="M31.803,36.194c1.251,0,2.266-1.015,2.266-2.267"/>
	<path style="&st0;" d="M10.313,41.288c1.355,0.782,2.685,1.139,4.249,1.139"/>
	<path style="&st0;" d="M21.565,42.427c1.564,0,2.895-0.356,4.25-1.139"/>
	<path style="&st1;" d="M5.741,38.647c0.452,0.261,0.895,0.379,1.417,0.379"/>
	<path style="&st0;" d="M30.387,38.647c0.903-0.521,1.416-1.41,1.416-2.453"/>
	<path style="&st0;" d="M5.458,5.174v11.473h6.94V5.883H8.999"/>
	<path style="&st0;" d="M30.67,5.174v11.473h-6.94V5.883h3.399"/>
	<path style="&st1;" d="M26.987,33.645v-12.89H9.14v12.89"/>
	<path style="&st1;" d="M5.032,31.945h2.125V22.03H5.032"/>
	<path style="&st1;" d="M31.095,31.945H28.97V22.03h2.125"/>
	<path style="&st1;" d="M11.973,33.645H7.157v3.399h4.816V33.645"/>
	<path style="&st1;" d="M28.97,33.645h-4.816v3.399h4.816V33.645"/>
	<g ewd:pinNo="1">
		<text transform="matrix(1 0 0 1 15.9487 30.438)"><tspan x="0" y="0" style="&st3; &st2;">1</tspan></text>
	</g>
</g>
</svg>