﻿<?xml version="1.0"?>
<!-- Generator: Adobe Illustrator 10.0, SVG Export Plug-In . SVG Version: 3.0.0 Build 77)  -->
<!DOCTYPE svg PUBLIC "-//W3C//DTD SVG 1.0//EN" "http://www.w3.org/TR/2001/REC-SVG-20010904/DTD/svg10.dtd"[
	<!ENTITY ns_flows "http://ns.adobe.com/Flows/1.0/">
	<!ENTITY ns_svg "http://www.w3.org/2000/svg">
	<!ENTITY ns_xlink "http://www.w3.org/1999/xlink">
	<!ENTITY st0 "fill:none;stroke:#000000;stroke-linecap:round;stroke-linejoin:round;">
	<!ENTITY st1 "fill:none;stroke:#000000;stroke-width:0.6;stroke-linecap:round;stroke-linejoin:round;">
	<!ENTITY st2 "font-size:6px;">
	<!ENTITY st3 "font-family:'Arial';">
	<!ATTLIST svg
		ewd:ver CDATA #IMPLIED
		xmlns:ewd CDATA #FIXED "http://shcl.co.jp/ewd"
		xmlns:a CDATA #FIXED "http://ns.adobe.com/AdobeSVGViewerExtensions/3.0/">
	<!ATTLIST g
		ewd:pinNo CDATA #IMPLIED>
]>
<svg width="42.109" height="52.796" viewBox="0 0 42.109 52.796" style="overflow:visible;enable-background:new 0 0 42.109 52.796" xml:space="preserve" onload="call_execInitLoadProc_svg('connector')" ewd:ver="L2.1.2.9" xmlns="&ns_svg;" xmlns:ewd="http://shcl.co.jp/ewd" xmlns:a="http://ns.adobe.com/AdobeSVGViewerExtensions/3.0/" xmlns:xlink="&ns_xlink;">
<script type="text/javascript" xlink:href="../../../../../system/js/ewd/fig/svgfig.js"/>
<g id="レイヤー_1">
	<path style="&st1;" d="M36.265,26.492H23.517"/>
	<path style="&st1;" d="M22.101,12.894v3.541"/>
	<path style="&st1;" d="M20.684,17.144V35.84"/>
	<path style="&st1;" d="M23.517,17.144V35.84"/>
	<path style="&st1;" d="M22.809,36.548h-1.417"/>
	<path style="&st1;" d="M22.809,16.435h-1.417"/>
	<path style="&st1;" d="M20.684,26.492H7.937"/>
	<path style="&st1;" d="M4.333,20.826H3.687"/>
	<path style="&st1;" d="M2.625,21.888v2.125"/>
	<path style="&st1;" d="M4.044,25.075H3.687"/>
	<path style="&st1;" d="M4.044,27.908H3.687"/>
	<path style="&st1;" d="M2.625,28.97v2.125"/>
	<path style="&st1;" d="M4.333,32.157H3.687"/>
	<path style="&st1;" d="M16.435,43.871v0.468"/>
	<path style="&st1;" d="M19.622,45.401h-2.125"/>
	<path style="&st1;" d="M20.684,43.984v0.354"/>
	<path style="&st1;" d="M23.517,43.984v0.354"/>
	<path style="&st1;" d="M26.704,45.401h-2.125"/>
	<path style="&st1;" d="M27.766,43.871v0.468"/>
	<path style="&st1;" d="M33.078,8.645v1.764"/>
	<path style="&st1;" d="M11.123,8.645v1.764"/>
	<path style="&st1;" d="M15.019,7.583H14.31"/>
	<path style="&st1;" d="M32.016,7.583h-1.417"/>
	<path style="&st1;" d="M28.475,2.625H15.727"/>
	<path style="&st1;" d="M27.058,4.041h-9.915"/>
	<path style="&st0;" d="M29.789,0.5H14.412"/>
	<path style="&st0;" d="M33.469,2.625l6.139,10.632"/>
	<path style="&st0;" d="M2.778,16.407l7.955-13.782"/>
	<path style="&st1;" d="M22.101,36.548v1.417"/>
	<path style="&st0;" d="M2.778,36.577l1.816,3.15"/>
	<path style="&st0;" d="M0.5,24.905v3.173"/>
	<path style="&st0;" d="M10.061,45.364v5.516"/>
	<path style="&st0;" d="M34.14,45.364v5.516"/>
	<path style="&st1;" d="M9.834,37.965h24.533"/>
	<path style="&st0;" d="M11.477,52.296h21.247"/>
	<path style="&st1;" d="M23.871,4.041v4.25"/>
	<path style="&st1;" d="M20.33,4.041v4.25"/>
	<path style="&st1;" d="M13.602,7.583h-1.417"/>
	<path style="&st1;" d="M29.891,7.583h-0.708"/>
	<path style="&st1;" d="M27.058,6.166h-9.915"/>
	<path style="&st1;" d="M27.058,8.291h-9.915"/>
	<path style="&st1;" d="M28.475,10.416H15.727"/>
	<path style="&st1;" d="M20.33,10.416v2.479"/>
	<path style="&st1;" d="M23.871,10.416v2.479"/>
	<path style="&st1;" d="M35.718,34.965c0.767-5.925,0.767-11.021,0-16.946"/>
	<path style="&st1;" d="M8.483,18.019c-0.767,5.925-0.767,11.021,0,16.946"/>
	<path style="&st1;" d="M13.837,39.897c5.807,0.271,10.721,0.271,16.527,0"/>
	<path style="&st1;" d="M30.364,13.087c-5.806-0.271-10.72-0.271-16.527,0"/>
	<path style="&st1;" d="M23.517,17.144c0-0.392-0.317-0.708-0.708-0.708"/>
	<path style="&st1;" d="M21.392,16.435c-0.391,0-0.708,0.317-0.708,0.708"/>
	<path style="&st1;" d="M22.809,36.548c0.391,0,0.708-0.317,0.708-0.708"/>
	<path style="&st1;" d="M20.684,35.84c0,0.392,0.317,0.708,0.708,0.708"/>
	<path style="&st1;" d="M30.364,39.897c2.777-0.129,4.999-2.175,5.356-4.932"/>
	<path style="&st1;" d="M35.718,18.019c-0.357-2.756-2.578-4.801-5.354-4.931"/>
	<path style="&st1;" d="M13.837,13.087c-2.777,0.129-4.999,2.175-5.355,4.932"/>
	<path style="&st1;" d="M8.483,34.965c0.357,2.756,2.578,4.801,5.354,4.93"/>
	<path style="&st1;" d="M11.123,10.409c-3.221,1.15-5.362,3.807-5.802,7.199"/>
	<path style="&st1;" d="M5.321,17.608c-0.117,0.903-0.201,1.667-0.285,2.575"/>
	<path style="&st1;" d="M3.687,20.826c-0.587,0-1.063,0.476-1.063,1.062"/>
	<path style="&st1;" d="M2.625,24.013c0,0.587,0.476,1.063,1.063,1.063"/>
	<path style="&st1;" d="M4.752,25.792c-0.005,0.492-0.005,0.907,0,1.399"/>
	<path style="&st1;" d="M3.687,27.908c-0.587,0-1.063,0.476-1.063,1.062"/>
	<path style="&st1;" d="M2.625,31.095c0,0.586,0.476,1.062,1.063,1.062"/>
	<path style="&st1;" d="M5.038,32.801c0.083,0.907,0.168,1.671,0.285,2.575"/>
	<path style="&st1;" d="M5.321,35.375c0.559,4.307,4.03,7.503,8.369,7.705"/>
	<path style="&st1;" d="M13.69,43.081c0.725,0.034,1.337,0.059,2.062,0.084"/>
	<path style="&st1;" d="M16.435,44.339c0,0.586,0.476,1.062,1.063,1.062"/>
	<path style="&st1;" d="M19.622,45.401c0.587,0,1.063-0.476,1.063-1.062"/>
	<path style="&st1;" d="M21.395,43.276c0.496,0.002,0.915,0.002,1.411,0"/>
	<path style="&st1;" d="M23.517,44.339c0,0.586,0.476,1.062,1.062,1.062"/>
	<path style="&st1;" d="M26.704,45.401c0.586,0,1.062-0.476,1.062-1.062"/>
	<path style="&st1;" d="M28.449,43.166c0.726-0.025,1.337-0.051,2.063-0.084"/>
	<path style="&st1;" d="M30.511,43.081c4.339-0.202,7.811-3.398,8.37-7.705"/>
	<path style="&st1;" d="M38.879,35.375c0.805-6.212,0.805-11.555,0-17.768"/>
	<path style="&st1;" d="M38.879,17.608c-0.44-3.392-2.581-6.048-5.802-7.198"/>
	<path style="&st1;" d="M12.186,7.583c-0.587,0-1.063,0.476-1.063,1.063"/>
	<path style="&st1;" d="M33.078,8.645c0-0.587-0.476-1.063-1.062-1.063"/>
	<path style="&st1;" d="M28.449,43.166c-0.38,0.014-0.68,0.324-0.68,0.705"/>
	<path style="&st1;" d="M23.517,43.984c0-0.391-0.317-0.708-0.708-0.708"/>
	<path style="&st1;" d="M22.809,43.276c-0.001,0-0.002,0-0.003,0"/>
	<path style="&st1;" d="M21.395,43.276c-0.391-0.001-0.709,0.314-0.711,0.706"/>
	<path style="&st1;" d="M20.684,43.982c0,0,0,0.001,0,0.002"/>
	<path style="&st1;" d="M16.435,43.871c0-0.382-0.301-0.694-0.683-0.708"/>
	<path style="&st1;" d="M4.333,20.826c0.368,0,0.671-0.277,0.706-0.644"/>
	<path style="&st1;" d="M4.752,25.792c0.005-0.391-0.309-0.712-0.7-0.717"/>
	<path style="&st1;" d="M4.052,25.075c-0.003,0-0.005,0-0.008,0"/>
	<path style="&st1;" d="M4.044,27.908c0.391,0,0.708-0.317,0.708-0.708"/>
	<path style="&st1;" d="M4.752,27.2c0-0.003,0-0.005,0-0.008"/>
	<path style="&st1;" d="M5.038,32.801c-0.034-0.367-0.337-0.644-0.706-0.644"/>
	<path style="&st0;" d="M40.987,35.647c0.829-6.402,0.829-11.909,0-18.312"/>
	<path style="&st0;" d="M34.933,44.092c3.417-1.675,5.564-4.671,6.053-8.445"/>
	<path style="&st0;" d="M4.594,39.727c1.141,1.977,2.625,3.362,4.673,4.367"/>
	<path style="&st0;" d="M40.987,17.336c-0.196-1.511-0.618-2.759-1.38-4.079"/>
	<path style="&st1;" d="M17.143,4.041c-0.782,0-1.417,0.634-1.417,1.417"/>
	<path style="&st1;" d="M28.475,5.458c0-0.782-0.634-1.417-1.417-1.417"/>
	<path style="&st1;" d="M15.727,2.625c-1.173,0-2.125,0.952-2.125,2.125"/>
	<path style="&st1;" d="M30.599,4.75c0-1.173-0.951-2.125-2.125-2.125"/>
	<path style="&st0;" d="M34.933,44.092c-0.499,0.244-0.793,0.716-0.793,1.272"/>
	<path style="&st0;" d="M10.061,45.364c0-0.556-0.295-1.028-0.793-1.272"/>
	<path style="&st0;" d="M2.778,16.407C1.213,19.116,0.5,21.776,0.5,24.905"/>
	<path style="&st0;" d="M0.5,28.078c0,3.129,0.712,5.789,2.277,8.499"/>
	<path style="&st0;" d="M14.412,0.5c-1.564,0-2.897,0.77-3.68,2.125"/>
	<path style="&st0;" d="M33.469,2.625C32.687,1.27,31.354,0.5,29.789,0.5"/>
	<path style="&st0;" d="M10.061,50.88c0,0.782,0.634,1.417,1.416,1.417"/>
	<path style="&st0;" d="M32.724,52.296c0.782,0,1.417-0.634,1.417-1.417"/>
	<path style="&st1;" d="M15.019,7.583c0.391,0,0.708-0.317,0.708-0.708"/>
	<path style="&st1;" d="M28.475,6.874c0,0.392,0.317,0.708,0.708,0.708"/>
	<path style="&st1;" d="M29.891,7.583c0.392,0,0.708-0.317,0.708-0.708"/>
	<path style="&st1;" d="M13.602,6.874c0,0.392,0.317,0.708,0.708,0.708"/>
	<path style="&st1;" d="M15.727,5.458v6.728h-2.125V4.75"/>
	<path style="&st1;" d="M30.599,4.75v7.436h-2.125V5.458"/>
	<path style="&st1;" d="M24.579,49.109v-2.125h-4.958v2.125"/>
	<path style="&st1;" d="M23.871,49.109v1.417H20.33v-1.417"/>
	<path style="&st1;" d="M27.766,52.296v-3.187H16.435v3.187"/>
	<g ewd:pinNo="2">
		<text transform="matrix(1 0 0 1 27.6362 22.1084)"><tspan x="0" y="0" style="&st3; &st2;">2</tspan></text>
	</g>
	<g ewd:pinNo="1">
		<text transform="matrix(1 0 0 1 13.0283 22.1084)"><tspan x="0" y="0" style="&st3; &st2;">1</tspan></text>
	</g>
	<g ewd:pinNo="3">
		<text transform="matrix(1 0 0 1 13.0283 34.4111)"><tspan x="0" y="0" style="&st3; &st2;">3</tspan></text>
	</g>
	<g ewd:pinNo="4">
		<text transform="matrix(1 0 0 1 27.6362 34.4111)"><tspan x="0" y="0" style="&st3; &st2;">4</tspan></text>
	</g>
</g>
</svg>