﻿<?xml version="1.0"?>
<!-- Generator: Adobe Illustrator 10.0, SVG Export Plug-In . SVG Version: 3.0.0 Build 77)  -->
<!DOCTYPE svg PUBLIC "-//W3C//DTD SVG 1.0//EN" "http://www.w3.org/TR/2001/REC-SVG-20010904/DTD/svg10.dtd"[
	<!ENTITY ns_flows "http://ns.adobe.com/Flows/1.0/">
	<!ENTITY ns_svg "http://www.w3.org/2000/svg">
	<!ENTITY ns_xlink "http://www.w3.org/1999/xlink">
	<!ENTITY st0 "fill:none;stroke:#000000;stroke-linecap:round;stroke-linejoin:round;">
	<!ENTITY st1 "fill:none;stroke:#000000;stroke-width:0.6;stroke-linecap:round;stroke-linejoin:round;">
	<!ENTITY st2 "font-size:6px;">
	<!ENTITY st3 "font-family:'Arial';">
	<!ATTLIST svg
		ewd:ver CDATA #IMPLIED
		xmlns:ewd CDATA #FIXED "http://shcl.co.jp/ewd"
		xmlns:a CDATA #FIXED "http://ns.adobe.com/AdobeSVGViewerExtensions/3.0/">
	<!ATTLIST g
		ewd:pinNo CDATA #IMPLIED>
]>
<svg width="240.376" height="156.524" viewBox="0 0 240.376 156.524" style="overflow:visible;enable-background:new 0 0 240.376 156.524" xml:space="preserve" onload="call_execInitLoadProc_svg('connector')" ewd:ver="L2.1.2.9" xmlns="&ns_svg;" xmlns:ewd="http://shcl.co.jp/ewd" xmlns:a="http://ns.adobe.com/AdobeSVGViewerExtensions/3.0/" xmlns:xlink="&ns_xlink;">
<script type="text/javascript" xlink:href="../../../../../system/js/ewd/fig/svgfig.js"/>
<g id="レイヤー_1">
	<path style="&st1;" d="M72.738,123.446c0,4.618,1.971,8.561,5.666,11.332"/>
	<path style="&st1;" d="M78.404,25.996c-3.695,2.771-5.666,6.714-5.666,11.332"/>
	<path style="&st1;" d="M215.797,131.945c4.693,0,8.499-3.805,8.499-8.499"/>
	<path style="&st1;" d="M78.404,123.446c0,4.694,3.805,8.499,8.499,8.499"/>
	<path style="&st1;" d="M224.296,37.327c0-4.693-3.805-8.499-8.499-8.499"/>
	<path style="&st1;" d="M86.902,28.829c-4.694,0-8.499,3.805-8.499,8.499"/>
	<path style="&st1;" d="M215.797,137.611c7.823,0,14.164-6.342,14.164-14.165"/>
	<path style="&st1;" d="M229.961,37.327c0-7.822-6.341-14.164-14.164-14.164"/>
	<path style="&st0;" d="M33.078,0.5c-4.693,0-8.499,3.805-8.499,8.499"/>
	<path style="&st0;" d="M24.579,147.525c0,4.694,3.805,8.499,8.499,8.499"/>
	<path style="&st0;" d="M33.078,0.5H186.76v7.083"/>
	<path style="&st1;" d="M120.896,106.449H82.653"/>
	<path style="&st1;" d="M120.896,86.619v39.66H82.653v-39.66H120.896"/>
	<path style="&st1;" d="M108.148,126.279v-39.66"/>
	<path style="&st1;" d="M95.401,126.279v-39.66"/>
	<path style="&st1;" d="M120.896,54.325H82.653"/>
	<path style="&st0;" d="M235.627,16.081h-1.982"/>
	<path style="&st1;" d="M120.896,34.495v39.66H82.653v-39.66H120.896"/>
	<path style="&st1;" d="M72.738,37.327v86.119"/>
	<path style="&st1;" d="M68.489,129.112v5.666"/>
	<path style="&st1;" d="M233.645,16.081h-39.661"/>
	<path style="&st1;" d="M135.061,123.446V89.452"/>
	<path style="&st1;" d="M146.392,123.446V89.452"/>
	<path style="&st1;" d="M157.724,123.446V89.452"/>
	<path style="&st1;" d="M169.055,123.446V89.452"/>
	<path style="&st1;" d="M180.387,123.446V89.452"/>
	<path style="&st1;" d="M191.718,123.446V89.452"/>
	<path style="&st1;" d="M203.049,123.446V89.452"/>
	<path style="&st1;" d="M214.381,37.327v33.995h-90.651V37.327H214.381"/>
	<path style="&st1;" d="M214.381,48.659h-90.651"/>
	<path style="&st1;" d="M214.381,59.99h-90.651"/>
	<path style="&st1;" d="M203.049,71.322V37.327"/>
	<path style="&st1;" d="M191.718,71.322V37.327"/>
	<path style="&st1;" d="M180.387,71.322V37.327"/>
	<path style="&st1;" d="M169.055,71.322V37.327"/>
	<path style="&st1;" d="M157.724,71.322V37.327"/>
	<path style="&st1;" d="M146.392,71.322V37.327"/>
	<path style="&st1;" d="M135.061,71.322V37.327"/>
	<path style="&st1;" d="M214.381,89.452v33.994h-90.651V89.452H214.381"/>
	<path style="&st1;" d="M214.381,112.115h-90.651"/>
	<path style="&st1;" d="M229.961,123.446V37.327"/>
	<path style="&st1;" d="M214.381,100.783h-90.651"/>
	<path style="&st1;" d="M224.296,37.327v37.394h-4.25v11.332h4.25v37.394"/>
	<path style="&st1;" d="M218.63,73.305v14.164h-94.901V73.305H218.63"/>
	<path style="&st1;" d="M68.489,18.914v7.082"/>
	<path style="&st1;" d="M78.404,134.778v7.082"/>
	<path style="&st1;" d="M108.148,74.155v-39.66"/>
	<path style="&st1;" d="M95.401,74.155v-39.66"/>
	<path style="&st1;" d="M52.908,53.899v5.666h-5.666v-5.666H52.908"/>
	<path style="&st1;" d="M146.392,23.163V10.416h-12.748v12.748"/>
	<path style="&st1;" d="M206.732,16.081v-5.666h-12.748v12.748"/>
	<path style="&st1;" d="M78.404,37.327v86.119"/>
	<path style="&st1;" d="M68.489,23.163H34.494"/>
	<path style="&st1;" d="M52.908,101.208v5.666h-5.666v-5.666H52.908"/>
	<path style="&st1;" d="M146.392,137.611v12.748h-12.748v-12.748"/>
	<path style="&st1;" d="M78.404,10.416h-43.91v15.58h33.995"/>
	<path style="&st1;" d="M215.797,28.829H86.902"/>
	<path style="&st1;" d="M215.797,131.945H86.902"/>
	<path style="&st0;" d="M235.627,153.191H78.404"/>
	<path style="&st1;" d="M78.404,25.996v-7.082"/>
	<path style="&st1;" d="M78.404,18.914h-9.915"/>
	<path style="&st1;" d="M215.797,137.611H78.404"/>
	<path style="&st1;" d="M215.797,23.163H78.404"/>
	<path style="&st1;" d="M78.404,10.416V7.583"/>
	<path style="&st1;" d="M78.404,141.86h-9.915"/>
	<path style="&st1;" d="M206.732,144.693v5.666h-12.748v-12.748"/>
	<path style="&st1;" d="M68.489,31.662v97.45"/>
	<path style="&st1;" d="M146.392,16.081h-12.748"/>
	<path style="&st0;" d="M3.333,76.138V37.327"/>
	<path style="&st1;" d="M31.662,76.138V37.327"/>
	<path style="&st1;" d="M31.662,84.636v38.81"/>
	<path style="&st1;" d="M14.664,84.636v38.81"/>
	<path style="&st1;" d="M14.664,76.138V37.327"/>
	<path style="&st0;" d="M235.627,7.583H186.76"/>
	<path style="&st0;" d="M78.404,150.358v2.833"/>
	<path style="&st1;" d="M34.494,25.996h-9.915"/>
	<path style="&st1;" d="M68.489,137.611H34.494"/>
	<path style="&st1;" d="M68.489,37.327H3.333"/>
	<path style="&st0;" d="M3.333,76.138H0.5v8.499h2.833"/>
	<path style="&st1;" d="M68.489,76.138H3.333"/>
	<path style="&st1;" d="M68.489,84.636H3.333"/>
	<path style="&st0;" d="M235.627,146.676l-1.982-1.983"/>
	<path style="&st0;" d="M3.333,84.636v38.81"/>
	<path style="&st0;" d="M8.999,129.112v5.666h15.581"/>
	<path style="&st1;" d="M68.489,123.446H3.333"/>
	<path style="&st1;" d="M233.645,144.693h-39.661"/>
	<path style="&st1;" d="M146.392,144.693h-12.748"/>
	<path style="&st0;" d="M235.627,144.693h-1.982"/>
	<path style="&st0;" d="M235.627,153.191v-6.516"/>
	<path style="&st1;" d="M68.489,25.996v5.666"/>
	<path style="&st0;" d="M235.627,14.098l-1.982,1.983"/>
	<path style="&st0;" d="M235.627,14.098V7.583"/>
	<path style="&st1;" d="M68.489,134.778v7.082"/>
	<path style="&st0;" d="M24.579,25.996V8.999"/>
	<path style="&st0;" d="M78.404,150.358h-8.499"/>
	<path style="&st1;" d="M68.489,129.112H8.999"/>
	<path style="&st1;" d="M149.225,7.583V4.75h11.332v2.833"/>
	<path style="&st0;" d="M24.579,134.778v12.748"/>
	<path style="&st0;" d="M33.078,156.024h36.827v-5.666"/>
	<path style="&st0;" d="M8.999,31.662H0.5v5.666h2.833"/>
	<path style="&st1;" d="M68.489,31.662H8.999"/>
	<path style="&st0;" d="M24.579,25.996H8.999v5.666"/>
	<path style="&st0;" d="M8.999,129.112H0.5v-5.666h2.833"/>
	<path style="&st1;" d="M24.579,134.778h9.915"/>
	<path style="&st1;" d="M69.905,150.358H34.494v-15.581h33.995"/>
	<path style="&st1;" d="M186.76,7.583H78.404"/>
	<path style="&st0;" d="M235.627,110.132h4.249v4.25h-4.249"/>
	<path style="&st0;" d="M235.627,46.393h4.249v4.249h-4.249"/>
	<path style="&st0;" d="M235.627,88.885h4.249v4.25h-4.249"/>
	<path style="&st0;" d="M235.627,67.639h4.249v4.249h-4.249"/>
	<path style="&st0;" d="M235.627,46.393V16.081"/>
	<path style="&st1;" d="M235.627,50.642v-4.249"/>
	<path style="&st0;" d="M235.627,67.639V50.642"/>
	<path style="&st1;" d="M235.627,71.888v-4.249"/>
	<path style="&st0;" d="M235.627,88.885V71.888"/>
	<path style="&st1;" d="M235.627,93.135v-4.25"/>
	<path style="&st0;" d="M235.627,110.132V93.135"/>
	<path style="&st0;" d="M235.627,144.693v-30.312"/>
	<path style="&st1;" d="M235.627,114.381v-4.25"/>
	<g ewd:pinNo="11">
		<text transform="matrix(1 0 0 1 205.4946 45.1328)"><tspan x="0" y="0" style="&st3; &st2;">11</tspan></text>
	</g>
	<g ewd:pinNo="10">
		<text transform="matrix(1 0 0 1 193.9399 45.1328)"><tspan x="0" y="0" style="&st3; &st2;">10</tspan></text>
	</g>
	<g ewd:pinNo="9">
		<text transform="matrix(1 0 0 1 184.6768 45.1328)"><tspan x="0" y="0" style="&st3; &st2;">9</tspan></text>
	</g>
	<g ewd:pinNo="8">
		<text transform="matrix(1 0 0 1 173.3452 45.1328)"><tspan x="0" y="0" style="&st3; &st2;">8</tspan></text>
	</g>
	<g ewd:pinNo="7">
		<text transform="matrix(1 0 0 1 162.0137 45.1328)"><tspan x="0" y="0" style="&st3; &st2;">7</tspan></text>
	</g>
	<g ewd:pinNo="6">
		<text transform="matrix(1 0 0 1 150.6821 45.1328)"><tspan x="0" y="0" style="&st3; &st2;">6</tspan></text>
	</g>
	<g ewd:pinNo="5">
		<text transform="matrix(1 0 0 1 139.3506 45.1328)"><tspan x="0" y="0" style="&st3; &st2;">5</tspan></text>
	</g>
	<g ewd:pinNo="4">
		<text transform="matrix(1 0 0 1 128.0195 45.1328)"><tspan x="0" y="0" style="&st3; &st2;">4</tspan></text>
	</g>
	<g ewd:pinNo="3">
		<text transform="matrix(1 0 0 1 113.147 46.5493)"><tspan x="0" y="0" style="&st3; &st2;">3</tspan></text>
	</g>
	<g ewd:pinNo="2">
		<text transform="matrix(1 0 0 1 100.3989 46.5493)"><tspan x="0" y="0" style="&st3; &st2;">2</tspan></text>
	</g>
	<g ewd:pinNo="1">
		<text transform="matrix(1 0 0 1 87.6514 46.5493)"><tspan x="0" y="0" style="&st3; &st2;">1</tspan></text>
	</g>
	<g ewd:pinNo="19">
		<text transform="matrix(1 0 0 1 205.272 56.4644)"><tspan x="0" y="0" style="&st3; &st2;">19</tspan></text>
	</g>
	<g ewd:pinNo="18">
		<text transform="matrix(1 0 0 1 193.9399 56.4644)"><tspan x="0" y="0" style="&st3; &st2;">18</tspan></text>
	</g>
	<g ewd:pinNo="17">
		<text transform="matrix(1 0 0 1 182.6084 56.4644)"><tspan x="0" y="0" style="&st3; &st2;">17</tspan></text>
	</g>
	<g ewd:pinNo="16">
		<text transform="matrix(1 0 0 1 171.2769 56.4644)"><tspan x="0" y="0" style="&st3; &st2;">16</tspan></text>
	</g>
	<g ewd:pinNo="15">
		<text transform="matrix(1 0 0 1 159.9458 56.4644)"><tspan x="0" y="0" style="&st3; &st2;">15</tspan></text>
	</g>
	<g ewd:pinNo="14">
		<text transform="matrix(1 0 0 1 148.6143 56.4644)"><tspan x="0" y="0" style="&st3; &st2;">14</tspan></text>
	</g>
	<g ewd:pinNo="13">
		<text transform="matrix(1 0 0 1 137.2827 56.4644)"><tspan x="0" y="0" style="&st3; &st2;">13</tspan></text>
	</g>
	<g ewd:pinNo="12">
		<text transform="matrix(1 0 0 1 125.9512 56.4644)"><tspan x="0" y="0" style="&st3; &st2;">12</tspan></text>
	</g>
	<g ewd:pinNo="22">
		<text transform="matrix(1 0 0 1 111.2422 66.3794)"><tspan x="0" y="0" style="&st3; &st2;">22</tspan></text>
	</g>
	<g ewd:pinNo="21">
		<text transform="matrix(1 0 0 1 98.4946 66.3794)"><tspan x="0" y="0" style="&st3; &st2;">21</tspan></text>
	</g>
	<g ewd:pinNo="20">
		<text transform="matrix(1 0 0 1 85.7466 66.3794)"><tspan x="0" y="0" style="&st3; &st2;">20</tspan></text>
	</g>
	<g ewd:pinNo="30">
		<text transform="matrix(1 0 0 1 205.4355 67.7954)"><tspan x="0" y="0" style="&st3; &st2;">30</tspan></text>
	</g>
	<g ewd:pinNo="29">
		<text transform="matrix(1 0 0 1 194.1035 67.7954)"><tspan x="0" y="0" style="&st3; &st2;">29</tspan></text>
	</g>
	<g ewd:pinNo="28">
		<text transform="matrix(1 0 0 1 182.772 67.7954)"><tspan x="0" y="0" style="&st3; &st2;">28</tspan></text>
	</g>
	<g ewd:pinNo="27">
		<text transform="matrix(1 0 0 1 171.4404 67.7954)"><tspan x="0" y="0" style="&st3; &st2;">27</tspan></text>
	</g>
	<g ewd:pinNo="26">
		<text transform="matrix(1 0 0 1 160.1094 67.7954)"><tspan x="0" y="0" style="&st3; &st2;">26</tspan></text>
	</g>
	<g ewd:pinNo="25">
		<text transform="matrix(1 0 0 1 148.7778 67.7954)"><tspan x="0" y="0" style="&st3; &st2;">25</tspan></text>
	</g>
	<g ewd:pinNo="24">
		<text transform="matrix(1 0 0 1 137.4463 67.7954)"><tspan x="0" y="0" style="&st3; &st2;">24</tspan></text>
	</g>
	<g ewd:pinNo="23">
		<text transform="matrix(1 0 0 1 126.1147 67.7954)"><tspan x="0" y="0" style="&st3; &st2;">23</tspan></text>
	</g>
	<g ewd:pinNo="41">
		<text transform="matrix(1 0 0 1 205.4355 97.2573)"><tspan x="0" y="0" style="&st3; &st2;">41</tspan></text>
	</g>
	<g ewd:pinNo="40">
		<text transform="matrix(1 0 0 1 194.1035 97.2573)"><tspan x="0" y="0" style="&st3; &st2;">40</tspan></text>
	</g>
	<g ewd:pinNo="39">
		<text transform="matrix(1 0 0 1 182.772 97.2573)"><tspan x="0" y="0" style="&st3; &st2;">39</tspan></text>
	</g>
	<g ewd:pinNo="38">
		<text transform="matrix(1 0 0 1 171.4404 97.2573)"><tspan x="0" y="0" style="&st3; &st2;">38</tspan></text>
	</g>
	<g ewd:pinNo="37">
		<text transform="matrix(1 0 0 1 160.1094 97.2573)"><tspan x="0" y="0" style="&st3; &st2;">37</tspan></text>
	</g>
	<g ewd:pinNo="36">
		<text transform="matrix(1 0 0 1 148.7778 97.2573)"><tspan x="0" y="0" style="&st3; &st2;">36</tspan></text>
	</g>
	<g ewd:pinNo="35">
		<text transform="matrix(1 0 0 1 137.4463 97.2573)"><tspan x="0" y="0" style="&st3; &st2;">35</tspan></text>
	</g>
	<g ewd:pinNo="34">
		<text transform="matrix(1 0 0 1 126.1147 97.2573)"><tspan x="0" y="0" style="&st3; &st2;">34</tspan></text>
	</g>
	<g ewd:pinNo="33">
		<text transform="matrix(1 0 0 1 111.2422 98.6738)"><tspan x="0" y="0" style="&st3; &st2;">33</tspan></text>
	</g>
	<g ewd:pinNo="32">
		<text transform="matrix(1 0 0 1 98.4946 98.6738)"><tspan x="0" y="0" style="&st3; &st2;">32</tspan></text>
	</g>
	<g ewd:pinNo="31">
		<text transform="matrix(1 0 0 1 85.7466 98.6738)"><tspan x="0" y="0" style="&st3; &st2;">31</tspan></text>
	</g>
	<g ewd:pinNo="49">
		<text transform="matrix(1 0 0 1 205.4355 108.5889)"><tspan x="0" y="0" style="&st3; &st2;">49</tspan></text>
	</g>
	<g ewd:pinNo="48">
		<text transform="matrix(1 0 0 1 194.1035 108.5889)"><tspan x="0" y="0" style="&st3; &st2;">48</tspan></text>
	</g>
	<g ewd:pinNo="47">
		<text transform="matrix(1 0 0 1 182.772 108.5889)"><tspan x="0" y="0" style="&st3; &st2;">47</tspan></text>
	</g>
	<g ewd:pinNo="46">
		<text transform="matrix(1 0 0 1 171.4404 108.5889)"><tspan x="0" y="0" style="&st3; &st2;">46</tspan></text>
	</g>
	<g ewd:pinNo="45">
		<text transform="matrix(1 0 0 1 160.1094 108.5889)"><tspan x="0" y="0" style="&st3; &st2;">45</tspan></text>
	</g>
	<g ewd:pinNo="44">
		<text transform="matrix(1 0 0 1 148.7778 108.5889)"><tspan x="0" y="0" style="&st3; &st2;">44</tspan></text>
	</g>
	<g ewd:pinNo="43">
		<text transform="matrix(1 0 0 1 137.4463 108.5889)"><tspan x="0" y="0" style="&st3; &st2;">43</tspan></text>
	</g>
	<g ewd:pinNo="42">
		<text transform="matrix(1 0 0 1 126.1147 108.5889)"><tspan x="0" y="0" style="&st3; &st2;">42</tspan></text>
	</g>
	<g ewd:pinNo="52">
		<text transform="matrix(1 0 0 1 111.2422 118.5039)"><tspan x="0" y="0" style="&st3; &st2;">52</tspan></text>
	</g>
	<g ewd:pinNo="51">
		<text transform="matrix(1 0 0 1 98.4946 118.5039)"><tspan x="0" y="0" style="&st3; &st2;">51</tspan></text>
	</g>
	<g ewd:pinNo="50">
		<text transform="matrix(1 0 0 1 85.7466 118.5039)"><tspan x="0" y="0" style="&st3; &st2;">50</tspan></text>
	</g>
	<g ewd:pinNo="60">
		<text transform="matrix(1 0 0 1 205.4355 119.9204)"><tspan x="0" y="0" style="&st3; &st2;">60</tspan></text>
	</g>
	<g ewd:pinNo="59">
		<text transform="matrix(1 0 0 1 194.1035 119.9204)"><tspan x="0" y="0" style="&st3; &st2;">59</tspan></text>
	</g>
	<g ewd:pinNo="58">
		<text transform="matrix(1 0 0 1 182.772 119.9204)"><tspan x="0" y="0" style="&st3; &st2;">58</tspan></text>
	</g>
	<g ewd:pinNo="57">
		<text transform="matrix(1 0 0 1 171.4404 119.9204)"><tspan x="0" y="0" style="&st3; &st2;">57</tspan></text>
	</g>
	<g ewd:pinNo="56">
		<text transform="matrix(1 0 0 1 160.1094 119.9204)"><tspan x="0" y="0" style="&st3; &st2;">56</tspan></text>
	</g>
	<g ewd:pinNo="55">
		<text transform="matrix(1 0 0 1 148.7778 119.9204)"><tspan x="0" y="0" style="&st3; &st2;">55</tspan></text>
	</g>
	<g ewd:pinNo="54">
		<text transform="matrix(1 0 0 1 137.4463 119.9204)"><tspan x="0" y="0" style="&st3; &st2;">54</tspan></text>
	</g>
	<g ewd:pinNo="53">
		<text transform="matrix(1 0 0 1 126.1147 119.9204)"><tspan x="0" y="0" style="&st3; &st2;">53</tspan></text>
	</g>
</g>
</svg>