﻿<?xml version="1.0"?>
<!-- Generator: Adobe Illustrator 10.0, SVG Export Plug-In . SVG Version: 3.0.0 Build 77)  -->
<!DOCTYPE svg PUBLIC "-//W3C//DTD SVG 1.0//EN" "http://www.w3.org/TR/2001/REC-SVG-20010904/DTD/svg10.dtd"[
	<!ENTITY ns_flows "http://ns.adobe.com/Flows/1.0/">
	<!ENTITY ns_svg "http://www.w3.org/2000/svg">
	<!ENTITY ns_xlink "http://www.w3.org/1999/xlink">
	<!ENTITY st0 "fill:none;stroke:#000000;stroke-linecap:round;stroke-linejoin:round;">
	<!ENTITY st1 "fill:none;stroke:#000000;stroke-width:0.6;stroke-linecap:round;stroke-linejoin:round;">
	<!ENTITY st2 "font-size:6px;">
	<!ENTITY st3 "font-family:'Arial';">
	<!ATTLIST svg
		ewd:ver CDATA #IMPLIED
		xmlns:ewd CDATA #FIXED "http://shcl.co.jp/ewd"
		xmlns:a CDATA #FIXED "http://ns.adobe.com/AdobeSVGViewerExtensions/3.0/">
	<!ATTLIST g
		ewd:pinNo CDATA #IMPLIED>
]>
<svg width="55.769" height="42.267" viewBox="0 0 55.769 42.267" style="overflow:visible;enable-background:new 0 0 55.769 42.267" xml:space="preserve" onload="call_execInitLoadProc_svg('connector')" ewd:ver="L2.1.2.9" xmlns="&ns_svg;" xmlns:ewd="http://shcl.co.jp/ewd" xmlns:a="http://ns.adobe.com/AdobeSVGViewerExtensions/3.0/" xmlns:xlink="&ns_xlink;">
<script type="text/javascript" xlink:href="../../../../../system/js/ewd/fig/svgfig.js"/>
<g id="レイヤー_1">
	<path style="&st0;" d="M0.5,19.135v13.533"/>
	<path style="&st0;" d="M55.268,19.135v13.533"/>
	<path style="&st0;" d="M19.387,0.5h16.997"/>
	<path style="&st0;" d="M15.896,41.767h23.975"/>
	<path style="&st1;" d="M40.727,4.276v8.938"/>
	<path style="&st1;" d="M15.041,4.276v8.938"/>
	<path style="&st0;" d="M43.56,4.276v9.105"/>
	<path style="&st0;" d="M12.208,4.276v9.105"/>
	<path style="&st1;" d="M0.5,24.296h3.414"/>
	<path style="&st1;" d="M0.5,27.506h3.414"/>
	<path style="&st1;" d="M51.854,24.296h3.414"/>
	<path style="&st1;" d="M51.854,27.506h3.414"/>
	<path style="&st0;" d="M1.803,16.968l3.796-2.017"/>
	<path style="&st0;" d="M48.783,14.211l5.184,2.756"/>
	<path style="&st0;" d="M41.865,41.268l12.102-6.434"/>
	<path style="&st1;" d="M31.188,33.738v2.34"/>
	<path style="&st1;" d="M24.106,3.333v6.705"/>
	<path style="&st1;" d="M31.662,3.333v6.705"/>
	<path style="&st1;" d="M24.106,7.583h7.556"/>
	<path style="&st1;" d="M31.662,8.291h5.666"/>
	<path style="&st0;" d="M5.599,14.951v0.326"/>
	<path style="&st1;" d="M37.327,6.166H18.44"/>
	<path style="&st1;" d="M24.106,8.291H18.44"/>
	<path style="&st1;" d="M48.616,33.738H7.152"/>
	<path style="&st1;" d="M24.579,36.078v-2.34"/>
	<path style="&st1;" d="M26.939,33.738V15.704"/>
	<path style="&st1;" d="M28.829,33.738V15.704"/>
	<path style="&st0;" d="M6.321,41.767h1.125"/>
	<path style="&st1;" d="M5.472,36.786l2.824,1.501"/>
	<path style="&st1;" d="M7.021,18.685c-0.405,5.063-0.405,9.369,0,14.433"/>
	<path style="&st1;" d="M48.746,33.118c0.406-5.064,0.406-9.37,0-14.433"/>
	<path style="&st1;" d="M46.494,16.435c-13.059-1.027-24.159-1.027-37.218,0"/>
	<path style="&st1;" d="M9.276,35.37c13.059,1.027,24.16,1.027,37.218,0"/>
	<path style="&st1;" d="M9.276,16.435c-1.214,0.096-2.156,1.035-2.254,2.25"/>
	<path style="&st1;" d="M7.021,33.118c0.097,1.216,1.04,2.157,2.255,2.252"/>
	<path style="&st1;" d="M48.746,18.685c-0.098-1.213-1.039-2.152-2.252-2.247"/>
	<path style="&st1;" d="M46.494,35.37c1.216-0.096,2.158-1.037,2.255-2.252"/>
	<path style="&st1;" d="M51.571,33.344c0.418-5.222,0.418-9.662,0-14.884"/>
	<path style="&st1;" d="M51.571,18.46c-0.149-1.857-1.144-3.372-2.789-4.246"/>
	<path style="&st0;" d="M46.715,13.611c-1.109-0.087-2.046-0.155-3.156-0.228"/>
	<path style="&st0;" d="M9.052,13.611c-0.22,0.017-0.404,0.043-0.62,0.086"/>
	<path style="&st1;" d="M4.197,18.458c-0.418,5.223-0.418,9.664,0,14.887"/>
	<path style="&st1;" d="M4.197,33.344c0.209,2.618,2.238,4.644,4.855,4.851"/>
	<path style="&st1;" d="M9.052,38.194c13.215,1.039,24.448,1.039,37.663,0"/>
	<path style="&st1;" d="M46.715,38.194c2.618-0.206,4.648-2.232,4.857-4.85"/>
	<path style="&st0;" d="M19.387,0.5c-0.521,0-0.943,0.423-0.943,0.943"/>
	<path style="&st0;" d="M37.327,1.443c0-0.521-0.422-0.943-0.943-0.943"/>
	<path style="&st0;" d="M13.154,3.333c-0.521,0-0.943,0.422-0.943,0.943"/>
	<path style="&st0;" d="M43.56,4.276c0-0.521-0.422-0.943-0.943-0.943"/>
	<path style="&st1;" d="M41.67,3.333c-0.521,0-0.943,0.422-0.943,0.943"/>
	<path style="&st1;" d="M15.041,4.276c0-0.521-0.422-0.943-0.943-0.943"/>
	<path style="&st0;" d="M1.803,16.968c-0.825,0.438-1.302,1.233-1.302,2.167"/>
	<path style="&st0;" d="M0.5,32.667c0,0.934,0.478,1.729,1.303,2.168"/>
	<path style="&st0;" d="M55.268,19.135c0-0.933-0.477-1.728-1.301-2.166"/>
	<path style="&st0;" d="M53.967,34.834c0.824-0.438,1.302-1.233,1.302-2.167"/>
	<path style="&st0;" d="M12.208,13.381c-1.11,0.072-2.047,0.14-3.156,0.227"/>
	<path style="&st1;" d="M43.56,13.381c-11.007-0.72-20.344-0.72-31.352,0"/>
	<path style="&st0;" d="M8.432,13.696c-1.137,0.227-2.042,0.732-2.833,1.581"/>
	<path style="&st0;" d="M48.783,14.211c-0.673-0.358-1.308-0.542-2.068-0.602"/>
	<path style="&st0;" d="M13.902,41.268c0.644,0.342,1.264,0.497,1.994,0.497"/>
	<path style="&st0;" d="M39.871,41.767c0.73,0,1.35-0.155,1.995-0.498"/>
	<path style="&st0;" d="M7.446,41.767c0.47,0,0.85-0.381,0.85-0.85"/>
	<path style="&st0;" d="M5.472,40.917c0,0.469,0.38,0.85,0.85,0.85"/>
	<path style="&st1;" d="M5.599,15.276c-0.85,0.912-1.304,1.941-1.403,3.184"/>
	<path style="&st0;" d="M5.472,40.917v-4.13l-3.668-1.952"/>
	<path style="&st0;" d="M8.296,40.917v-2.629l5.606,2.98"/>
	<path style="&st0;" d="M13.154,3.333h5.286v-1.89"/>
	<path style="&st0;" d="M42.616,3.333h-5.289v-1.89"/>
	<path style="&st1;" d="M18.44,10.038V3.333h18.887v6.705"/>
	<g ewd:pinNo="1">
		<text transform="matrix(1 0 0 1 15.0718 27.0996)"><tspan x="0" y="0" style="&st3; &st2;">1</tspan></text>
	</g>
	<g ewd:pinNo="2">
		<text transform="matrix(1 0 0 1 36.7461 27.0996)"><tspan x="0" y="0" style="&st3; &st2;">2</tspan></text>
	</g>
</g>
</svg>